<svg viewBox="0 0 365.56622 478.84738">
   <g id="layer1" transform="translate(-75.011339,-12.647994)">
     <path
       d="m 257.44648,230.65231 -146.09405,-0.36452 146.45201,-217.639796 0.3645,144.251196 146.06754,0.36452 -146.25334,217.25065 z"
       id="path1"
       sodipodi:nodetypes="ccccccc" /><path
       d="m 355.13081,491.33393 c -3.55524,-0.49818 -7.68391,-2.09294 -10.96191,-4.23421 -1.7427,-1.13837 -4.94809,-4.34895 -6.09641,-6.10628 -3.06947,-4.69734 -4.12333,-8.67188 -3.92046,-14.78576 0.16813,-5.06704 1.15985,-8.41666 3.59813,-12.15298 3.64354,-5.58322 9.41358,-9.36814 16.28854,-10.68465 2.6266,-0.50298 8.24823,-0.49506 10.90562,0.0154 10.30114,1.97858 17.49676,8.98025 19.65917,19.12928 0.17972,0.84346 0.29521,2.91497 0.28009,5.02364 -0.0295,4.11356 -0.5834,6.78818 -2.07385,10.01405 -2.43413,5.26836 -6.98581,9.64986 -12.3784,11.91558 -3.23554,1.35943 -5.93171,1.89597 -10.02693,1.99537 -2.03936,0.0495 -4.41248,-0.009 -5.27359,-0.1294 z m 8.92243,-8.02003 c 7.90228,-2.03361 12.94428,-9.74964 11.89657,-18.20589 -0.49426,-3.98922 -1.88074,-6.93744 -4.54124,-9.6565 -2.95896,-3.0241 -6.45838,-4.52523 -11.00417,-4.7204 -4.55135,-0.19542 -7.95726,0.80541 -11.37658,3.343 -2.65512,1.97045 -5.0088,5.78982 -5.768,9.35985 -0.51707,2.43148 -0.31675,7.13429 0.39392,9.24762 1.97425,5.87086 6.91149,10.02958 13.05128,10.9933 1.88359,0.29566 5.4839,0.11879 7.34822,-0.36098 z m 51.49162,8.04436 c -2.44786,-0.39699 -4.36809,-1.00512 -6.57858,-2.0834 -1.93608,-0.94442 -2.59275,-1.43146 -4.43455,-3.28904 -2.45689,-2.47793 -3.7751,-4.79161 -4.64967,-8.16099 -0.83707,-3.22485 -0.95463,-5.71043 -0.95892,-20.27398 l -0.004,-14.05424 h 4.41402 4.41402 l 0.0857,15.13073 c 0.0753,13.29194 0.13502,15.31458 0.49135,16.64351 0.91894,3.4272 2.6593,5.86058 5.11259,7.14847 1.9579,1.02784 3.63677,1.38092 6.53374,1.37413 5.75349,-0.0135 9.23683,-2.39263 10.98121,-7.5002 l 0.62073,-1.81751 0.0698,-15.48957 0.0698,-15.48956 h 4.43274 4.43273 l -0.0992,15.48956 c -0.0937,14.64376 -0.12614,15.6006 -0.59299,17.52295 -1.93802,7.98007 -6.40354,12.61132 -13.96514,14.48342 -1.74548,0.43215 -8.49802,0.67017 -10.37525,0.36572 z M 75.072279,467.2393 l 0.061,-23.62308 17.28374,-0.0614 17.283711,-0.0614 v 3.70743 3.70742 l -12.858131,0.0619 -12.85814,0.0619 v 6.10014 6.10014 l 11.42281,0.0621 11.422811,0.0621 v 3.586 3.58599 H 95.347469 83.864859 v 6.45897 6.45897 h 13.39638 13.396371 v 3.70793 3.70792 H 92.834489 75.011339 Z m 50.417011,-0.0598 v -23.68289 l 3.64812,0.0105 3.64812,0.0105 2.63143,3.26709 c 2.43346,3.0213 4.80332,5.93264 18.30043,22.48187 l 4.90403,6.01299 0.11961,-15.83169 0.11961,-15.83168 4.36578,-0.0652 4.36579,-0.0652 v 23.68828 23.68828 h -3.65771 -3.6577 l -3.84645,-4.72461 c -2.11554,-2.59854 -6.47666,-7.9541 -9.69136,-11.90125 -3.21469,-3.94715 -7.31947,-8.98738 -9.12171,-11.20051 l -3.27681,-4.02389 v 15.92513 15.92513 h -4.42559 -4.42559 z m 59.86392,0.0598 0.061,-23.62308 17.28372,-0.0614 17.28372,-0.0614 v 3.7095 3.7095 h -12.91796 -12.91794 v 6.21975 6.21975 h 11.48261 11.48261 v 3.58832 3.58831 h -11.48261 -11.48261 v 6.45897 6.45897 h 13.39638 13.39638 v 3.70793 3.70792 h -17.82314 -17.82313 z m 50.41701,-0.0598 v -23.68289 h 10.29593 c 5.72617,0 11.32697,0.1139 12.61891,0.25662 8.69832,0.9609 14.44253,5.26958 16.24186,12.18288 0.55012,2.11363 0.54932,6.74271 -0.002,8.85118 -1.09292,4.18332 -3.88459,7.72641 -7.64786,9.70639 l -1.85282,0.97483 4.33675,6.20181 c 2.38521,3.41099 4.81477,6.87461 5.39902,7.69693 l 1.06227,1.49513 h -4.76713 -4.76714 l -4.80524,-6.8776 -4.80523,-6.87761 -6.22831,0.0676 -6.2283,0.0675 v 6.81005 6.81005 h -4.42559 -4.42559 z m 24.30323,2.06012 c 4.27906,-1.4033 6.41291,-4.41008 6.38055,-8.99077 -0.0325,-4.5979 -2.37575,-7.47737 -7.12051,-8.74988 -1.08085,-0.28987 -3.07475,-0.41825 -8.07371,-0.51985 l -6.63838,-0.13491 v 9.50463 9.50462 l 7.11682,-0.10714 c 5.7902,-0.0872 7.34395,-0.18162 8.33523,-0.5067 z m 41.24334,13.45127 v -8.17149 l -3.19272,-5.2847 c -1.756,-2.90658 -5.9559,-9.85979 -9.33312,-15.45158 l -6.14038,-10.1669 4.59462,-0.0651 c 3.48128,-0.0493 4.66231,0.009 4.87396,0.23922 0.15363,0.16739 3.05843,4.93328 6.45511,10.59086 8.16675,13.60269 7.26418,12.22119 7.63597,11.68777 0.29297,-0.42034 5.72562,-9.36442 10.94969,-18.02713 1.30919,-2.17093 2.51171,-4.08428 2.67228,-4.25188 0.21974,-0.22937 1.33444,-0.28853 4.50718,-0.23922 l 4.21523,0.0655 -3.75552,6.21975 c -2.06554,3.42086 -5.38436,8.91098 -7.37515,12.20027 -1.99079,3.28929 -4.49163,7.42916 -5.55741,9.1997 l -1.93778,3.21917 v 8.20364 8.20363 h -4.30598 -4.30598 z"
       id="path1-6" /><path
       d="m 155.46408,426.99471 c -3.21688,-0.78332 -5.97715,-2.87244 -7.33458,-5.55122 -1.39266,-2.74829 -1.52445,-4.07422 -1.52894,-15.38285 l -0.005,-10.48639 h 1.10797 1.10796 l 0.0993,10.7679 c 0.0943,10.20934 0.13159,10.86436 0.72043,12.62688 0.78623,2.35327 2.35794,4.17923 4.50477,5.23346 1.50222,0.73769 1.84158,0.78997 5.12762,0.78997 3.28123,0 3.62696,-0.0531 5.11837,-0.78545 2.72414,-1.33774 4.41414,-3.87963 4.99923,-7.51921 0.16284,-1.01296 0.29511,-6.1342 0.29629,-11.4717 l 0.002,-9.64185 h 1.12605 1.12607 v 10.37098 c 0,9.35026 -0.0539,10.58161 -0.54732,12.51098 -0.69099,2.70174 -1.16394,3.60873 -2.78601,5.34287 -1.46808,1.56947 -3.68835,2.79982 -5.90012,3.26947 -1.90259,0.40401 -5.42014,0.3681 -7.23513,-0.0738 z m 141.23607,-0.17864 c -5.53033,-1.44886 -9.8263,-5.65634 -11.34731,-11.11356 -0.58189,-2.08775 -0.50055,-7.21409 0.14516,-9.14922 1.24706,-3.73729 3.32813,-6.51689 6.41228,-8.56466 4.29875,-2.85421 10.69203,-3.47659 15.85798,-1.54376 1.58608,0.59343 4.63989,2.67988 4.63989,3.17009 0,0.15756 -0.27176,0.57574 -0.60391,0.92929 l -0.60391,0.64284 -1.01479,-0.79836 c -2.47879,-1.9501 -5.21197,-2.83561 -8.76766,-2.84054 -5.43246,-0.007 -9.68376,2.2885 -12.24302,6.61223 -1.39327,2.35386 -1.88344,4.25399 -1.87954,7.28586 0.0106,7.97924 5.83739,13.69413 13.9523,13.6836 3.77341,-0.005 6.42702,-0.84665 8.93792,-2.83521 l 1.01479,-0.80369 0.60391,0.64283 c 0.77067,0.82034 0.76142,0.91526 -0.17025,1.74668 -3.44154,3.07118 -9.71162,4.30371 -14.93384,2.93558 z m 46.53378,0.24175 c -2.56894,-0.48283 -5.99932,-2.37498 -8.03066,-4.42963 -3.16678,-3.20311 -4.49671,-6.54194 -4.49671,-11.28915 0,-4.7501 1.33326,-8.095 4.49671,-11.28143 3.34709,-3.37139 7.82477,-4.99017 12.93245,-4.67534 4.69245,0.28923 7.60591,1.56319 10.72377,4.68917 3.3846,3.39341 4.66866,6.66247 4.5917,11.68986 -0.0722,4.7221 -1.57371,8.13991 -4.97231,11.31887 -1.98008,1.85213 -4.58237,3.24342 -7.23668,3.86905 -1.99391,0.46997 -5.81018,0.52171 -8.00827,0.10862 z m 8.38761,-2.49024 c 8.14691,-2.51633 11.90252,-11.98812 7.8944,-19.91002 -1.54692,-3.05743 -4.9833,-5.78878 -8.40394,-6.67974 -1.88362,-0.49062 -5.85988,-0.55998 -7.70584,-0.13442 -4.85118,1.11838 -9.13615,5.5828 -10.18021,10.60657 -0.4592,2.20955 -0.19383,5.7286 0.58936,7.81556 1.56009,4.15715 5.03293,7.3335 9.27787,8.48581 2.07724,0.56387 6.41007,0.47051 8.52836,-0.18376 z M 118.16348,411.33904 v -15.76479 h 10.69753 10.69753 v 0.9853 0.9853 h -9.43071 -9.43072 v 6.75633 6.75634 h 8.27386 8.27387 l 0.11603,0.9939 c 0.0638,0.54666 0.0566,1.05337 -0.0161,1.12606 -0.0727,0.0727 -3.84813,0.13216 -8.3899,0.13216 h -8.25774 v 6.89708 6.8971 h -1.26681 -1.26682 z m 64.46671,0 v -15.76479 h 1.06188 c 1.05123,0 1.1131,0.0657 6.17044,6.5452 12.17039,15.59297 15.9298,20.34513 16.16467,20.43322 0.14374,0.0539 0.25019,-5.66579 0.25019,-13.44228 v -13.53614 h 1.12605 1.12606 v 15.76479 15.76478 l -1.05567,-0.0106 c -1.03249,-0.0106 -1.1454,-0.12627 -5.13764,-5.25247 -2.24508,-2.88277 -5.0954,-6.5316 -6.33406,-8.1085 -1.23866,-1.57691 -4.15233,-5.29778 -6.47483,-8.26861 l -4.2227,-5.40152 -0.0731,13.52109 -0.0731,13.52107 h -1.26411 -1.2641 z m 36.87834,0.0218 V 395.5743 h 7.6966 c 6.74323,0 7.96594,0.0688 9.871,0.55612 5.71458,1.46155 9.87902,5.48278 11.29066,10.9024 0.5385,2.06746 0.5385,6.54507 0,8.61254 -1.32623,5.09168 -4.72996,8.63887 -10.27201,10.70491 -1.41428,0.52722 -2.32359,0.58938 -10.07045,0.68833 l -8.5158,0.10873 z m 17.3131,13.10113 c 2.10958,-0.59773 4.34966,-1.91721 5.95221,-3.50605 4.02442,-3.98997 4.93898,-10.68328 2.21929,-16.24212 -0.86537,-1.76874 -3.66054,-4.48258 -5.60443,-5.44134 -2.69036,-1.32693 -3.89787,-1.50915 -10.9421,-1.65125 l -6.68596,-0.13486 v 13.84941 13.84942 l 6.68596,-0.12232 c 5.15178,-0.0943 7.07353,-0.23213 8.37503,-0.60089 z m 14.49798,2.45478 c 0,-0.10297 2.83745,-6.34197 6.30543,-13.86457 3.46799,-7.52258 6.69043,-14.53254 7.16096,-15.57766 l 0.85551,-1.90022 h 1.22355 1.22354 l 7.14473,15.55365 c 3.92961,8.5545 7.19946,15.65609 7.26636,15.7813 0.0668,0.12522 -0.47464,0.18856 -1.2034,0.14076 l -1.32503,-0.0868 -1.90934,-4.22271 -1.90934,-4.2227 -9.25207,-0.0741 -9.25209,-0.0741 -1.95915,4.36718 -1.95914,4.36718 h -1.20526 c -0.6629,0 -1.20526,-0.0843 -1.20526,-0.18713 z m 23.64718,-10.75883 c 0,-0.2532 -7.82758,-17.52599 -8.03741,-17.73582 -0.0633,-0.0633 -0.55469,0.8219 -1.09195,1.96711 -0.92669,1.97529 -6.80387,14.91891 -7.11296,15.66523 -0.11462,0.2768 1.60302,0.3519 8.0483,0.3519 4.54725,0 8.19402,-0.11062 8.19402,-0.24842 z m 45.32375,-4.81883 V 395.5743 h 1.12606 1.12605 v 15.76479 15.76478 h -1.12605 -1.12606 z m 51.23555,0 V 395.5743 l 1.05568,0.0118 c 1.05529,0.0118 1.05951,0.0167 11.61246,13.51862 l 10.55677,13.50681 0.0731,-13.51862 0.0731,-13.51862 h 1.26411 1.26411 v 15.78096 15.78098 l -1.10526,-0.0866 c -1.17659,-0.0922 -1.29911,-0.24043 -20.14904,-24.38296 l -2.25212,-2.88445 -0.0731,13.66079 -0.0731,13.66081 h -1.12338 -1.12338 z m -26.74382,-18.5114 c 0,-0.11709 1.32602,-1.32706 2.94671,-2.6887 l 2.94671,-2.47572 1.57217,0.0847 1.57217,0.0847 -3.49564,2.604 c -2.90709,2.16558 -3.66793,2.60401 -4.51889,2.60401 -0.56278,0 -1.02323,-0.0959 -1.02323,-0.21299 z"
       id="path1-2" /></g></svg>
