<svg viewBox="0 0 50.087452 50" >
<g
   id="g75"
   transform="matrix(0.19011407,0,0,0.19011407,-4.5988594,-8.2680609)">
	<path
   d="m 147.31,306.49 c 0.15,-0.27 0.26,-0.74 0.45,-0.78 1.81,-0.34 1.96,-1.68 1.95,-3.12 -0.01,-3.14 -0.03,-6.28 -0.06,-9.42 -0.03,-2.52 0.53,-5.32 -3.34,-6.07 3.2,-1.07 5.39,-0.53 7.08,1.52 3.49,4.21 6.98,8.41 10.78,12.99 0,-2.04 0.01,-3.64 0,-5.24 -0.01,-2 -0.06,-3.99 -0.05,-5.99 0.01,-1.68 -0.31,-3.09 -2.31,-3.62 1.9,0 3.8,0 5.7,0 -2.4,0.58 -2.37,2.41 -2.32,4.29 0.1,4.28 0.16,8.55 0.23,12.83 0.01,0.72 0,1.43 0,2.15 -0.18,0.1 -0.36,0.2 -0.54,0.3 -4.61,-5.48 -9.22,-10.97 -14.2,-16.9 0,1.88 -0.01,3.26 0,4.64 0.02,2.8 0.04,5.59 0.06,8.39 0.01,1.52 0.21,2.89 2.11,3.18 0.14,0.02 0.19,0.55 0.29,0.85 -1.95,0 -3.89,0 -5.83,0 z"
   id="path3" />
	<path
   d="m 166.17,43.49 c 1.74,0.34 3.48,0.67 5.21,1.01 -2.2,0.57 -1.93,1.96 -1.53,3.54 0.95,3.81 1.81,7.64 2.81,11.94 0.8,-1.43 1.39,-2.47 1.96,-3.53 1.33,-2.46 2.61,-4.94 3.97,-7.38 0.8,-1.43 1.14,-2.67 -0.96,-3.41 0.08,-0.14 0.16,-0.27 0.24,-0.41 1.85,0.24 3.71,0.48 5.56,0.73 -3,1.01 -3.83,3.71 -5.08,6 -2.03,3.7 -4.01,7.43 -6.01,11.15 -0.26,0.47 -0.54,0.93 -1.07,1.82 -0.32,-0.98 -0.52,-1.47 -0.64,-1.98 -1.18,-4.94 -2.42,-9.86 -3.47,-14.82 -0.43,-2.02 -1.46,-3.46 -3.04,-4.63 0.67,-0.03 1.36,-0.03 2.05,-0.03 z"
   id="path5" />
	<path
   d="m 24.21,153.9 c 0.46,-0.82 1.11,-1.6 1.33,-2.48 0.87,-3.43 1.66,-6.88 2.37,-10.34 0.23,-1.14 0.14,-2.36 0.21,-3.68 1.43,0.33 2.84,0.65 3.9,0.89 -0.94,0.87 -2.17,1.61 -2.8,2.69 -0.65,1.12 -0.73,2.58 -1.11,4.05 4.1,0.92 7.98,1.79 11.86,2.66 0.78,0.17 1.57,0.29 2.34,0.5 1.64,0.44 3.24,0.81 4.2,-1.35 0.11,0.1 0.22,0.2 0.33,0.3 -0.49,2.22 -0.98,4.44 -1.47,6.66 -0.54,-3.17 -3.24,-2.81 -5.29,-3.31 -4.09,-1 -8.22,-1.85 -12.32,-2.75 -1.69,3.51 -1.49,5.17 1.19,7.75 -1.85,-0.35 -3.3,-0.63 -4.76,-0.91 0.02,-0.22 0.02,-0.45 0.02,-0.68 z"
   id="path7" />
	<path
   d="m 153.14,43.49 c -0.02,0.17 0,0.47 -0.06,0.49 -2.42,0.6 -2.08,2.5 -1.99,4.25 0.18,3.75 0.41,7.5 0.59,11.26 0.08,1.57 0.23,3.05 2.5,3.09 -0.08,0.19 -0.16,0.37 -0.23,0.56 -2.27,0.11 -4.54,0.22 -6.82,0.33 2.42,-1.23 1.85,-3.3 1.74,-5.22 -0.19,-3.3 -0.36,-6.6 -0.51,-9.89 -0.14,-2.95 -0.12,-2.95 -2.49,-4.32 1.38,-0.2 2.61,-0.37 3.84,-0.55 1.14,0 2.28,0 3.43,0 z"
   id="path9" />
	<path
   d="m 260.89,173.41 c -0.76,13.7 -2.32,27.12 -7.6,39.89 -3.69,8.91 -8.27,17.32 -14.63,24.58 -4.76,5.44 -9.62,10.89 -14.99,15.7 -6.59,5.91 -14.08,10.65 -22.07,14.58 -9.6,4.73 -19.71,7.74 -30.26,9.33 -10.31,1.56 -20.57,0.94 -30.87,-0.36 -14.07,-1.78 -26.86,-6.93 -38.96,-14.08 -4.83,-2.85 -9.19,-6.27 -13.46,-9.92 -5.33,-4.56 -10.04,-9.63 -14.49,-14.99 -7.79,-9.38 -13.21,-19.98 -16.94,-31.58 -4.03,-12.54 -5.27,-25.42 -4.51,-38.39 0.81,-13.69 3.91,-26.97 10.83,-39.08 2.29,-4 4.26,-8.24 6.95,-11.94 3.62,-4.96 7.51,-9.79 11.82,-14.15 4.35,-4.41 9.23,-8.34 14.11,-12.17 7.09,-5.57 15.08,-9.64 23.41,-13.03 8.06,-3.28 16.46,-5.25 25.12,-6.17 15.33,-1.62 30.25,0.3 44.89,4.9 5.9,1.85 11.4,4.54 16.91,7.33 5.02,2.55 9.67,5.62 14.14,8.96 3.46,2.59 6.83,5.39 9.83,8.5 5.23,5.41 10.45,10.89 14.33,17.4 6.79,11.37 12.39,23.28 14.47,36.5 0.95,6.02 1.34,12.13 1.97,18.19 z m -105.71,95.72 c -0.02,0.03 0.12,-0.15 0.2,-0.35 2.61,-6.75 8.01,-10.07 14.72,-11.35 5.58,-1.07 11.27,-1.53 16.9,-2.36 5.4,-0.8 10.84,-1.46 16.17,-2.65 5.84,-1.3 11.58,-3.05 16.15,-7.32 1.72,-1.61 2.79,-3.49 3.04,-5.76 0.31,-2.71 0.52,-5.44 0.54,-8.17 0.04,-6.95 -0.14,-13.91 -0.07,-20.86 0.11,-9.92 0.43,-19.84 0.55,-29.76 0.06,-4.67 -0.21,-9.35 -0.2,-14.02 0.01,-5.13 0.21,-10.27 0.25,-15.4 0.07,-9.64 0.1,-19.27 0.12,-28.91 0.01,-4.97 -0.06,-9.94 -0.04,-14.9 0.01,-1.11 -0.36,-1.53 -1.48,-1.49 -1.76,0.07 -3.53,0.07 -5.3,0.04 -9.63,-0.19 -19.27,-0.46 -28.9,-0.57 -5.14,-0.06 -10.27,0.22 -15.41,0.25 -6.5,0.04 -13.01,-0.03 -19.51,-0.04 -9.41,-0.01 -18.83,0 -28.24,-0.01 -7.24,-0.01 -14.48,-0.04 -21.72,-0.05 -3.36,-0.01 -6.73,0.01 -10.09,0.02 -1.57,0 -3.14,0 -4.79,0 -0.05,0.76 -0.11,1.26 -0.12,1.76 -0.04,8.5 -0.03,17 -0.13,25.5 -0.13,10.9 -0.4,21.8 -0.53,32.7 -0.11,9.81 -0.08,19.62 -0.15,29.43 -0.09,13.36 -0.25,26.71 -0.32,40.07 -0.02,4.23 0.77,8.23 3.59,11.69 2.53,3.11 6,4.44 9.57,5.66 6.11,2.08 12.55,2.28 18.87,3.12 5.14,0.68 10.34,0.99 15.46,1.79 5.27,0.82 10.4,2.35 14.63,5.78 2.26,1.82 4.18,4.1 6.24,6.16 z m 68.01,-167.2 c -1.06,-1.57 -1.94,-2.22 -3.48,-2.19 -7.41,0.16 -14.81,0.22 -22.22,0.26 -6.67,0.04 -13.35,0.02 -20.02,0.01 -9.13,-0.02 -18.27,-0.09 -27.4,-0.1 -9.76,-0.02 -19.51,0.02 -29.27,-0.01 -8.91,-0.03 -17.81,-0.09 -26.72,-0.18 -1.97,-0.02 -3.3,0.89 -4.33,2.42 44.4,0.26 88.72,0.74 133.44,-0.21 z m -3.87,-3.63 c -0.52,-0.62 -0.65,-0.79 -0.8,-0.95 -1.85,-2.02 -4.26,-1.48 -6.56,-1.46 -13.68,0.12 -27.36,0.24 -41.03,0.34 -2.73,0.02 -5.47,-0.15 -8.2,-0.14 -4.62,0.01 -9.23,0.15 -13.85,0.13 -9.47,-0.05 -18.94,-0.18 -28.41,-0.25 -7.07,-0.05 -14.14,0.02 -21.21,-0.15 -2.18,-0.05 -3.33,1.12 -4.93,2.6 1.04,0 1.66,0.01 2.29,0 6.04,-0.08 12.08,-0.21 18.12,-0.2 2.5,0 5.01,0.43 7.51,0.45 4.94,0.03 9.88,-0.16 14.81,-0.12 6.26,0.04 12.52,0.25 18.78,0.3 4.77,0.04 9.55,-0.04 14.32,-0.09 5.3,-0.06 10.6,-0.19 15.9,-0.2 5.24,-0.01 10.49,0.15 15.73,0.12 5.67,-0.07 11.35,-0.25 17.53,-0.38 z M 100.39,93.91 c 0.01,0.22 0.01,0.44 0.02,0.66 37.86,0 75.72,0 113.58,0 -1.62,-1.43 -3,-2.91 -5.4,-2.83 -6.61,0.24 -13.22,0.31 -19.84,0.36 -3.08,0.03 -6.16,-0.21 -9.24,-0.19 -8.56,0.07 -17.12,0.28 -25.67,0.29 -6.11,0.01 -12.22,-0.25 -18.33,-0.3 -10.04,-0.08 -20.09,-0.03 -30.13,-0.17 -2.15,-0.03 -3.46,1.18 -4.99,2.18 z M 207.8,90.57 c 0.01,-0.18 0.01,-0.37 0.02,-0.55 -1.66,-1.52 -3.54,-2.33 -5.88,-2.15 -2.27,0.18 -4.56,0.18 -6.84,0.18 -10.38,0.02 -20.76,0.03 -31.14,0 -10.78,-0.03 -21.55,-0.11 -32.33,-0.16 -6.73,-0.04 -13.47,-0.08 -20.2,-0.1 -2.15,-0.01 -3.78,1.08 -5.26,2.71 16.97,0.32 33.9,0.35 50.82,0.31 16.94,-0.05 33.88,-0.16 50.81,-0.24 z m -6.96,-4.01 c 0.04,-0.22 0.09,-0.43 0.13,-0.65 -2.56,-0.51 -4.59,-2.51 -7.5,-2.18 -2.08,0.24 -4.2,0.09 -6.3,0.08 -4,-0.03 -7.99,-0.14 -11.99,-0.12 -3.87,0.02 -7.75,0.23 -11.62,0.25 -6.95,0.03 -13.9,0 -20.85,-0.06 -7.7,-0.06 -15.41,-0.13 -23.11,-0.3 -2.63,-0.06 -4.47,1.49 -6.62,2.46 0.03,0.17 0.06,0.35 0.09,0.52 29.26,0 58.52,0 87.77,0 z m -9.69,-4.21 c 0.01,-0.09 0.02,-0.18 0.03,-0.26 -1.48,-0.48 -2.96,-1 -4.46,-1.45 -1.08,-0.32 -2.17,-0.79 -3.27,-0.8 -8.62,-0.06 -17.25,0.02 -25.87,-0.02 -8.85,-0.04 -17.69,-0.15 -26.54,-0.26 -2.98,-0.04 -5.53,1.09 -7.99,2.79 22.7,0 45.4,0 68.1,0 z m 10.54,179.57 c -2.79,0 -5.59,-0.02 -8.38,0 -7.08,0.05 -14.16,0.1 -21.24,0.17 -2.62,0.03 -4.89,1.01 -6.92,2.84 3.72,0.35 7.4,0.38 11.08,0.35 5.86,-0.05 11.71,-0.24 17.57,-0.18 3.12,0.03 5.45,-1.63 7.89,-3.18 z m -91.73,0.09 c -0.05,0.14 -0.11,0.29 -0.16,0.43 1.55,0.67 3.04,1.7 4.65,1.93 2.98,0.43 6.02,0.48 9.04,0.52 4.6,0.07 9.21,-0.01 13.82,-0.02 2.58,-0.01 5.17,0 7.75,0 -1.88,-1.61 -3.94,-2.63 -6.41,-2.67 -2.79,-0.04 -5.59,-0.18 -8.38,-0.19 -6.77,-0.02 -13.54,0 -20.31,0 z m 132.07,-94.95 c 0,-0.04 0,-0.08 0,-0.13 -3.82,0 -7.63,0.03 -11.45,-0.02 -1.34,-0.02 -1.8,0.42 -1.65,1.81 0.13,1.24 0.81,1.3 1.74,1.3 5.57,-0.02 11.13,0.01 16.7,-0.04 2.44,-0.02 4.88,-0.19 7.32,-0.25 1.09,-0.03 1.54,-0.61 1.14,-1.51 -0.23,-0.51 -0.97,-1.1 -1.5,-1.12 -4.1,-0.08 -8.2,-0.04 -12.3,-0.04 z m -158.02,2.98 c 0.26,-2.66 0.19,-2.82 -2.07,-2.92 -2.1,-0.09 -4.21,-0.01 -6.32,-0.02 -5.64,-0.03 -11.28,-0.06 -16.93,-0.11 -1.12,-0.01 -2.03,0.07 -2.03,1.58 0.01,1.47 1.12,1.11 1.83,1.13 7.06,0.16 14.12,0.25 21.18,0.35 1.42,0 2.83,-0.01 4.34,-0.01 z m -27.05,9.07 c -0.41,2.62 -0.33,2.75 1.74,3.05 0.51,0.07 1.02,0.13 1.53,0.13 7.34,-0.03 14.67,-0.08 22.01,-0.1 0.99,0 1.6,-0.14 1.62,-1.37 0.02,-1.23 -0.57,-1.38 -1.57,-1.39 -6.49,-0.09 -12.98,-0.22 -19.47,-0.32 -1.98,-0.02 -3.95,0 -5.86,0 z m 171.91,2.94 c 0.45,0.05 0.84,0.12 1.22,0.13 3.99,0.07 7.99,0.15 11.98,0.18 3.83,0.03 7.65,0.04 11.48,-0.04 0.69,-0.01 1.71,-0.32 1.99,-0.82 0.75,-1.33 0.06,-2.22 -1.57,-2.22 -5.71,-0.01 -11.41,0 -17.12,0 -2.65,0 -5.3,0 -7.97,0 -0.01,1.12 -0.01,1.9 -0.01,2.77 z m -0.27,-6.89 c 0.23,1.38 -0.38,2.8 1.67,2.79 8.01,-0.04 16.03,-0.01 24.04,0.02 1.07,0 1.69,-0.2 1.69,-1.49 0.01,-1.25 -0.61,-1.39 -1.59,-1.38 -4.73,0.04 -9.45,0.05 -14.18,0.07 -3.79,0 -7.6,-0.01 -11.63,-0.01 z M 70.46,177.9 c 0,0.02 0,0.05 0,0.07 3.98,0 7.96,-0.05 11.93,0.03 1.1,0.02 1.4,-0.35 1.43,-1.33 0.03,-1 -0.31,-1.46 -1.37,-1.47 -8.14,-0.09 -16.28,-0.22 -24.42,-0.33 -0.93,-0.01 -1.53,0.34 -1.53,1.39 0,1.03 0.42,1.63 1.51,1.63 0.23,0 0.46,0 0.68,0 3.93,0.01 7.85,0.01 11.77,0.01 z m 48.2,88.42 c -0.03,0.18 -0.07,0.35 -0.1,0.53 2.69,0.62 5.35,1.61 8.07,1.8 6.02,0.42 12.07,0.46 18.1,0.63 1.77,0.05 3.54,0.01 5.56,0.01 -1.5,-2.58 -2.14,-2.89 -4.48,-2.88 -4.96,0.01 -9.91,-0.06 -14.87,-0.08 -4.09,-0.02 -8.18,-0.01 -12.28,-0.01 z m 72.83,0.34 c -1.64,0 -3.28,0.01 -4.92,0 -7.46,-0.04 -14.92,-0.08 -22.38,-0.11 -1.76,-0.01 -2.6,1.04 -3.18,2.79 1.12,0.06 2.07,0.18 3.01,0.16 6.6,-0.12 13.19,-0.39 19.79,-0.36 2.88,0.01 5.24,-1.16 7.68,-2.48 z M 83.56,190.29 c 0.59,-2.46 0.43,-2.7 -1.71,-2.72 -1.59,-0.01 -3.18,0.04 -4.78,0.03 -6.09,-0.04 -12.19,-0.11 -18.28,-0.11 -0.44,0 -1.27,0.56 -1.24,0.7 0.15,0.64 0.4,1.49 0.89,1.77 0.64,0.36 1.54,0.3 2.33,0.31 2.45,0.03 4.89,0.02 7.34,0.02 5.18,0 10.35,0 15.45,0 z m 145.15,-0.02 c 2.87,0 5.66,-0.01 8.45,0 5.25,0.03 10.49,0.07 15.74,0.09 1.1,0 2.07,-0.23 2.07,-1.67 0,-1.37 -1.03,-1.17 -1.83,-1.17 -7.47,0 -14.93,0.02 -22.4,0.04 -2.12,0.01 -2.16,0.06 -2.03,2.71 z m 21.82,3.91 c 0,0.05 0,0.11 0,0.16 0.68,0 1.38,-0.09 2.05,0.02 1.36,0.22 1.5,-0.7 1.61,-1.63 0.14,-1.18 -0.77,-1.1 -1.48,-1.1 -7.58,-0.02 -15.17,0 -22.75,-0.03 -0.94,0 -1.33,0.28 -1.35,1.26 -0.02,0.96 0.32,1.33 1.27,1.33 6.88,-0.01 13.77,-0.01 20.65,-0.01 z m 3.99,-36.54 c 0.18,-2.24 0.12,-2.46 -1.82,-2.54 -2.9,-0.12 -5.8,-0.02 -8.7,0 -4.5,0.03 -9.01,0.06 -13.51,0.1 -0.81,0.01 -1.59,-0.06 -1.59,1.2 0,1.35 0.88,1.27 1.73,1.27 4.39,0 8.79,-0.03 13.18,-0.03 3.52,-0.01 7.05,0 10.71,0 z M 83.84,171.72 c -1.01,-0.1 -1.91,-0.25 -2.81,-0.27 -4.05,-0.1 -8.1,-0.15 -12.14,-0.23 -3.71,-0.07 -7.41,-0.15 -11.12,-0.24 -0.77,-0.02 -1.35,0.09 -1.36,1.06 -0.01,0.89 0.07,1.61 1.22,1.61 0.63,0 1.25,0.12 1.88,0.13 5.54,0.03 11.08,0.05 16.62,0.07 2.55,0.01 5.09,0 7.72,0 -0.01,-0.8 -0.01,-1.35 -0.01,-2.13 z m 169.06,-6 c 1.01,-0.29 2.37,0.78 2.52,-1.05 0.09,-1.07 -0.27,-1.69 -1.52,-1.69 -5.14,0 -10.27,-0.06 -15.41,-0.1 -2.39,-0.02 -4.78,-0.05 -7.16,-0.04 -0.62,0 -1.41,-0.02 -1.8,0.33 -0.39,0.35 -0.52,1.15 -0.5,1.74 0.01,0.28 0.62,0.73 0.99,0.77 1.07,0.1 2.16,0.04 3.24,0.04 6.61,0 13.21,0 19.64,0 z M 57.41,161.38 c 0.41,0.07 0.85,0.22 1.29,0.22 3.52,0 7.05,-0.06 10.57,-0.04 4.27,0.03 8.54,0.14 12.82,0.18 1.97,0.02 2.14,-0.24 1.57,-2.75 -7.92,0 -15.96,0.03 -23.99,-0.02 -1.69,-0.01 -2.47,0.6 -2.26,2.41 z m 197.7,0.4 c 0.16,-2.42 -0.08,-2.77 -2.06,-2.78 -7.12,-0.01 -14.24,-0.01 -21.36,0.08 -0.94,0.01 -2.58,-0.83 -2.66,1.08 -0.08,1.99 1.64,1.38 2.76,1.57 0.17,0.03 0.34,0 0.51,0 4.78,0.02 9.56,0.04 14.34,0.05 2.83,0.01 5.66,0 8.47,0 z m -26.18,12.07 c 2.13,0 4.28,0 6.42,0 6.37,-0.02 12.74,-0.04 19.11,-0.04 0.97,0 1.63,-0.13 1.63,-1.37 0,-1.2 -0.56,-1.41 -1.58,-1.39 -7.97,0.15 -15.93,0.31 -23.9,0.38 -1.78,0 -2.19,0.71 -1.68,2.42 z M 58.27,191.64 c -0.32,1.63 -0.07,2.48 1.8,2.48 5.07,-0.02 10.15,0.17 15.22,0.24 2.83,0.04 5.66,0.01 8.44,0.01 0.23,-2.73 0.23,-2.74 -1.94,-2.74 -2.39,0 -4.79,0.02 -7.18,0.02 -5.41,-0.01 -10.82,-0.01 -16.34,-0.01 z M 57.2,165.68 c 8.97,0 17.8,0 26.61,0 0,-0.8 0,-1.58 0,-2.32 -0.19,-0.09 -0.29,-0.17 -0.39,-0.17 -8.2,-0.07 -16.4,-0.13 -24.6,-0.21 -1.81,-0.01 -1.84,1.09 -1.62,2.7 z m 26.53,20.45 c 0.21,-2.4 0.12,-2.44 -1.97,-2.46 -5.52,-0.04 -11.05,-0.15 -16.57,-0.21 -2.66,-0.03 -5.32,0 -7.93,0 -0.23,2.38 0.05,2.67 1.92,2.66 3.25,-0.01 6.5,0.01 9.75,0.01 4.89,0 9.79,0 14.8,0 z M 175.95,78.29 c -12.88,-3.07 -25.73,-3.16 -38.56,-0.51 0,0.17 0,0.34 0,0.51 12.85,0 25.71,0 38.56,0 z m 77.4,117.49 c -8.2,0 -16.42,0 -24.67,0 0,0.81 0,1.52 0,2.36 7.61,0.13 15.12,0.28 22.63,0.39 2.13,0.03 2.36,-0.3 2.04,-2.75 z m -24.41,-9.54 c 2.83,0 5.55,0 8.28,0 5.29,-0.01 10.59,-0.07 15.88,-0.02 2.08,0.02 2.38,-0.24 1.9,-2.39 -0.48,-0.03 -0.99,-0.1 -1.49,-0.1 -7.52,-0.06 -15.03,-0.12 -22.55,-0.16 -2.2,-0.02 -2.2,0 -2.02,2.67 z M 60.21,149.7 c 2.03,0 3.95,-0.01 5.86,0 5.7,0.04 11.39,0.08 17.09,0.15 0.8,0.01 1.32,-0.15 1.35,-1.09 0.03,-0.86 -0.13,-1.45 -1.15,-1.49 -0.97,-0.03 -1.93,-0.16 -2.9,-0.17 -5.81,-0.04 -11.63,0.04 -17.43,-0.15 -1.86,-0.05 -2.67,0.49 -2.82,2.75 z M 229.03,147 c -0.53,2.51 -0.35,2.78 1.73,2.78 6.22,0.01 12.45,0.02 18.67,-0.01 1.04,-0.01 2.08,-0.21 3.17,-0.33 -0.29,-1.35 -0.3,-2.61 -1.95,-2.59 -5.19,0.06 -10.38,0.11 -15.57,0.15 -2.03,0.02 -4.07,0 -6.05,0 z M 84.07,157.68 c 0.21,-2.14 0.04,-2.38 -1.85,-2.4 -7.31,-0.07 -14.61,-0.13 -21.92,-0.17 -2.11,-0.01 -2.28,0.21 -2.12,2.57 8.59,0 17.18,0 25.89,0 z m -24.84,-4.05 c 8.36,0 16.6,0 24.85,0 0.42,-2.22 0.19,-2.41 -2.22,-2.42 -6.84,-0.03 -13.68,-0.1 -20.52,-0.18 -1.73,-0.03 -2.07,0.27 -2.11,2.6 z m 169.48,48.8 c 5.88,0 11.71,0.01 17.55,-0.01 1.59,0 3.19,-0.12 4.78,-0.1 1.32,0.02 1.52,-0.94 1.5,-1.81 -0.01,-0.34 -0.83,-0.8 -1.35,-0.95 -0.58,-0.17 -1.24,-0.05 -1.87,-0.05 -6.2,0.02 -12.39,0.05 -18.59,0.04 -2.37,0 -2.37,-0.04 -2.02,2.88 z M 59.69,199.51 c 0.22,2.29 0.41,2.65 1.84,2.66 6.9,0.01 13.8,-0.03 20.69,-0.08 0.74,-0.01 1.66,0.2 1.63,-1.13 -0.03,-1.32 -0.84,-1.46 -1.83,-1.45 -2.11,0.02 -4.23,0.07 -6.34,0.07 -3.64,-0.01 -7.28,-0.05 -10.92,-0.07 -1.67,-0.01 -3.36,0 -5.07,0 z m -0.91,-4.03 c 0.13,2.72 0.36,2.97 2.51,2.93 0.85,-0.02 1.7,-0.2 2.55,-0.21 6.03,-0.05 12.06,-0.09 18.09,-0.11 0.87,0 1.74,0.16 1.77,-1.19 0.03,-1.38 -0.88,-1.21 -1.73,-1.22 -4.57,-0.07 -9.13,-0.15 -13.7,-0.19 -3.12,-0.03 -6.25,-0.01 -9.49,-0.01 z m 194.76,-41.87 c -0.04,-2.28 -0.43,-2.62 -2.37,-2.61 -6.66,0.06 -13.32,0.1 -19.98,0.09 -2.44,0 -2.68,0.25 -2.01,2.51 8.13,0.01 16.24,0.01 24.36,0.01 z M 83.53,203.66 c -7.58,0 -15.05,0 -22.58,0 -0.04,1.63 0.46,2.38 2.05,2.39 6.08,0.04 12.16,0.18 18.24,0.26 2.39,0.02 2.39,-0.01 2.29,-2.65 z m 145.03,0.2 c 0.12,1 -0.7,2.51 1.41,2.5 6.44,-0.04 12.88,-0.09 19.32,-0.1 1.46,0 2.06,-0.68 1.93,-2.4 -7.5,0 -14.98,0 -22.66,0 z m -166.3,3.74 c 0.48,2.64 0.76,2.86 2.9,2.64 0.39,-0.04 0.8,-0.02 1.19,-0.02 5.23,0.08 10.46,0.18 15.69,0.24 1.34,0.02 2.14,-1.12 1.38,-2.02 -0.38,-0.45 -1.3,-0.6 -1.99,-0.63 -4.66,-0.18 -9.33,-0.31 -14,-0.4 -1.7,-0.02 -3.41,0.12 -5.17,0.19 z m 21.8,-65.9 c 0.35,-2.27 0.25,-2.42 -1.77,-2.45 -5.48,-0.09 -10.96,-0.14 -16.44,-0.27 -2.25,-0.05 -2.49,0.09 -2.82,2.72 7.03,0 14.04,0 21.03,0 z m 0.04,1.72 c -0.32,-0.06 -0.54,-0.12 -0.76,-0.13 -6.61,-0.12 -13.22,-0.22 -19.83,-0.37 -1.65,-0.04 -2.02,0.89 -2.02,2.51 0.98,0.06 1.92,0.16 2.86,0.17 1.37,0.02 2.73,-0.04 4.1,-0.02 4.72,0.05 9.44,0.03 14.16,0.2 1.98,0.06 1.89,-0.89 1.49,-2.36 z m 144.65,64.49 c 0.05,1.53 -0.39,2.8 1.54,2.76 5.68,-0.13 11.35,-0.2 17.03,-0.21 1.8,-0.01 2.61,-0.81 2.65,-2.54 -7.05,-0.01 -14.08,-0.01 -21.22,-0.01 z m 0.24,-62.41 c 0.28,0.07 0.44,0.15 0.6,0.15 6.89,-0.01 13.78,-0.01 20.66,-0.07 0.38,0 1.1,-0.56 1.07,-0.72 -0.15,-0.62 -0.42,-1.31 -0.87,-1.74 -0.29,-0.28 -0.97,-0.24 -1.47,-0.23 -5.98,0.02 -11.95,0.08 -17.93,0.1 -2.09,0.01 -2.3,0.22 -2.06,2.51 z M 64.56,137.73 c 6.56,0 13.05,0 19.53,0 0.58,-2.43 0.43,-2.69 -1.92,-2.72 -4.73,-0.05 -9.45,0.02 -14.18,-0.05 -2.66,-0.04 -2.66,-0.13 -3.43,2.77 z m 164.46,-2.76 c -0.33,2.84 -0.27,2.86 2.22,2.84 3.69,-0.03 7.39,0.01 11.08,0.02 1.91,0 3.83,0 5.9,0 -0.29,-1.68 -0.31,-2.98 -2.23,-2.97 -4.67,0.02 -9.34,-0.07 -14.01,-0.09 -0.96,-0.01 -1.93,0.12 -2.96,0.2 z m -0.03,6.65 c 6.97,0 13.86,0 20.77,0 -0.35,-2.62 -0.62,-2.84 -2.84,-2.79 -4.78,0.11 -9.56,0.19 -14.34,0.27 -1.17,0.02 -2.35,0 -3.59,0 0,0.99 0,1.65 0,2.52 z m 0.05,73.26 c 0.71,0 1.33,0.01 1.95,0 4.83,-0.08 9.67,-0.2 14.5,-0.23 2.09,-0.01 2.32,-0.14 2.57,-2.63 -1.35,0 -2.67,0 -4,0 -4.38,0 -8.76,-0.06 -13.13,0.03 -2.34,0.05 -2.37,0.22 -1.89,2.83 z m -145.6,-2.72 c -1.21,-0.11 -2.34,-0.28 -3.47,-0.3 -4.74,-0.05 -9.48,-0.08 -14.22,-0.03 -0.56,0.01 -1.59,0.59 -1.57,0.83 0.08,0.87 0.38,1.67 1.67,1.67 5.19,0.02 10.38,0.17 15.58,0.25 2.15,0.04 2.15,0.01 2.01,-2.42 z m 162.86,4.04 c -5.23,0 -10.34,-0.07 -15.45,0.03 -2.22,0.04 -2.32,0.34 -1.92,2.65 4.86,0 9.73,0 14.59,0 2.1,0 2.59,-0.46 2.78,-2.68 z m -113.27,44.38 c -9.77,-1.87 -19.6,-2.65 -29.57,-2.2 1.39,0.85 2.83,1.85 4.31,1.9 7.17,0.24 14.34,0.23 21.51,0.3 1.25,0.01 2.5,0 3.75,0 z M 66.48,133.31 c 0.72,0.11 1.39,0.28 2.06,0.29 2.85,0.05 5.7,0.05 8.55,0.06 2.05,0.01 4.1,0.08 6.14,-0.05 0.44,-0.03 1.03,-0.74 1.16,-1.25 0.08,-0.28 -0.57,-1.03 -0.99,-1.13 -1.1,-0.25 -2.25,-0.34 -3.39,-0.35 -3.65,-0.02 -7.3,0.15 -10.95,-0.01 -1.87,-0.08 -2.36,0.81 -2.58,2.44 z m 16.98,82.89 c -5.88,0 -11.78,0 -17.79,0 0.37,1.11 0.46,2.29 2.05,2.32 4.56,0.06 9.12,0.18 13.67,0.25 2.15,0.02 2.15,-0.01 2.07,-2.57 z m 162.77,-82.77 c 0.16,-0.21 0.32,-0.42 0.48,-0.63 -0.68,-0.67 -1.34,-1.9 -2.05,-1.93 -4.61,-0.18 -9.24,-0.16 -13.86,-0.09 -1.99,0.03 -2.14,0.37 -1.7,2.64 5.69,0.01 11.41,0.01 17.13,0.01 z M 68.4,129.25 c 0.52,0.09 1,0.23 1.49,0.24 4.44,0.08 8.87,0.16 13.31,0.16 0.43,0 1.25,-0.66 1.21,-0.94 -0.07,-0.59 -0.46,-1.29 -0.94,-1.64 -0.39,-0.29 -1.09,-0.19 -1.66,-0.19 -3.53,-0.01 -7.06,0.09 -10.59,-0.05 -1.77,-0.08 -2.48,0.71 -2.82,2.42 z M 208.92,258.1 c -0.04,-0.21 -0.09,-0.42 -0.13,-0.63 -9.44,0.96 -18.87,1.92 -28.31,2.88 3.64,0.21 7.27,0.21 10.91,0.21 3.7,0 7.4,-0.13 11.09,0.03 2.6,0.1 4.54,-1.03 6.44,-2.49 z m 35.59,-128.56 c -0.3,-1.53 -0.38,-2.7 -1.85,-2.72 -4.21,-0.05 -8.41,-0.08 -12.62,-0.01 -0.4,0.01 -1,0.72 -1.12,1.2 -0.17,0.68 -0.11,1.53 1.02,1.53 4.76,-0.01 9.52,0 14.57,0 z M 67.19,219.88 c 0.87,1.23 0.85,2.88 2.6,2.88 4.14,0.01 8.28,-0.05 12.42,-0.16 0.42,-0.01 0.83,-0.59 1.24,-0.9 -0.43,-0.48 -0.84,-1.36 -1.29,-1.38 -4.86,-0.21 -9.74,-0.3 -14.97,-0.44 z m 177.35,0.5 c -0.7,-0.09 -1.26,-0.23 -1.8,-0.23 -4.08,0.05 -8.17,0.13 -12.25,0.23 -0.72,0.02 -1.68,-0.27 -1.74,1.02 -0.07,1.27 0.79,1.38 1.67,1.39 3.74,0.05 7.48,0 11.21,0.12 1.72,0.06 2.48,-0.77 2.91,-2.53 z M 178.77,271 c -5.61,0 -11.28,0.01 -16.95,0 -1.64,0 -2.38,0.8 -2.36,2.4 3.47,0.89 15.46,-0.61 19.31,-2.4 z M 69.52,224.03 c 1,1.39 1.25,3.11 2.97,3.12 3.3,0.03 6.6,-0.2 9.89,-0.26 1.13,-0.02 1.1,-0.71 1.09,-1.49 -0.02,-0.84 -0.2,-1.4 -1.26,-1.38 -4.08,0.04 -8.17,0.01 -12.69,0.01 z m 82.99,49.85 c -0.16,-2.38 -0.65,-2.84 -2.62,-2.88 -3.75,-0.09 -7.51,-0.21 -11.26,-0.34 -2.65,-0.1 -5.3,-0.24 -7.95,-0.37 -0.02,0.25 -0.05,0.49 -0.07,0.74 7.29,0.94 14.57,1.89 21.9,2.85 z m 89.83,-49.67 c -4.34,0 -8.47,-0.04 -12.59,0.08 -0.31,0.01 -0.78,1.1 -0.81,1.7 -0.01,0.31 0.77,0.9 1.22,0.94 2.61,0.2 5.24,0.26 7.85,0.38 2.65,0.12 2.91,-0.04 4.33,-3.1 z m 0.26,-98.77 c -1.02,-2.67 -1.23,-2.78 -3.71,-2.64 -1.36,0.08 -2.73,0 -4.1,0 -1.91,0 -3.83,0 -6.01,0 0.47,1 -0.58,2.52 1.08,2.59 4.2,0.16 8.41,0.05 12.74,0.05 z M 70.39,125.5 c 0.5,0.05 0.92,0.13 1.34,0.13 3.46,0 6.91,-0.04 10.37,0 2.31,0.03 2.64,-0.35 2.14,-2.64 -3.6,0 -7.18,0.1 -10.74,-0.04 -1.86,-0.08 -2.68,0.75 -3.11,2.55 z m 2.48,-4.54 c 0.13,0.24 0.26,0.47 0.39,0.71 2.65,0 5.3,0 7.94,0 0.45,0 0.91,-0.11 1.36,-0.09 1.85,0.07 2.26,-0.88 1.72,-2.77 -2.91,0 -5.91,-0.16 -8.88,0.1 -0.89,0.07 -1.69,1.33 -2.53,2.05 z m 166.96,0.38 c -0.67,-2.35 -1.29,-2.83 -3.52,-2.81 -1.99,0.02 -3.98,0.03 -5.97,-0.02 -1.01,-0.03 -1.44,0.32 -1.45,1.37 0,0.98 0.27,1.48 1.34,1.47 3.17,-0.03 6.33,-0.01 9.6,-0.01 z m -10.79,107.24 c -0.35,2.15 -0.16,2.37 1.85,2.42 1.76,0.04 3.52,0.05 5.27,0.2 1.74,0.15 2.64,-0.54 2.89,-2.62 -3.3,0 -6.59,0 -10.01,0 z M 83.1,228.55 c -3.47,0 -6.8,0 -10.29,0 0.51,1.63 1.22,2.59 2.83,2.5 1.93,-0.1 3.87,-0.26 5.8,-0.27 1.64,0 2.17,-0.67 1.66,-2.23 z M 237.01,117.21 c 0.11,-0.18 0.22,-0.36 0.33,-0.54 -0.67,-0.67 -1.28,-1.82 -2.03,-1.92 -2.05,-0.27 -4.15,-0.09 -6.3,-0.09 0.11,1.09 -0.61,2.48 1.21,2.53 2.26,0.07 4.53,0.02 6.79,0.02 z M 84.34,114.82 c -1.93,0 -3.7,0.09 -5.45,-0.03 -1.86,-0.12 -2.6,0.89 -3.05,2.52 2.93,0 5.72,0 8.57,0 0.04,-0.56 0.09,-0.95 0.09,-1.34 -0.02,-0.32 -0.09,-0.65 -0.16,-1.15 z m -9.12,117.6 c 1.33,2.4 1.53,2.5 3.82,2.42 0.96,-0.04 1.93,-0.03 2.89,0 0.9,0.02 1.55,-0.14 1.56,-1.27 0.01,-1.07 -0.39,-1.6 -1.49,-1.53 -2.2,0.12 -4.4,0.24 -6.78,0.38 z m 161.85,-0.17 c -2.44,0 -4.41,0 -6.39,0 -2.21,0 -2.43,0.32 -1.67,2.64 2.61,-0.49 5.88,1.48 8.06,-2.64 z m -159.04,3.89 c 1.33,2.51 3.04,3.32 5.4,2.64 0.57,-2.3 0.28,-2.68 -1.97,-2.65 -1.06,0.03 -2.11,0.01 -3.43,0.01 z m 6.12,-122.82 c 0.6,-2.59 0.49,-2.92 -1.87,-2.59 -1.15,0.16 -2.15,1.36 -3.22,2.08 0.1,0.17 0.2,0.34 0.3,0.5 1.56,0.01 3.13,0.01 4.79,0.01 z m 144.5,125.41 c 2.69,0.75 4.09,0.09 4.59,-2.07 -3.81,-1.03 -4.73,-0.63 -4.59,2.07 z m 5.07,-125.61 c -1.02,-2.59 -2.17,-3.17 -4.69,-2.46 0.12,0.87 -0.79,2.15 0.83,2.42 1.21,0.2 2.48,0.04 3.86,0.04 z M 105.05,256.39 c -2.09,-0.47 -4.17,-0.95 -6.73,-1.53 2.12,2.36 4.51,1.4 6.73,1.53 z m 104.56,-0.53 c 2.31,0.78 3.55,0.29 4.49,-1.53 -1.56,0.53 -3.03,1.03 -4.49,1.53 z m 17.38,-12.34 c 0.11,0.09 0.21,0.19 0.32,0.28 1.02,-0.97 2.04,-1.94 3.21,-3.06 -3.22,-0.99 -2.4,1.91 -3.53,2.78 z M 81.52,240.39 c 0.94,0.98 1.64,1.72 2.52,2.63 0.08,-2.64 -0.07,-2.8 -2.52,-2.63 z"
   id="path11" />
	<path
   d="m 59.23,116.97 c -1.01,2.03 -2.02,4.07 -3.03,6.1 -0.15,0.02 -0.31,0.04 -0.46,0.05 0.6,-2.4 -1.07,-3.04 -2.59,-3.78 -1.47,-0.71 -2.96,-1.4 -4.53,-2.14 -1.55,3.14 -3.06,6.2 -4.66,9.44 2.06,0.98 3.99,2.08 6.06,2.79 0.85,0.29 1.99,-0.27 3.24,-0.48 -0.92,1.91 -1.93,4 -2.94,6.09 0.17,-2.84 -2.07,-3.29 -3.83,-4.15 -3.07,-1.51 -6.16,-2.97 -9.23,-4.47 -1.56,-0.76 -3.11,-1.64 -4.49,0.52 -0.11,-0.14 -0.21,-0.28 -0.32,-0.42 1.04,-2.11 2.07,-4.23 3.11,-6.34 0.17,-0.02 0.35,-0.03 0.52,-0.05 -0.8,2.51 0.95,3.16 2.51,3.92 1.42,0.69 2.86,1.36 4.39,2.09 1.55,-3.15 3.06,-6.2 4.67,-9.46 -2.14,-0.99 -4.14,-2.07 -6.26,-2.82 -0.76,-0.26 -1.8,0.3 -2.93,0.52 0.93,-1.93 1.94,-4.02 2.94,-6.11 -0.24,2.95 2.11,3.37 3.9,4.25 3.12,1.54 6.25,3.06 9.38,4.57 1.47,0.71 2.95,1.38 4.21,-0.6 0.12,0.17 0.23,0.32 0.34,0.48 z"
   id="path13" />
	<path
   d="m 261.72,215.63 c 0.65,-2.22 1.3,-4.44 1.95,-6.67 0.15,-0.04 0.31,-0.08 0.46,-0.11 -0.23,2.56 1.53,2.93 3.26,3.39 1.49,0.39 2.96,0.85 4.61,1.34 0.98,-3.37 1.95,-6.67 2.96,-10.13 -2.28,-0.64 -4.39,-1.39 -6.56,-1.75 -0.84,-0.14 -1.82,0.61 -2.92,1.03 0.61,-2.1 1.25,-4.28 1.89,-6.46 0.29,2.68 2.38,2.86 4.19,3.38 3.4,0.97 6.8,1.94 10.19,2.93 1.63,0.48 3.23,0.91 4.28,-1.19 0.12,0.1 0.23,0.21 0.35,0.31 -0.64,2.22 -1.28,4.45 -1.92,6.67 -0.15,0.08 -0.3,0.16 -0.46,0.25 0.3,-3.03 -1.9,-3.1 -3.69,-3.64 -1.36,-0.41 -2.74,-0.77 -4.29,-1.21 -0.99,3.36 -1.95,6.61 -2.98,10.12 2.25,0.6 4.41,1.34 6.63,1.7 0.84,0.14 1.82,-0.6 2.98,-1.04 -0.6,2.07 -1.25,4.3 -1.89,6.53 -0.14,0.05 -0.28,0.1 -0.43,0.14 0.21,-2.53 -1.55,-2.9 -3.24,-3.38 -3.73,-1.06 -7.45,-2.15 -11.18,-3.21 -1.47,-0.42 -2.99,-0.87 -3.68,1.49 -0.17,-0.15 -0.34,-0.32 -0.51,-0.49 z"
   id="path15" />
	<path
   d="m 82.36,65.3 c 2.03,-1.13 4.06,-2.26 6.09,-3.39 -1.92,2.31 -0.13,3.97 0.83,5.72 1.29,2.35 2.61,4.68 3.96,7 1.41,2.44 3.24,3.34 5.49,2.79 2.46,-0.61 4.64,-3.15 4.67,-5.53 0.01,-0.48 -0.19,-1 -0.43,-1.43 -1.75,-3.14 -3.56,-6.24 -5.31,-9.39 -0.76,-1.36 -1.64,-2.36 -3.46,-1.78 -0.05,-0.16 -0.1,-0.32 -0.15,-0.48 1.99,-1.12 3.99,-2.25 5.98,-3.37 -2.01,2.47 0.02,4.2 0.99,6 1.63,3.01 3.37,5.96 5.07,8.94 0.77,1.36 1.64,2.54 3.61,1.59 0.03,0.18 0.06,0.37 0.09,0.55 -1.35,0.77 -2.69,1.55 -4.14,2.38 -0.47,-0.68 -0.88,-1.28 -1.23,-1.78 -0.79,1.31 -1.38,2.76 -2.37,3.86 -3.54,3.9 -8.65,3.31 -11.3,-1.22 C 89.14,73 87.6,70.2 85.99,67.44 84.92,65.6 84.53,65.43 82.62,65.71 82.53,65.57 82.45,65.43 82.36,65.3 Z"
   id="path17" />
	<path
   d="m 204.14,276.54 c 2.04,-1.17 4.08,-2.35 6.12,-3.52 0.15,0.08 0.31,0.15 0.46,0.23 -2.15,1.67 -0.98,3.16 -0.09,4.68 1.5,2.56 2.99,5.12 4.51,7.67 1.49,2.49 3.27,3.39 5.45,2.81 2.61,-0.7 4.69,-3.15 4.74,-5.67 0.01,-0.42 -0.19,-0.88 -0.4,-1.26 -1.87,-3.2 -3.75,-6.4 -5.64,-9.58 -0.74,-1.24 -1.58,-2.33 -3.42,-1.44 -0.03,-0.2 -0.05,-0.4 -0.08,-0.6 1.98,-1.16 3.96,-2.32 5.94,-3.48 0.16,0.09 0.33,0.18 0.49,0.27 -2.16,1.67 -0.97,3.17 -0.09,4.68 1.81,3.1 3.65,6.19 5.47,9.29 1.44,2.44 1.49,2.47 4.5,2.47 -1.71,1.02 -3.03,1.81 -4.47,2.67 -0.47,-0.64 -0.89,-1.21 -1.37,-1.88 -0.4,0.92 -0.69,1.78 -1.12,2.56 -2.85,5.26 -9.32,5.47 -12.41,0.39 -1.54,-2.53 -3.03,-5.1 -4.54,-7.65 -0.87,-1.48 -1.68,-3.07 -4.01,-2.11 -0.02,-0.2 -0.03,-0.37 -0.04,-0.53 z"
   id="path19" />
	<path
   d="m 216.39,80.37 c -1.85,-1.2 -3.8,-2.47 -5.75,-3.74 -0.03,-0.16 -0.07,-0.33 -0.1,-0.49 2.91,1.1 3.65,-1.09 4.73,-2.7 2.01,-2.98 3.98,-5.98 5.97,-8.97 0.87,-1.3 1.56,-2.59 -0.07,-3.83 0.19,-0.16 0.32,-0.3 0.35,-0.28 2.67,1.73 5.44,3.33 7.96,5.24 2.15,1.64 2.69,4.04 1.84,6.09 -0.92,2.21 -2.59,3.08 -5.59,2.91 -0.16,-0.01 -0.32,0.03 -0.26,0.02 0,2.1 -0.07,4.13 0.02,6.16 0.09,1.92 0.35,3.84 0.53,5.66 -2.1,-0.39 -3.27,-1.7 -3.28,-4.15 -0.01,-1.83 0.02,-3.65 0.05,-5.48 0.04,-2.26 -0.77,-4 -3.18,-5.01 -1.16,1.81 -2.47,3.59 -3.46,5.55 -0.34,0.72 0.12,1.82 0.24,3.02 z m 3.85,-9.46 c 2.09,1.41 3.93,3.1 6.5,1.7 1.61,-0.87 2.62,-2.31 2.48,-4.18 -0.19,-2.54 -2.09,-3.7 -4.15,-4.76 -1.63,2.45 -3.18,4.77 -4.83,7.24 z"
   id="path21" />
	<path
   d="m 91.29,289.41 c 2.33,0.74 3.03,-0.8 3.73,-2.32 1.56,-3.36 3.12,-6.71 4.67,-10.07 1.21,-2.62 1.2,-2.62 -0.23,-4.64 0.05,-0.03 0.11,-0.11 0.13,-0.1 4.24,1.75 8.73,3.07 12.2,6.25 3.33,3.05 3.87,7.9 1.59,11.93 -2.27,4.03 -6.26,5.8 -10.96,4.26 -3.71,-1.21 -7.21,-3.08 -10.8,-4.67 -0.1,-0.06 -0.14,-0.27 -0.33,-0.64 z m 12.43,-14.52 c -1.89,4.07 -3.74,8.02 -5.58,11.98 -2.01,4.34 -1.87,4.67 2.6,6.41 3.12,1.21 5.99,0.58 8.23,-1.91 1.76,-1.96 2.79,-4.28 3.01,-6.92 0.29,-3.36 -1.11,-5.87 -4.01,-7.51 -1.32,-0.75 -2.73,-1.33 -4.25,-2.05 z"
   id="path23" />
	<path
   d="m 243.8,273 c 1.3,-1.4 0.42,-2.54 -0.7,-3.63 -2.94,-2.86 -5.87,-5.74 -8.82,-8.6 -1.11,-1.07 -2.25,-2.11 -3.76,-0.58 -0.14,-0.29 -0.25,-0.45 -0.22,-0.48 2.24,-2.26 4.33,-4.71 6.78,-6.72 3.34,-2.73 7.8,-1.28 8.44,2.57 0.18,1.07 -0.17,2.22 -0.3,3.59 4.02,-0.72 7.8,2.38 12.07,0.74 -1.24,2.67 -2.64,3.42 -5.2,2.89 -1.73,-0.36 -3.45,-0.77 -5.18,-1.1 -2.23,-0.43 -4.21,-0.08 -5.49,1.99 1.39,1.43 2.75,2.87 4.14,4.28 1.02,1.03 2.16,1.02 3.17,0.13 -1.64,1.63 -3.29,3.28 -4.93,4.92 z m -9.22,-16.5 c 2.04,2.24 3.95,4.33 5.94,6.52 1.66,-1.66 3.64,-3.01 3.04,-5.65 -0.41,-1.78 -1.59,-3.05 -3.42,-3.47 -2.67,-0.62 -4.21,1.13 -5.56,2.6 z"
   id="path25" />
	<path
   d="m 184.09,303.34 c 1.92,-1.19 1.49,-2.77 1.02,-4.42 -1.04,-3.62 -2.02,-7.25 -3.01,-10.87 -0.45,-1.64 -0.86,-3.29 -3.59,-2.85 0.52,-0.44 0.64,-0.63 0.8,-0.68 2.86,-0.76 5.7,-1.64 8.6,-2.2 3.26,-0.63 5.77,1.04 6.22,3.83 0.23,1.4 -0.18,2.27 -2.17,4.51 0.52,0.13 1,0.25 1.47,0.35 2.53,0.56 4.31,2.42 4.52,4.73 0.17,1.91 -1.09,3.97 -3.45,4.81 -3.11,1.1 -6.33,1.88 -9.51,2.78 -0.27,0.08 -0.6,0.01 -0.9,0.01 z m 2.04,-10.85 c 0.81,2.76 1.4,5.01 2.16,7.21 0.19,0.54 0.87,1.16 1.41,1.26 2.02,0.39 4.66,-1.33 5.12,-3.17 0.55,-2.21 -0.82,-4.91 -3.11,-5.36 -1.69,-0.33 -3.52,0.01 -5.58,0.06 z m -2.28,-8.29 c 0.77,2.73 1.47,5.22 2.19,7.77 2.35,-0.55 4.61,-0.94 5.3,-3.55 0.43,-1.63 -0.12,-3.1 -1.37,-4.14 -1.9,-1.59 -3.93,-0.79 -6.12,-0.08 z"
   id="path27" />
	<path
   d="m 27.92,208.35 c 0,-5.8 4.58,-10.27 10.51,-10.27 5.76,0 10.35,4.8 10.29,10.77 -0.05,5.73 -4.67,10.24 -10.44,10.2 -5.84,-0.05 -10.36,-4.71 -10.36,-10.7 z m 8.76,7.86 c 3.46,-0.21 6.64,-1.14 9.12,-3.72 2.72,-2.82 2.59,-6.97 -0.27,-9.62 -4.38,-4.07 -14.79,-1.17 -16.45,4.58 -0.05,0.16 -0.06,0.34 -0.1,0.5 -0.88,4.51 2.56,8.2 7.7,8.26 z"
   id="path29" />
	<path
   d="m 268.14,229.91 c -1.53,2.89 0.59,3.59 2.21,4.59 1.06,0.65 2.12,1.29 3.27,2 -1.51,3.43 -3.07,6.65 -5.94,8.98 -4.14,3.37 -9.86,2.75 -13.67,-1.41 -3.79,-4.14 -3.74,-10.12 0.08,-14.07 1.03,-1.07 2.63,-1.8 2.19,-4.13 1.97,1.17 3.61,2.15 5.25,3.13 -0.04,0.11 -0.09,0.22 -0.13,0.33 -0.3,0 -0.63,0.07 -0.91,-0.01 -2.86,-0.78 -5.06,0.34 -6.75,2.53 -1.65,2.14 -1.75,4.5 -0.52,6.92 2.14,4.2 8.05,6.89 12.49,5.67 2.23,-0.61 3.83,-1.97 4.77,-4.08 0.58,-1.31 0.51,-2.45 -0.95,-3.17 -0.36,-0.18 -0.68,-0.42 -1.02,-0.62 -2.58,-1.52 -2.76,-1.51 -4.79,0.36 -0.13,-0.08 -0.25,-0.15 -0.38,-0.23 1.38,-2.24 2.75,-4.47 4.13,-6.71 0.23,-0.03 0.45,-0.06 0.67,-0.08 z"
   id="path31" />
	<path
   d="m 135.05,65.04 c -5.79,-4.25 -11.58,-8.5 -17.79,-13.06 0.51,2.07 0.89,3.6 1.28,5.13 0.58,2.26 1.16,4.53 1.75,6.79 0.48,1.83 0.69,3.94 3.79,3.19 -0.08,0.21 -0.16,0.43 -0.24,0.64 -1.91,0.5 -3.82,1 -5.73,1.5 -0.12,-0.14 -0.23,-0.29 -0.35,-0.43 2.34,-0.83 2.08,-2.46 1.61,-4.2 -0.87,-3.25 -1.7,-6.51 -2.54,-9.76 -0.89,-3.43 -0.89,-3.43 -3.98,-4.18 2.05,-1.59 4.7,-1.69 6.66,-0.23 4.48,3.33 8.97,6.67 13.83,10.28 -0.49,-1.96 -0.87,-3.51 -1.27,-5.05 -0.48,-1.88 -1.02,-3.74 -1.46,-5.63 -0.4,-1.72 -0.97,-3.18 -3.28,-2.9 0.02,-0.17 0.03,-0.34 0.05,-0.52 1.89,-0.48 3.79,-0.96 5.68,-1.43 0.11,0.13 0.23,0.27 0.34,0.4 -2.57,0.89 -2.12,2.64 -1.64,4.49 1.28,4.83 2.5,9.68 3.74,14.53 -0.15,0.14 -0.3,0.29 -0.45,0.44 z"
   id="path33" />
	<path
   d="m 89.93,265.49 c -0.78,0.93 -1.43,1.7 -2.08,2.47 0.95,-2.48 -0.87,-3.46 -2.31,-4.62 -1.15,-0.93 -2.3,-1.86 -3.55,-2.87 -1.76,2.12 -3.46,4.17 -5.26,6.35 1.55,1.26 2.91,2.57 4.48,3.55 0.69,0.42 1.8,0.15 3.04,0.2 -1.01,1.22 -2.02,2.43 -3.04,3.64 0.46,-4.09 -3.59,-4.24 -5.06,-6.71 -1.66,2 -3.18,3.76 -4.58,5.62 -0.24,0.32 -0.13,1.21 0.16,1.57 0.57,0.7 1.36,1.2 2.07,1.78 1.82,1.48 3.52,3.37 6.39,1.21 -1.11,2.61 -2.77,3.13 -4.43,1.77 -2.75,-2.23 -5.51,-4.46 -8.25,-6.69 -0.41,-0.34 -0.78,-0.73 -1.17,-1.31 2.32,1.25 3.32,-0.43 4.43,-1.76 2.42,-2.89 4.8,-5.81 7.23,-8.7 1.08,-1.28 1.97,-2.55 0.38,-4.2 0.15,-0.08 0.29,-0.16 0.44,-0.25 3.66,2.93 7.29,5.86 11.11,8.95 z"
   id="path35" />
	<path
   d="m 49.41,96.66 c 2.98,-3.56 5.97,-7.12 9.08,-10.83 0.87,0.71 1.67,1.36 2.47,2.01 0.03,0.18 0.05,0.35 0.08,0.53 -2.57,-1.55 -3.53,0.35 -4.71,1.74 -0.96,1.12 -1.9,2.26 -2.94,3.52 2.14,1.77 4.18,3.46 6.37,5.27 1.3,-1.56 2.66,-2.95 3.7,-4.56 0.4,-0.62 0.07,-1.72 0.07,-2.92 1.29,1.06 2.51,2.07 3.73,3.07 -4.06,-0.45 -4.34,3.5 -6.8,4.97 2.01,1.66 3.76,3.19 5.62,4.57 0.34,0.25 1.36,0.1 1.69,-0.24 1.19,-1.22 2.48,-2.47 3.23,-3.97 0.59,-1.17 0.42,-2.72 0.61,-4.21 0.62,0.78 1.34,1.7 2.2,2.78 -3.07,3.65 -6.11,7.26 -9.14,10.86 -0.17,-0.05 -0.34,-0.09 -0.51,-0.14 1.32,-1.98 0.05,-3.03 -1.21,-4.07 -3.08,-2.55 -6.17,-5.08 -9.25,-7.63 -1.21,-1 -2.43,-1.8 -3.94,-0.3 -0.14,-0.15 -0.24,-0.3 -0.35,-0.45 z"
   id="path37" />
	<path
   d="m 194.69,48.94 c 4.4,1.59 8.81,3.19 13.34,4.83 -0.42,1.11 -0.78,2.07 -1.14,3.03 0.03,-2.31 -1.54,-2.93 -3.24,-3.49 -1.56,-0.51 -3.09,-1.1 -4.77,-1.71 -0.97,2.6 -1.89,5.09 -2.86,7.71 1.89,0.69 3.6,1.5 5.41,1.91 0.8,0.18 1.79,-0.45 2.94,-0.79 -0.55,1.47 -1.09,2.92 -1.64,4.38 -1,-3.86 -4.71,-2.9 -7.04,-4.65 -0.89,2.47 -1.75,4.69 -2.45,6.95 -0.11,0.35 0.42,1.17 0.84,1.35 1.51,0.67 3.06,1.36 4.67,1.64 0.99,0.17 2.12,-0.34 3.16,-0.62 0.38,-0.1 0.7,-0.42 1.36,-0.36 -0.58,0.87 -1.12,1.77 -1.77,2.58 -0.17,0.22 -0.73,0.33 -1.01,0.23 -4.22,-1.5 -8.43,-3.03 -12.74,-4.77 3.07,0.17 3.24,-2.25 3.95,-4.1 1.25,-3.24 2.4,-6.52 3.63,-9.78 0.57,-1.52 0.96,-2.97 -1.05,-3.95 0.13,-0.13 0.27,-0.26 0.41,-0.39 z"
   id="path39" />
	<path
   d="m 38.07,233.72 c 1.13,1.66 2.4,1.33 3.78,0.54 3.61,-2.07 7.26,-4.08 10.88,-6.15 1.9,-1.09 2.04,-1.42 2.14,-3.66 2.22,3.83 4.45,7.65 6.76,11.63 -1.05,0.59 -2.04,1.15 -3.2,1.8 0.44,-1.15 1.11,-2.06 1.03,-2.91 -0.08,-0.94 -0.83,-1.84 -1.32,-2.73 -0.55,-0.99 -1.13,-1.96 -1.77,-3.05 -2.39,1.35 -4.65,2.64 -7.06,4 0.91,1.56 1.6,3.16 2.67,4.43 0.58,0.69 1.82,0.82 3,1.3 -1.4,0.81 -2.97,1.71 -4.53,2.61 2.42,-3.49 -1.4,-5.13 -1.9,-7.95 -2.26,1.32 -4.35,2.36 -6.21,3.71 -0.67,0.49 -0.78,1.74 -1.22,2.84 -1.11,-1.91 -2.29,-3.93 -3.47,-5.95 0.14,-0.15 0.28,-0.3 0.42,-0.46 z"
   id="path41" />
	<path
   d="m 260.17,131.43 c -0.96,-2.06 -1.91,-4.11 -2.87,-6.17 0.07,-0.15 0.14,-0.31 0.21,-0.46 1.75,2.35 3.46,1.07 5.16,0.3 4.15,-1.87 8.28,-3.76 12.6,-5.72 -1.46,-2.3 -1.49,-5.79 -5.67,-5.09 0.01,-0.15 0.02,-0.31 0.03,-0.46 1.33,-0.61 2.65,-1.22 3.81,-1.76 1.97,5.59 4.3,10.82 7.5,15.93 -1.19,0.54 -2.53,1.14 -3.86,1.74 2.77,-2.92 0.21,-5.2 -0.62,-7.76 -0.45,0.14 -0.82,0.22 -1.16,0.37 -4.21,1.9 -8.41,3.81 -12.61,5.71 -1.39,0.63 -2.76,1.27 -1.92,3.39 -0.2,0 -0.4,-0.01 -0.6,-0.02 z"
   id="path43" />
	<path
   d="m 267.16,154.59 c -0.48,-2.26 -0.96,-4.51 -1.45,-6.77 0.13,-0.15 0.25,-0.3 0.38,-0.45 0.82,2.69 2.61,2.12 4.35,1.73 0.06,-0.01 0.11,-0.02 0.17,-0.02 5.78,-0.15 8.75,-4.52 12.16,-8.18 0.52,-0.56 0.58,-1.54 1.16,-2.41 0.54,2.46 1.07,4.93 1.63,7.48 -0.36,-0.04 -0.53,-0.02 -0.57,-0.08 -1.15,-1.99 -1.18,-1.98 -2.85,-0.39 -1.43,1.37 -2.91,2.7 -4.65,4.3 2.41,0.88 4.3,1.62 6.22,2.24 1.35,0.43 1.71,0.17 2.74,-1.73 0.44,2.02 0.82,3.73 1.2,5.45 -2.88,-3.2 -7.09,-3.25 -10.53,-4.9 -0.46,-0.22 -1.12,-0.15 -1.65,-0.05 -1.79,0.33 -3.58,0.72 -5.36,1.11 -1.43,0.31 -2.65,0.83 -2.43,2.77 -0.15,-0.03 -0.33,-0.07 -0.52,-0.1 z"
   id="path45" />
	<path
   d="m 254.14,86.52 c -0.85,0.81 -1.94,1.85 -3.03,2.88 -0.11,-0.07 -0.21,-0.14 -0.32,-0.22 0.16,-0.38 0.31,-0.76 0.49,-1.13 1.02,-2.07 0.45,-4.25 -1.47,-5.55 -2,-1.35 -4.34,-0.52 -4.72,1.86 -0.2,1.25 0.09,2.59 0.27,3.88 0.21,1.58 0.67,3.13 0.77,4.71 0.18,2.83 -1.28,4.92 -3.72,5.68 -2.51,0.77 -5.1,-0.14 -6.62,-2.37 -0.38,-0.56 -0.61,-1.23 -1.02,-1.78 -0.45,-0.6 -1.03,-1.11 -2.34,-1.92 1.28,-1.2 2.57,-2.39 3.85,-3.59 0.18,0.15 0.37,0.29 0.55,0.44 -0.18,0.33 -0.34,0.68 -0.54,1 -1.49,2.35 -0.8,5.27 1.59,6.65 2.31,1.33 5.07,-0.01 5.07,-2.68 0,-2.08 -0.54,-4.16 -0.88,-6.24 -0.3,-1.86 -0.26,-3.65 0.97,-5.21 2.66,-3.37 7.07,-2.76 9.42,1.28 0.43,0.72 0.98,1.35 1.68,2.31 z"
   id="path47" />
	<path
   d="m 250.96,114.23 c -1.33,-1.9 -2.66,-3.8 -3.99,-5.7 2.39,1.53 3.91,-0.19 5.53,-1.28 2.78,-1.88 5.56,-3.78 8.32,-5.69 1.42,-0.99 3.19,-1.82 1.9,-4.28 0.18,0 0.36,0 0.54,0 1.33,1.91 2.67,3.81 4,5.72 -2.55,-1.69 -4.08,0.3 -5.77,1.42 -2.7,1.79 -5.36,3.65 -8.03,5.5 -1.44,0.99 -3.13,1.86 -1.98,4.27 -0.18,0.02 -0.35,0.03 -0.52,0.04 z"
   id="path49" />
	<path
   d="m 130.96,303.9 c -2.28,-0.5 -4.56,-1 -6.84,-1.49 -0.05,-0.15 -0.11,-0.3 -0.16,-0.45 2.6,0.11 2.85,-1.68 3.23,-3.45 0.78,-3.68 1.61,-7.35 2.46,-11.02 0.37,-1.6 0.52,-3.07 -1.52,-3.79 0.08,-0.15 0.16,-0.29 0.24,-0.44 2.28,0.49 4.57,0.99 6.85,1.48 0.05,0.14 0.1,0.28 0.14,0.41 -2.39,-0.03 -2.79,1.6 -3.15,3.32 -0.79,3.74 -1.65,7.46 -2.46,11.2 -0.52,2.38 -0.48,2.48 1.21,4.23 z"
   id="path51" />
	<path
   d="m 279.08,178.67 c -0.42,-0.67 -1.26,-1.42 -1.16,-2 0.11,-0.66 1.01,-1.56 1.67,-1.67 1.03,-0.16 1.94,0.67 1.71,1.8 -0.14,0.7 -0.93,1.28 -1.43,1.91 -0.27,-0.02 -0.53,-0.03 -0.79,-0.04 z"
   id="path53" />
	<path
   d="m 34.8,177.07 c -0.67,0.44 -1.29,1.14 -2.01,1.27 -1.02,0.19 -1.72,-0.5 -1.75,-1.6 -0.03,-1.17 0.69,-1.93 1.77,-1.78 0.71,0.1 1.33,0.86 1.99,1.33 0,0.26 0,0.52 0,0.78 z"
   id="path55" />
	<path
   d="m 221.02,107.95 c 0,7.44 -0.02,14.63 0.01,21.83 0.03,7.42 0.15,14.84 0.15,22.26 0,4.51 -0.17,9.02 -0.2,13.53 -0.05,5.92 -0.04,11.84 -0.06,17.75 -0.02,7.54 -0.03,15.08 -0.07,22.62 -0.04,9.47 -0.41,18.96 -0.07,28.42 0.26,7.33 -3.85,11 -9.74,13.45 -7.01,2.91 -14.37,4.39 -21.95,4.9 -7.06,0.48 -14.1,1.24 -20.94,3.15 -5.03,1.4 -9.34,3.92 -12.4,8.3 -0.29,0.41 -0.65,0.78 -0.96,1.14 -0.19,-0.07 -0.33,-0.08 -0.39,-0.15 -3.76,-5.01 -9.07,-7.59 -14.9,-9.09 -3.73,-0.96 -7.61,-1.33 -11.45,-1.83 -8.2,-1.06 -16.44,-1.8 -24.59,-3.14 -3,-0.49 -5.87,-2.15 -8.64,-3.58 -3.49,-1.8 -5.15,-5.09 -5.39,-8.83 -0.37,-5.74 -0.47,-11.51 -0.47,-17.27 0,-6.16 0.29,-12.33 0.38,-18.49 0.13,-9.08 0.23,-18.15 0.29,-27.23 0.06,-10.27 0.01,-20.55 0.1,-30.82 0.1,-10.83 0.32,-21.67 0.47,-32.5 0.01,-0.91 -0.07,-1.82 -0.1,-2.74 -0.03,-1.26 0.33,-2 1.85,-1.98 5.14,0.04 10.28,-0.09 15.41,-0.07 5.36,0.02 10.71,0.2 16.07,0.2 6.39,0 12.78,-0.14 19.17,-0.15 4.45,-0.01 8.9,0.17 13.34,0.16 5.51,-0.01 11.03,-0.13 16.54,-0.21 4.44,-0.07 8.88,-0.26 13.32,-0.2 7.58,0.1 15.16,0.39 22.74,0.54 3.65,0.08 7.3,0.04 10.95,0.05 0.46,-0.02 0.91,-0.02 1.53,-0.02 z M 91.08,209.39 c 1.14,-1.08 2.27,-2.12 3.37,-3.19 9.89,-9.72 19.76,-19.45 29.65,-29.16 2.49,-2.45 2.63,-2.75 0.17,-5.2 -9.69,-9.67 -19.44,-19.28 -29.18,-28.9 -1.15,-1.14 -2.33,-2.25 -3.49,-3.37 -0.17,0.06 -0.35,0.12 -0.52,0.18 0,23.17 0,46.33 0,69.64 z m 127.61,-0.38 c 0.25,-0.17 0.5,-0.33 0.75,-0.5 0,-22.77 0,-45.55 0,-68.32 -0.2,-0.13 -0.41,-0.26 -0.61,-0.39 -2.5,2.66 -4.94,5.37 -7.5,7.96 -7.84,7.9 -15.74,15.75 -23.6,23.63 -0.95,0.95 -2.65,2.04 -2.56,2.93 0.12,1.14 1.62,2.2 2.62,3.2 9.4,9.42 18.82,18.82 28.21,28.25 0.98,0.98 1.79,2.15 2.69,3.24 z m -65.23,-17.22 c 0.25,-2.29 0.57,-4.08 0.63,-5.87 0.18,-5.24 0.29,-10.49 0.35,-15.74 0.06,-4.96 -0.08,-9.93 0.04,-14.89 0.08,-3.44 -1.83,-5.18 -4.69,-6.35 -3.65,-1.5 -7.43,-2.11 -11.37,-1.96 -2.65,0.1 -2.69,0.09 -2.71,2.66 -0.07,8.15 -0.16,16.29 -0.22,24.44 -0.03,4.55 -0.01,9.1 -0.01,13.74 6.27,-0.98 12.3,-0.48 17.98,3.97 z m 21.38,-4.19 c 0.18,-5.74 0.49,-11.21 0.5,-16.67 0,-7.41 -0.21,-14.82 -0.4,-22.23 -0.01,-0.35 -0.7,-0.95 -1.11,-0.98 -4.94,-0.39 -9.6,0.77 -14.09,2.76 -1.71,0.76 -2.53,2 -2.53,3.87 0,1.14 -0.18,2.28 -0.19,3.42 -0.11,9.81 -0.22,19.63 -0.25,29.44 0,1.37 0.42,2.74 0.63,4.02 3.02,-1.28 5.66,-2.6 8.44,-3.53 2.88,-0.98 5.9,-1.3 9,-0.1 z m -37.82,33.03 c -9.96,9.78 -19.83,19.46 -29.7,29.15 0.08,0.21 0.17,0.42 0.25,0.63 6.67,0.73 13.34,1.49 20.02,2.17 2.55,0.26 5.14,0.2 7.66,0.62 1.52,0.25 1.84,-0.21 1.83,-1.5 -0.02,-2.91 0.02,-5.82 -0.01,-8.74 -0.01,-1.32 0.49,-2.19 1.89,-1.88 3.26,0.73 4.63,-0.9 5.34,-3.79 0.39,-1.6 1.17,-3.12 1.81,-4.77 -1.58,0 -2.84,-0.04 -4.08,0.01 -3.36,0.12 -5,-1.47 -5.01,-4.89 -0.01,-2.26 0,-4.52 0,-7.01 z m 30.94,12.14 c -0.03,0.54 -0.12,0.78 -0.05,0.97 0.45,1.23 0.94,2.44 1.39,3.67 1.29,3.56 1.28,3.63 5.05,3.58 1.49,-0.02 1.87,0.58 1.83,1.91 -0.07,2.51 -0.01,5.03 -0.07,7.54 -0.03,1.47 0.56,2.08 2.05,1.88 2.59,-0.34 5.19,-0.63 7.78,-0.91 3.55,-0.39 7.12,-0.68 10.66,-1.17 1.86,-0.26 3.68,-0.86 5.4,-1.27 -8.49,-8.69 -16.83,-17.24 -25.18,-25.79 -0.16,0.07 -0.32,0.14 -0.48,0.21 0,2.26 -0.12,4.52 0.04,6.77 0.12,1.7 -0.46,2.46 -2.13,2.48 -1.03,0.01 -2.05,0.1 -3.08,0.12 -1.05,0.02 -2.11,0.01 -3.21,0.01 z M 118.11,109.31 c 12.17,12.13 24.11,24.03 36.34,36.23 0.27,-3.47 -0.57,-5.91 -2.72,-7.77 -0.98,-0.85 -2.16,-1.48 -3.31,-2.1 -4.09,-2.18 -5.49,-6.56 -4.14,-10.43 0.43,-1.24 1.39,-2.3 2.28,-3.71 -3.93,-3.88 -7.93,-7.86 -11.98,-11.78 -0.38,-0.37 -1.13,-0.42 -1.72,-0.48 -0.73,-0.07 -1.48,0.02 -2.21,0.02 -4.1,0.02 -8.19,0.02 -12.54,0.02 z m 39.63,35.57 c 0.19,0.16 0.39,0.32 0.58,0.48 11.75,-12.2 23.5,-24.39 34.94,-36.27 -3.83,0 -8.27,0.14 -12.7,-0.06 -1.99,-0.09 -3,0.88 -4.11,2.17 -1.65,1.92 -3.42,3.75 -5.12,5.63 -1.37,1.51 -2.71,3.04 -4.07,4.56 -0.62,0.69 -0.57,1.26 -0.03,2.08 0.63,0.96 1.2,2.16 1.24,3.27 0.2,5.04 -1.95,8.07 -6.63,10.25 -4,1.88 -4.72,3.68 -4.1,7.89 z M 171.4,218 c -0.69,-0.8 -1.01,-1.24 -1.4,-1.62 -4.36,-4.28 -8.77,-8.51 -13.07,-12.84 -1.06,-1.07 -1.69,-1.1 -2.75,-0.02 -4.2,4.27 -8.48,8.47 -12.73,12.7 -0.41,0.41 -0.76,0.87 -1.13,1.3 0.07,0.18 0.14,0.35 0.2,0.53 3.2,0 6.4,0 10.09,0 -1.66,2.01 -2.95,3.56 -4.42,5.34 2.76,0 5.15,0 7.82,0 -0.9,-1.27 -1.68,-2.3 -2.4,-3.38 -1.1,-1.63 -0.81,-2.29 1.12,-2.3 3.13,-0.01 6.26,0.06 9.39,0.18 1.48,0.05 1.81,0.66 1.12,2.01 -0.58,1.15 -1.29,2.23 -2,3.45 2.37,0 4.52,0 7.06,0 -1.42,-1.87 -2.62,-3.45 -4.06,-5.34 2.53,-0.01 4.57,-0.01 7.16,-0.01 z m 6.92,-23.98 c -0.8,-2.85 -3.67,-5.39 -6.3,-5.39 -5.77,0 -10.97,1.84 -15.41,5.57 -1.06,0.89 -1.75,0.97 -2.74,0.03 -4.44,-4.23 -9.95,-5.3 -15.8,-4.99 -3.27,0.17 -6.05,2.6 -6.77,5.67 7.15,0 14.24,0 21.25,0 0.16,0.43 0.25,0.58 0.28,0.74 0.38,2.04 1.18,2.94 2.67,2.99 1.55,0.05 2.38,-0.88 2.86,-2.98 0.09,-0.39 0.66,-0.89 1.06,-0.95 2.31,-0.3 4.63,-0.6 6.96,-0.66 3.92,-0.11 7.84,-0.03 11.94,-0.03 z m -48.3,-1.57 c 0.84,-1.02 1.41,-1.66 1.91,-2.33 0.84,-1.12 1.86,-2.09 1.85,-3.71 -0.04,-3.94 0.06,-7.88 0.09,-11.82 0.04,-5.3 0.07,-10.6 0.09,-15.9 0.01,-3.27 0,-6.55 0,-9.94 -2.14,1.29 -3.66,3.24 -3.72,4.82 -0.16,4.15 -0.35,8.31 -0.4,12.46 -0.08,7.06 -0.07,14.12 -0.06,21.19 0,1.65 0.14,3.29 0.24,5.23 z m 49.86,-30.04 c -0.26,0.02 -0.51,0.03 -0.77,0.05 0,-3.65 0,-7.3 0,-10.94 -0.16,0 -0.32,0.01 -0.48,0.01 -0.16,1.55 -0.32,3.1 -0.48,4.64 -0.2,-0.01 -0.4,-0.03 -0.6,-0.04 0,-1.73 0,-3.45 0,-5.18 -0.16,0 -0.32,0 -0.48,0 -0.2,11.73 -0.4,23.46 -0.6,35.19 0.17,0.01 0.34,0.02 0.51,0.03 0.11,-3.12 0.22,-6.23 0.34,-9.35 0.29,0.01 0.59,0.01 0.88,0.02 0,3.91 0,7.83 0,11.74 0.28,-0.01 0.57,-0.01 0.85,-0.02 0,-5.58 0,-11.17 0,-16.75 0.28,0 0.56,0 0.84,-0.01 0.48,6.31 0.09,12.68 0.39,19.01 0.19,-0.01 0.38,-0.02 0.57,-0.02 0,-12.37 0,-24.74 0,-37.1 -0.08,0 -0.17,-0.01 -0.25,-0.01 -0.24,2.9 -0.48,5.81 -0.72,8.73 z m -6.57,67.13 c -11.54,0 -22.62,0 -33.69,0 -0.05,0.2 -0.1,0.4 -0.15,0.6 0.7,0.25 1.4,0.7 2.11,0.71 3.13,0.04 6.27,-0.07 9.4,-0.08 2.91,-0.01 5.81,0.02 8.72,0.03 4.62,0.03 9.23,0.08 13.85,0.04 0.38,0 1.06,-0.6 1.07,-0.93 0.08,-2.91 0.09,-5.82 0,-8.73 -0.02,-0.65 -0.52,-1.29 -0.79,-1.93 -0.17,0.06 -0.35,0.12 -0.52,0.18 0,1.65 0,3.3 0,4.95 0,1.64 0,3.28 0,5.16 z m -14.98,18.34 c -1.51,-0.18 -2.34,0.35 -2.58,1.6 -0.24,1.27 -0.44,2.57 -0.5,3.86 -0.08,1.8 -0.02,3.6 -0.02,5.48 -1.54,0.15 -2.9,0.27 -4.45,0.42 1.44,1.22 2.64,2.24 3.49,2.96 1.51,-1.35 3.04,-2.62 4.45,-4.02 0.34,-0.33 0.46,-1.08 0.4,-1.59 -0.18,-1.44 -0.62,-2.84 -0.75,-4.28 -0.14,-1.45 -0.04,-2.93 -0.04,-4.43 z m -0.83,-2.4 c -2.13,-1.88 -4.76,-1.15 -5.53,1.5 -0.48,1.66 -0.53,3.48 -0.55,5.24 -0.03,2.89 -0.1,3.05 -3.05,3.13 -0.8,0.02 -1.6,0 -2.4,0 -0.79,0 -1.58,0 -2.58,0 3.25,2.3 6.54,2.19 10.09,1.57 0,-1.87 -0.03,-3.69 0.01,-5.51 0.06,-2.72 0.68,-5.12 4.01,-5.93 z M 142.56,110.3 c 2.41,2.89 4.69,5.65 7.01,8.37 0.19,0.22 0.73,0.31 1.04,0.22 0.19,-0.05 0.39,-0.58 0.34,-0.85 -0.12,-0.66 -0.31,-1.33 -0.59,-1.94 -0.59,-1.29 -1.33,-2.52 -1.88,-3.84 -1.31,-3.14 -2.35,-3.58 -5.92,-1.96 z m 12.3,9.04 c 0,-1.35 -0.04,-2.41 0.01,-3.46 0.05,-1.08 0.2,-2.16 0.27,-3.24 0.2,-3.03 -0.03,-3.27 -3.07,-3.28 -2.23,-0.01 -2.87,0.8 -1.86,2.82 1.11,2.23 2.52,4.3 3.82,6.43 0.12,0.22 0.39,0.35 0.83,0.73 z m 8.35,-9.77 c -1.55,0.11 -2.77,0.16 -3.99,0.3 -0.33,0.04 -0.79,0.3 -0.91,0.58 -1.05,2.42 -0.89,4.92 -0.62,7.8 3.21,-2.25 3.72,-5.67 5.52,-8.68 z m -14.93,10.94 c 0.19,-0.18 0.37,-0.36 0.56,-0.53 -0.91,-1.04 -1.85,-2.05 -2.73,-3.12 -1.77,-2.15 -3.47,-4.35 -5.26,-6.48 -0.68,-0.81 -1.55,-1.38 -2.66,-0.11 3.44,3.4 6.13,7.47 10.09,10.24 z m 12.89,-2.63 c 0.15,0.21 0.3,0.42 0.45,0.63 0.57,-0.34 1.24,-0.58 1.69,-1.03 0.76,-0.75 1.43,-1.6 2.05,-2.47 1.23,-1.71 2.41,-3.46 3.61,-5.2 -0.13,-0.15 -0.26,-0.3 -0.39,-0.46 -0.61,0.38 -1.39,0.64 -1.81,1.17 -1.19,1.52 -2.19,3.18 -3.34,4.73 -0.67,0.94 -1.5,1.76 -2.26,2.63 z m 11.52,134.49 c 0.2,0.11 0.4,0.22 0.6,0.34 0.37,-0.51 1.03,-1 1.05,-1.52 0.11,-2.32 0.08,-4.65 0,-6.97 -0.01,-0.32 -0.59,-0.62 -0.9,-0.93 -0.25,0.31 -0.71,0.62 -0.72,0.94 -0.06,2.7 -0.03,5.42 -0.03,8.14 z M 155.35,128.79 c 2.14,-0.93 3.23,-2.19 2.77,-3.15 -0.55,-1.15 -2.25,-1.95 -3.08,-1.45 -1.44,0.85 -1.36,2.37 0.31,4.6 z m -4.11,-1.84 c -0.38,0.96 -0.8,1.7 -0.96,2.5 -0.25,1.28 0.97,2.71 1.91,2.39 1.91,-0.66 2.27,-2.22 0.81,-3.57 -0.49,-0.45 -1.06,-0.8 -1.76,-1.32 z m 16.6,114.11 c 0.14,-0.1 0.29,-0.2 0.43,-0.3 -0.88,-2.46 -1.77,-4.93 -2.65,-7.39 -0.21,0.01 -0.43,0.01 -0.64,0.02 -0.12,0.51 -0.51,1.17 -0.32,1.5 1.16,2 0.74,4.9 3.18,6.17 z m -12.81,-110.6 c -0.41,0.96 -0.75,1.45 -0.82,1.96 -0.15,1.16 0.12,2.37 1.43,2.47 0.61,0.04 1.3,-0.9 1.95,-1.39 -0.74,-0.87 -1.47,-1.75 -2.56,-3.04 z m 18.7,-20.72 c -1.04,-0.11 -4.72,2.43 -5.31,3.84 -0.18,0.44 -0.02,1.02 -0.01,1.54 0.45,-0.23 1.01,-0.36 1.33,-0.71 1.35,-1.5 2.63,-3.06 3.99,-4.67 z m -9.37,14.21 c -1.25,1.25 -1.32,3.38 -0.23,4.44 1.71,-1.15 1.8,-2.34 0.23,-4.44 z m -22.69,99 c 1.99,0.34 3.68,-0.89 5.18,-3.7 -2.41,0.53 -3.58,2.27 -5.18,3.7 z m 15.73,0.27 c 1.77,0.17 3.17,-1.25 3.88,-3.79 -2.37,0.28 -2.58,2.44 -3.88,3.79 z m -7.89,-100.46 c 1.25,1.79 2.58,1.88 3.74,0.27 0.17,-0.24 0.31,-0.68 0.2,-0.89 -0.11,-0.2 -0.59,-0.37 -0.85,-0.31 -1.04,0.26 -2.05,0.61 -3.09,0.93 z m 10.4,2.4 c 0.65,-0.5 1.25,-0.96 1.99,-1.54 -1.24,-0.5 -2.21,-0.93 -3.21,-1.26 -0.28,-0.09 -0.67,0.14 -1.01,0.22 0.1,0.29 0.13,0.65 0.33,0.86 0.54,0.55 1.15,1.04 1.9,1.72 z m -11.59,8.99 c 0.34,0.2 0.67,0.39 1.01,0.59 0.35,-0.63 1.13,-1.44 0.96,-1.85 -0.4,-0.93 -1.26,-1.66 -1.93,-2.48 -0.23,0.11 -0.46,0.22 -0.69,0.32 0.22,1.15 0.43,2.28 0.65,3.42 z m -0.79,-6.6 c 2.44,-1.15 2.53,-2.27 0.58,-3.73 -1.31,1.04 -0.46,2.31 -0.58,3.73 z m 12.66,0.45 c -0.39,1.67 -0.65,2.79 -0.9,3.92 0.2,0.11 0.41,0.22 0.61,0.33 0.56,-0.73 1.4,-1.4 1.59,-2.22 0.11,-0.52 -0.77,-1.25 -1.3,-2.03 z m 0.47,127.03 c 0.66,1.79 1.63,1.74 3.54,0 -1.18,0 -2.28,0 -3.54,0 z"
   id="path57" />
	<path
   d="m 153.15,173.19 c -0.63,-0.32 -1.3,-0.58 -1.88,-0.97 -3.61,-2.43 -7.52,-3.97 -11.93,-4.09 -0.82,-0.02 -1.63,-0.25 -1.38,-1.22 0.12,-0.47 0.95,-1.13 1.38,-1.08 5.24,0.63 9.72,2.98 13.74,6.31 0.19,0.16 0.25,0.47 0.37,0.71 -0.09,0.11 -0.2,0.23 -0.3,0.34 z"
   id="path59" />
	<path
   d="m 153.12,183.71 c -0.31,-0.07 -0.66,-0.07 -0.92,-0.22 -3.86,-2.13 -8.05,-3.09 -12.38,-3.58 -0.45,-0.05 -1,-0.06 -1.31,-0.32 -0.37,-0.31 -0.73,-0.87 -0.73,-1.32 0,-0.29 0.68,-0.8 1.06,-0.8 0.9,0 1.83,0.13 2.68,0.42 3.06,1.05 6.13,2.1 9.11,3.35 1.02,0.43 1.81,1.41 2.71,2.14 -0.08,0.11 -0.15,0.22 -0.22,0.33 z"
   id="path61" />
	<path
   d="m 153.56,161.88 c -0.45,-0.14 -0.95,-0.2 -1.33,-0.45 -3.73,-2.46 -7.95,-3.57 -12.23,-4.54 -0.5,-0.11 -1.09,-0.09 -1.47,-0.37 -0.39,-0.28 -0.57,-0.84 -0.84,-1.28 0.44,-0.2 0.94,-0.64 1.32,-0.56 4.69,1.03 9.18,2.59 13.22,5.24 0.59,0.39 1.06,0.95 1.58,1.44 -0.09,0.18 -0.17,0.35 -0.25,0.52 z"
   id="path63" />
	<path
   d="m 157.52,171.93 c 0.38,-0.42 0.67,-1 1.14,-1.24 3.22,-1.64 6.47,-3.23 9.72,-4.8 0.56,-0.27 1.15,-0.53 1.75,-0.6 0.43,-0.05 1.24,0.15 1.28,0.35 0.09,0.47 -0.04,1.14 -0.35,1.48 -0.35,0.38 -0.98,0.52 -1.51,0.73 -3.57,1.41 -7.15,2.82 -10.73,4.21 -0.33,0.13 -0.7,0.15 -1.05,0.22 -0.09,-0.12 -0.17,-0.23 -0.25,-0.35 z"
   id="path65" />
	<path
   d="m 157.18,182.94 c 0.77,-0.72 1.19,-1.22 1.72,-1.59 3.3,-2.29 6.85,-4.08 10.77,-4.98 0.62,-0.14 1.37,0.35 2.07,0.54 -0.42,0.56 -0.76,1.52 -1.27,1.62 -4.34,0.82 -8.51,2.07 -12.26,4.49 -0.1,0.07 -0.31,-0.02 -1.03,-0.08 z"
   id="path67" />
	<path
   d="m 158.27,161.14 c 0.6,-0.68 0.94,-1.17 1.38,-1.53 3.08,-2.48 6.76,-3.7 10.44,-4.9 0.5,-0.16 1.2,0.27 1.8,0.43 -0.31,0.42 -0.53,1.06 -0.94,1.24 -3.86,1.63 -7.75,3.19 -11.64,4.75 -0.19,0.07 -0.42,0.01 -1.04,0.01 z"
   id="path69" />
	<path
   d="m 177.94,162.59 c 0.34,3.14 0.49,6.29 -0.03,9.44 -0.18,0 -0.35,0 -0.53,0 0,-3.15 0,-6.29 0,-9.44 0.19,0.01 0.37,0.01 0.56,0 z"
   id="path71" />
	<path
   d="m 179.3,169.57 c 0,-1.67 0,-3.34 0,-5.12 1.25,0.81 1.33,3.3 0,5.12 z"
   id="path73" />
</g>
</svg>
