<svg version="1.1" id="Capa_1" xmlns="http://www.w3.org/2000/svg" xmlns:xlink="http://www.w3.org/1999/xlink" x="0px" y="0px"
	 viewBox="0 0 281.65 270.21" style="enable-background:new 0 0 281.65 270.21;" xml:space="preserve">
<g>
	<path d="M106.01,178.09c0.26,4.7,0.46,9.13,0.77,13.55c0.14,2.01,0.5,4.01,0.79,6.01c0.27,1.86,1.46,2.78,3.25,2.73
		c2.86-0.08,5.74-0.11,8.55-0.56c1.63-0.26,2.33,0.32,3.04,1.52c3.99,6.71,7.99,13.4,12,20.1c2.02,3.37,4.05,6.72,6.22,10.31
		c1.24-2.03,2.38-3.87,3.49-5.72c4.87-8.14,9.76-16.27,14.58-24.44c0.87-1.48,1.76-2.02,3.61-1.7c2.69,0.47,5.47,0.43,8.22,0.49
		c1.83,0.04,2.99-0.93,3.21-2.78c0.43-3.73,0.9-7.47,1.15-11.22c0.18-2.68,0.03-5.37,0.03-8.4c2.99,0.17,5.61,0.26,8.21,0.49
		c7.58,0.66,15.02,1.98,21.97,5.28c3.53,1.68,6.3,4.16,8.33,7.57c4.23,7.12,6.77,14.9,8.99,22.79c1.46,5.18,2.62,10.45,4.01,15.65
		c0.46,1.7-0.08,2.6-1.51,3.53c-11.66,7.56-24.36,12.66-37.71,16.31c-11.63,3.18-23.49,5.03-35.51,5.66
		c-16.21,0.85-32.3-0.07-48.24-3.43c-12.52-2.64-24.62-6.51-36.05-12.27c-3.9-1.97-7.6-4.34-11.39-6.53
		c-1.14-0.65-1.57-1.43-1.23-2.88c2.5-10.89,5.23-21.71,9.58-32.03c1.99-4.71,4.11-9.42,8.56-12.46c3.57-2.44,7.59-3.82,11.72-4.93
		c6.49-1.75,13.13-2.42,19.82-2.64C104.95,178.08,105.45,178.09,106.01,178.09z"/>
	<path d="M219.17,50.24c-3.95,1.45-7.78,2.83-11.59,4.25c-7.15,2.66-14.29,5.35-21.44,8.01c-14.35,5.35-28.69,10.72-43.06,16.01
		c-0.85,0.31-2.01,0.34-2.85,0.03c-15.09-5.58-30.15-11.25-45.23-16.87C83.54,57.42,72.06,53.2,60.6,48.95
		c-1.83-0.68-3.65-1.39-5.8-2.22c3.47-1.32,6.63-2.55,9.81-3.73c11.4-4.26,22.8-8.5,34.2-12.75c12.93-4.81,25.88-9.56,38.77-14.46
		c2.49-0.95,4.58-1.33,7.29-0.28c12.65,4.92,25.44,9.5,38.16,14.24c14.61,5.44,29.2,10.95,43.83,16.35
		c1.32,0.49,1.63,1.14,1.62,2.43c-0.04,16.64-0.05,33.28,0,49.92c0,0.86,0.33,1.89,0.87,2.54c2.57,3.13,2.49,7.52-0.33,10.22
		c-3.08,2.95-7.51,2.93-10.59-0.04c-2.68-2.59-2.71-7.28-0.2-10.31c0.57-0.69,1.01-1.74,1.01-2.62c0.07-10,0.05-20,0.04-30
		c0-5.67-0.01-11.35-0.02-17.02C219.25,50.97,219.21,50.7,219.17,50.24z"/>
	<path d="M91.78,104.51c15.81,7.33,32.35,9.48,49.27,9.52c16.86,0.03,33.35-2.03,49.29-9.17c0,3.95,0.28,7.72-0.05,11.44
		c-1.05,11.74-4.64,22.72-10.69,32.85c-5.31,8.91-11.92,16.61-21.08,21.79c-11.67,6.6-23.43,6.66-35.1,0.05
		c-9.89-5.59-16.84-14.03-22.29-23.8c-6.15-11.03-9.47-22.88-9.79-35.52C91.29,109.34,91.62,107,91.78,104.51z"/>
	<path d="M85.07,64.64c3.19,1.14,6.09,2.14,8.96,3.2c9.41,3.49,18.8,7,28.2,10.51c6.09,2.27,12.17,4.58,18.28,6.8
		c0.65,0.24,1.54,0.23,2.19-0.01c17.25-6.4,34.47-12.85,51.71-19.28c1.04-0.39,2.12-0.67,3.34-1.05c0.04,0.79,0.1,1.44,0.1,2.09
		c0.01,5.17-0.17,10.35,0.05,15.51c0.21,4.85-2.03,8.26-5.66,11.02c-6.46,4.9-14.02,7.23-21.76,9.02
		c-10.73,2.48-21.64,3.33-32.62,3.02c-12.45-0.35-24.74-1.84-36.5-6.26c-4.8-1.8-9.37-4.05-13.07-7.77
		c-2.31-2.32-3.45-5.04-3.39-8.32c0.09-4.66,0.12-9.32,0.16-13.97C85.08,67.77,85.07,66.38,85.07,64.64z"/>
</g>
</svg>
