<svg version="1.1" id="Capa_1" xmlns="http://www.w3.org/2000/svg" xmlns:xlink="http://www.w3.org/1999/xlink" x="0px" y="0px"
	 viewBox="0 0 281.65 270.21" style="enable-background:new 0 0 281.65 270.21;" xml:space="preserve">
<g>
	<path d="M104.1,157.37c6.58,23.93,12.53,46.82,24.53,67.93c1.13-7.06,3.09-14.11,3.11-21.17c0.01-4.85-3.08-9.63-4.07-14.58
		c-2.51-12.57-3.85-11.26,8.98-11.36c4.91-0.04,9.82,0.06,14.73-0.04c3.41-0.06,4.98,1.02,4.12,4.77
		c-1.18,5.19-0.95,10.98-3.23,15.57c-4.67,9.4,0.65,17.8,1.21,26.78c11.67-20.93,17.54-43.88,24.14-67.78
		c13.48,6.17,26.62,11.97,39.56,18.17c7.2,3.45,12.97,8.88,17.37,15.55c8.79,13.3,13.18,28.04,14.01,43.92
		c0.16,2.99-1.14,4.62-3.83,5.73c-13.21,5.42-27.08,8.15-41.11,10.08c-29.13,4-58.43,4.68-87.75,3.33
		c-23.82-1.09-47.57-3.19-70.51-10.4c-13.23-4.16-13.48-4.74-11.18-18.37c1.91-11.31,5.44-22,11.42-31.84
		c4.39-7.23,10.04-13.39,17.54-17.14C76.4,169.88,89.99,163.92,104.1,157.37z"/>
	<path d="M163.48,27.63c13.01,7.34,20.25,17.85,21.91,32.08c0.38,3.26,1.03,5.94,4.42,7.45c0.95,0.42,1.66,2.18,1.84,3.41
		c0.31,2.2,0.04,4.48,0.16,6.72c0.2,3.77-0.88,6.37-5.23,6.43c-0.65,0.01-1.36,0.36-1.92,0.74c-14.3,9.71-30.54,11.18-47.12,10.93
		c-12.17-0.18-24-2.18-35.07-7.57c-3.22-1.57-6.49-3.03-9.73-4.56c-0.5-0.24-1.01-0.52-1.4-0.89c-2.72-2.56-1.9-13.8,1.34-15.6
		c3.43-1.91,3.54-5.11,3.93-8.3c1.61-13.2,8.59-22.82,19.71-29.71c0.36-0.22,0.72-0.45,1.11-0.59c0.24-0.09,0.53-0.02,1.13-0.02
		c2.23,9.26,4.49,18.6,6.74,27.93c0.58-0.08,1.16-0.16,1.74-0.24c0.11-1.37,0.46-2.77,0.31-4.11c-0.86-7.67-1.73-15.33-2.82-22.97
		c-0.41-2.87,0.2-4.3,3.24-5.08c8.76-2.25,17.44-2.23,26.19-0.04c2.66,0.67,3.66,1.94,3.26,4.74c-0.94,6.66-1.68,13.36-2.42,20.05
		c-0.26,2.37-0.31,4.77,0.51,7.34C159.39,46.94,160.45,37.31,163.48,27.63z"/>
	<path d="M96.77,93.22c29.54,12.84,58.83,12.49,89-0.21c1.31,4.17,3.46,8.42,3.88,12.84c0.95,10.03-3.39,18.5-9.38,26.27
		c-1.75,2.27-3.3,4.83-4.36,7.48c-2.96,7.42-7.04,13.98-13.09,19.28c-15.33,13.43-36.78,11.39-49.33-5.9
		c-7.4-10.19-13.16-21.64-19.01-32.86c-2.92-5.61-3.78-12.16-2.03-18.46C93.31,98.6,95.38,95.87,96.77,93.22z"/>
</g>
</svg>
