<svg
   version="1.1"
   id="Capa_1"
   x="0px"
   y="0px"
   viewBox="0 0 289.45248 289.51749"
   xml:space="preserve"
   xmlns="http://www.w3.org/2000/svg"
   xmlns:svg="http://www.w3.org/2000/svg"><defs
   id="defs13" />
<style
   type="text/css"
   id="style2">
	.st0{fill:#FFFFFF;}
</style>
<g
   id="g6"
   transform="translate(-39.557505,-7.2925)"
   style="fill:#ffffff">
	<path
   d="m 107.85,81.29 c -3.62,5.1 -5.32,12.73 -4.38,22.18 1.16,11.56 5.22,21.86 14.73,29.38 -0.12,0.28 -0.25,0.55 -0.37,0.83 -4.78,-1.28 -9.55,-2.56 -14.33,-3.83 0.77,19.11 10.7,31.54 29.01,37.69 -0.13,0.22 -0.27,0.43 -0.4,0.65 h -14.2 c 2.84,7.89 7.1,14.31 13.42,19.22 6.37,4.96 13.88,7.13 21.85,8.37 -16.18,12.47 -34.44,17.36 -55.13,15.85 16.55,9.99 33.58,16.73 52.49,17.19 20.44,0.5 40.08,-3.29 58.32,-12.94 24.47,-12.94 40.67,-32.98 50.04,-58.77 4.93,-13.56 7.12,-27.66 7.86,-42.02 0.06,-1.2 0.9,-2.58 1.79,-3.47 3.26,-3.26 6.9,-6.15 9.98,-9.55 1.83,-2.02 2.88,-4.73 4.42,-7.36 -6.86,1.85 -12.98,3.51 -19.11,5.16 -0.13,-0.23 -0.27,-0.46 -0.4,-0.69 6.55,-5.61 12.44,-11.67 14.74,-20.85 -1.59,0.7 -2.74,1.29 -3.95,1.72 -6.09,2.18 -12.21,4.3 -18.3,6.47 -1.57,0.56 -2.55,-0.01 -3.62,-1.21 -4.05,-4.53 -9.03,-7.55 -14.93,-9.16 -9.69,-2.65 -19.09,-1.65 -28.1,2.42 -11.28,5.1 -19.31,13.26 -22.4,25.61 -1.42,5.68 -1.08,11.38 0.28,17.35 -32.39,-2.03 -58.03,-16.84 -79.31,-40.24 z"
   id="path4"
   style="fill:#ffffff" />
</g>
</svg>
