<?xml version="1.0" encoding="UTF-8" standalone="no"?>
<!-- Generator: Adobe Illustrator 24.0.0, SVG Export Plug-In . SVG Version: 6.00 Build 0)  -->

<svg
   version="1.1"
   id="Capa_1"
   x="0px"
   y="0px"
   viewBox="0 0 635.19995 582.90002"
   xml:space="preserve"
   sodipodi:docname="carbon_08.svg"
   width="635.19995"
   height="582.90002"
   inkscape:version="1.1.1 (3bf5ae0d25, 2021-09-20, custom)"
   xmlns:inkscape="http://www.inkscape.org/namespaces/inkscape"
   xmlns:sodipodi="http://sodipodi.sourceforge.net/DTD/sodipodi-0.dtd"
   xmlns="http://www.w3.org/2000/svg"
   xmlns:svg="http://www.w3.org/2000/svg"><defs
   id="defs199" /><sodipodi:namedview
   id="namedview197"
   pagecolor="#ffffff"
   bordercolor="#666666"
   borderopacity="1.0"
   inkscape:pageshadow="2"
   inkscape:pageopacity="0.0"
   inkscape:pagecheckerboard="0"
   showgrid="false"
   inkscape:zoom="0.53028973"
   inkscape:cx="328.12252"
   inkscape:cy="310.20778"
   inkscape:window-width="1600"
   inkscape:window-height="835"
   inkscape:window-x="0"
   inkscape:window-y="32"
   inkscape:window-maximized="1"
   inkscape:current-layer="Capa_1" />
<style
   type="text/css"
   id="style2">
	.st0{enable-background:new    ;}
	.st1{fill:#020100;}
	.st2{fill:#3B5E5B;}
	.st3{fill:#000102;}
	.st4{fill:#EFC8A5;}
	.st5{fill:#EF9D4B;}
	.st6{fill:#F2840C;}
	.st7{fill:#F4370B;}
	.st8{fill:#39B2B5;}
	.st9{fill:none;stroke:#000202;stroke-miterlimit:10;}
	.st10{fill:#9CD3CF;}
	.st11{fill:#FFFBF7;}
</style>
<g
   id="g194"
   transform="translate(-146.5,-259.6)">
	<g
   id="g30">
		<g
   class="st0"
   id="g28">
			<path
   class="st1"
   d="m 166.1,265.6 c -2.7,0 -4.8,1 -6.3,3.1 -1.5,2.1 -2.2,4.9 -2.2,8.6 0,7.6 2.9,11.5 8.6,11.5 2.4,0 5.3,-0.6 8.7,-1.8 v 6.1 c -2.8,1.2 -6,1.8 -9.4,1.8 -5,0 -8.8,-1.5 -11.4,-4.5 -2.6,-3 -4,-7.4 -4,-13 0,-3.6 0.6,-6.7 1.9,-9.4 1.3,-2.7 3.2,-4.7 5.6,-6.2 2.4,-1.4 5.3,-2.1 8.5,-2.1 3.3,0 6.7,0.8 10,2.4 l -2.3,5.9 c -1.3,-0.6 -2.6,-1.1 -3.9,-1.6 -1.3,-0.5 -2.6,-0.8 -3.8,-0.8 z"
   id="path4" />
			<path
   class="st1"
   d="m 203.1,294.3 -2.5,-8.2 h -12.5 l -2.5,8.2 h -7.8 l 12.1,-34.4 h 8.9 l 12.1,34.4 z m -4.2,-14.2 c -2.3,-7.4 -3.6,-11.6 -3.9,-12.5 -0.3,-1 -0.5,-1.7 -0.6,-2.3 -0.5,2 -2,6.9 -4.4,14.8 z"
   id="path6" />
			<path
   class="st1"
   d="m 222.5,281.2 v 13.1 h -7.3 V 260 h 10 c 4.7,0 8.1,0.8 10.3,2.5 2.2,1.7 3.4,4.3 3.4,7.7 0,2 -0.6,3.8 -1.7,5.4 -1.1,1.6 -2.7,2.8 -4.7,3.7 5.2,7.7 8.5,12.7 10.1,14.9 h -8.1 l -8.2,-13.1 h -3.8 z m 0,-5.9 h 2.3 c 2.3,0 4,-0.4 5.1,-1.1 1.1,-0.7 1.6,-2 1.6,-3.6 0,-1.6 -0.6,-2.8 -1.7,-3.5 -1.1,-0.7 -2.8,-1 -5.2,-1 h -2.2 v 9.2 z"
   id="path8" />
			<path
   class="st1"
   d="m 246.9,260.1 h 10.7 c 4.9,0 8.4,0.7 10.6,2.1 2.2,1.4 3.3,3.6 3.3,6.6 0,2 -0.5,3.7 -1.4,5 -1,1.3 -2.2,2.1 -3.8,2.4 v 0.2 c 2.2,0.5 3.7,1.4 4.7,2.7 1,1.3 1.4,3.1 1.4,5.3 0,3.1 -1.1,5.6 -3.4,7.3 -2.3,1.7 -5.3,2.6 -9.2,2.6 H 247 v -34.2 z m 7.3,13.5 h 4.2 c 2,0 3.4,-0.3 4.3,-0.9 0.9,-0.6 1.3,-1.6 1.3,-3 0,-1.3 -0.5,-2.3 -1.4,-2.8 -1,-0.6 -2.5,-0.9 -4.6,-0.9 h -3.8 z m 0,5.8 v 8.9 h 4.7 c 2,0 3.5,-0.4 4.4,-1.1 1,-0.8 1.4,-1.9 1.4,-3.5 0,-2.8 -2,-4.3 -6.1,-4.3 z"
   id="path10" />
			<path
   class="st1"
   d="m 310.2,277.2 c 0,5.7 -1.4,10 -4.2,13.1 -2.8,3 -6.8,4.6 -12.1,4.6 -5.3,0 -9.3,-1.5 -12.1,-4.6 -2.8,-3 -4.2,-7.4 -4.2,-13.1 0,-5.7 1.4,-10.1 4.2,-13.1 2.8,-3 6.9,-4.5 12.1,-4.5 5.2,0 9.3,1.5 12.1,4.5 2.8,3 4.2,7.4 4.2,13.1 z m -25,0 c 0,3.8 0.7,6.7 2.2,8.6 1.5,1.9 3.6,2.9 6.5,2.9 5.8,0 8.7,-3.8 8.7,-11.5 0,-7.7 -2.9,-11.6 -8.6,-11.6 -2.9,0 -5.1,1 -6.5,2.9 -1.4,1.9 -2.3,4.8 -2.3,8.7 z"
   id="path12" />
			<path
   class="st1"
   d="m 347.7,294.3 h -9.2 l -14.9,-25.9 h -0.2 c 0.3,4.6 0.4,7.8 0.4,9.8 v 16.1 h -6.5 V 260 h 9.2 l 14.9,25.7 h 0.2 c -0.2,-4.5 -0.4,-7.6 -0.4,-9.4 v -16.2 h 6.5 z"
   id="path14" />
			<path
   class="st1"
   d="m 368.8,260.1 h 10.7 c 4.9,0 8.4,0.7 10.6,2.1 2.2,1.4 3.3,3.6 3.3,6.6 0,2 -0.5,3.7 -1.4,5 -1,1.3 -2.2,2.1 -3.8,2.4 v 0.2 c 2.2,0.5 3.7,1.4 4.7,2.7 1,1.3 1.4,3.1 1.4,5.3 0,3.1 -1.1,5.6 -3.4,7.3 -2.3,1.7 -5.3,2.6 -9.2,2.6 h -12.8 v -34.2 z m 7.3,13.5 h 4.2 c 2,0 3.4,-0.3 4.3,-0.9 0.9,-0.6 1.3,-1.6 1.3,-3 0,-1.3 -0.5,-2.3 -1.4,-2.8 -1,-0.6 -2.5,-0.9 -4.6,-0.9 h -3.8 z m 0,5.8 v 8.9 h 4.7 c 2,0 3.5,-0.4 4.4,-1.1 1,-0.8 1.4,-1.9 1.4,-3.5 0,-2.8 -2,-4.3 -6.1,-4.3 z"
   id="path16" />
			<path
   class="st1"
   d="m 428.9,260.1 v 22.2 c 0,2.5 -0.6,4.7 -1.7,6.7 -1.1,1.9 -2.8,3.4 -4.9,4.4 -2.1,1 -4.7,1.5 -7.6,1.5 -4.4,0 -7.8,-1.1 -10.3,-3.4 -2.4,-2.3 -3.7,-5.3 -3.7,-9.3 v -22.1 h 7.2 v 21 c 0,2.6 0.5,4.6 1.6,5.8 1.1,1.2 2.8,1.9 5.3,1.9 2.4,0 4.1,-0.6 5.2,-1.9 1.1,-1.2 1.6,-3.2 1.6,-5.8 v -20.9 h 7.3 z"
   id="path18" />
			<path
   class="st1"
   d="m 465.7,276.9 c 0,5.6 -1.6,10 -4.8,13 -3.2,3 -7.8,4.5 -13.9,4.5 h -9.7 V 260.1 H 448 c 5.6,0 9.9,1.5 13,4.4 3.2,3 4.7,7.1 4.7,12.4 z m -7.5,0.2 c 0,-7.4 -3.2,-11 -9.7,-11 h -3.9 v 22.3 h 3.1 c 7,-0.1 10.5,-3.8 10.5,-11.3 z"
   id="path20" />
			<path
   class="st1"
   d="m 485.8,275.1 h 13.6 v 17.8 c -2.2,0.7 -4.3,1.2 -6.2,1.5 -1.9,0.3 -3.9,0.4 -6,0.4 -5.2,0 -9.1,-1.5 -11.8,-4.6 -2.7,-3.1 -4.1,-7.4 -4.1,-13.1 0,-5.5 1.6,-9.8 4.7,-12.9 3.2,-3.1 7.5,-4.6 13.2,-4.6 3.5,0 6.9,0.7 10.2,2.1 l -2.4,5.8 c -2.5,-1.2 -5.1,-1.9 -7.8,-1.9 -3.1,0 -5.7,1.1 -7.5,3.2 -1.8,2.1 -2.8,4.9 -2.8,8.5 0,3.7 0.8,6.6 2.3,8.5 1.5,2 3.7,2.9 6.6,2.9 1.5,0 3.1,-0.2 4.6,-0.5 v -7.1 h -6.5 v -6 z"
   id="path22" />
			<path
   class="st1"
   d="M 527.3,294.3 H 507.6 V 260 h 19.7 v 6 h -12.5 v 7.5 h 11.6 v 6 h -11.6 v 8.8 h 12.5 z"
   id="path24" />
			<path
   class="st1"
   d="m 547.6,294.3 h -7.3 V 266.1 H 531 v -6 h 25.9 v 6 h -9.3 z"
   id="path26" />
		</g>
	</g>
	<g
   id="g88">
		<g
   class="st0"
   id="g86">
			<path
   d="m 156.9,336.4 h -2.5 v -19.2 h -6.8 V 315 h 16 v 2.2 h -6.8 v 19.2 z"
   id="path32" />
			<path
   d="m 180.4,328.4 c 0,2.6 -0.7,4.7 -2,6.1 -1.3,1.5 -3.1,2.2 -5.5,2.2 -1.4,0 -2.7,-0.3 -3.8,-1 -1.1,-0.7 -2,-1.6 -2.6,-2.9 -0.6,-1.3 -0.9,-2.7 -0.9,-4.4 0,-2.6 0.7,-4.7 2,-6.1 1.3,-1.5 3.1,-2.2 5.4,-2.2 2.2,0 4,0.7 5.4,2.2 1.4,1.5 2,3.5 2,6.1 z m -12.3,0 c 0,2 0.4,3.6 1.2,4.7 0.8,1.1 2,1.6 3.6,1.6 1.6,0 2.8,-0.5 3.6,-1.6 0.8,-1.1 1.2,-2.6 1.2,-4.7 0,-2 -0.4,-3.6 -1.2,-4.6 -0.8,-1 -2,-1.6 -3.7,-1.6 -1.6,0 -2.8,0.5 -3.6,1.6 -0.7,1 -1.1,2.5 -1.1,4.6 z"
   id="path34" />
			<path
   d="m 194.8,336.4 h -2.4 v -22.8 h 2.4 z"
   id="path36" />
			<path
   d="m 199.8,316 c 0,-0.6 0.1,-1 0.4,-1.2 0.3,-0.3 0.6,-0.4 1,-0.4 0.4,0 0.7,0.1 1,0.4 0.3,0.3 0.4,0.7 0.4,1.2 0,0.5 -0.1,1 -0.4,1.2 -0.3,0.2 -0.6,0.4 -1,0.4 -0.4,0 -0.8,-0.1 -1,-0.4 -0.3,-0.2 -0.4,-0.6 -0.4,-1.2 z m 2.6,20.4 H 200 v -16 h 2.4 z"
   id="path38" />
			<path
   d="M 228,336.4 V 326 c 0,-1.3 -0.3,-2.2 -0.8,-2.9 -0.5,-0.6 -1.4,-1 -2.5,-1 -1.5,0 -2.6,0.4 -3.4,1.3 -0.7,0.9 -1.1,2.2 -1.1,4 v 9 h -2.4 V 326 c 0,-1.3 -0.3,-2.2 -0.8,-2.9 -0.5,-0.6 -1.4,-1 -2.6,-1 -1.5,0 -2.6,0.5 -3.3,1.4 -0.7,0.9 -1.1,2.4 -1.1,4.5 v 8.4 h -2.4 v -16 h 2 l 0.4,2.2 h 0.1 c 0.5,-0.8 1.1,-1.4 1.9,-1.8 0.8,-0.4 1.8,-0.7 2.8,-0.7 2.5,0 4.1,0.9 4.9,2.7 h 0.1 c 0.5,-0.8 1.2,-1.5 2.1,-2 0.9,-0.5 1.9,-0.7 3.1,-0.7 1.8,0 3.2,0.5 4.1,1.4 0.9,0.9 1.4,2.4 1.4,4.5 v 10.5 H 228 Z"
   id="path40" />
			<path
   d="m 235.3,316 c 0,-0.6 0.1,-1 0.4,-1.2 0.3,-0.3 0.6,-0.4 1,-0.4 0.4,0 0.7,0.1 1,0.4 0.3,0.3 0.4,0.7 0.4,1.2 0,0.5 -0.1,1 -0.4,1.2 -0.3,0.2 -0.6,0.4 -1,0.4 -0.4,0 -0.8,-0.1 -1,-0.4 -0.3,-0.2 -0.4,-0.6 -0.4,-1.2 z m 2.6,20.4 h -2.4 v -16 h 2.4 z"
   id="path42" />
			<path
   d="m 248.2,334.7 c 0.4,0 0.8,0 1.2,-0.1 0.4,-0.1 0.7,-0.1 1,-0.2 v 1.9 c -0.3,0.1 -0.7,0.2 -1.2,0.3 -0.5,0.1 -1,0.1 -1.4,0.1 -3.1,0 -4.7,-1.6 -4.7,-4.9 v -9.5 h -2.3 v -1.2 l 2.3,-1 1,-3.4 h 1.4 v 3.7 h 4.7 v 1.9 h -4.7 v 9.4 c 0,1 0.2,1.7 0.7,2.2 0.6,0.6 1.2,0.8 2,0.8 z"
   id="path44" />
			<path
   d="m 274.6,320.4 v 1.5 l -3,0.4 c 0.3,0.3 0.5,0.8 0.7,1.3 0.2,0.5 0.3,1.2 0.3,1.9 0,1.6 -0.5,2.8 -1.6,3.8 -1.1,0.9 -2.5,1.4 -4.4,1.4 -0.5,0 -0.9,0 -1.3,-0.1 -1,0.5 -1.6,1.2 -1.6,2.1 0,0.4 0.2,0.8 0.5,1 0.4,0.2 1,0.3 1.9,0.3 h 2.8 c 1.7,0 3.1,0.4 4,1.1 0.9,0.7 1.4,1.8 1.4,3.2 0,1.8 -0.7,3.1 -2.1,4.1 -1.4,0.9 -3.5,1.4 -6.2,1.4 -2.1,0 -3.7,-0.4 -4.9,-1.2 -1.1,-0.8 -1.7,-1.9 -1.7,-3.3 0,-1 0.3,-1.8 0.9,-2.5 0.6,-0.7 1.5,-1.2 2.6,-1.4 -0.4,-0.2 -0.8,-0.5 -1,-0.9 -0.3,-0.4 -0.4,-0.8 -0.4,-1.4 0,-0.6 0.2,-1.1 0.5,-1.5 0.3,-0.4 0.8,-0.9 1.5,-1.3 -0.8,-0.3 -1.5,-0.9 -2,-1.7 -0.5,-0.8 -0.8,-1.8 -0.8,-2.8 0,-1.8 0.5,-3.1 1.6,-4.1 1.1,-1 2.5,-1.4 4.5,-1.4 0.8,0 1.6,0.1 2.3,0.3 h 5.5 z m -12.8,18.7 c 0,0.9 0.4,1.5 1.1,2 0.7,0.5 1.8,0.7 3.1,0.7 2,0 3.6,-0.3 4.5,-0.9 1,-0.6 1.5,-1.4 1.5,-2.5 0,-0.9 -0.3,-1.5 -0.8,-1.8 -0.5,-0.3 -1.5,-0.5 -3,-0.5 h -2.9 c -1.1,0 -2,0.3 -2.6,0.8 -0.6,0.5 -0.9,1.2 -0.9,2.2 z m 1.3,-13.6 c 0,1.1 0.3,2 1,2.5 0.6,0.6 1.5,0.9 2.6,0.9 2.4,0 3.6,-1.2 3.6,-3.5 0,-2.4 -1.2,-3.6 -3.6,-3.6 -1.1,0 -2,0.3 -2.6,0.9 -0.6,0.6 -1,1.6 -1,2.8 z"
   id="path46" />
			<path
   d="m 280.3,336.4 h -2.4 v -22.8 h 2.4 z"
   id="path48" />
			<path
   d="m 299.3,328.4 c 0,2.6 -0.7,4.7 -2,6.1 -1.3,1.5 -3.1,2.2 -5.5,2.2 -1.4,0 -2.7,-0.3 -3.8,-1 -1.1,-0.7 -2,-1.6 -2.6,-2.9 -0.6,-1.3 -0.9,-2.7 -0.9,-4.4 0,-2.6 0.7,-4.7 2,-6.1 1.3,-1.5 3.1,-2.2 5.4,-2.2 2.2,0 4,0.7 5.4,2.2 1.4,1.5 2,3.5 2,6.1 z m -12.2,0 c 0,2 0.4,3.6 1.2,4.7 0.8,1.1 2,1.6 3.6,1.6 1.6,0 2.8,-0.5 3.6,-1.6 0.8,-1.1 1.2,-2.6 1.2,-4.7 0,-2 -0.4,-3.6 -1.2,-4.6 -0.8,-1 -2,-1.6 -3.7,-1.6 -1.6,0 -2.8,0.5 -3.6,1.6 -0.7,1 -1.1,2.5 -1.1,4.6 z"
   id="path50" />
			<path
   d="m 311,320.1 c 2.1,0 3.7,0.7 4.9,2.2 1.2,1.4 1.7,3.5 1.7,6.1 0,2.6 -0.6,4.7 -1.8,6.1 -1.2,1.5 -2.8,2.2 -4.9,2.2 -1,0 -2,-0.2 -2.9,-0.6 -0.9,-0.4 -1.6,-1 -2.2,-1.8 h -0.2 l -0.5,2.1 h -1.7 v -22.8 h 2.4 v 5.5 c 0,1.2 0,2.4 -0.1,3.3 h 0.1 c 1.3,-1.5 3,-2.3 5.2,-2.3 z m -0.3,2.1 c -1.7,0 -2.9,0.5 -3.6,1.4 -0.7,0.9 -1.1,2.6 -1.1,4.8 0,2.3 0.4,3.9 1.1,4.8 0.8,1 2,1.5 3.6,1.5 1.5,0 2.6,-0.5 3.3,-1.6 0.7,-1.1 1.1,-2.7 1.1,-4.7 0,-2.1 -0.4,-3.6 -1.1,-4.7 -0.7,-1 -1.8,-1.5 -3.3,-1.5 z"
   id="path52" />
			<path
   d="m 331.8,336.4 -0.5,-2.3 h -0.1 c -0.8,1 -1.6,1.7 -2.4,2 -0.8,0.4 -1.8,0.5 -3,0.5 -1.6,0 -2.8,-0.4 -3.7,-1.2 -0.9,-0.8 -1.4,-2 -1.4,-3.5 0,-3.2 2.6,-4.9 7.8,-5.1 l 2.7,-0.1 v -1 c 0,-1.3 -0.3,-2.2 -0.8,-2.8 -0.5,-0.6 -1.4,-0.9 -2.6,-0.9 -1.3,0 -2.9,0.4 -4.5,1.2 l -0.7,-1.9 c 0.8,-0.4 1.7,-0.8 2.6,-1 0.9,-0.2 1.9,-0.4 2.8,-0.4 1.9,0 3.3,0.4 4.3,1.3 0.9,0.8 1.4,2.2 1.4,4.1 v 11 h -1.9 z m -5.5,-1.7 c 1.5,0 2.7,-0.4 3.6,-1.2 0.9,-0.8 1.3,-2 1.3,-3.5 v -1.4 l -2.4,0.1 c -1.9,0.1 -3.3,0.4 -4.2,0.9 -0.9,0.5 -1.3,1.4 -1.3,2.5 0,0.9 0.3,1.5 0.8,2 0.5,0.4 1.2,0.6 2.2,0.6 z"
   id="path54" />
			<path
   d="m 341,336.4 h -2.4 v -22.8 h 2.4 z"
   id="path56" />
			<path
   d="m 367.1,336.4 -2.9,-9.4 c -0.2,-0.6 -0.5,-1.9 -1,-3.9 H 363 c -0.4,1.7 -0.7,3 -1,4 l -3,9.4 h -2.8 l -4.4,-16 h 2.5 c 1,4 1.8,7.1 2.4,9.2 0.6,2.1 0.9,3.5 0.9,4.3 h 0.1 c 0.1,-0.6 0.3,-1.3 0.5,-2.2 0.2,-0.9 0.4,-1.6 0.6,-2.1 l 2.9,-9.2 h 2.6 l 2.9,9.2 c 0.5,1.7 0.9,3.1 1.1,4.2 h 0.1 c 0,-0.4 0.1,-0.9 0.3,-1.6 0.2,-0.7 1.2,-4.7 3.1,-11.8 h 2.5 l -4.4,16 h -2.8 z"
   id="path58" />
			<path
   d="m 387.2,336.4 -0.5,-2.3 h -0.1 c -0.8,1 -1.6,1.7 -2.4,2 -0.8,0.4 -1.8,0.5 -3,0.5 -1.6,0 -2.8,-0.4 -3.7,-1.2 -0.9,-0.8 -1.4,-2 -1.4,-3.5 0,-3.2 2.6,-4.9 7.8,-5.1 l 2.7,-0.1 v -1 c 0,-1.3 -0.3,-2.2 -0.8,-2.8 -0.5,-0.6 -1.4,-0.9 -2.6,-0.9 -1.3,0 -2.8,0.4 -4.5,1.2 l -0.7,-1.9 c 0.8,-0.4 1.7,-0.8 2.6,-1 0.9,-0.2 1.9,-0.4 2.8,-0.4 1.9,0 3.3,0.4 4.3,1.3 0.9,0.8 1.4,2.2 1.4,4.1 v 11 h -1.9 z m -5.5,-1.7 c 1.5,0 2.7,-0.4 3.6,-1.2 0.9,-0.8 1.3,-2 1.3,-3.5 v -1.4 l -2.4,0.1 c -1.9,0.1 -3.3,0.4 -4.2,0.9 -0.9,0.5 -1.3,1.4 -1.3,2.5 0,0.9 0.3,1.5 0.8,2 0.5,0.4 1.2,0.6 2.2,0.6 z"
   id="path60" />
			<path
   d="m 401.3,320.1 c 0.7,0 1.4,0.1 1.9,0.2 l -0.3,2.3 c -0.7,-0.1 -1.2,-0.2 -1.8,-0.2 -1.3,0 -2.4,0.5 -3.3,1.6 -0.9,1.1 -1.4,2.4 -1.4,3.9 v 8.6 H 394 v -16 h 2 l 0.3,3 h 0.1 c 0.6,-1 1.3,-1.8 2.2,-2.4 0.8,-0.7 1.7,-1 2.7,-1 z"
   id="path62" />
			<path
   d="M 426.7,336.4 V 326 c 0,-1.3 -0.3,-2.2 -0.8,-2.9 -0.5,-0.6 -1.4,-1 -2.5,-1 -1.5,0 -2.6,0.4 -3.4,1.3 -0.7,0.9 -1.1,2.2 -1.1,4 v 9 h -2.4 V 326 c 0,-1.3 -0.3,-2.2 -0.8,-2.9 -0.5,-0.6 -1.4,-1 -2.6,-1 -1.5,0 -2.6,0.5 -3.3,1.4 -0.7,0.9 -1.1,2.4 -1.1,4.5 v 8.4 h -2.4 v -16 h 2 l 0.4,2.2 h 0.1 c 0.5,-0.8 1.1,-1.4 1.9,-1.8 0.8,-0.4 1.8,-0.7 2.8,-0.7 2.5,0 4.1,0.9 4.9,2.7 h 0.1 c 0.5,-0.8 1.2,-1.5 2.1,-2 0.9,-0.5 1.9,-0.7 3.1,-0.7 1.8,0 3.2,0.5 4.1,1.4 0.9,0.9 1.4,2.4 1.4,4.5 v 10.5 h -2.5 z"
   id="path64" />
			<path
   d="m 433.9,316 c 0,-0.6 0.1,-1 0.4,-1.2 0.3,-0.2 0.6,-0.4 1,-0.4 0.4,0 0.7,0.1 1,0.4 0.3,0.3 0.4,0.7 0.4,1.2 0,0.5 -0.1,1 -0.4,1.2 -0.3,0.2 -0.6,0.4 -1,0.4 -0.4,0 -0.8,-0.1 -1,-0.4 -0.2,-0.3 -0.4,-0.6 -0.4,-1.2 z m 2.6,20.4 h -2.4 v -16 h 2.4 z"
   id="path66" />
			<path
   d="M 452.7,336.4 V 326 c 0,-1.3 -0.3,-2.3 -0.9,-2.9 -0.6,-0.6 -1.5,-1 -2.8,-1 -1.7,0 -2.9,0.5 -3.7,1.4 -0.8,0.9 -1.2,2.4 -1.2,4.5 v 8.4 h -2.4 v -16 h 2 l 0.4,2.2 h 0.1 c 0.5,-0.8 1.2,-1.4 2.1,-1.8 0.9,-0.4 1.9,-0.7 3,-0.7 1.9,0 3.4,0.5 4.4,1.4 1,0.9 1.5,2.4 1.5,4.5 v 10.5 h -2.5 z"
   id="path68" />
			<path
   d="m 473.2,320.4 v 1.5 l -3,0.4 c 0.3,0.3 0.5,0.8 0.7,1.3 0.2,0.5 0.3,1.2 0.3,1.9 0,1.6 -0.5,2.8 -1.6,3.8 -1.1,0.9 -2.5,1.4 -4.4,1.4 -0.5,0 -0.9,0 -1.3,-0.1 -1,0.5 -1.6,1.2 -1.6,2.1 0,0.4 0.2,0.8 0.5,1 0.4,0.2 1,0.3 1.9,0.3 h 2.8 c 1.7,0 3.1,0.4 4,1.1 0.9,0.7 1.4,1.8 1.4,3.2 0,1.8 -0.7,3.1 -2.1,4.1 -1.4,1 -3.5,1.4 -6.2,1.4 -2.1,0 -3.7,-0.4 -4.9,-1.2 -1.1,-0.8 -1.7,-1.9 -1.7,-3.3 0,-1 0.3,-1.8 0.9,-2.5 0.6,-0.7 1.5,-1.2 2.6,-1.4 -0.4,-0.2 -0.8,-0.5 -1,-0.9 -0.3,-0.4 -0.4,-0.8 -0.4,-1.4 0,-0.6 0.2,-1.1 0.5,-1.5 0.3,-0.4 0.8,-0.9 1.5,-1.3 -0.8,-0.3 -1.5,-0.9 -2,-1.7 -0.5,-0.8 -0.8,-1.8 -0.8,-2.8 0,-1.8 0.5,-3.1 1.6,-4.1 1.1,-1 2.5,-1.4 4.5,-1.4 0.8,0 1.6,0.1 2.3,0.3 h 5.5 z m -12.8,18.7 c 0,0.9 0.4,1.5 1.1,2 0.7,0.4 1.8,0.7 3.1,0.7 2,0 3.5,-0.3 4.5,-0.9 1,-0.6 1.5,-1.4 1.5,-2.5 0,-0.9 -0.3,-1.5 -0.8,-1.8 -0.5,-0.3 -1.5,-0.5 -3,-0.5 h -2.9 c -1.1,0 -2,0.3 -2.6,0.8 -0.6,0.5 -0.9,1.2 -0.9,2.2 z m 1.3,-13.6 c 0,1.1 0.3,2 1,2.5 0.7,0.5 1.5,0.9 2.6,0.9 2.4,0 3.6,-1.2 3.6,-3.5 0,-2.4 -1.2,-3.6 -3.6,-3.6 -1.1,0 -2,0.3 -2.6,0.9 -0.6,0.6 -1,1.6 -1,2.8 z"
   id="path70" />
			<path
   d="m 489.5,334.7 c 0.4,0 0.8,0 1.2,-0.1 0.4,-0.1 0.7,-0.1 1,-0.2 v 1.9 c -0.3,0.1 -0.7,0.2 -1.2,0.3 -0.5,0.1 -1,0.1 -1.4,0.1 -3.1,0 -4.7,-1.6 -4.7,-4.9 v -9.5 h -2.3 v -1.2 l 2.3,-1 1,-3.4 h 1.4 v 3.7 h 4.7 v 1.9 h -4.7 v 9.4 c 0,1 0.2,1.7 0.7,2.2 0.5,0.6 1.2,0.8 2,0.8 z"
   id="path72" />
			<path
   d="m 508.7,328.4 c 0,2.6 -0.7,4.7 -2,6.1 -1.3,1.5 -3.1,2.2 -5.5,2.2 -1.4,0 -2.7,-0.3 -3.8,-1 -1.1,-0.7 -2,-1.6 -2.6,-2.9 -0.6,-1.3 -0.9,-2.7 -0.9,-4.4 0,-2.6 0.7,-4.7 2,-6.1 1.3,-1.5 3.1,-2.2 5.4,-2.2 2.2,0 4,0.7 5.4,2.2 1.4,1.5 2,3.5 2,6.1 z m -12.2,0 c 0,2 0.4,3.6 1.2,4.7 0.8,1.1 2,1.6 3.6,1.6 1.6,0 2.8,-0.5 3.6,-1.6 0.8,-1.1 1.2,-2.6 1.2,-4.7 0,-2 -0.4,-3.6 -1.2,-4.6 -0.8,-1 -2,-1.6 -3.7,-1.6 -1.6,0 -2.8,0.5 -3.6,1.6 -0.7,1 -1.1,2.5 -1.1,4.6 z"
   id="path74" />
			<path
   d="m 528.7,336.4 h -2.4 v -15.3 c 0,-1.3 0,-2.5 0.1,-3.6 -0.2,0.2 -0.4,0.4 -0.7,0.6 -0.3,0.2 -1.4,1.2 -3.5,2.9 l -1.3,-1.7 5.7,-4.4 h 2 v 21.5 z"
   id="path76" />
			<path
   d="m 537.6,334.9 c 0,-0.7 0.1,-1.1 0.4,-1.5 0.3,-0.4 0.7,-0.5 1.3,-0.5 0.6,0 1,0.2 1.3,0.5 0.3,0.3 0.5,0.8 0.5,1.5 0,0.6 -0.2,1.1 -0.5,1.5 -0.3,0.4 -0.8,0.5 -1.3,0.5 -0.5,0 -0.9,-0.2 -1.2,-0.5 -0.4,-0.3 -0.5,-0.8 -0.5,-1.5 z"
   id="path78" />
			<path
   d="m 551.5,323.4 c 2.3,0 4,0.6 5.3,1.7 1.3,1.1 1.9,2.6 1.9,4.6 0,2.2 -0.7,4 -2.1,5.2 -1.4,1.3 -3.4,1.9 -5.8,1.9 -2.4,0 -4.3,-0.4 -5.5,-1.2 v -2.3 c 0.7,0.4 1.5,0.8 2.5,1 1,0.2 2,0.4 3,0.4 1.7,0 3.1,-0.4 4,-1.2 1,-0.8 1.4,-2 1.4,-3.5 0,-3 -1.8,-4.5 -5.5,-4.5 -0.9,0 -2.2,0.1 -3.7,0.4 l -1.3,-0.8 0.8,-10 h 10.6 v 2.2 h -8.6 l -0.5,6.4 c 1.2,-0.2 2.4,-0.3 3.5,-0.3 z"
   id="path80" />
			<path
   d="m 570.7,319.8 c 0,1.6 -0.4,2.8 -1.3,3.7 -0.8,0.9 -2,1.3 -3.4,1.3 -1.4,0 -2.5,-0.5 -3.4,-1.4 -0.8,-0.9 -1.2,-2.1 -1.2,-3.7 0,-1.6 0.4,-2.8 1.2,-3.7 0.8,-0.9 2,-1.3 3.4,-1.3 1.5,0 2.6,0.4 3.4,1.3 0.9,1 1.3,2.2 1.3,3.8 z m -7.5,0 c 0,1.2 0.2,2.1 0.7,2.7 0.4,0.6 1.2,0.9 2.2,0.9 1,0 1.8,-0.3 2.2,-0.9 0.4,-0.6 0.7,-1.5 0.7,-2.7 0,-1.2 -0.2,-2.1 -0.7,-2.7 -0.4,-0.6 -1.2,-0.9 -2.2,-0.9 -1,0 -1.7,0.3 -2.2,0.9 -0.5,0.6 -0.7,1.5 -0.7,2.7 z"
   id="path82" />
			<path
   d="m 583.8,316.9 c -2.4,0 -4.2,0.8 -5.6,2.3 -1.4,1.6 -2,3.7 -2,6.4 0,2.8 0.7,5 2,6.5 1.3,1.5 3.2,2.3 5.6,2.3 1.5,0 3.2,-0.3 5.1,-0.8 v 2.2 c -1.5,0.6 -3.3,0.8 -5.5,0.8 -3.2,0 -5.6,-1 -7.3,-2.9 -1.7,-1.9 -2.6,-4.6 -2.6,-8.2 0,-2.2 0.4,-4.1 1.2,-5.8 0.8,-1.7 2,-2.9 3.6,-3.8 1.6,-0.9 3.4,-1.3 5.5,-1.3 2.2,0 4.2,0.4 5.9,1.2 l -1.1,2.1 c -1.5,-0.6 -3.2,-1 -4.8,-1 z"
   id="path84" />
		</g>
	</g>
	<g
   id="g132">
		<g
   id="g94">
			<polygon
   class="st2"
   points="383.8,440.4 383.8,504.9 400.7,504.9 421.9,842.5 734,842.5 758.4,501.7 770,501.7 770,439.3 760.5,439.3 762.6,395.9 399.6,397 400.7,440.4 "
   id="polygon90" />
			<rect
   x="375.29999"
   y="387.5"
   class="st2"
   width="406.39999"
   height="16.9"
   id="rect92" />
		</g>
		<path
   class="st3"
   d="m 417.2,404.5 19.1,419.6 -0.1,0.2 0.2,0.6 c 0.2,0.6 0.4,1 32,1 20.6,0 54.5,-0.2 110.4,-0.7 69.7,-0.6 140.3,-1.4 141,-1.4 h 0.9 l 23.9,-418.4 0.1,-1 H 417.2 Z m 323.4,35.4 -0.1,1.9 -9.6,168.5 -0.1,1.9 -5.7,99.7 -0.1,1.9 -3.1,55.3 -0.1,1.9 -2.9,51 c -93.6,1 -268.4,2.7 -280.8,1.7 l -2.4,-52.8 -0.1,-1.9 -2.5,-55.3 -0.1,-1.9 -4.5,-99.7 -0.1,-1.9 -7.7,-168.5 -0.1,-1.9 -1.5,-33.6 h 323.4 z"
   id="path96" />
		<path
   class="st4"
   d="m 721.8,770.9 -2.9,51 c -93.6,1 -268.4,2.7 -280.8,1.7 l -2.4,-52.8 z"
   id="path98" />
		<polygon
   class="st5"
   points="435.6,769 433.1,713.7 725,713.7 721.9,769 "
   id="polygon100" />
		<polygon
   class="st6"
   points="433,711.9 428.5,612.2 730.8,612.2 725.1,711.9 "
   id="polygon102" />
		<polygon
   class="st7"
   points="428.4,610.3 420.7,441.8 740.5,441.8 730.9,610.3 "
   id="polygon104" />
		<polygon
   class="st8"
   points="420.7,439.9 419.1,406.3 742.6,406.3 740.6,439.9 "
   id="polygon106" />
		<rect
   x="419.70001"
   y="439.89999"
   class="st3"
   width="322.20001"
   height="1.9"
   id="rect108" />
		<rect
   x="427.60001"
   y="610.29999"
   class="st3"
   width="304.39999"
   height="1.9"
   id="rect110" />
		<rect
   x="432.39999"
   y="711.90002"
   class="st3"
   width="293.60001"
   height="1.9"
   id="rect112" />
		<rect
   x="435.60001"
   y="769"
   class="st3"
   width="287.29999"
   height="1.9"
   id="rect114" />
		<line
   class="st9"
   x1="425.10001"
   y1="405.39999"
   x2="271.10001"
   y2="405.39999"
   id="line116" />
		<rect
   x="146.5"
   y="373.39999"
   class="st10"
   width="125.1"
   height="68"
   id="rect118" />
		<g
   class="st0"
   id="g130">
			<path
   d="m 182.9,418.1 h -4.5 v -12.4 -2 l 0.1,-2.2 c -0.8,0.8 -1.3,1.2 -1.6,1.5 l -2.5,2 -2.2,-2.7 6.9,-5.5 h 3.7 v 21.3 z"
   id="path120" />
			<path
   d="m 189.4,416 c 0,-0.8 0.2,-1.4 0.7,-1.9 0.4,-0.4 1.1,-0.6 1.9,-0.6 0.8,0 1.4,0.2 1.9,0.6 0.4,0.4 0.7,1 0.7,1.8 0,0.8 -0.2,1.4 -0.7,1.8 -0.4,0.4 -1.1,0.7 -1.9,0.7 -0.8,0 -1.5,-0.2 -1.9,-0.7 -0.5,-0.2 -0.7,-0.9 -0.7,-1.7 z"
   id="path122" />
			<path
   d="m 205.2,404.5 c 2.1,0 3.7,0.6 4.9,1.7 1.2,1.2 1.8,2.8 1.8,4.8 0,2.4 -0.7,4.2 -2.2,5.5 -1.5,1.3 -3.6,1.9 -6.3,1.9 -2.4,0 -4.3,-0.4 -5.8,-1.2 v -3.9 c 0.8,0.4 1.7,0.7 2.7,1 1,0.3 2,0.4 2.9,0.4 2.8,0 4.1,-1.1 4.1,-3.4 0,-2.2 -1.4,-3.2 -4.3,-3.2 -0.5,0 -1.1,0.1 -1.7,0.2 -0.6,0.1 -1.1,0.2 -1.5,0.3 l -1.8,-1 0.8,-10.9 h 11.6 v 3.8 h -7.6 l -0.4,4.2 0.5,-0.1 c 0.7,-0.1 1.4,-0.1 2.3,-0.1 z"
   id="path124" />
			<path
   d="m 224.1,401.8 c 0,1.7 -0.4,3 -1.3,3.9 -0.9,0.9 -2.1,1.4 -3.7,1.4 -1.5,0 -2.7,-0.5 -3.6,-1.4 -0.9,-1 -1.4,-2.3 -1.4,-3.9 0,-1.6 0.4,-2.9 1.3,-3.9 0.9,-0.9 2.1,-1.4 3.7,-1.4 1.5,0 2.7,0.5 3.6,1.4 1,1 1.4,2.3 1.4,3.9 z m -7,0 c 0,1 0.2,1.7 0.5,2.2 0.3,0.5 0.8,0.7 1.5,0.7 0.7,0 1.2,-0.2 1.5,-0.7 0.3,-0.5 0.5,-1.2 0.5,-2.2 0,-1 -0.2,-1.7 -0.5,-2.2 -0.3,-0.5 -0.8,-0.7 -1.5,-0.7 -0.7,0 -1.2,0.2 -1.5,0.7 -0.3,0.5 -0.5,1.2 -0.5,2.2 z"
   id="path126" />
			<path
   d="m 236.8,400.2 c -1.7,0 -3,0.6 -4,1.9 -1,1.3 -1.4,3.1 -1.4,5.4 0,4.8 1.8,7.2 5.4,7.2 1.5,0 3.3,-0.4 5.5,-1.1 v 3.8 c -1.8,0.7 -3.7,1.1 -5.9,1.1 -3.1,0 -5.5,-0.9 -7.1,-2.8 -1.6,-1.9 -2.5,-4.6 -2.5,-8.1 0,-2.2 0.4,-4.2 1.2,-5.8 0.8,-1.7 2,-3 3.5,-3.9 1.5,-0.9 3.3,-1.3 5.3,-1.3 2.1,0 4.2,0.5 6.3,1.5 l -1.5,3.7 c -0.8,-0.4 -1.6,-0.7 -2.4,-1 -0.9,-0.5 -1.7,-0.6 -2.4,-0.6 z"
   id="path128" />
		</g>
	</g>
	<g
   id="g144">
		<g
   class="st0"
   id="g142">
			<path
   class="st11"
   d="m 546.8,828.2 h -5.7 v -15.5 l 0.1,-2.5 0.1,-2.8 c -0.9,0.9 -1.6,1.6 -2,1.8 l -3.1,2.5 -2.7,-3.4 8.6,-6.9 h 4.6 v 26.8 z"
   id="path134" />
			<path
   class="st11"
   d="m 563.5,801.1 c 2.6,0 4.6,0.6 6.2,1.7 1.6,1.1 2.4,2.7 2.4,4.7 0,1.4 -0.4,2.6 -1.1,3.7 -0.8,1.1 -2,2 -3.7,2.9 2,1.1 3.4,2.2 4.3,3.4 0.9,1.2 1.3,2.4 1.3,3.8 0,2.2 -0.9,4 -2.6,5.3 -1.7,1.3 -4,2 -6.8,2 -2.9,0 -5.2,-0.6 -6.9,-1.9 -1.7,-1.2 -2.5,-3 -2.5,-5.3 0,-1.5 0.4,-2.9 1.2,-4.1 0.8,-1.2 2.1,-2.2 3.9,-3.1 -1.5,-1 -2.6,-2 -3.3,-3.1 -0.7,-1.1 -1,-2.3 -1,-3.6 0,-1.9 0.8,-3.5 2.4,-4.6 1.6,-1.1 3.6,-1.8 6.2,-1.8 z m -4.2,20 c 0,1 0.4,1.9 1.1,2.5 0.7,0.6 1.7,0.9 3,0.9 1.4,0 2.5,-0.3 3.1,-0.9 0.7,-0.6 1,-1.4 1,-2.4 0,-0.8 -0.3,-1.6 -1,-2.3 -0.7,-0.7 -1.8,-1.5 -3.4,-2.3 -2.5,1.1 -3.8,2.7 -3.8,4.5 z m 4.1,-15.9 c -1,0 -1.7,0.2 -2.3,0.7 -0.6,0.5 -0.9,1.2 -0.9,2 0,0.7 0.2,1.4 0.7,2 0.5,0.6 1.3,1.2 2.6,1.8 1.2,-0.6 2,-1.1 2.5,-1.7 0.5,-0.6 0.7,-1.3 0.7,-2 0,-0.8 -0.3,-1.5 -0.9,-2 -0.6,-0.5 -1.4,-0.8 -2.4,-0.8 z"
   id="path136" />
			<path
   class="st11"
   d="m 578.3,828.2 10,-22 h -13.2 v -4.8 h 19.2 v 3.6 l -10.1,23.2 z"
   id="path138" />
			<path
   class="st11"
   d="m 615.6,812.9 c 0,5.3 -1.1,9.2 -3.3,11.8 -2.2,2.6 -5.6,3.9 -10.1,3.9 -1.6,0 -2.8,-0.1 -3.6,-0.3 v -4.5 c 1,0.3 2.1,0.4 3.2,0.4 1.9,0 3.4,-0.3 4.7,-0.8 1.2,-0.6 2.2,-1.4 2.8,-2.6 0.6,-1.2 1,-2.8 1.1,-4.9 h -0.2 c -0.7,1.1 -1.5,2 -2.5,2.4 -0.9,0.5 -2.1,0.7 -3.5,0.7 -2.3,0 -4.2,-0.7 -5.5,-2.2 -1.3,-1.5 -2,-3.6 -2,-6.2 0,-2.9 0.8,-5.1 2.4,-6.8 1.6,-1.7 3.8,-2.5 6.7,-2.5 2,0 3.7,0.5 5.2,1.4 1.5,0.9 2.6,2.3 3.4,4 0.8,1.7 1.2,3.7 1.2,6.2 z m -9.7,-7.2 c -1.2,0 -2.1,0.4 -2.7,1.2 -0.7,0.8 -1,2 -1,3.5 0,1.3 0.3,2.3 0.9,3.1 0.6,0.8 1.5,1.1 2.7,1.1 1.1,0 2.1,-0.4 2.9,-1.1 0.8,-0.8 1.2,-1.6 1.2,-2.6 0,-1.5 -0.4,-2.7 -1.1,-3.7 -0.7,-1 -1.7,-1.5 -2.9,-1.5 z"
   id="path140" />
		</g>
	</g>
	<g
   id="g156">
		<g
   class="st0"
   id="g154">
			<path
   class="st11"
   d="m 546.8,780.6 h -5.7 v -15.5 l 0.1,-2.5 0.1,-2.8 c -0.9,0.9 -1.6,1.6 -2,1.8 l -3.1,2.5 -2.7,-3.4 8.6,-6.9 h 4.6 v 26.8 z"
   id="path146" />
			<path
   class="st11"
   d="m 572.8,765.2 c 0,5.3 -1.1,9.2 -3.3,11.8 -2.2,2.6 -5.6,3.9 -10.1,3.9 -1.6,0 -2.8,-0.1 -3.6,-0.3 v -4.5 c 1,0.3 2.1,0.4 3.2,0.4 1.9,0 3.4,-0.3 4.7,-0.8 1.2,-0.6 2.2,-1.4 2.8,-2.6 0.6,-1.2 1,-2.8 1.1,-4.9 h -0.2 c -0.7,1.1 -1.5,2 -2.5,2.4 -0.9,0.5 -2.1,0.7 -3.5,0.7 -2.3,0 -4.2,-0.7 -5.5,-2.2 -1.3,-1.5 -2,-3.6 -2,-6.2 0,-2.9 0.8,-5.1 2.4,-6.8 1.6,-1.7 3.8,-2.5 6.7,-2.5 2,0 3.7,0.5 5.2,1.4 1.5,0.9 2.6,2.3 3.4,4 0.8,1.7 1.2,3.8 1.2,6.2 z m -9.6,-7.1 c -1.2,0 -2.1,0.4 -2.7,1.2 -0.7,0.8 -1,2 -1,3.5 0,1.3 0.3,2.3 0.9,3.1 0.6,0.8 1.5,1.1 2.7,1.1 1.1,0 2.1,-0.4 2.9,-1.1 0.8,-0.8 1.2,-1.6 1.2,-2.6 0,-1.5 -0.4,-2.7 -1.1,-3.7 -0.8,-1 -1.8,-1.5 -2.9,-1.5 z"
   id="path148" />
			<path
   class="st11"
   d="m 585.4,763.5 c 2.6,0 4.6,0.7 6.2,2.2 1.5,1.5 2.3,3.4 2.3,6 0,3 -0.9,5.3 -2.8,6.9 -1.8,1.6 -4.5,2.4 -7.9,2.4 -3,0 -5.4,-0.5 -7.2,-1.4 v -4.9 c 1,0.5 2.1,0.9 3.4,1.3 1.3,0.3 2.5,0.5 3.6,0.5 3.5,0 5.2,-1.4 5.2,-4.2 0,-2.7 -1.8,-4 -5.4,-4 -0.6,0 -1.4,0.1 -2.1,0.2 -0.8,0.1 -1.4,0.3 -1.9,0.4 l -2.3,-1.2 1,-13.6 H 592 v 4.8 h -9.6 l -0.5,5.3 0.6,-0.1 c 0.9,-0.5 1.8,-0.6 2.9,-0.6 z"
   id="path150" />
			<path
   class="st11"
   d="m 615.6,765.2 c 0,5.3 -1.1,9.2 -3.3,11.8 -2.2,2.6 -5.6,3.9 -10.1,3.9 -1.6,0 -2.8,-0.1 -3.6,-0.3 v -4.5 c 1,0.3 2.1,0.4 3.2,0.4 1.9,0 3.4,-0.3 4.7,-0.8 1.2,-0.6 2.2,-1.4 2.8,-2.6 0.6,-1.2 1,-2.8 1.1,-4.9 h -0.2 c -0.7,1.1 -1.5,2 -2.5,2.4 -0.9,0.5 -2.1,0.7 -3.5,0.7 -2.3,0 -4.2,-0.7 -5.5,-2.2 -1.3,-1.5 -2,-3.6 -2,-6.2 0,-2.9 0.8,-5.1 2.4,-6.8 1.6,-1.7 3.8,-2.5 6.7,-2.5 2,0 3.7,0.5 5.2,1.4 1.5,0.9 2.6,2.3 3.4,4 0.8,1.7 1.2,3.8 1.2,6.2 z m -9.7,-7.1 c -1.2,0 -2.1,0.4 -2.7,1.2 -0.7,0.8 -1,2 -1,3.5 0,1.3 0.3,2.3 0.9,3.1 0.6,0.8 1.5,1.1 2.7,1.1 1.1,0 2.1,-0.4 2.9,-1.1 0.8,-0.8 1.2,-1.6 1.2,-2.6 0,-1.5 -0.4,-2.7 -1.1,-3.7 -0.7,-1 -1.7,-1.5 -2.9,-1.5 z"
   id="path152" />
		</g>
	</g>
	<g
   id="g168">
		<g
   class="st0"
   id="g166">
			<path
   class="st11"
   d="m 546.8,726.6 h -5.7 v -15.5 l 0.1,-2.5 0.1,-2.8 c -0.9,0.9 -1.6,1.6 -2,1.8 l -3.1,2.5 -2.7,-3.4 8.6,-6.9 h 4.6 v 26.8 z"
   id="path158" />
			<path
   class="st11"
   d="m 572.8,711.3 c 0,5.3 -1.1,9.2 -3.3,11.8 -2.2,2.6 -5.6,3.9 -10.1,3.9 -1.6,0 -2.8,-0.1 -3.6,-0.3 v -4.5 c 1,0.3 2.1,0.4 3.2,0.4 1.9,0 3.4,-0.3 4.7,-0.8 1.2,-0.6 2.2,-1.4 2.8,-2.6 0.6,-1.2 1,-2.8 1.1,-4.9 h -0.2 c -0.7,1.1 -1.5,2 -2.5,2.4 -0.9,0.5 -2.1,0.7 -3.5,0.7 -2.3,0 -4.2,-0.7 -5.5,-2.2 -1.3,-1.5 -2,-3.6 -2,-6.2 0,-2.9 0.8,-5.1 2.4,-6.8 1.6,-1.7 3.8,-2.5 6.7,-2.5 2,0 3.7,0.5 5.2,1.4 1.5,0.9 2.6,2.3 3.4,4 0.8,1.6 1.2,3.7 1.2,6.2 z m -9.6,-7.2 c -1.2,0 -2.1,0.4 -2.7,1.2 -0.7,0.8 -1,2 -1,3.5 0,1.3 0.3,2.3 0.9,3.1 0.6,0.8 1.5,1.1 2.7,1.1 1.1,0 2.1,-0.4 2.9,-1.1 0.8,-0.8 1.2,-1.6 1.2,-2.6 0,-1.5 -0.4,-2.7 -1.1,-3.7 -0.8,-1 -1.8,-1.5 -2.9,-1.5 z"
   id="path160" />
			<path
   class="st11"
   d="m 578.3,726.6 10,-22 h -13.2 v -4.8 h 19.2 v 3.6 l -10.1,23.2 z"
   id="path162" />
			<path
   class="st11"
   d="m 615.6,711.3 c 0,5.3 -1.1,9.2 -3.3,11.8 -2.2,2.6 -5.6,3.9 -10.1,3.9 -1.6,0 -2.8,-0.1 -3.6,-0.3 v -4.5 c 1,0.3 2.1,0.4 3.2,0.4 1.9,0 3.4,-0.3 4.7,-0.8 1.2,-0.6 2.2,-1.4 2.8,-2.6 0.6,-1.2 1,-2.8 1.1,-4.9 h -0.2 c -0.7,1.1 -1.5,2 -2.5,2.4 -0.9,0.5 -2.1,0.7 -3.5,0.7 -2.3,0 -4.2,-0.7 -5.5,-2.2 -1.3,-1.5 -2,-3.6 -2,-6.2 0,-2.9 0.8,-5.1 2.4,-6.8 1.6,-1.7 3.8,-2.5 6.7,-2.5 2,0 3.7,0.5 5.2,1.4 1.5,0.9 2.6,2.3 3.4,4 0.8,1.7 1.2,3.7 1.2,6.2 z m -9.7,-7.2 c -1.2,0 -2.1,0.4 -2.7,1.2 -0.7,0.8 -1,2 -1,3.5 0,1.3 0.3,2.3 0.9,3.1 0.6,0.8 1.5,1.1 2.7,1.1 1.1,0 2.1,-0.4 2.9,-1.1 0.8,-0.8 1.2,-1.6 1.2,-2.6 0,-1.5 -0.4,-2.7 -1.1,-3.7 -0.7,-1 -1.7,-1.5 -2.9,-1.5 z"
   id="path164" />
		</g>
	</g>
	<g
   id="g180">
		<g
   class="st0"
   id="g178">
			<path
   class="st11"
   d="m 546.8,625 h -5.7 v -15.5 l 0.1,-2.5 0.1,-2.8 c -0.9,0.9 -1.6,1.6 -2,1.8 l -3.1,2.5 -2.7,-3.4 8.6,-6.9 h 4.6 V 625 Z"
   id="path170" />
			<path
   class="st11"
   d="m 572.8,609.7 c 0,5.3 -1.1,9.2 -3.3,11.8 -2.2,2.6 -5.6,3.9 -10.1,3.9 -1.6,0 -2.8,-0.1 -3.6,-0.3 v -4.5 c 1,0.3 2.1,0.4 3.2,0.4 1.9,0 3.4,-0.3 4.7,-0.8 1.2,-0.6 2.2,-1.4 2.8,-2.6 0.6,-1.2 1,-2.8 1.1,-4.9 h -0.2 c -0.7,1.1 -1.5,2 -2.5,2.4 -0.9,0.5 -2.1,0.7 -3.5,0.7 -2.3,0 -4.2,-0.7 -5.5,-2.2 -1.3,-1.5 -2,-3.6 -2,-6.2 0,-2.9 0.8,-5.1 2.4,-6.8 1.6,-1.7 3.8,-2.5 6.7,-2.5 2,0 3.7,0.5 5.2,1.4 1.5,0.9 2.6,2.3 3.4,4 0.8,1.6 1.2,3.7 1.2,6.2 z m -9.6,-7.2 c -1.2,0 -2.1,0.4 -2.7,1.2 -0.7,0.8 -1,2 -1,3.5 0,1.3 0.3,2.3 0.9,3.1 0.6,0.8 1.5,1.1 2.7,1.1 1.1,0 2.1,-0.4 2.9,-1.1 0.8,-0.8 1.2,-1.6 1.2,-2.6 0,-1.5 -0.4,-2.7 -1.1,-3.7 -0.8,-1 -1.8,-1.5 -2.9,-1.5 z"
   id="path172" />
			<path
   class="st11"
   d="m 594.2,609.7 c 0,5.3 -1.1,9.2 -3.3,11.8 -2.2,2.6 -5.6,3.9 -10.1,3.9 -1.6,0 -2.8,-0.1 -3.6,-0.3 v -4.5 c 1,0.3 2.1,0.4 3.2,0.4 1.9,0 3.4,-0.3 4.7,-0.8 1.2,-0.6 2.2,-1.4 2.8,-2.6 0.6,-1.2 1,-2.8 1.1,-4.9 h -0.2 c -0.7,1.1 -1.5,2 -2.5,2.4 -0.9,0.5 -2.1,0.7 -3.5,0.7 -2.3,0 -4.2,-0.7 -5.5,-2.2 -1.3,-1.5 -2,-3.6 -2,-6.2 0,-2.9 0.8,-5.1 2.4,-6.8 1.6,-1.7 3.8,-2.5 6.7,-2.5 2,0 3.7,0.5 5.2,1.4 1.5,0.9 2.6,2.3 3.4,4 0.8,1.6 1.2,3.7 1.2,6.2 z m -9.6,-7.2 c -1.2,0 -2.1,0.4 -2.7,1.2 -0.7,0.8 -1,2 -1,3.5 0,1.3 0.3,2.3 0.9,3.1 0.6,0.8 1.5,1.1 2.7,1.1 1.1,0 2.1,-0.4 2.9,-1.1 0.8,-0.8 1.2,-1.6 1.2,-2.6 0,-1.5 -0.4,-2.7 -1.1,-3.7 -0.8,-1 -1.8,-1.5 -2.9,-1.5 z"
   id="path174" />
			<path
   class="st11"
   d="m 615.6,609.7 c 0,5.3 -1.1,9.2 -3.3,11.8 -2.2,2.6 -5.6,3.9 -10.1,3.9 -1.6,0 -2.8,-0.1 -3.6,-0.3 v -4.5 c 1,0.3 2.1,0.4 3.2,0.4 1.9,0 3.4,-0.3 4.7,-0.8 1.2,-0.6 2.2,-1.4 2.8,-2.6 0.6,-1.2 1,-2.8 1.1,-4.9 h -0.2 c -0.7,1.1 -1.5,2 -2.5,2.4 -0.9,0.5 -2.1,0.7 -3.5,0.7 -2.3,0 -4.2,-0.7 -5.5,-2.2 -1.3,-1.5 -2,-3.6 -2,-6.2 0,-2.9 0.8,-5.1 2.4,-6.8 1.6,-1.7 3.8,-2.5 6.7,-2.5 2,0 3.7,0.5 5.2,1.4 1.5,0.9 2.6,2.3 3.4,4 0.8,1.7 1.2,3.7 1.2,6.2 z m -9.7,-7.2 c -1.2,0 -2.1,0.4 -2.7,1.2 -0.7,0.8 -1,2 -1,3.5 0,1.3 0.3,2.3 0.9,3.1 0.6,0.8 1.5,1.1 2.7,1.1 1.1,0 2.1,-0.4 2.9,-1.1 0.8,-0.8 1.2,-1.6 1.2,-2.6 0,-1.5 -0.4,-2.7 -1.1,-3.7 -0.7,-1 -1.7,-1.5 -2.9,-1.5 z"
   id="path176" />
		</g>
	</g>
	<g
   id="g192">
		<g
   class="st0"
   id="g190">
			<path
   class="st11"
   d="m 551.6,453.6 h -18.7 v -3.9 l 6.7,-6.8 c 2,-2 3.3,-3.5 3.9,-4.2 0.6,-0.8 1,-1.5 1.3,-2.2 0.3,-0.7 0.4,-1.4 0.4,-2.1 0,-1.1 -0.3,-1.9 -0.9,-2.4 -0.6,-0.5 -1.4,-0.8 -2.4,-0.8 -1,0 -2,0.2 -3,0.7 -1,0.5 -2,1.2 -3.1,2 l -3.1,-3.6 c 1.3,-1.1 2.4,-1.9 3.3,-2.4 0.9,-0.5 1.8,-0.8 2.8,-1.1 1,-0.2 2.2,-0.4 3.4,-0.4 1.7,0 3.1,0.3 4.4,0.9 1.3,0.6 2.3,1.5 3,2.6 0.7,1.1 1.1,2.4 1.1,3.8 0,1.2 -0.2,2.4 -0.6,3.5 -0.4,1.1 -1.1,2.2 -2,3.3 -0.9,1.1 -2.5,2.8 -4.8,4.8 l -3.4,3.2 v 0.3 h 11.7 z"
   id="path182" />
			<path
   class="st11"
   d="m 572.8,440.2 c 0,4.7 -0.8,8.1 -2.3,10.4 -1.5,2.3 -3.9,3.4 -7.1,3.4 -3.1,0 -5.4,-1.2 -7,-3.5 -1.6,-2.3 -2.4,-5.7 -2.4,-10.3 0,-4.7 0.8,-8.2 2.3,-10.4 1.5,-2.2 3.9,-3.4 7,-3.4 3.1,0 5.4,1.2 7,3.5 1.6,2.3 2.5,5.8 2.5,10.3 z m -13.1,0 c 0,3.3 0.3,5.6 0.9,7.1 0.6,1.4 1.5,2.1 2.9,2.1 1.3,0 2.3,-0.7 2.9,-2.2 0.6,-1.4 0.9,-3.8 0.9,-7 0,-3.3 -0.3,-5.6 -0.9,-7.1 -0.6,-1.4 -1.5,-2.2 -2.8,-2.2 -1.3,0 -2.3,0.7 -2.9,2.2 -0.6,1.5 -1,3.8 -1,7.1 z"
   id="path184" />
			<path
   class="st11"
   d="M 589.6,453.6 H 584 v -15.5 l 0.1,-2.5 0.1,-2.8 c -0.9,0.9 -1.6,1.6 -2,1.8 l -3.1,2.5 -2.7,-3.4 8.6,-6.9 h 4.6 z"
   id="path186" />
			<path
   class="st11"
   d="m 615.6,438.3 c 0,5.3 -1.1,9.2 -3.3,11.8 -2.2,2.6 -5.6,3.9 -10.1,3.9 -1.6,0 -2.8,-0.1 -3.6,-0.3 v -4.5 c 1,0.3 2.1,0.4 3.2,0.4 1.9,0 3.4,-0.3 4.7,-0.8 1.2,-0.6 2.2,-1.4 2.8,-2.6 0.6,-1.2 1,-2.8 1.1,-4.9 h -0.2 c -0.7,1.1 -1.5,2 -2.5,2.4 -0.9,0.5 -2.1,0.7 -3.5,0.7 -2.3,0 -4.2,-0.7 -5.5,-2.2 -1.3,-1.5 -2,-3.6 -2,-6.2 0,-2.9 0.8,-5.1 2.4,-6.8 1.6,-1.7 3.8,-2.5 6.7,-2.5 2,0 3.7,0.5 5.2,1.4 1.5,0.9 2.6,2.3 3.4,4 0.8,1.7 1.2,3.7 1.2,6.2 z m -9.7,-7.2 c -1.2,0 -2.1,0.4 -2.7,1.2 -0.7,0.8 -1,2 -1,3.5 0,1.3 0.3,2.3 0.9,3.1 0.6,0.8 1.5,1.1 2.7,1.1 1.1,0 2.1,-0.4 2.9,-1.1 0.8,-0.8 1.2,-1.6 1.2,-2.6 0,-1.5 -0.4,-2.7 -1.1,-3.7 -0.7,-1 -1.7,-1.5 -2.9,-1.5 z"
   id="path188" />
		</g>
	</g>
</g>
</svg>
