<?xml version="1.0" encoding="UTF-8" standalone="no"?>
<!-- Generator: Adobe Illustrator 24.0.0, SVG Export Plug-In . SVG Version: 6.00 Build 0)  -->

<svg
   version="1.1"
   id="Capa_1"
   x="0px"
   y="0px"
   viewBox="0 0 746.20001 621.29999"
   xml:space="preserve"
   sodipodi:docname="sostenibilidad_09.svg"
   width="746.20001"
   height="621.29999"
   inkscape:version="1.1.1 (3bf5ae0d25, 2021-09-20, custom)"
   xmlns:inkscape="http://www.inkscape.org/namespaces/inkscape"
   xmlns:sodipodi="http://sodipodi.sourceforge.net/DTD/sodipodi-0.dtd"
   xmlns="http://www.w3.org/2000/svg"
   xmlns:svg="http://www.w3.org/2000/svg"><defs
   id="defs385" /><sodipodi:namedview
   id="namedview383"
   pagecolor="#ffffff"
   bordercolor="#666666"
   borderopacity="1.0"
   inkscape:pageshadow="2"
   inkscape:pageopacity="0.0"
   inkscape:pagecheckerboard="0"
   showgrid="false"
   inkscape:zoom="0.60219342"
   inkscape:cx="405.18543"
   inkscape:cy="298.07699"
   inkscape:window-width="1600"
   inkscape:window-height="835"
   inkscape:window-x="0"
   inkscape:window-y="32"
   inkscape:window-maximized="1"
   inkscape:current-layer="Capa_1" />
<style
   type="text/css"
   id="style2">
	.st0{enable-background:new    ;}
	.st1{fill:none;stroke:#000000;stroke-miterlimit:10;}
	.st2{fill:none;stroke:#FC0606;stroke-width:3;stroke-linecap:round;stroke-linejoin:round;stroke-miterlimit:10;}
	.st3{fill:none;stroke:#757474;stroke-width:3;stroke-linecap:round;stroke-linejoin:round;}
	.st4{fill:none;stroke:#757474;stroke-width:3;stroke-linecap:round;stroke-linejoin:round;stroke-dasharray:5.1804,5.1804;}
</style>
<g
   id="g380"
   transform="translate(-69.8,-203.9)">
	<g
   id="g82">
		<g
   class="st0"
   id="g46">
			<path
   d="m 87,607.8 v 3.4 H 70.8 V 602 h 2.8 v 5.9 h 4.2 v -5.5 h 2.8 v 5.5 H 87 Z"
   id="path4" />
			<path
   d="m 87.2,593.4 c 0,2 -0.5,3.5 -1.6,4.7 -1.1,1.1 -2.6,1.7 -4.7,1.7 -2.1,0 -3.7,-0.5 -4.8,-1.6 -1.1,-1 -1.7,-2.5 -1.7,-4.3 0,-1.7 0.5,-3.1 1.5,-4.1 1,-1 2.4,-1.5 4.1,-1.5 h 1.6 v 8 c 1,0 1.7,-0.3 2.2,-0.8 0.5,-0.5 0.8,-1.3 0.8,-2.2 0,-0.7 -0.1,-1.4 -0.2,-2.1 -0.2,-0.7 -0.4,-1.4 -0.7,-2.1 h 2.6 c 0.3,0.6 0.5,1.2 0.7,1.9 0.1,0.6 0.2,1.4 0.2,2.4 z m -10.4,0.5 c 0,0.7 0.2,1.3 0.7,1.7 0.5,0.4 1.1,0.6 1.9,0.7 v -4.7 c -0.8,0 -1.5,0.2 -1.9,0.7 -0.5,0.3 -0.7,0.9 -0.7,1.6 z"
   id="path6" />
			<path
   d="m 74.4,578.8 c 0,-0.5 0,-0.8 0.1,-1.1 l 3.2,0.3 c -0.1,0.3 -0.1,0.6 -0.1,1 0,1.1 0.3,1.9 0.8,2.5 0.6,0.6 1.3,0.9 2.3,0.9 H 87 v 3.4 H 74.6 v -2.5 l 2.1,-0.5 v -0.2 C 76,582.2 75.5,581.7 75,581 c -0.4,-0.8 -0.6,-1.5 -0.6,-2.2 z"
   id="path8" />
			<path
   d="m 84.5,570.2 c 0,-0.6 -0.1,-1.3 -0.4,-2.1 h 2.5 c 0.4,0.8 0.6,1.9 0.6,3.1 0,1.3 -0.3,2.3 -1,2.9 -0.7,0.6 -1.7,0.9 -3.1,0.9 h -5.9 v 1.6 h -1.4 l -1.1,-1.9 -2.6,-1 v -2.2 h 2.6 V 568 h 2.5 v 3.5 h 5.9 c 0.5,0 0.8,-0.1 1.1,-0.4 0.2,-0.1 0.3,-0.5 0.3,-0.9 z"
   id="path10" />
			<path
   d="m 71.5,565.7 c -1.1,0 -1.6,-0.6 -1.6,-1.8 0,-1.2 0.5,-1.8 1.6,-1.8 0.5,0 0.9,0.2 1.2,0.5 0.3,0.3 0.4,0.8 0.4,1.4 0,1.1 -0.5,1.7 -1.6,1.7 z M 87,562.2 v 3.4 H 74.6 v -3.4 z"
   id="path12" />
			<path
   d="m 87,555.3 v 3.4 H 69.8 v -3.4 z"
   id="path14" />
			<path
   d="m 71.5,551.9 c -1.1,0 -1.6,-0.6 -1.6,-1.8 0,-1.2 0.5,-1.8 1.6,-1.8 0.5,0 0.9,0.2 1.2,0.5 0.3,0.3 0.4,0.8 0.4,1.4 0,1.1 -0.5,1.7 -1.6,1.7 z M 87,548.4 v 3.4 H 74.6 v -3.4 z"
   id="path16" />
			<path
   d="m 87,536.3 v 9.7 h -2 l -7.8,-5.7 v 5.4 h -2.6 v -9.2 h 2.2 l 7.6,5.6 v -5.8 z"
   id="path18" />
			<path
   d="m 87.2,528.3 c 0,2 -0.5,3.5 -1.6,4.7 -1.1,1.1 -2.6,1.7 -4.7,1.7 -2.1,0 -3.7,-0.5 -4.8,-1.5 -1.1,-1 -1.7,-2.5 -1.7,-4.3 0,-1.7 0.5,-3.1 1.5,-4.1 1,-1 2.4,-1.5 4.1,-1.5 h 1.6 v 8 c 1,0 1.7,-0.3 2.2,-0.8 0.5,-0.5 0.8,-1.3 0.8,-2.2 0,-0.7 -0.1,-1.4 -0.2,-2.1 -0.2,-0.7 -0.4,-1.4 -0.7,-2.1 h 2.6 c 0.3,0.6 0.5,1.2 0.7,1.9 0.1,0.5 0.2,1.3 0.2,2.3 z m -10.4,0.5 c 0,0.7 0.2,1.3 0.7,1.7 0.5,0.4 1.1,0.6 1.9,0.7 v -4.7 c -0.8,0 -1.5,0.2 -1.9,0.7 -0.5,0.3 -0.7,0.8 -0.7,1.6 z"
   id="path20" />
			<path
   d="m 74.4,513.6 c 0,-0.5 0,-0.8 0.1,-1.1 l 3.2,0.3 c -0.1,0.3 -0.1,0.6 -0.1,1 0,1.1 0.3,1.9 0.8,2.5 0.6,0.6 1.3,0.9 2.3,0.9 H 87 v 3.4 H 74.6 V 518 l 2.1,-0.5 v -0.2 c -0.7,-0.4 -1.2,-0.9 -1.7,-1.6 -0.5,-0.7 -0.6,-1.3 -0.6,-2.1 z"
   id="path22" />
			<path
   d="m 87.2,499.4 c 0,3.8 -2.1,5.8 -6.3,5.8 -2.1,0 -3.7,-0.5 -4.8,-1.6 -1.1,-1 -1.7,-2.5 -1.7,-4.5 0,-1.4 0.3,-2.7 0.8,-3.8 l 2.6,1 c -0.2,0.5 -0.4,1 -0.5,1.5 -0.1,0.5 -0.2,0.9 -0.2,1.4 0,1.8 1.2,2.6 3.7,2.6 2.4,0 3.6,-0.9 3.6,-2.6 0,-0.6 -0.1,-1.2 -0.3,-1.8 -0.2,-0.6 -0.4,-1.1 -0.8,-1.7 h 2.9 c 0.3,0.5 0.6,1.1 0.7,1.6 0.2,0.5 0.3,1.2 0.3,2.1 z"
   id="path24" />
			<path
   d="m 80.8,481.6 c 2,0 3.6,0.5 4.7,1.6 1.1,1.1 1.7,2.5 1.7,4.4 0,1.2 -0.3,2.2 -0.8,3.1 -0.5,0.9 -1.3,1.6 -2.2,2.1 -0.9,0.5 -2.1,0.7 -3.4,0.7 -2,0 -3.6,-0.5 -4.7,-1.6 -1.1,-1.1 -1.7,-2.5 -1.7,-4.4 0,-1.2 0.3,-2.2 0.8,-3.1 0.5,-0.9 1.3,-1.6 2.2,-2.1 1,-0.5 2.1,-0.7 3.4,-0.7 z m 0,8.5 c 1.2,0 2.1,-0.2 2.8,-0.6 0.7,-0.4 0.9,-1.1 0.9,-2 0,-0.9 -0.3,-1.5 -0.9,-1.9 -0.6,-0.4 -1.5,-0.6 -2.8,-0.6 -1.2,0 -2.1,0.2 -2.7,0.6 -0.6,0.4 -0.9,1 -0.9,2 0,0.9 0.3,1.5 0.9,1.9 0.5,0.4 1.5,0.6 2.7,0.6 z"
   id="path26" />
			<path
   d="m 87,467.4 v 3.4 h -7.2 c -0.9,0 -1.6,0.2 -2,0.5 -0.4,0.3 -0.7,0.8 -0.7,1.5 0,0.9 0.3,1.6 0.9,2 0.6,0.4 1.7,0.6 3.1,0.6 H 87 v 3.4 H 74.6 v -2.6 l 1.6,-0.5 v -0.2 c -0.6,-0.4 -1,-0.9 -1.4,-1.6 -0.3,-0.7 -0.5,-1.4 -0.5,-2.2 0,-1.4 0.4,-2.5 1.2,-3.3 0.8,-0.7 1.9,-1.1 3.4,-1.1 H 87 Z"
   id="path28" />
			<path
   d="m 83.3,455.3 c 1.3,0 2.2,0.4 2.9,1.3 0.7,0.9 1,2.2 1,3.9 0,0.9 -0.1,1.7 -0.2,2.3 -0.1,0.6 -0.3,1.2 -0.5,1.8 h -2.8 c 0.3,-0.6 0.5,-1.3 0.7,-2.1 0.2,-0.8 0.3,-1.5 0.3,-2.1 0,-1.2 -0.4,-1.8 -1.1,-1.8 -0.3,0 -0.5,0.1 -0.6,0.2 -0.2,0.2 -0.4,0.4 -0.6,0.8 -0.2,0.4 -0.5,0.9 -0.7,1.6 -0.4,0.9 -0.8,1.6 -1.1,2.1 -0.3,0.4 -0.7,0.8 -1.2,1 -0.4,0.2 -1,0.3 -1.6,0.3 -1.1,0 -1.9,-0.4 -2.5,-1.3 -0.6,-0.9 -0.9,-2.1 -0.9,-3.6 0,-1.5 0.3,-2.9 1,-4.3 l 2.4,1 c -0.3,0.6 -0.5,1.2 -0.7,1.7 -0.2,0.5 -0.3,1.1 -0.3,1.6 0,1 0.3,1.5 0.8,1.5 0.3,0 0.6,-0.2 0.8,-0.5 0.2,-0.3 0.5,-1 1,-2.1 0.4,-1 0.8,-1.7 1.1,-2.1 0.3,-0.4 0.7,-0.8 1.2,-1 0.5,-0.2 1,-0.2 1.6,-0.2 z"
   id="path30" />
			<path
   d="m 87,444 -1.6,0.5 v 0.2 c 0.6,0.4 1,0.9 1.3,1.5 0.3,0.7 0.5,1.4 0.5,2.3 0,1.4 -0.4,2.5 -1.2,3.3 -0.8,0.7 -1.9,1.1 -3.3,1.1 h -8 v -3.4 h 7.2 c 0.9,0 1.6,-0.2 2,-0.5 0.4,-0.3 0.7,-0.8 0.7,-1.5 0,-0.9 -0.3,-1.6 -0.9,-2 -0.6,-0.4 -1.7,-0.6 -3.1,-0.6 h -5.8 v -3.4 H 87 Z"
   id="path32" />
			<path
   d="m 87,426.8 v 3.4 h -7.2 c -0.9,0 -1.6,0.1 -2,0.4 -0.4,0.3 -0.7,0.8 -0.7,1.4 0,0.9 0.3,1.5 0.9,1.9 0.6,0.4 1.7,0.6 3.1,0.6 H 87 v 3.4 H 74.6 v -2.6 l 1.6,-0.5 v -0.2 c -0.6,-0.3 -1,-0.8 -1.3,-1.4 -0.3,-0.6 -0.5,-1.3 -0.5,-2.2 0,-1.8 0.6,-3.1 1.8,-3.8 V 427 c -0.6,-0.3 -1,-0.8 -1.3,-1.5 -0.3,-0.7 -0.5,-1.4 -0.5,-2.2 0,-1.4 0.4,-2.5 1.1,-3.2 0.7,-0.7 1.9,-1.1 3.4,-1.1 h 8 v 3.4 h -7.2 c -0.9,0 -1.6,0.1 -2,0.4 -0.4,0.3 -0.7,0.8 -0.7,1.4 0,0.8 0.3,1.4 0.9,1.8 0.6,0.4 1.5,0.6 2.8,0.6 H 87 Z"
   id="path34" />
			<path
   d="m 87.2,408.9 c 0,1.4 -0.5,2.6 -1.6,3.4 v 0.2 c 1,-0.1 1.6,-0.2 1.8,-0.2 h 5 v 3.4 H 74.6 V 413 l 1.6,-0.5 v -0.2 c -1.2,-0.8 -1.8,-2 -1.8,-3.5 0,-1.5 0.6,-2.6 1.7,-3.4 1.1,-0.8 2.7,-1.2 4.7,-1.2 1.3,0 2.5,0.2 3.4,0.6 1,0.4 1.7,0.9 2.2,1.6 0.5,0.7 0.8,1.5 0.8,2.5 z m -10.1,1 c 0,0.8 0.3,1.4 0.8,1.8 0.5,0.4 1.4,0.6 2.5,0.6 h 0.4 c 1.3,0 2.3,-0.2 2.8,-0.6 0.6,-0.4 0.9,-1 0.9,-1.9 0,-1.5 -1.2,-2.3 -3.7,-2.3 -1.2,0 -2.1,0.2 -2.7,0.6 -0.7,0.4 -1,1 -1,1.8 z"
   id="path36" />
			<path
   d="m 84.5,396.2 c 0,-0.6 -0.1,-1.3 -0.4,-2.1 h 2.5 c 0.4,0.8 0.6,1.9 0.6,3.1 0,1.3 -0.3,2.3 -1,2.9 -0.7,0.6 -1.7,0.9 -3.1,0.9 h -5.9 v 1.6 h -1.4 l -1.1,-1.9 -2.6,-1 v -2.2 h 2.6 V 394 h 2.5 v 3.5 h 5.9 c 0.5,0 0.8,-0.1 1.1,-0.4 0.2,-0.1 0.3,-0.5 0.3,-0.9 z"
   id="path38" />
			<path
   d="m 71.5,391.7 c -1.1,0 -1.6,-0.6 -1.6,-1.8 0,-1.2 0.5,-1.8 1.6,-1.8 0.5,0 0.9,0.2 1.2,0.5 0.3,0.3 0.4,0.8 0.4,1.4 0,1.1 -0.5,1.7 -1.6,1.7 z M 87,388.2 v 3.4 H 74.6 v -3.4 z"
   id="path40" />
			<path
   d="m 80.8,373.5 c 2,0 3.6,0.5 4.7,1.6 1.1,1.1 1.7,2.5 1.7,4.4 0,1.2 -0.3,2.2 -0.8,3.1 -0.5,0.9 -1.3,1.6 -2.2,2.1 -0.9,0.5 -2.1,0.7 -3.4,0.7 -2,0 -3.6,-0.5 -4.7,-1.6 -1.1,-1.1 -1.7,-2.5 -1.7,-4.4 0,-1.2 0.3,-2.2 0.8,-3.1 0.5,-0.9 1.3,-1.6 2.2,-2.1 1,-0.5 2.1,-0.7 3.4,-0.7 z m 0,8.5 c 1.2,0 2.1,-0.2 2.8,-0.6 0.7,-0.4 0.9,-1.1 0.9,-2 0,-0.9 -0.3,-1.5 -0.9,-1.9 -0.6,-0.4 -1.5,-0.6 -2.8,-0.6 -1.2,0 -2.1,0.2 -2.7,0.6 -0.6,0.4 -0.9,1 -0.9,2 0,0.9 0.3,1.5 0.9,1.9 0.5,0.4 1.5,0.6 2.7,0.6 z"
   id="path42" />
			<path
   d="m 87,359.3 v 3.4 h -7.2 c -0.9,0 -1.6,0.2 -2,0.5 -0.4,0.3 -0.7,0.8 -0.7,1.5 0,0.9 0.3,1.6 0.9,2 0.6,0.4 1.7,0.6 3.1,0.6 H 87 v 3.4 H 74.6 v -2.6 l 1.6,-0.5 v -0.2 c -0.6,-0.4 -1,-0.9 -1.4,-1.5 -0.3,-0.7 -0.5,-1.4 -0.5,-2.2 0,-1.4 0.4,-2.5 1.2,-3.3 0.8,-0.7 1.9,-1.1 3.4,-1.1 z"
   id="path44" />
		</g>
		<g
   class="st0"
   id="g80">
			<path
   d="m 107.9,579.3 c -1.9,0 -3.8,-0.3 -5.5,-0.9 -1.7,-0.6 -3.2,-1.4 -4.5,-2.5 v -2.8 c 1.4,1 3,1.8 4.7,2.3 1.7,0.5 3.4,0.8 5.2,0.8 1.8,0 3.5,-0.3 5.2,-0.8 1.7,-0.5 3.2,-1.3 4.6,-2.3 v 2.7 c -1.2,1.1 -2.7,1.9 -4.4,2.5 -1.6,0.7 -3.4,1 -5.3,1 z"
   id="path48" />
			<path
   d="m 114.1,559.7 v 3.4 h -7.2 c -0.9,0 -1.6,0.1 -2,0.4 -0.4,0.3 -0.7,0.8 -0.7,1.4 0,0.9 0.3,1.5 0.9,1.9 0.6,0.4 1.7,0.6 3.1,0.6 h 5.8 v 3.4 h -12.3 v -2.6 l 1.6,-0.5 v -0.2 c -0.6,-0.3 -1,-0.8 -1.3,-1.4 -0.3,-0.6 -0.5,-1.3 -0.5,-2.2 0,-1.8 0.6,-3.1 1.8,-3.8 v -0.3 c -0.6,-0.3 -1,-0.8 -1.3,-1.5 -0.3,-0.7 -0.5,-1.4 -0.5,-2.2 0,-1.4 0.4,-2.5 1.1,-3.2 0.7,-0.7 1.9,-1.1 3.4,-1.1 h 8 v 3.4 h -7.2 c -0.9,0 -1.6,0.1 -2,0.4 -0.4,0.3 -0.7,0.8 -0.7,1.4 0,0.8 0.3,1.4 0.9,1.8 0.6,0.4 1.5,0.6 2.8,0.6 h 6.3 z"
   id="path50" />
			<path
   d="m 98.6,548.7 c -1.1,0 -1.6,-0.6 -1.6,-1.8 0,-1.2 0.5,-1.8 1.6,-1.8 0.5,0 0.9,0.2 1.2,0.5 0.3,0.3 0.4,0.8 0.4,1.4 0,1.1 -0.5,1.7 -1.6,1.7 z m 15.5,-3.5 v 3.4 h -12.3 v -3.4 z"
   id="path52" />
			<path
   d="m 114.1,538.3 v 3.4 H 96.9 v -3.4 z"
   id="path54" />
			<path
   d="m 114.1,531.4 v 3.4 H 96.9 v -3.4 z"
   id="path56" />
			<path
   d="m 98.6,528 c -1.1,0 -1.6,-0.6 -1.6,-1.8 0,-1.2 0.5,-1.8 1.6,-1.8 0.5,0 0.9,0.2 1.2,0.5 0.3,0.3 0.4,0.8 0.4,1.4 0,1.1 -0.5,1.7 -1.6,1.7 z m 15.5,-3.5 v 3.4 h -12.3 v -3.4 z"
   id="path58" />
			<path
   d="m 107.9,509.8 c 2,0 3.6,0.5 4.7,1.6 1.1,1.1 1.7,2.5 1.7,4.4 0,1.2 -0.3,2.2 -0.8,3.1 -0.5,0.9 -1.3,1.6 -2.2,2.1 -1,0.5 -2.1,0.7 -3.4,0.7 -2,0 -3.6,-0.5 -4.7,-1.6 -1.1,-1.1 -1.7,-2.5 -1.7,-4.4 0,-1.2 0.3,-2.2 0.8,-3.1 0.5,-0.9 1.3,-1.6 2.2,-2.1 1,-0.5 2.1,-0.7 3.4,-0.7 z m 0,8.5 c 1.2,0 2.1,-0.2 2.8,-0.6 0.6,-0.4 0.9,-1.1 0.9,-2 0,-0.9 -0.3,-1.5 -0.9,-1.9 -0.6,-0.4 -1.5,-0.6 -2.8,-0.6 -1.2,0 -2.1,0.2 -2.7,0.6 -0.6,0.4 -0.9,1 -0.9,2 0,0.9 0.3,1.5 0.9,1.9 0.5,0.4 1.5,0.6 2.7,0.6 z"
   id="path60" />
			<path
   d="m 114.1,495.6 v 3.4 h -7.2 c -0.9,0 -1.6,0.2 -2,0.5 -0.4,0.3 -0.7,0.8 -0.7,1.5 0,0.9 0.3,1.6 0.9,2 0.6,0.4 1.7,0.6 3.1,0.6 h 5.8 v 3.4 h -12.3 v -2.6 l 1.6,-0.5 v -0.2 c -0.6,-0.4 -1,-0.9 -1.4,-1.5 -0.3,-0.7 -0.5,-1.4 -0.5,-2.2 0,-1.4 0.4,-2.5 1.2,-3.3 0.8,-0.7 1.9,-1.1 3.4,-1.1 z"
   id="path62" />
			<path
   d="m 110.4,483.5 c 1.3,0 2.2,0.4 2.9,1.3 0.7,0.9 1,2.2 1,3.9 0,0.9 -0.1,1.7 -0.2,2.3 -0.1,0.6 -0.3,1.2 -0.5,1.8 h -2.8 c 0.3,-0.6 0.5,-1.3 0.7,-2.1 0.2,-0.8 0.3,-1.5 0.3,-2.1 0,-1.2 -0.4,-1.8 -1.1,-1.8 -0.3,0 -0.5,0.1 -0.6,0.2 -0.2,0.2 -0.4,0.4 -0.6,0.8 -0.2,0.4 -0.5,0.9 -0.7,1.6 -0.4,0.9 -0.8,1.6 -1.1,2.1 -0.3,0.4 -0.7,0.8 -1.2,1 -0.4,0.2 -1,0.3 -1.6,0.3 -1.1,0 -1.9,-0.4 -2.5,-1.3 -0.6,-0.9 -0.9,-2.1 -0.9,-3.6 0,-1.5 0.3,-2.9 1,-4.3 l 2.4,1 c -0.3,0.6 -0.5,1.2 -0.7,1.7 -0.2,0.5 -0.3,1.1 -0.3,1.6 0,1 0.3,1.5 0.8,1.5 0.3,0 0.6,-0.2 0.8,-0.5 0.2,-0.3 0.5,-1 1,-2.1 0.4,-1 0.8,-1.7 1.1,-2.1 0.3,-0.4 0.7,-0.8 1.2,-1 0.5,-0.2 1,-0.2 1.6,-0.2 z"
   id="path64" />
			<path
   d="m 107.9,463.8 c 2,0 3.6,0.5 4.7,1.6 1.1,1.1 1.7,2.5 1.7,4.4 0,1.2 -0.3,2.2 -0.8,3.1 -0.5,0.9 -1.3,1.6 -2.2,2.1 -0.9,0.5 -2.1,0.7 -3.4,0.7 -2,0 -3.6,-0.5 -4.7,-1.6 -1.1,-1.1 -1.7,-2.5 -1.7,-4.4 0,-1.2 0.3,-2.2 0.8,-3.1 0.5,-0.9 1.3,-1.6 2.2,-2.1 1,-0.4 2.1,-0.7 3.4,-0.7 z m 0,8.6 c 1.2,0 2.1,-0.2 2.8,-0.6 0.7,-0.4 0.9,-1.1 0.9,-2 0,-0.9 -0.3,-1.5 -0.9,-1.9 -0.6,-0.4 -1.5,-0.6 -2.8,-0.6 -1.2,0 -2.1,0.2 -2.7,0.6 -0.6,0.4 -0.9,1 -0.9,2 0,0.9 0.3,1.5 0.9,1.9 0.5,0.4 1.5,0.6 2.7,0.6 z"
   id="path66" />
			<path
   d="m 104.3,454.2 v 2.9 h 9.8 v 3.4 h -9.8 v 1.9 h -1.6 l -0.9,-1.9 h -0.9 c -1.4,0 -2.4,-0.3 -3.1,-1 -0.6,-0.7 -1,-1.8 -1,-3.3 0,-1.2 0.2,-2.2 0.5,-3.1 l 2.5,0.9 c -0.2,0.7 -0.3,1.3 -0.3,1.9 0,0.5 0.1,0.8 0.4,1 0.3,0.2 0.6,0.3 1.1,0.3 h 0.8 v -2.9 h 2.5 z"
   id="path68" />
			<path
   d="m 111.6,441.2 c 0,-0.6 -0.1,-1.3 -0.4,-2.1 h 2.5 c 0.4,0.8 0.6,1.9 0.6,3.1 0,1.3 -0.3,2.3 -1,2.9 -0.7,0.6 -1.7,0.9 -3.1,0.9 h -5.9 v 1.6 h -1.4 l -1.1,-1.9 -2.6,-1 v -2.2 h 2.6 V 439 h 2.5 v 3.5 h 5.9 c 0.5,0 0.8,-0.1 1.1,-0.4 0.2,-0.1 0.3,-0.4 0.3,-0.9 z"
   id="path70" />
			<path
   d="m 107.9,425.4 c 2,0 3.6,0.5 4.7,1.6 1.1,1.1 1.7,2.5 1.7,4.4 0,1.2 -0.3,2.2 -0.8,3.1 -0.5,0.9 -1.3,1.6 -2.2,2.1 -0.9,0.5 -2.1,0.7 -3.4,0.7 -2,0 -3.6,-0.5 -4.7,-1.6 -1.1,-1.1 -1.7,-2.5 -1.7,-4.4 0,-1.2 0.3,-2.2 0.8,-3.1 0.5,-0.9 1.3,-1.6 2.2,-2.1 1,-0.4 2.1,-0.7 3.4,-0.7 z m 0,8.5 c 1.2,0 2.1,-0.2 2.8,-0.6 0.7,-0.4 0.9,-1.1 0.9,-2 0,-0.9 -0.3,-1.5 -0.9,-1.9 -0.6,-0.4 -1.5,-0.6 -2.8,-0.6 -1.2,0 -2.1,0.2 -2.7,0.6 -0.6,0.4 -0.9,1 -0.9,2 0,0.9 0.3,1.5 0.9,1.9 0.5,0.4 1.5,0.6 2.7,0.6 z"
   id="path72" />
			<path
   d="m 114.1,411.3 v 3.4 h -7.2 c -0.9,0 -1.6,0.2 -2,0.5 -0.4,0.3 -0.7,0.8 -0.7,1.5 0,0.9 0.3,1.6 0.9,2 0.6,0.4 1.7,0.6 3.1,0.6 h 5.8 v 3.4 h -12.3 v -2.6 l 1.6,-0.5 v -0.2 c -0.6,-0.4 -1,-0.9 -1.4,-1.6 -0.3,-0.7 -0.5,-1.4 -0.5,-2.2 0,-1.4 0.4,-2.5 1.2,-3.3 0.8,-0.7 1.9,-1.1 3.4,-1.1 h 8.1 z"
   id="path74" />
			<path
   d="m 110.4,399.2 c 1.3,0 2.2,0.4 2.9,1.3 0.7,0.9 1,2.2 1,3.9 0,0.9 -0.1,1.7 -0.2,2.3 -0.1,0.6 -0.3,1.2 -0.5,1.8 h -2.8 c 0.3,-0.6 0.5,-1.3 0.7,-2.1 0.2,-0.8 0.3,-1.5 0.3,-2.1 0,-1.2 -0.4,-1.8 -1.1,-1.8 -0.3,0 -0.5,0.1 -0.6,0.2 -0.2,0.2 -0.4,0.4 -0.6,0.8 -0.2,0.4 -0.5,0.9 -0.7,1.6 -0.4,0.9 -0.8,1.6 -1.1,2.1 -0.3,0.4 -0.7,0.8 -1.2,1 -0.4,0.2 -1,0.3 -1.6,0.3 -1.1,0 -1.9,-0.4 -2.5,-1.3 -0.6,-0.9 -0.9,-2.1 -0.9,-3.6 0,-1.5 0.3,-2.9 1,-4.3 l 2.4,1 c -0.3,0.6 -0.5,1.2 -0.7,1.7 -0.2,0.5 -0.3,1.1 -0.3,1.6 0,1 0.3,1.5 0.8,1.5 0.3,0 0.6,-0.2 0.8,-0.5 0.2,-0.3 0.5,-1 1,-2.1 0.4,-1 0.8,-1.7 1.1,-2.1 0.3,-0.4 0.7,-0.8 1.2,-1 0.5,-0.2 1,-0.2 1.6,-0.2 z"
   id="path76" />
			<path
   d="m 107.9,391.6 c 1.9,0 3.7,0.3 5.4,0.9 1.7,0.6 3.1,1.4 4.4,2.5 v 2.7 c -1.4,-1 -2.9,-1.8 -4.6,-2.3 -1.7,-0.5 -3.4,-0.8 -5.2,-0.8 -1.8,0 -3.5,0.3 -5.2,0.8 -1.7,0.5 -3.3,1.3 -4.7,2.3 v -2.8 c 1.3,-1.1 2.8,-1.9 4.5,-2.5 1.6,-0.5 3.5,-0.8 5.4,-0.8 z"
   id="path78" />
		</g>
	</g>
	<g
   id="g168">
		<g
   class="st0"
   id="g116">
			<path
   d="m 658.9,524.5 h -2.8 V 511 h 7.7 v 2.3 h -4.9 v 3.5 h 4.6 v 2.3 h -4.6 z"
   id="path84" />
			<path
   d="m 670.9,524.6 c -1.7,0 -2.9,-0.5 -3.9,-1.4 -1,-0.9 -1.4,-2.2 -1.4,-3.9 0,-1.7 0.4,-3.1 1.3,-4 0.9,-0.9 2.1,-1.4 3.6,-1.4 1.5,0 2.6,0.4 3.4,1.2 0.8,0.8 1.2,2 1.2,3.4 v 1.4 h -6.6 c 0,0.8 0.3,1.4 0.7,1.9 0.4,0.5 1.1,0.7 1.9,0.7 0.6,0 1.2,-0.1 1.8,-0.2 0.6,-0.1 1.1,-0.3 1.7,-0.6 v 2.2 c -0.5,0.2 -1,0.4 -1.6,0.5 -0.6,0.2 -1.3,0.2 -2.1,0.2 z m -0.4,-8.6 c -0.6,0 -1.1,0.2 -1.4,0.6 -0.3,0.4 -0.5,0.9 -0.6,1.6 h 3.9 c 0,-0.7 -0.2,-1.2 -0.5,-1.6 -0.3,-0.4 -0.8,-0.6 -1.4,-0.6 z"
   id="path86" />
			<path
   d="m 683.1,514 c 0.4,0 0.7,0 0.9,0.1 l -0.2,2.6 c -0.2,-0.1 -0.5,-0.1 -0.8,-0.1 -0.9,0 -1.6,0.2 -2.1,0.7 -0.5,0.5 -0.7,1.1 -0.7,1.9 v 5.2 h -2.8 v -10.3 h 2.1 l 0.4,1.7 h 0.1 c 0.3,-0.6 0.7,-1 1.3,-1.4 0.6,-0.2 1.2,-0.4 1.8,-0.4 z"
   id="path88" />
			<path
   d="m 690.2,522.4 c 0.5,0 1.1,-0.1 1.8,-0.3 v 2.1 c -0.7,0.3 -1.6,0.5 -2.6,0.5 -1.1,0 -1.9,-0.3 -2.5,-0.8 -0.5,-0.6 -0.8,-1.4 -0.8,-2.6 v -5 h -1.3 v -1.2 l 1.5,-0.9 0.8,-2.2 h 1.8 v 2.2 h 2.9 v 2.1 H 689 v 5 c 0,0.4 0.1,0.7 0.3,0.9 0.2,0.2 0.6,0.2 0.9,0.2 z"
   id="path90" />
			<path
   d="m 694,511.5 c 0,-0.9 0.5,-1.4 1.5,-1.4 1,0 1.5,0.5 1.5,1.4 0,0.4 -0.1,0.8 -0.4,1 -0.3,0.2 -0.6,0.4 -1.1,0.4 -1,0 -1.5,-0.5 -1.5,-1.4 z m 2.9,13 h -2.8 v -10.3 h 2.8 z"
   id="path92" />
			<path
   d="m 702.6,524.5 h -2.8 v -14.3 h 2.8 z"
   id="path94" />
			<path
   d="m 705.5,511.5 c 0,-0.9 0.5,-1.4 1.5,-1.4 1,0 1.5,0.5 1.5,1.4 0,0.4 -0.1,0.8 -0.4,1 -0.3,0.2 -0.6,0.4 -1.1,0.4 -1,0 -1.5,-0.5 -1.5,-1.4 z m 2.9,13 h -2.8 v -10.3 h 2.8 z"
   id="path96" />
			<path
   d="m 718.5,524.5 h -8.1 v -1.7 l 4.8,-6.5 h -4.5 v -2.1 h 7.7 v 1.8 l -4.6,6.3 h 4.8 v 2.2 z"
   id="path98" />
			<path
   d="m 725.2,524.6 c -1.7,0 -2.9,-0.5 -3.9,-1.4 -1,-0.9 -1.4,-2.2 -1.4,-3.9 0,-1.7 0.4,-3.1 1.3,-4 0.9,-0.9 2.1,-1.4 3.6,-1.4 1.5,0 2.6,0.4 3.4,1.2 0.8,0.8 1.2,2 1.2,3.4 v 1.4 h -6.6 c 0,0.8 0.3,1.4 0.7,1.9 0.4,0.4 1.1,0.7 1.9,0.7 0.6,0 1.2,-0.1 1.8,-0.2 0.6,-0.1 1.1,-0.3 1.7,-0.6 v 2.2 c -0.5,0.2 -1,0.4 -1.6,0.5 -0.7,0.2 -1.3,0.2 -2.1,0.2 z m -0.4,-8.6 c -0.6,0 -1.1,0.2 -1.4,0.6 -0.3,0.4 -0.5,0.9 -0.6,1.6 h 3.9 c 0,-0.7 -0.2,-1.2 -0.5,-1.6 -0.3,-0.4 -0.8,-0.6 -1.4,-0.6 z"
   id="path100" />
			<path
   d="m 737.4,514 c 0.4,0 0.7,0 0.9,0.1 l -0.2,2.6 c -0.2,-0.1 -0.5,-0.1 -0.8,-0.1 -0.9,0 -1.6,0.2 -2.1,0.7 -0.5,0.5 -0.7,1.1 -0.7,1.9 v 5.2 h -2.8 v -10.3 h 2.1 l 0.4,1.7 h 0.1 c 0.3,-0.6 0.7,-1 1.3,-1.4 0.5,-0.2 1.1,-0.4 1.8,-0.4 z"
   id="path102" />
			<path
   d="m 752.3,524.5 -0.4,-1.3 h -0.1 c -0.3,0.5 -0.7,0.8 -1.3,1.1 -0.6,0.3 -1.2,0.4 -1.9,0.4 -1.2,0 -2.1,-0.3 -2.7,-1 -0.6,-0.6 -0.9,-1.6 -0.9,-2.8 v -6.7 h 2.8 v 6 c 0,0.7 0.1,1.3 0.4,1.7 0.3,0.4 0.7,0.6 1.3,0.6 0.8,0 1.4,-0.3 1.7,-0.8 0.3,-0.5 0.5,-1.4 0.5,-2.6 v -4.8 h 2.8 v 10.3 h -2.2 z"
   id="path104" />
			<path
   d="m 764.6,521.4 c 0,1.1 -0.4,1.9 -1.1,2.4 -0.7,0.5 -1.8,0.8 -3.3,0.8 -0.7,0 -1.4,-0.1 -1.9,-0.2 -0.5,-0.1 -1,-0.2 -1.5,-0.4 v -2.3 c 0.5,0.2 1.1,0.5 1.8,0.6 0.7,0.2 1.2,0.2 1.7,0.2 1,0 1.5,-0.3 1.5,-0.9 0,-0.2 -0.1,-0.4 -0.2,-0.5 -0.1,-0.1 -0.4,-0.3 -0.7,-0.5 -0.3,-0.2 -0.8,-0.4 -1.3,-0.6 -0.8,-0.3 -1.4,-0.6 -1.7,-0.9 -0.4,-0.3 -0.6,-0.6 -0.8,-1 -0.2,-0.4 -0.3,-0.8 -0.3,-1.3 0,-0.9 0.4,-1.6 1.1,-2.1 0.7,-0.5 1.7,-0.7 3,-0.7 1.2,0 2.4,0.3 3.6,0.8 l -0.8,2 c -0.5,-0.2 -1,-0.4 -1.4,-0.5 -0.4,-0.1 -0.9,-0.2 -1.4,-0.2 -0.8,0 -1.2,0.2 -1.2,0.7 0,0.3 0.1,0.5 0.4,0.7 0.3,0.2 0.9,0.5 1.8,0.8 0.8,0.3 1.4,0.6 1.8,0.9 0.4,0.3 0.6,0.6 0.8,1 0,0.3 0.1,0.7 0.1,1.2 z"
   id="path106" />
			<path
   d="m 771.5,524.6 c -1.7,0 -2.9,-0.5 -3.9,-1.4 -1,-0.9 -1.4,-2.2 -1.4,-3.9 0,-1.7 0.4,-3.1 1.3,-4 0.9,-0.9 2.1,-1.4 3.6,-1.4 1.5,0 2.6,0.4 3.4,1.2 0.8,0.8 1.2,2 1.2,3.4 v 1.4 H 769 c 0,0.8 0.3,1.4 0.7,1.9 0.4,0.5 1.1,0.7 1.9,0.7 0.6,0 1.2,-0.1 1.8,-0.2 0.6,-0.1 1.1,-0.3 1.7,-0.6 v 2.2 c -0.5,0.2 -1,0.4 -1.6,0.5 -0.6,0.2 -1.2,0.2 -2,0.2 z m -0.4,-8.6 c -0.6,0 -1.1,0.2 -1.4,0.6 -0.3,0.4 -0.5,0.9 -0.6,1.6 h 3.9 c 0,-0.7 -0.2,-1.2 -0.5,-1.6 -0.4,-0.4 -0.8,-0.6 -1.4,-0.6 z"
   id="path108" />
			<path
   d="m 792.3,524.5 h -2.8 v -6 c 0,-1.5 -0.6,-2.2 -1.7,-2.2 -0.8,0 -1.4,0.3 -1.7,0.8 -0.3,0.5 -0.5,1.4 -0.5,2.6 v 4.8 h -2.8 v -14.3 h 2.8 v 2.9 c 0,0.2 0,0.8 -0.1,1.6 l -0.1,0.8 h 0.1 c 0.6,-1 1.6,-1.5 3,-1.5 1.2,0 2.1,0.3 2.7,1 0.6,0.6 0.9,1.6 0.9,2.8 v 6.7 z"
   id="path110" />
			<path
   d="m 801.7,524.5 -0.5,-1.4 h -0.1 c -0.5,0.6 -1,1 -1.5,1.2 -0.5,0.2 -1.2,0.3 -2,0.3 -1,0 -1.8,-0.3 -2.3,-0.8 -0.6,-0.6 -0.9,-1.4 -0.9,-2.4 0,-1.1 0.4,-1.9 1.1,-2.4 0.8,-0.5 1.9,-0.8 3.5,-0.9 l 1.8,-0.1 v -0.5 c 0,-1 -0.5,-1.6 -1.6,-1.6 -0.8,0 -1.8,0.2 -2.9,0.7 l -0.9,-1.9 c 1.2,-0.6 2.5,-0.9 3.9,-0.9 1.4,0 2.4,0.3 3.2,0.9 0.7,0.6 1.1,1.5 1.1,2.7 v 6.8 h -1.9 z m -0.8,-4.8 h -1.1 c -0.8,0 -1.4,0.2 -1.8,0.4 -0.4,0.2 -0.6,0.7 -0.6,1.2 0,0.8 0.5,1.2 1.4,1.2 0.7,0 1.2,-0.2 1.6,-0.6 0.4,-0.4 0.6,-0.9 0.6,-1.5 v -0.7 z"
   id="path112" />
			<path
   d="m 813.7,521.4 c 0,1.1 -0.4,1.9 -1.1,2.4 -0.7,0.5 -1.8,0.8 -3.3,0.8 -0.7,0 -1.4,-0.1 -1.9,-0.2 -0.5,-0.1 -1,-0.2 -1.5,-0.4 v -2.3 c 0.5,0.2 1.1,0.5 1.8,0.6 0.7,0.2 1.2,0.2 1.7,0.2 1,0 1.5,-0.3 1.5,-0.9 0,-0.2 -0.1,-0.4 -0.2,-0.5 -0.1,-0.1 -0.4,-0.3 -0.7,-0.5 -0.3,-0.2 -0.8,-0.4 -1.3,-0.6 -0.8,-0.3 -1.4,-0.6 -1.7,-0.9 -0.4,-0.3 -0.6,-0.6 -0.8,-1 -0.2,-0.4 -0.3,-0.8 -0.3,-1.3 0,-0.9 0.4,-1.6 1.1,-2.1 0.7,-0.5 1.7,-0.7 3,-0.7 1.2,0 2.4,0.3 3.6,0.8 l -0.8,2 c -0.5,-0.2 -1,-0.4 -1.4,-0.5 -0.4,-0.1 -0.9,-0.2 -1.4,-0.2 -0.8,0 -1.2,0.2 -1.2,0.7 0,0.3 0.1,0.5 0.4,0.7 0.3,0.2 0.9,0.5 1.8,0.8 0.8,0.3 1.4,0.6 1.8,0.9 0.4,0.3 0.6,0.6 0.8,1 0,0.3 0.1,0.7 0.1,1.2 z"
   id="path114" />
		</g>
		<g
   class="st0"
   id="g148">
			<path
   d="m 659.2,547.2 c -1.2,0 -2.2,-0.5 -2.8,-1.4 -0.7,-0.9 -1,-2.2 -1,-3.9 0,-1.7 0.4,-3 1.1,-3.9 0.7,-0.9 1.7,-1.4 2.9,-1.4 0.6,0 1.2,0.1 1.7,0.4 0.5,0.2 0.9,0.6 1.3,1.1 h 0.1 l 0.2,-1.3 h 2.4 v 14.8 h -2.8 v -4.3 c 0,-0.4 0,-0.9 0.1,-1.5 h -0.1 c -0.3,0.5 -0.7,0.9 -1.2,1.1 -0.7,0.2 -1.3,0.3 -1.9,0.3 z m 1,-2.1 c 0.7,0 1.2,-0.2 1.6,-0.6 0.3,-0.4 0.5,-1.1 0.5,-2.1 V 542 c 0,-1.1 -0.2,-1.9 -0.5,-2.4 -0.3,-0.5 -0.9,-0.7 -1.6,-0.7 -1.3,0 -2,1 -2,3.1 0,1 0.2,1.8 0.5,2.3 0.3,0.5 0.8,0.8 1.5,0.8 z"
   id="path118" />
			<path
   d="m 675.1,547.1 -0.4,-1.3 h -0.1 c -0.3,0.5 -0.7,0.8 -1.3,1.1 -0.6,0.3 -1.2,0.4 -1.9,0.4 -1.2,0 -2.1,-0.3 -2.7,-1 -0.6,-0.6 -0.9,-1.6 -0.9,-2.8 v -6.7 h 2.8 v 6 c 0,0.7 0.1,1.3 0.4,1.7 0.3,0.4 0.7,0.6 1.3,0.6 0.8,0 1.4,-0.3 1.7,-0.8 0.3,-0.5 0.5,-1.4 0.5,-2.6 v -4.8 h 2.8 v 10.3 h -2.2 z"
   id="path120" />
			<path
   d="m 686.7,547.1 -0.5,-1.4 h -0.1 c -0.5,0.6 -1,1 -1.5,1.2 -0.5,0.2 -1.2,0.3 -2,0.3 -1,0 -1.8,-0.3 -2.3,-0.8 -0.6,-0.6 -0.9,-1.4 -0.9,-2.4 0,-1.1 0.4,-1.9 1.1,-2.4 0.8,-0.5 1.9,-0.8 3.5,-0.9 l 1.8,-0.1 v -0.5 c 0,-1 -0.5,-1.6 -1.6,-1.6 -0.8,0 -1.8,0.2 -2.9,0.7 l -0.9,-1.9 c 1.2,-0.6 2.5,-0.9 3.9,-0.9 1.4,0 2.4,0.3 3.2,0.9 0.8,0.6 1.1,1.5 1.1,2.7 v 6.8 h -1.9 z m -0.8,-4.8 h -1.1 c -0.8,0 -1.4,0.2 -1.8,0.4 -0.4,0.2 -0.6,0.7 -0.6,1.2 0,0.8 0.5,1.2 1.4,1.2 0.6,0 1.2,-0.2 1.6,-0.6 0.4,-0.4 0.6,-0.9 0.6,-1.5 v -0.7 z"
   id="path122" />
			<path
   d="m 694.8,547.2 c -1.2,0 -2.2,-0.5 -2.8,-1.4 -0.6,-0.9 -1,-2.2 -1,-3.9 0,-1.7 0.4,-3 1.1,-3.9 0.7,-0.9 1.7,-1.4 2.9,-1.4 1.3,0 2.3,0.5 3,1.5 h 0.1 c -0.1,-0.8 -0.2,-1.4 -0.2,-2 v -3.3 h 2.8 v 14.3 h -2.2 l -0.5,-1.3 h -0.1 c -0.8,0.9 -1.8,1.4 -3.1,1.4 z m 1,-2.2 c 0.7,0 1.2,-0.2 1.6,-0.6 0.3,-0.4 0.5,-1.1 0.5,-2.1 V 542 c 0,-1.1 -0.2,-1.9 -0.5,-2.4 -0.3,-0.5 -0.9,-0.7 -1.7,-0.7 -0.6,0 -1.1,0.3 -1.5,0.8 -0.3,0.5 -0.5,1.3 -0.5,2.3 0,1 0.2,1.8 0.5,2.3 0.3,0.5 1,0.7 1.6,0.7 z"
   id="path124" />
			<path
   d="m 709.2,536.6 c 0.4,0 0.7,0 0.9,0.1 l -0.2,2.6 c -0.2,-0.1 -0.5,-0.1 -0.8,-0.1 -0.9,0 -1.6,0.2 -2.1,0.7 -0.5,0.5 -0.7,1.1 -0.7,1.9 v 5.2 h -2.8 v -10.3 h 2.1 l 0.4,1.7 h 0.1 c 0.3,-0.6 0.7,-1 1.3,-1.4 0.6,-0.2 1.2,-0.4 1.8,-0.4 z"
   id="path126" />
			<path
   d="m 719.3,547.1 -0.4,-1.3 h -0.1 c -0.3,0.5 -0.7,0.8 -1.3,1.1 -0.6,0.3 -1.2,0.4 -1.9,0.4 -1.2,0 -2.1,-0.3 -2.7,-1 -0.6,-0.6 -0.9,-1.6 -0.9,-2.8 v -6.7 h 2.8 v 6 c 0,0.7 0.1,1.3 0.4,1.7 0.3,0.4 0.7,0.6 1.3,0.6 0.8,0 1.4,-0.3 1.7,-0.8 0.3,-0.5 0.5,-1.4 0.5,-2.6 v -4.8 h 2.8 v 10.3 h -2.2 z"
   id="path128" />
			<path
   d="m 730,547.2 c -1.2,0 -2.2,-0.4 -2.8,-1.3 h -0.1 c 0.1,0.9 0.1,1.4 0.1,1.5 v 4.2 h -2.8 v -14.8 h 2.3 l 0.4,1.3 h 0.1 c 0.7,-1 1.6,-1.5 2.9,-1.5 1.2,0 2.2,0.5 2.8,1.4 0.6,0.9 1,2.2 1,3.9 0,1.1 -0.2,2 -0.5,2.9 -0.3,0.8 -0.8,1.4 -1.4,1.8 -0.6,0.4 -1.1,0.6 -2,0.6 z m -0.8,-8.4 c -0.7,0 -1.2,0.2 -1.5,0.6 -0.3,0.4 -0.5,1.1 -0.5,2.1 v 0.3 c 0,1.1 0.2,1.9 0.5,2.4 0.3,0.5 0.8,0.7 1.6,0.7 1.3,0 1.9,-1 1.9,-3.1 0,-1 -0.2,-1.8 -0.5,-2.3 -0.3,-0.4 -0.8,-0.7 -1.5,-0.7 z"
   id="path130" />
			<path
   d="m 739.1,547.1 h -2.8 v -14.3 h 2.8 z"
   id="path132" />
			<path
   d="m 746.7,547.2 c -1.7,0 -2.9,-0.5 -3.9,-1.4 -1,-0.9 -1.4,-2.2 -1.4,-3.9 0,-1.7 0.4,-3.1 1.3,-4 0.9,-0.9 2.1,-1.4 3.6,-1.4 1.5,0 2.6,0.4 3.4,1.2 0.8,0.8 1.2,2 1.2,3.4 v 1.4 h -6.6 c 0,0.8 0.3,1.4 0.7,1.9 0.4,0.5 1.1,0.7 1.9,0.7 0.6,0 1.2,-0.1 1.8,-0.2 0.6,-0.1 1.1,-0.3 1.7,-0.6 v 2.2 c -0.5,0.2 -1,0.4 -1.6,0.5 -0.6,0.2 -1.3,0.2 -2.1,0.2 z m -0.4,-8.6 c -0.6,0 -1.1,0.2 -1.4,0.6 -0.3,0.4 -0.5,0.9 -0.6,1.6 h 3.9 c 0,-0.7 -0.2,-1.2 -0.5,-1.6 -0.3,-0.4 -0.8,-0.6 -1.4,-0.6 z"
   id="path134" />
			<path
   d="m 756.4,547.2 c -1.2,0 -2.2,-0.5 -2.8,-1.4 -0.6,-0.9 -1,-2.2 -1,-3.9 0,-1.7 0.4,-3 1.1,-3.9 0.7,-0.9 1.7,-1.4 2.9,-1.4 1.3,0 2.3,0.5 3,1.5 h 0.1 c -0.1,-0.8 -0.2,-1.4 -0.2,-2 v -3.3 h 2.8 v 14.3 H 760 l -0.5,-1.3 h -0.1 c -0.7,0.9 -1.7,1.4 -3,1.4 z m 1,-2.2 c 0.7,0 1.2,-0.2 1.6,-0.6 0.3,-0.4 0.5,-1.1 0.5,-2.1 V 542 c 0,-1.1 -0.2,-1.9 -0.5,-2.4 -0.3,-0.5 -0.9,-0.7 -1.7,-0.7 -0.6,0 -1.1,0.3 -1.5,0.8 -0.3,0.5 -0.5,1.3 -0.5,2.3 0,1 0.2,1.8 0.5,2.3 0.3,0.5 1,0.7 1.6,0.7 z"
   id="path136" />
			<path
   d="m 777.2,544 c 0,1.1 -0.4,1.9 -1.1,2.4 -0.7,0.6 -1.8,0.8 -3.3,0.8 -0.7,0 -1.4,-0.1 -1.9,-0.2 -0.5,-0.1 -1,-0.2 -1.5,-0.4 v -2.3 c 0.5,0.2 1.1,0.5 1.8,0.6 0.7,0.2 1.2,0.2 1.7,0.2 1,0 1.5,-0.3 1.5,-0.9 0,-0.2 -0.1,-0.4 -0.2,-0.5 -0.1,-0.1 -0.4,-0.3 -0.7,-0.5 -0.3,-0.2 -0.8,-0.4 -1.3,-0.6 -0.8,-0.3 -1.4,-0.6 -1.7,-0.9 -0.4,-0.3 -0.6,-0.6 -0.8,-1 -0.2,-0.4 -0.3,-0.8 -0.3,-1.3 0,-0.9 0.4,-1.6 1.1,-2.1 0.7,-0.5 1.7,-0.7 3,-0.7 1.2,0 2.4,0.3 3.6,0.8 l -0.8,2 c -0.5,-0.2 -1,-0.4 -1.4,-0.5 -0.4,-0.1 -0.9,-0.2 -1.4,-0.2 -0.8,0 -1.2,0.2 -1.2,0.7 0,0.3 0.1,0.5 0.4,0.7 0.3,0.2 0.8,0.5 1.8,0.8 0.8,0.3 1.4,0.6 1.8,0.9 0.4,0.3 0.6,0.6 0.8,1 0,0.3 0.1,0.7 0.1,1.2 z"
   id="path138" />
			<path
   d="m 779.2,534.1 c 0,-0.9 0.5,-1.4 1.5,-1.4 1,0 1.5,0.5 1.5,1.4 0,0.4 -0.1,0.8 -0.4,1 -0.3,0.2 -0.6,0.4 -1.1,0.4 -1,0 -1.5,-0.5 -1.5,-1.4 z m 3,13 h -2.8 v -10.3 h 2.8 z"
   id="path140" />
			<path
   d="m 794.6,547.1 h -2.8 v -6 c 0,-0.7 -0.1,-1.3 -0.4,-1.7 -0.3,-0.4 -0.7,-0.6 -1.3,-0.6 -0.8,0 -1.4,0.3 -1.7,0.8 -0.3,0.5 -0.5,1.4 -0.5,2.6 v 4.8 h -2.8 v -10.3 h 2.1 l 0.4,1.3 h 0.2 c 0.3,-0.5 0.7,-0.9 1.3,-1.1 0.5,-0.3 1.2,-0.4 1.9,-0.4 1.2,0 2.1,0.3 2.7,1 0.6,0.6 0.9,1.6 0.9,2.8 z"
   id="path142" />
			<path
   d="m 801.6,547.2 c -3.2,0 -4.8,-1.8 -4.8,-5.3 0,-1.7 0.4,-3.1 1.3,-4 0.9,-0.9 2.1,-1.4 3.7,-1.4 1.2,0 2.3,0.2 3.2,0.7 l -0.8,2.2 c -0.4,-0.2 -0.9,-0.3 -1.2,-0.4 -0.4,-0.1 -0.8,-0.2 -1.1,-0.2 -1.5,0 -2.2,1 -2.2,3.1 0,2 0.7,3 2.2,3 0.5,0 1,-0.1 1.5,-0.2 0.5,-0.1 0.9,-0.4 1.4,-0.7 v 2.4 c -0.5,0.3 -0.9,0.5 -1.4,0.6 -0.5,0.2 -1.1,0.2 -1.8,0.2 z"
   id="path144" />
			<path
   d="m 811.8,547.2 c -1.7,0 -2.9,-0.5 -3.9,-1.4 -1,-0.9 -1.4,-2.2 -1.4,-3.9 0,-1.7 0.4,-3.1 1.3,-4 0.9,-0.9 2.1,-1.4 3.6,-1.4 1.5,0 2.6,0.4 3.4,1.2 0.8,0.8 1.2,2 1.2,3.4 v 1.4 h -6.6 c 0,0.8 0.3,1.4 0.7,1.9 0.4,0.4 1.1,0.7 1.9,0.7 0.6,0 1.2,-0.1 1.8,-0.2 0.6,-0.1 1.1,-0.3 1.7,-0.6 v 2.2 c -0.5,0.2 -1,0.4 -1.6,0.5 -0.6,0.2 -1.3,0.2 -2.1,0.2 z m -0.4,-8.6 c -0.6,0 -1.1,0.2 -1.4,0.6 -0.3,0.4 -0.5,0.9 -0.6,1.6 h 3.9 c 0,-0.7 -0.2,-1.2 -0.5,-1.6 -0.3,-0.4 -0.8,-0.6 -1.4,-0.6 z"
   id="path146" />
		</g>
		<g
   class="st0"
   id="g166">
			<path
   d="m 660.2,567.6 c 0.5,0 1.1,-0.1 1.8,-0.3 v 2.1 c -0.7,0.3 -1.6,0.5 -2.6,0.5 -1.1,0 -1.9,-0.3 -2.5,-0.8 -0.5,-0.6 -0.8,-1.4 -0.8,-2.6 v -5 h -1.3 v -1.2 l 1.5,-0.9 0.8,-2.2 h 1.8 v 2.2 h 2.9 v 2.1 H 659 v 5 c 0,0.4 0.1,0.7 0.3,0.9 0.2,0.2 0.6,0.2 0.9,0.2 z"
   id="path150" />
			<path
   d="m 673.6,569.7 h -2.8 v -6 c 0,-1.5 -0.6,-2.2 -1.7,-2.2 -0.8,0 -1.4,0.3 -1.7,0.8 -0.3,0.5 -0.5,1.4 -0.5,2.6 v 4.8 h -2.8 v -14.3 h 2.8 v 2.9 c 0,0.2 0,0.8 -0.1,1.6 l -0.1,0.8 h 0.1 c 0.6,-1 1.6,-1.5 3,-1.5 1.2,0 2.1,0.3 2.7,1 0.6,0.6 0.9,1.6 0.9,2.8 v 6.7 z"
   id="path152" />
			<path
   d="m 681.1,569.8 c -1.7,0 -2.9,-0.5 -3.9,-1.4 -1,-0.9 -1.4,-2.2 -1.4,-3.9 0,-1.7 0.4,-3.1 1.3,-4 0.9,-0.9 2.1,-1.4 3.6,-1.4 1.5,0 2.6,0.4 3.4,1.2 0.8,0.8 1.2,2 1.2,3.4 v 1.4 h -6.6 c 0,0.8 0.3,1.4 0.7,1.9 0.4,0.4 1.1,0.7 1.9,0.7 0.6,0 1.2,-0.1 1.8,-0.2 0.6,-0.1 1.1,-0.3 1.7,-0.6 v 2.2 c -0.5,0.2 -1,0.4 -1.6,0.5 -0.6,0.2 -1.3,0.2 -2.1,0.2 z m -0.4,-8.6 c -0.6,0 -1.1,0.2 -1.4,0.6 -0.3,0.4 -0.5,0.9 -0.6,1.6 h 3.9 c 0,-0.7 -0.2,-1.2 -0.5,-1.6 -0.3,-0.4 -0.8,-0.6 -1.4,-0.6 z"
   id="path154" />
			<path
   d="M 698.8,569.7 H 696 v -7.8 -1.3 -1.4 c -0.5,0.5 -0.8,0.8 -1,0.9 l -1.5,1.2 -1.4,-1.7 4.3,-3.4 h 2.3 v 13.5 z"
   id="path156" />
			<path
   d="m 711.8,562 c 0,2.6 -0.6,4.6 -1.7,5.9 -1.1,1.3 -2.8,2 -5.1,2 -0.8,0 -1.4,0 -1.8,-0.1 v -2.3 c 0.5,0.1 1.1,0.2 1.6,0.2 1,0 1.7,-0.1 2.3,-0.4 0.6,-0.3 1.1,-0.7 1.4,-1.3 0.3,-0.6 0.5,-1.4 0.6,-2.5 H 709 c -0.4,0.6 -0.8,1 -1.2,1.2 -0.5,0.2 -1,0.3 -1.7,0.3 -1.2,0 -2.1,-0.4 -2.8,-1.1 -0.7,-0.8 -1,-1.8 -1,-3.1 0,-1.4 0.4,-2.6 1.2,-3.4 0.8,-0.8 1.9,-1.3 3.3,-1.3 1,0 1.9,0.2 2.6,0.7 0.7,0.5 1.3,1.1 1.7,2 0.5,0.9 0.7,1.9 0.7,3.2 z m -4.8,-3.7 c -0.6,0 -1,0.2 -1.4,0.6 -0.4,0.4 -0.5,1 -0.5,1.7 0,0.6 0.1,1.2 0.5,1.5 0.3,0.4 0.8,0.6 1.4,0.6 0.6,0 1.1,-0.2 1.5,-0.6 0.4,-0.4 0.6,-0.8 0.6,-1.3 0,-0.7 -0.2,-1.3 -0.6,-1.8 -0.4,-0.4 -0.9,-0.7 -1.5,-0.7 z"
   id="path158" />
			<path
   d="m 713.2,564 c 0,-2.7 0.6,-4.6 1.7,-5.9 1.1,-1.3 2.8,-1.9 5.1,-1.9 0.8,0 1.4,0 1.8,0.1 v 2.3 c -0.5,-0.1 -1.1,-0.2 -1.6,-0.2 -1,0 -1.8,0.1 -2.4,0.4 -0.6,0.3 -1.1,0.7 -1.4,1.3 -0.3,0.6 -0.5,1.4 -0.5,2.5 h 0.1 c 0.6,-1 1.6,-1.6 2.9,-1.6 1.2,0 2.1,0.4 2.8,1.1 0.7,0.7 1,1.8 1,3.1 0,1.4 -0.4,2.6 -1.2,3.4 -0.8,0.8 -1.9,1.3 -3.4,1.3 -1,0 -1.9,-0.2 -2.6,-0.7 -0.7,-0.5 -1.3,-1.1 -1.7,-2 -0.4,-0.9 -0.6,-2 -0.6,-3.2 z m 4.8,3.6 c 0.6,0 1.1,-0.2 1.4,-0.6 0.3,-0.4 0.5,-1 0.5,-1.7 0,-0.7 -0.2,-1.2 -0.5,-1.5 -0.3,-0.4 -0.8,-0.6 -1.4,-0.6 -0.6,0 -1.1,0.2 -1.5,0.6 -0.4,0.4 -0.6,0.8 -0.6,1.3 0,0.7 0.2,1.3 0.6,1.8 0.4,0.4 0.9,0.7 1.5,0.7 z"
   id="path160" />
			<path
   d="m 733.3,562.9 c 0,2.3 -0.4,4.1 -1.2,5.2 -0.8,1.1 -2,1.7 -3.6,1.7 -1.6,0 -2.7,-0.6 -3.5,-1.7 -0.8,-1.2 -1.2,-2.9 -1.2,-5.2 0,-2.4 0.4,-4.1 1.1,-5.2 0.8,-1.1 1.9,-1.7 3.5,-1.7 1.6,0 2.7,0.6 3.5,1.8 0.8,1.2 1.4,2.9 1.4,5.1 z m -6.6,0 c 0,1.6 0.1,2.8 0.4,3.5 0.3,0.7 0.8,1.1 1.4,1.1 0.7,0 1.1,-0.4 1.4,-1.1 0.3,-0.7 0.4,-1.9 0.4,-3.5 0,-1.6 -0.1,-2.8 -0.4,-3.6 -0.3,-0.7 -0.8,-1.1 -1.4,-1.1 -0.7,0 -1.1,0.4 -1.4,1.1 -0.2,0.8 -0.4,2 -0.4,3.6 z"
   id="path162" />
			<path
   d="m 742.6,566.6 c 0,1.1 -0.4,1.9 -1.1,2.4 -0.7,0.5 -1.8,0.8 -3.3,0.8 -0.7,0 -1.4,-0.1 -1.9,-0.2 -0.5,-0.1 -1,-0.2 -1.5,-0.4 v -2.3 c 0.5,0.2 1.1,0.5 1.8,0.6 0.7,0.2 1.2,0.2 1.7,0.2 1,0 1.5,-0.3 1.5,-0.9 0,-0.2 -0.1,-0.4 -0.2,-0.5 -0.1,-0.1 -0.4,-0.3 -0.7,-0.5 -0.3,-0.2 -0.8,-0.4 -1.3,-0.6 -0.8,-0.3 -1.4,-0.6 -1.7,-0.9 -0.4,-0.3 -0.6,-0.6 -0.8,-1 -0.2,-0.4 -0.3,-0.8 -0.3,-1.3 0,-0.9 0.4,-1.6 1.1,-2.1 0.7,-0.5 1.7,-0.7 3,-0.7 1.2,0 2.4,0.3 3.6,0.8 l -0.8,2 c -0.5,-0.2 -1,-0.4 -1.4,-0.5 -0.4,-0.1 -0.9,-0.2 -1.4,-0.2 -0.8,0 -1.2,0.2 -1.2,0.7 0,0.3 0.1,0.5 0.4,0.7 0.3,0.2 0.9,0.5 1.8,0.8 0.8,0.3 1.4,0.6 1.8,0.9 0.4,0.3 0.6,0.6 0.8,1 0,0.3 0.1,0.7 0.1,1.2 z"
   id="path164" />
		</g>
	</g>
	<line
   class="st1"
   x1="810.79999"
   y1="792.40002"
   x2="179.8"
   y2="792.40002"
   id="line170" />
	<line
   class="st1"
   x1="239.8"
   y1="799.09998"
   x2="239.8"
   y2="792.29999"
   id="line172" />
	<line
   class="st1"
   x1="291.29999"
   y1="799.09998"
   x2="291.29999"
   y2="792.29999"
   id="line174" />
	<line
   class="st1"
   x1="346"
   y1="799.09998"
   x2="346"
   y2="792.29999"
   id="line176" />
	<line
   class="st1"
   x1="397.5"
   y1="799.09998"
   x2="397.5"
   y2="792.29999"
   id="line178" />
	<line
   class="st1"
   x1="451.60001"
   y1="799.09998"
   x2="451.60001"
   y2="792.29999"
   id="line180" />
	<line
   class="st1"
   x1="503.10001"
   y1="799.09998"
   x2="503.10001"
   y2="792.29999"
   id="line182" />
	<line
   class="st1"
   x1="557"
   y1="799.09998"
   x2="557"
   y2="792.29999"
   id="line184" />
	<line
   class="st1"
   x1="608.5"
   y1="799.09998"
   x2="608.5"
   y2="792.29999"
   id="line186" />
	<line
   class="st1"
   x1="663.5"
   y1="799.09998"
   x2="663.5"
   y2="792.29999"
   id="line188" />
	<line
   class="st1"
   x1="715"
   y1="799.09998"
   x2="715"
   y2="792.29999"
   id="line190" />
	<line
   class="st1"
   x1="767.79999"
   y1="799.09998"
   x2="767.79999"
   y2="792.29999"
   id="line192" />
	<path
   class="st2"
   d="m 186.8,719.3 c 0,0 8.7,-0.7 27.1,-14.9 18.4,-14.2 26.2,-37.6 36.9,-39.7 10.6,-2.1 26.2,-20.6 33.3,-28.4 7.1,-7.8 24.8,-27.6 24.8,-27.6 l 9.2,-14.2 10.6,7.1 c 0,0 17.7,-33.3 20.6,-35.4 2.8,-2.1 14.9,-12.8 14.9,-12.8 l 25.5,-31.2 24.1,2.1 c 0,0 5.7,-14.2 7.8,-18.4 2.1,-4.3 14.2,-19.1 14.2,-19.1 l 11.3,5.7 c 0,0 17.7,-17.7 20.6,-24.8 2.8,-7.1 8.5,-10.6 14.2,-9.9 5.7,0.7 7.1,9.2 14.9,12 7.8,2.8 13.5,11.3 13.5,11.3 0,0 12.8,23.4 16.3,26.2 3.5,2.8 12.8,5 16.3,-1.4 3.5,-6.4 17.7,-35.4 30.5,-34.7 12.8,0.7 20.6,-7.1 20.6,-7.1 0,0 12.8,12 17,7.8 4.3,-4.3 26.2,-25.5 26.2,-36.1 0,-10.6 18.4,-14.2 18.4,-14.2 0,0 12,-1.4 14.2,-8.5 2.1,-7.1 9.9,-16.3 9.9,-16.3 0,0 8.5,13.5 15.6,11.3 7.1,-2.1 9.9,-15.6 9.9,-15.6 l 10.6,-22.7 c 0,0 2.8,-12 11.3,-12 8.5,0 19.8,-8.5 19.8,-8.5 l 5.7,-7.1"
   id="path194" />
	<line
   class="st1"
   x1="185.5"
   y1="206.8"
   x2="185.5"
   y2="800"
   id="line196" />
	<g
   id="g206">
		<g
   id="g204">
			<path
   class="st3"
   d="m 761.7,356.4 c 0,0 0.8,-0.4 2.3,-1.1"
   id="path198" />
			<path
   class="st4"
   d="m 768.6,352.9 c 7.1,-3.8 19,-10.8 32.4,-21.4"
   id="path200" />
			<path
   class="st3"
   d="m 803,330 c 0.6,-0.5 1.3,-1 1.9,-1.6"
   id="path202" />
		</g>
	</g>
	<line
   class="st1"
   x1="186"
   y1="207.10001"
   x2="180.10001"
   y2="207.10001"
   id="line208" />
	<line
   class="st1"
   x1="186"
   y1="325.70001"
   x2="180.10001"
   y2="325.70001"
   id="line210" />
	<line
   class="st1"
   x1="186"
   y1="442.60001"
   x2="180.10001"
   y2="442.60001"
   id="line212" />
	<line
   class="st1"
   x1="186"
   y1="559.5"
   x2="180.10001"
   y2="559.5"
   id="line214" />
	<line
   class="st1"
   x1="186"
   y1="677.5"
   x2="180.10001"
   y2="677.5"
   id="line216" />
	<g
   class="st0"
   id="g220">
		<path
   d="m 171,796 c 0,1.8 -0.3,3.1 -0.9,4 -0.6,0.9 -1.5,1.3 -2.7,1.3 -1.2,0 -2.1,-0.4 -2.7,-1.3 -0.6,-0.9 -0.9,-2.2 -0.9,-4 0,-1.8 0.3,-3.2 0.9,-4 0.6,-0.8 1.5,-1.3 2.7,-1.3 1.2,0 2.1,0.5 2.7,1.4 0.6,0.9 0.9,2.2 0.9,3.9 z m -5.1,0 c 0,1.3 0.1,2.2 0.3,2.7 0.2,0.5 0.6,0.8 1.1,0.8 0.5,0 0.9,-0.3 1.1,-0.8 0.2,-0.6 0.3,-1.5 0.3,-2.7 0,-1.3 -0.1,-2.2 -0.3,-2.7 -0.2,-0.5 -0.6,-0.8 -1.1,-0.8 -0.5,0 -0.9,0.3 -1.1,0.8 -0.2,0.6 -0.3,1.5 -0.3,2.7 z"
   id="path218" />
	</g>
	<g
   class="st0"
   id="g226">
		<path
   d="m 159.3,675.5 c 1,0 1.8,0.3 2.4,0.8 0.6,0.6 0.9,1.3 0.9,2.3 0,1.2 -0.4,2 -1.1,2.7 -0.7,0.6 -1.7,0.9 -3,0.9 -1.1,0 -2.1,-0.2 -2.8,-0.6 v -1.9 c 0.4,0.2 0.8,0.4 1.3,0.5 0.5,0.1 1,0.2 1.4,0.2 1.3,0 2,-0.5 2,-1.6 0,-1 -0.7,-1.6 -2.1,-1.6 -0.2,0 -0.5,0 -0.8,0.1 -0.3,0 -0.5,0.1 -0.7,0.2 l -0.9,-0.5 0.4,-5.3 h 5.6 v 1.8 h -3.7 l -0.2,2 h 0.2 c 0.4,0.1 0.7,0 1.1,0 z"
   id="path222" />
		<path
   d="m 171,677 c 0,1.8 -0.3,3.1 -0.9,4 -0.6,0.9 -1.5,1.3 -2.7,1.3 -1.2,0 -2.1,-0.4 -2.7,-1.3 -0.6,-0.9 -0.9,-2.2 -0.9,-4 0,-1.8 0.3,-3.2 0.9,-4 0.6,-0.8 1.5,-1.3 2.7,-1.3 1.2,0 2.1,0.5 2.7,1.4 0.6,0.9 0.9,2.1 0.9,3.9 z m -5.1,0 c 0,1.3 0.1,2.2 0.3,2.7 0.2,0.5 0.6,0.8 1.1,0.8 0.5,0 0.9,-0.3 1.1,-0.8 0.2,-0.6 0.3,-1.5 0.3,-2.7 0,-1.3 -0.1,-2.2 -0.3,-2.7 -0.2,-0.5 -0.6,-0.8 -1.1,-0.8 -0.5,0 -0.9,0.3 -1.1,0.8 -0.2,0.5 -0.3,1.4 -0.3,2.7 z"
   id="path224" />
	</g>
	<g
   class="st0"
   id="g234">
		<path
   d="m 152.7,567.8 h -2.2 v -6 -1 -1.1 c -0.4,0.4 -0.6,0.6 -0.8,0.7 l -1.2,1 -1.1,-1.3 3.3,-2.6 h 1.8 v 10.3 z"
   id="path228" />
		<path
   d="m 162.7,562.6 c 0,1.8 -0.3,3.1 -0.9,4 -0.6,0.9 -1.5,1.3 -2.7,1.3 -1.2,0 -2.1,-0.4 -2.7,-1.3 -0.6,-0.9 -0.9,-2.2 -0.9,-4 0,-1.8 0.3,-3.2 0.9,-4 0.6,-0.8 1.5,-1.3 2.7,-1.3 1.2,0 2.1,0.5 2.7,1.4 0.6,0.9 0.9,2.2 0.9,3.9 z m -5,0 c 0,1.3 0.1,2.2 0.3,2.7 0.2,0.5 0.6,0.8 1.1,0.8 0.5,0 0.9,-0.3 1.1,-0.8 0.2,-0.6 0.3,-1.5 0.3,-2.7 0,-1.3 -0.1,-2.2 -0.3,-2.7 -0.2,-0.5 -0.6,-0.8 -1.1,-0.8 -0.5,0 -0.9,0.3 -1.1,0.8 -0.2,0.5 -0.3,1.4 -0.3,2.7 z"
   id="path230" />
		<path
   d="m 171,562.6 c 0,1.8 -0.3,3.1 -0.9,4 -0.6,0.9 -1.5,1.3 -2.7,1.3 -1.2,0 -2.1,-0.4 -2.7,-1.3 -0.6,-0.9 -0.9,-2.2 -0.9,-4 0,-1.8 0.3,-3.2 0.9,-4 0.6,-0.8 1.5,-1.3 2.7,-1.3 1.2,0 2.1,0.5 2.7,1.4 0.6,0.9 0.9,2.2 0.9,3.9 z m -5.1,0 c 0,1.3 0.1,2.2 0.3,2.7 0.2,0.5 0.6,0.8 1.1,0.8 0.5,0 0.9,-0.3 1.1,-0.8 0.2,-0.6 0.3,-1.5 0.3,-2.7 0,-1.3 -0.1,-2.2 -0.3,-2.7 -0.2,-0.5 -0.6,-0.8 -1.1,-0.8 -0.5,0 -0.9,0.3 -1.1,0.8 -0.2,0.5 -0.3,1.4 -0.3,2.7 z"
   id="path232" />
	</g>
	<g
   class="st0"
   id="g242">
		<path
   d="m 152.7,449.2 h -2.2 v -6 -1 -1.1 c -0.4,0.4 -0.6,0.6 -0.8,0.7 l -1.2,1 -1.1,-1.3 3.3,-2.6 h 1.8 v 10.3 z"
   id="path236" />
		<path
   d="m 159.3,442.6 c 1,0 1.8,0.3 2.4,0.8 0.6,0.6 0.9,1.3 0.9,2.3 0,1.2 -0.4,2 -1.1,2.7 -0.7,0.6 -1.7,0.9 -3,0.9 -1.1,0 -2.1,-0.2 -2.8,-0.6 v -1.9 c 0.4,0.2 0.8,0.4 1.3,0.5 0.5,0.1 1,0.2 1.4,0.2 1.3,0 2,-0.5 2,-1.6 0,-1 -0.7,-1.6 -2.1,-1.6 -0.2,0 -0.5,0 -0.8,0.1 -0.3,0 -0.5,0.1 -0.7,0.2 l -0.9,-0.5 0.4,-5.3 h 5.6 v 1.8 h -3.7 l -0.2,2 h 0.2 c 0.4,0 0.7,0 1.1,0 z"
   id="path238" />
		<path
   d="m 171,444 c 0,1.8 -0.3,3.1 -0.9,4 -0.6,0.9 -1.5,1.3 -2.7,1.3 -1.2,0 -2.1,-0.4 -2.7,-1.3 -0.6,-0.9 -0.9,-2.2 -0.9,-4 0,-1.8 0.3,-3.2 0.9,-4 0.6,-0.8 1.5,-1.3 2.7,-1.3 1.2,0 2.1,0.5 2.7,1.4 0.6,0.9 0.9,2.2 0.9,3.9 z m -5.1,0 c 0,1.3 0.1,2.2 0.3,2.7 0.2,0.5 0.6,0.8 1.1,0.8 0.5,0 0.9,-0.3 1.1,-0.8 0.2,-0.6 0.3,-1.5 0.3,-2.7 0,-1.3 -0.1,-2.2 -0.3,-2.7 -0.2,-0.5 -0.6,-0.8 -1.1,-0.8 -0.5,0 -0.9,0.3 -1.1,0.8 -0.2,0.5 -0.3,1.4 -0.3,2.7 z"
   id="path240" />
	</g>
	<g
   class="st0"
   id="g250">
		<path
   d="m 154.6,333.4 h -7.2 v -1.5 l 2.6,-2.6 c 0.8,-0.8 1.3,-1.3 1.5,-1.6 0.2,-0.3 0.4,-0.6 0.5,-0.8 0.1,-0.3 0.2,-0.5 0.2,-0.8 0,-0.4 -0.1,-0.7 -0.3,-0.9 -0.2,-0.2 -0.5,-0.3 -0.9,-0.3 -0.4,0 -0.8,0.1 -1.2,0.3 -0.4,0.2 -0.8,0.4 -1.2,0.8 l -1.2,-1.4 c 0.5,-0.4 0.9,-0.7 1.3,-0.9 0.4,-0.2 0.7,-0.3 1.1,-0.4 0.4,-0.1 0.8,-0.1 1.3,-0.1 0.6,0 1.2,0.1 1.7,0.4 0.5,0.2 0.9,0.6 1.1,1 0.2,0.4 0.4,0.9 0.4,1.5 0,0.5 -0.1,0.9 -0.2,1.3 -0.2,0.4 -0.4,0.8 -0.8,1.3 -0.4,0.4 -1,1.1 -1.9,1.9 l -1.3,1.2 v 0.1 h 4.5 z"
   id="path244" />
		<path
   d="m 162.7,328.2 c 0,1.8 -0.3,3.1 -0.9,4 -0.6,0.9 -1.5,1.3 -2.7,1.3 -1.2,0 -2.1,-0.4 -2.7,-1.3 -0.6,-0.9 -0.9,-2.2 -0.9,-4 0,-1.8 0.3,-3.2 0.9,-4 0.6,-0.8 1.5,-1.3 2.7,-1.3 1.2,0 2.1,0.5 2.7,1.4 0.6,0.9 0.9,2.2 0.9,3.9 z m -5,0 c 0,1.3 0.1,2.2 0.3,2.7 0.2,0.5 0.6,0.8 1.1,0.8 0.5,0 0.9,-0.3 1.1,-0.8 0.2,-0.6 0.3,-1.5 0.3,-2.7 0,-1.3 -0.1,-2.2 -0.3,-2.7 -0.2,-0.5 -0.6,-0.8 -1.1,-0.8 -0.5,0 -0.9,0.3 -1.1,0.8 -0.2,0.6 -0.3,1.5 -0.3,2.7 z"
   id="path246" />
		<path
   d="m 171,328.2 c 0,1.8 -0.3,3.1 -0.9,4 -0.6,0.9 -1.5,1.3 -2.7,1.3 -1.2,0 -2.1,-0.4 -2.7,-1.3 -0.6,-0.9 -0.9,-2.2 -0.9,-4 0,-1.8 0.3,-3.2 0.9,-4 0.6,-0.8 1.5,-1.3 2.7,-1.3 1.2,0 2.1,0.5 2.7,1.4 0.6,0.9 0.9,2.2 0.9,3.9 z m -5.1,0 c 0,1.3 0.1,2.2 0.3,2.7 0.2,0.5 0.6,0.8 1.1,0.8 0.5,0 0.9,-0.3 1.1,-0.8 0.2,-0.6 0.3,-1.5 0.3,-2.7 0,-1.3 -0.1,-2.2 -0.3,-2.7 -0.2,-0.5 -0.6,-0.8 -1.1,-0.8 -0.5,0 -0.9,0.3 -1.1,0.8 -0.2,0.6 -0.3,1.5 -0.3,2.7 z"
   id="path248" />
	</g>
	<g
   class="st0"
   id="g258">
		<path
   d="m 154.6,214.3 h -7.2 v -1.5 l 2.6,-2.6 c 0.8,-0.8 1.3,-1.3 1.5,-1.6 0.2,-0.3 0.4,-0.6 0.5,-0.8 0.1,-0.3 0.2,-0.5 0.2,-0.8 0,-0.4 -0.1,-0.7 -0.3,-0.9 -0.2,-0.2 -0.5,-0.3 -0.9,-0.3 -0.4,0 -0.8,0.1 -1.2,0.3 -0.4,0.2 -0.8,0.4 -1.2,0.8 l -1.2,-1.4 c 0.5,-0.4 0.9,-0.7 1.3,-0.9 0.4,-0.2 0.7,-0.3 1.1,-0.4 0.4,-0.1 0.8,-0.1 1.3,-0.1 0.6,0 1.2,0.1 1.7,0.4 0.5,0.2 0.9,0.6 1.1,1 0.2,0.4 0.4,0.9 0.4,1.5 0,0.5 -0.1,0.9 -0.2,1.3 -0.2,0.4 -0.4,0.8 -0.8,1.3 -0.4,0.4 -1,1.1 -1.9,1.9 l -1.3,1.2 v 0.1 h 4.5 z"
   id="path252" />
		<path
   d="m 159.3,207.7 c 1,0 1.8,0.3 2.4,0.8 0.6,0.6 0.9,1.3 0.9,2.3 0,1.2 -0.4,2 -1.1,2.7 -0.7,0.6 -1.7,0.9 -3,0.9 -1.1,0 -2.1,-0.2 -2.8,-0.6 V 212 c 0.4,0.2 0.8,0.4 1.3,0.5 0.5,0.1 1,0.2 1.4,0.2 1.3,0 2,-0.5 2,-1.6 0,-1 -0.7,-1.6 -2.1,-1.6 -0.2,0 -0.5,0 -0.8,0.1 -0.3,0 -0.5,0.1 -0.7,0.2 l -0.9,-0.5 0.4,-5.3 h 5.6 v 1.8 h -3.7 l -0.2,2 h 0.2 c 0.4,0 0.7,-0.1 1.1,-0.1 z"
   id="path254" />
		<path
   d="m 171,209.2 c 0,1.8 -0.3,3.1 -0.9,4 -0.6,0.9 -1.5,1.3 -2.7,1.3 -1.2,0 -2.1,-0.4 -2.7,-1.3 -0.6,-0.9 -0.9,-2.2 -0.9,-4 0,-1.8 0.3,-3.2 0.9,-4 0.6,-0.8 1.5,-1.3 2.7,-1.3 1.2,0 2.1,0.5 2.7,1.4 0.6,0.9 0.9,2.1 0.9,3.9 z m -5.1,0 c 0,1.3 0.1,2.2 0.3,2.7 0.2,0.5 0.6,0.8 1.1,0.8 0.5,0 0.9,-0.3 1.1,-0.8 0.2,-0.6 0.3,-1.5 0.3,-2.7 0,-1.3 -0.1,-2.2 -0.3,-2.7 -0.2,-0.5 -0.6,-0.8 -1.1,-0.8 -0.5,0 -0.9,0.3 -1.1,0.8 -0.2,0.5 -0.3,1.4 -0.3,2.7 z"
   id="path256" />
	</g>
	<g
   class="st0"
   id="g268">
		<path
   d="M 179.2,825.1 H 177 v -6 -1 -1.1 c -0.4,0.4 -0.6,0.6 -0.8,0.7 l -1.2,1 -1.1,-1.3 3.3,-2.6 h 1.8 v 10.3 z"
   id="path260" />
		<path
   d="m 189.2,819.2 c 0,2 -0.4,3.5 -1.3,4.5 -0.9,1 -2.1,1.5 -3.9,1.5 -0.6,0 -1.1,0 -1.4,-0.1 v -1.7 c 0.4,0.1 0.8,0.1 1.2,0.1 0.7,0 1.3,-0.1 1.8,-0.3 0.5,-0.2 0.8,-0.5 1.1,-1 0.3,-0.5 0.4,-1.1 0.4,-1.9 H 187 c -0.3,0.4 -0.6,0.8 -0.9,0.9 -0.4,0.2 -0.8,0.3 -1.3,0.3 -0.9,0 -1.6,-0.3 -2.1,-0.9 -0.5,-0.6 -0.8,-1.4 -0.8,-2.4 0,-1.1 0.3,-2 0.9,-2.6 0.6,-0.6 1.5,-1 2.6,-1 0.8,0 1.4,0.2 2,0.5 0.6,0.4 1,0.9 1.3,1.6 0.3,0.7 0.5,1.5 0.5,2.5 z m -3.7,-2.8 c -0.5,0 -0.8,0.2 -1.1,0.5 -0.3,0.3 -0.4,0.8 -0.4,1.3 0,0.5 0.1,0.9 0.3,1.2 0.2,0.3 0.6,0.4 1.1,0.4 0.4,0 0.8,-0.1 1.1,-0.4 0.3,-0.3 0.5,-0.6 0.5,-1 0,-0.6 -0.1,-1 -0.4,-1.4 -0.3,-0.4 -0.6,-0.6 -1.1,-0.6 z"
   id="path262" />
		<path
   d="m 190.3,820.7 c 0,-2 0.4,-3.6 1.3,-4.6 0.9,-1 2.2,-1.5 3.9,-1.5 0.6,0 1,0 1.4,0.1 v 1.7 c -0.4,-0.1 -0.8,-0.1 -1.2,-0.1 -0.7,0 -1.4,0.1 -1.8,0.3 -0.5,0.2 -0.8,0.6 -1.1,1 -0.3,0.4 -0.4,1.1 -0.4,1.9 h 0.1 c 0.5,-0.8 1.2,-1.2 2.2,-1.2 0.9,0 1.6,0.3 2.2,0.9 0.5,0.6 0.8,1.4 0.8,2.4 0,1.1 -0.3,2 -0.9,2.6 -0.6,0.6 -1.5,1 -2.6,1 -0.8,0 -1.4,-0.2 -2,-0.5 -0.6,-0.3 -1,-0.9 -1.3,-1.5 -0.5,-0.7 -0.6,-1.6 -0.6,-2.5 z m 3.7,2.8 c 0.5,0 0.8,-0.2 1.1,-0.5 0.3,-0.3 0.4,-0.8 0.4,-1.3 0,-0.5 -0.1,-0.9 -0.3,-1.2 -0.2,-0.3 -0.6,-0.4 -1.1,-0.4 -0.4,0 -0.8,0.1 -1.1,0.4 -0.3,0.3 -0.5,0.6 -0.5,1 0,0.6 0.1,1 0.4,1.4 0.3,0.4 0.6,0.6 1.1,0.6 z"
   id="path264" />
		<path
   d="m 203.9,825.1 h -2.2 v -6 -1 -1.1 c -0.4,0.4 -0.6,0.6 -0.8,0.7 l -1.2,1 -1.1,-1.3 3.3,-2.6 h 1.8 v 10.3 z"
   id="path266" />
	</g>
	<g
   class="st0"
   id="g278">
		<path
   d="m 233.8,825.1 h -2.2 v -6 -1 -1.1 c -0.4,0.4 -0.6,0.6 -0.8,0.7 l -1.2,1 -1.1,-1.3 3.3,-2.6 h 1.8 v 10.3 z"
   id="path270" />
		<path
   d="m 243.8,819.2 c 0,2 -0.4,3.5 -1.3,4.5 -0.9,1 -2.1,1.5 -3.9,1.5 -0.6,0 -1.1,0 -1.4,-0.1 v -1.7 c 0.4,0.1 0.8,0.1 1.2,0.1 0.7,0 1.3,-0.1 1.8,-0.3 0.5,-0.2 0.8,-0.5 1.1,-1 0.3,-0.5 0.4,-1.1 0.4,-1.9 h -0.1 c -0.3,0.4 -0.6,0.8 -0.9,0.9 -0.4,0.2 -0.8,0.3 -1.3,0.3 -0.9,0 -1.6,-0.3 -2.1,-0.9 -0.5,-0.6 -0.8,-1.4 -0.8,-2.4 0,-1.1 0.3,-2 0.9,-2.6 0.6,-0.6 1.5,-1 2.6,-1 0.8,0 1.4,0.2 2,0.5 0.6,0.4 1,0.9 1.3,1.6 0.3,0.7 0.5,1.5 0.5,2.5 z m -3.7,-2.8 c -0.5,0 -0.8,0.2 -1.1,0.5 -0.3,0.3 -0.4,0.8 -0.4,1.3 0,0.5 0.1,0.9 0.3,1.2 0.2,0.3 0.6,0.4 1.1,0.4 0.4,0 0.8,-0.1 1.1,-0.4 0.3,-0.3 0.5,-0.6 0.5,-1 0,-0.6 -0.1,-1 -0.4,-1.4 -0.3,-0.4 -0.7,-0.6 -1.1,-0.6 z"
   id="path272" />
		<path
   d="m 244.8,820.7 c 0,-2 0.4,-3.6 1.3,-4.6 0.9,-1 2.2,-1.5 3.9,-1.5 0.6,0 1,0 1.4,0.1 v 1.7 c -0.4,-0.1 -0.8,-0.1 -1.2,-0.1 -0.7,0 -1.4,0.1 -1.8,0.3 -0.5,0.2 -0.8,0.6 -1.1,1 -0.3,0.4 -0.4,1.1 -0.4,1.9 h 0.1 c 0.5,-0.8 1.2,-1.2 2.2,-1.2 0.9,0 1.6,0.3 2.2,0.9 0.5,0.6 0.8,1.4 0.8,2.4 0,1.1 -0.3,2 -0.9,2.6 -0.6,0.6 -1.5,1 -2.6,1 -0.8,0 -1.4,-0.2 -2,-0.5 -0.6,-0.3 -1,-0.9 -1.3,-1.5 -0.4,-0.7 -0.6,-1.6 -0.6,-2.5 z m 3.8,2.8 c 0.5,0 0.8,-0.2 1.1,-0.5 0.3,-0.3 0.4,-0.8 0.4,-1.3 0,-0.5 -0.1,-0.9 -0.3,-1.2 -0.2,-0.3 -0.6,-0.4 -1.1,-0.4 -0.4,0 -0.8,0.1 -1.1,0.4 -0.3,0.3 -0.5,0.6 -0.5,1 0,0.6 0.1,1 0.4,1.4 0.2,0.4 0.6,0.6 1.1,0.6 z"
   id="path274" />
		<path
   d="m 253.1,820.7 c 0,-2 0.4,-3.6 1.3,-4.6 0.9,-1 2.2,-1.5 3.9,-1.5 0.6,0 1,0 1.4,0.1 v 1.7 c -0.4,-0.1 -0.8,-0.1 -1.2,-0.1 -0.7,0 -1.4,0.1 -1.8,0.3 -0.5,0.2 -0.8,0.6 -1.1,1 -0.3,0.4 -0.4,1.1 -0.4,1.9 h 0.1 c 0.5,-0.8 1.2,-1.2 2.2,-1.2 0.9,0 1.6,0.3 2.2,0.9 0.5,0.6 0.8,1.4 0.8,2.4 0,1.1 -0.3,2 -0.9,2.6 -0.6,0.6 -1.5,1 -2.6,1 -0.8,0 -1.4,-0.2 -2,-0.5 -0.6,-0.3 -1,-0.9 -1.3,-1.5 -0.5,-0.7 -0.6,-1.6 -0.6,-2.5 z m 3.7,2.8 c 0.5,0 0.8,-0.2 1.1,-0.5 0.3,-0.3 0.4,-0.8 0.4,-1.3 0,-0.5 -0.1,-0.9 -0.3,-1.2 -0.2,-0.3 -0.6,-0.4 -1.1,-0.4 -0.4,0 -0.8,0.1 -1.1,0.4 -0.3,0.3 -0.5,0.6 -0.5,1 0,0.6 0.1,1 0.4,1.4 0.3,0.4 0.6,0.6 1.1,0.6 z"
   id="path276" />
	</g>
	<g
   class="st0"
   id="g288">
		<path
   d="m 285.9,825.1 h -2.2 v -6 -1 -1.1 c -0.4,0.4 -0.6,0.6 -0.8,0.7 l -1.2,1 -1.1,-1.3 3.3,-2.6 h 1.8 v 10.3 z"
   id="path280" />
		<path
   d="m 295.9,819.2 c 0,2 -0.4,3.5 -1.3,4.5 -0.9,1 -2.1,1.5 -3.9,1.5 -0.6,0 -1.1,0 -1.4,-0.1 v -1.7 c 0.4,0.1 0.8,0.1 1.2,0.1 0.7,0 1.3,-0.1 1.8,-0.3 0.5,-0.2 0.8,-0.5 1.1,-1 0.3,-0.5 0.4,-1.1 0.4,-1.9 h -0.1 c -0.3,0.4 -0.6,0.8 -0.9,0.9 -0.4,0.2 -0.8,0.3 -1.3,0.3 -0.9,0 -1.6,-0.3 -2.1,-0.9 -0.5,-0.6 -0.8,-1.4 -0.8,-2.4 0,-1.1 0.3,-2 0.9,-2.6 0.6,-0.6 1.5,-1 2.6,-1 0.8,0 1.4,0.2 2,0.5 0.6,0.4 1,0.9 1.3,1.6 0.3,0.7 0.5,1.5 0.5,2.5 z m -3.7,-2.8 c -0.5,0 -0.8,0.2 -1.1,0.5 -0.3,0.3 -0.4,0.8 -0.4,1.3 0,0.5 0.1,0.9 0.3,1.2 0.2,0.3 0.6,0.4 1.1,0.4 0.4,0 0.8,-0.1 1.1,-0.4 0.3,-0.3 0.5,-0.6 0.5,-1 0,-0.6 -0.1,-1 -0.4,-1.4 -0.3,-0.4 -0.7,-0.6 -1.1,-0.6 z"
   id="path282" />
		<path
   d="m 298,825.1 3.9,-8.5 h -5.1 v -1.8 h 7.4 v 1.4 l -3.9,8.9 z"
   id="path284" />
		<path
   d="m 310.6,825.1 h -2.2 v -6 -1 -1.1 c -0.4,0.4 -0.6,0.6 -0.8,0.7 l -1.2,1 -1.1,-1.3 3.3,-2.6 h 1.8 v 10.3 z"
   id="path286" />
	</g>
	<g
   class="st0"
   id="g298">
		<path
   d="m 341.9,825.1 h -2.2 v -6 -1 -1.1 c -0.4,0.4 -0.6,0.6 -0.8,0.7 l -1.2,1 -1.1,-1.3 3.3,-2.6 h 1.8 v 10.3 z"
   id="path290" />
		<path
   d="m 351.9,819.2 c 0,2 -0.4,3.5 -1.3,4.5 -0.9,1 -2.1,1.5 -3.9,1.5 -0.6,0 -1.1,0 -1.4,-0.1 v -1.7 c 0.4,0.1 0.8,0.1 1.2,0.1 0.7,0 1.3,-0.1 1.8,-0.3 0.5,-0.2 0.8,-0.5 1.1,-1 0.3,-0.5 0.4,-1.1 0.4,-1.9 h -0.1 c -0.3,0.4 -0.6,0.8 -0.9,0.9 -0.4,0.2 -0.8,0.3 -1.3,0.3 -0.9,0 -1.6,-0.3 -2.1,-0.9 -0.5,-0.6 -0.8,-1.4 -0.8,-2.4 0,-1.1 0.3,-2 0.9,-2.6 0.6,-0.6 1.5,-1 2.6,-1 0.8,0 1.4,0.2 2,0.5 0.6,0.4 1,0.9 1.3,1.6 0.3,0.7 0.5,1.5 0.5,2.5 z m -3.7,-2.8 c -0.5,0 -0.8,0.2 -1.1,0.5 -0.3,0.3 -0.4,0.8 -0.4,1.3 0,0.5 0.1,0.9 0.3,1.2 0.2,0.3 0.6,0.4 1.1,0.4 0.4,0 0.8,-0.1 1.1,-0.4 0.3,-0.3 0.5,-0.6 0.5,-1 0,-0.6 -0.1,-1 -0.4,-1.4 -0.3,-0.4 -0.7,-0.6 -1.1,-0.6 z"
   id="path292" />
		<path
   d="m 354,825.1 3.9,-8.5 h -5.1 v -1.8 h 7.4 v 1.4 l -3.9,8.9 z"
   id="path294" />
		<path
   d="m 361.2,820.7 c 0,-2 0.4,-3.6 1.3,-4.6 0.9,-1 2.2,-1.5 3.9,-1.5 0.6,0 1,0 1.4,0.1 v 1.7 c -0.4,-0.1 -0.8,-0.1 -1.2,-0.1 -0.7,0 -1.4,0.1 -1.8,0.3 -0.5,0.2 -0.8,0.6 -1.1,1 -0.3,0.4 -0.4,1.1 -0.4,1.9 h 0.1 c 0.5,-0.8 1.2,-1.2 2.2,-1.2 0.9,0 1.6,0.3 2.2,0.9 0.5,0.6 0.8,1.4 0.8,2.4 0,1.1 -0.3,2 -0.9,2.6 -0.6,0.6 -1.5,1 -2.6,1 -0.8,0 -1.4,-0.2 -2,-0.5 -0.6,-0.3 -1,-0.9 -1.3,-1.5 -0.5,-0.7 -0.6,-1.6 -0.6,-2.5 z m 3.7,2.8 c 0.5,0 0.8,-0.2 1.1,-0.5 0.3,-0.3 0.4,-0.8 0.4,-1.3 0,-0.5 -0.1,-0.9 -0.3,-1.2 -0.2,-0.3 -0.6,-0.4 -1.1,-0.4 -0.4,0 -0.8,0.1 -1.1,0.4 -0.3,0.3 -0.5,0.6 -0.5,1 0,0.6 0.1,1 0.4,1.4 0.3,0.4 0.6,0.6 1.1,0.6 z"
   id="path296" />
	</g>
	<g
   class="st0"
   id="g308">
		<path
   d="m 392.9,825.1 h -2.2 v -6 -1 -1.1 c -0.4,0.4 -0.6,0.6 -0.8,0.7 l -1.2,1 -1.1,-1.3 3.3,-2.6 h 1.8 v 10.3 z"
   id="path300" />
		<path
   d="m 402.9,819.2 c 0,2 -0.4,3.5 -1.3,4.5 -0.9,1 -2.1,1.5 -3.9,1.5 -0.6,0 -1.1,0 -1.4,-0.1 v -1.7 c 0.4,0.1 0.8,0.1 1.2,0.1 0.7,0 1.3,-0.1 1.8,-0.3 0.5,-0.2 0.8,-0.5 1.1,-1 0.3,-0.5 0.4,-1.1 0.4,-1.9 h -0.1 c -0.3,0.4 -0.6,0.8 -0.9,0.9 -0.4,0.2 -0.8,0.3 -1.3,0.3 -0.9,0 -1.6,-0.3 -2.1,-0.9 -0.5,-0.6 -0.8,-1.4 -0.8,-2.4 0,-1.1 0.3,-2 0.9,-2.6 0.6,-0.6 1.5,-1 2.6,-1 0.8,0 1.4,0.2 2,0.5 0.6,0.4 1,0.9 1.3,1.6 0.3,0.7 0.5,1.5 0.5,2.5 z m -3.7,-2.8 c -0.5,0 -0.8,0.2 -1.1,0.5 -0.3,0.3 -0.4,0.8 -0.4,1.3 0,0.5 0.1,0.9 0.3,1.2 0.2,0.3 0.6,0.4 1.1,0.4 0.4,0 0.8,-0.1 1.1,-0.4 0.3,-0.3 0.5,-0.6 0.5,-1 0,-0.6 -0.1,-1 -0.4,-1.4 -0.3,-0.4 -0.6,-0.6 -1.1,-0.6 z"
   id="path302" />
		<path
   d="m 407.6,814.6 c 1,0 1.8,0.2 2.4,0.7 0.6,0.4 0.9,1.1 0.9,1.8 0,0.5 -0.1,1 -0.4,1.4 -0.3,0.4 -0.8,0.8 -1.4,1.1 0.8,0.4 1.3,0.8 1.7,1.3 0.3,0.4 0.5,0.9 0.5,1.5 0,0.8 -0.3,1.5 -1,2 -0.7,0.5 -1.5,0.8 -2.6,0.8 -1.1,0 -2,-0.2 -2.7,-0.7 -0.6,-0.5 -1,-1.2 -1,-2 0,-0.6 0.2,-1.1 0.5,-1.6 0.3,-0.5 0.8,-0.9 1.5,-1.2 -0.6,-0.4 -1,-0.8 -1.3,-1.2 -0.3,-0.4 -0.4,-0.9 -0.4,-1.4 0,-0.7 0.3,-1.3 0.9,-1.8 0.6,-0.4 1.4,-0.7 2.4,-0.7 z m -1.6,7.7 c 0,0.4 0.1,0.7 0.4,0.9 0.3,0.2 0.7,0.3 1.2,0.3 0.5,0 0.9,-0.1 1.2,-0.3 0.3,-0.2 0.4,-0.5 0.4,-0.9 0,-0.3 -0.1,-0.6 -0.4,-0.9 -0.3,-0.3 -0.7,-0.6 -1.3,-0.9 -1,0.5 -1.5,1.1 -1.5,1.8 z m 1.6,-6.1 c -0.4,0 -0.7,0.1 -0.9,0.3 -0.2,0.2 -0.3,0.4 -0.3,0.8 0,0.3 0.1,0.5 0.3,0.8 0.2,0.2 0.5,0.5 1,0.7 0.5,-0.2 0.8,-0.4 1,-0.7 0.2,-0.3 0.3,-0.5 0.3,-0.8 0,-0.3 -0.1,-0.6 -0.4,-0.8 -0.4,-0.2 -0.7,-0.3 -1,-0.3 z"
   id="path304" />
		<path
   d="m 417.6,825.1 h -2.2 v -6 -1 -1.1 c -0.4,0.4 -0.6,0.6 -0.8,0.7 l -1.2,1 -1.1,-1.3 3.3,-2.6 h 1.8 v 10.3 z"
   id="path306" />
	</g>
	<g
   class="st0"
   id="g318">
		<path
   d="m 446.8,825.1 h -2.2 v -6 -1 -1.1 c -0.4,0.4 -0.6,0.6 -0.8,0.7 l -1.2,1 -1.1,-1.3 3.3,-2.6 h 1.8 v 10.3 z"
   id="path310" />
		<path
   d="m 456.8,819.2 c 0,2 -0.4,3.5 -1.3,4.5 -0.9,1 -2.1,1.5 -3.9,1.5 -0.6,0 -1.1,0 -1.4,-0.1 v -1.7 c 0.4,0.1 0.8,0.1 1.2,0.1 0.7,0 1.3,-0.1 1.8,-0.3 0.5,-0.2 0.8,-0.5 1.1,-1 0.3,-0.5 0.4,-1.1 0.4,-1.9 h -0.1 c -0.3,0.4 -0.6,0.8 -0.9,0.9 -0.4,0.2 -0.8,0.3 -1.3,0.3 -0.9,0 -1.6,-0.3 -2.1,-0.9 -0.5,-0.6 -0.8,-1.4 -0.8,-2.4 0,-1.1 0.3,-2 0.9,-2.6 0.6,-0.6 1.5,-1 2.6,-1 0.8,0 1.4,0.2 2,0.5 0.6,0.4 1,0.9 1.3,1.6 0.3,0.7 0.5,1.5 0.5,2.5 z m -3.7,-2.8 c -0.5,0 -0.8,0.2 -1.1,0.5 -0.3,0.3 -0.4,0.8 -0.4,1.3 0,0.5 0.1,0.9 0.3,1.2 0.2,0.3 0.6,0.4 1.1,0.4 0.4,0 0.8,-0.1 1.1,-0.4 0.3,-0.3 0.5,-0.6 0.5,-1 0,-0.6 -0.1,-1 -0.4,-1.4 -0.3,-0.4 -0.7,-0.6 -1.1,-0.6 z"
   id="path312" />
		<path
   d="m 461.4,814.6 c 1,0 1.8,0.2 2.4,0.7 0.6,0.4 0.9,1.1 0.9,1.8 0,0.5 -0.1,1 -0.4,1.4 -0.3,0.4 -0.8,0.8 -1.4,1.1 0.8,0.4 1.3,0.8 1.7,1.3 0.3,0.4 0.5,0.9 0.5,1.5 0,0.8 -0.3,1.5 -1,2 -0.7,0.5 -1.5,0.8 -2.6,0.8 -1.1,0 -2,-0.2 -2.7,-0.7 -0.6,-0.5 -1,-1.2 -1,-2 0,-0.6 0.2,-1.1 0.5,-1.6 0.3,-0.5 0.8,-0.9 1.5,-1.2 -0.6,-0.4 -1,-0.8 -1.3,-1.2 -0.3,-0.4 -0.4,-0.9 -0.4,-1.4 0,-0.7 0.3,-1.3 0.9,-1.8 0.7,-0.4 1.5,-0.7 2.4,-0.7 z m -1.6,7.7 c 0,0.4 0.1,0.7 0.4,0.9 0.3,0.2 0.7,0.3 1.2,0.3 0.5,0 0.9,-0.1 1.2,-0.3 0.3,-0.2 0.4,-0.5 0.4,-0.9 0,-0.3 -0.1,-0.6 -0.4,-0.9 -0.3,-0.3 -0.7,-0.6 -1.3,-0.9 -1,0.5 -1.5,1.1 -1.5,1.8 z m 1.6,-6.1 c -0.4,0 -0.7,0.1 -0.9,0.3 -0.2,0.2 -0.3,0.4 -0.3,0.8 0,0.3 0.1,0.5 0.3,0.8 0.2,0.2 0.5,0.5 1,0.7 0.5,-0.2 0.8,-0.4 1,-0.7 0.2,-0.3 0.3,-0.5 0.3,-0.8 0,-0.3 -0.1,-0.6 -0.4,-0.8 -0.3,-0.2 -0.6,-0.3 -1,-0.3 z"
   id="path314" />
		<path
   d="m 466.1,820.7 c 0,-2 0.4,-3.6 1.3,-4.6 0.9,-1 2.2,-1.5 3.9,-1.5 0.6,0 1,0 1.4,0.1 v 1.7 c -0.4,-0.1 -0.8,-0.1 -1.2,-0.1 -0.7,0 -1.4,0.1 -1.8,0.3 -0.5,0.2 -0.8,0.6 -1.1,1 -0.3,0.4 -0.4,1.1 -0.4,1.9 h 0.1 c 0.5,-0.8 1.2,-1.2 2.2,-1.2 0.9,0 1.6,0.3 2.2,0.9 0.5,0.6 0.8,1.4 0.8,2.4 0,1.1 -0.3,2 -0.9,2.6 -0.6,0.6 -1.5,1 -2.6,1 -0.8,0 -1.4,-0.2 -2,-0.5 -0.6,-0.3 -1,-0.9 -1.3,-1.5 -0.5,-0.7 -0.6,-1.6 -0.6,-2.5 z m 3.7,2.8 c 0.5,0 0.8,-0.2 1.1,-0.5 0.3,-0.3 0.4,-0.8 0.4,-1.3 0,-0.5 -0.1,-0.9 -0.3,-1.2 -0.2,-0.3 -0.6,-0.4 -1.1,-0.4 -0.4,0 -0.8,0.1 -1.1,0.4 -0.3,0.3 -0.5,0.6 -0.5,1 0,0.6 0.1,1 0.4,1.4 0.3,0.4 0.6,0.6 1.1,0.6 z"
   id="path316" />
	</g>
	<g
   class="st0"
   id="g328">
		<path
   d="m 497.8,825.1 h -2.2 v -6 -1 -1.1 c -0.4,0.4 -0.6,0.6 -0.8,0.7 l -1.2,1 -1,-1.3 3.3,-2.6 h 1.8 v 10.3 z"
   id="path320" />
		<path
   d="m 507.8,819.2 c 0,2 -0.4,3.5 -1.3,4.5 -0.9,1 -2.1,1.5 -3.9,1.5 -0.6,0 -1.1,0 -1.4,-0.1 v -1.7 c 0.4,0.1 0.8,0.1 1.2,0.1 0.7,0 1.3,-0.1 1.8,-0.3 0.5,-0.2 0.8,-0.5 1.1,-1 0.3,-0.5 0.4,-1.1 0.4,-1.9 h -0.1 c -0.3,0.4 -0.6,0.8 -0.9,0.9 -0.3,0.1 -0.8,0.3 -1.3,0.3 -0.9,0 -1.6,-0.3 -2.1,-0.9 -0.5,-0.6 -0.8,-1.4 -0.8,-2.4 0,-1.1 0.3,-2 0.9,-2.6 0.6,-0.6 1.5,-1 2.6,-1 0.8,0 1.4,0.2 2,0.5 0.6,0.4 1,0.9 1.3,1.6 0.3,0.7 0.5,1.5 0.5,2.5 z m -3.7,-2.8 c -0.5,0 -0.8,0.2 -1.1,0.5 -0.3,0.3 -0.4,0.8 -0.4,1.3 0,0.5 0.1,0.9 0.3,1.2 0.2,0.3 0.6,0.4 1,0.4 0.4,0 0.8,-0.1 1.1,-0.4 0.3,-0.3 0.5,-0.6 0.5,-1 0,-0.6 -0.1,-1 -0.4,-1.4 -0.2,-0.4 -0.5,-0.6 -1,-0.6 z"
   id="path322" />
		<path
   d="m 516.1,819.2 c 0,2 -0.4,3.5 -1.3,4.5 -0.9,1 -2.1,1.5 -3.9,1.5 -0.6,0 -1.1,0 -1.4,-0.1 v -1.7 c 0.4,0.1 0.8,0.1 1.2,0.1 0.7,0 1.3,-0.1 1.8,-0.3 0.5,-0.2 0.8,-0.5 1.1,-1 0.3,-0.5 0.4,-1.1 0.4,-1.9 v 0 c -0.3,0.4 -0.6,0.8 -0.9,0.9 -0.3,0.1 -0.8,0.3 -1.3,0.3 -0.9,0 -1.6,-0.3 -2.1,-0.9 -0.5,-0.6 -0.8,-1.4 -0.8,-2.4 0,-1.1 0.3,-2 0.9,-2.6 0.6,-0.6 1.5,-1 2.6,-1 0.8,0 1.4,0.2 2,0.5 0.6,0.4 1,0.9 1.3,1.6 0.3,0.7 0.4,1.5 0.4,2.5 z m -3.7,-2.8 c -0.5,0 -0.8,0.2 -1.1,0.5 -0.3,0.3 -0.4,0.8 -0.4,1.3 0,0.5 0.1,0.9 0.3,1.2 0.2,0.3 0.6,0.4 1,0.4 0.4,0 0.8,-0.1 1.1,-0.4 0.3,-0.3 0.5,-0.6 0.5,-1 0,-0.6 -0.1,-1 -0.4,-1.4 -0.2,-0.4 -0.6,-0.6 -1,-0.6 z"
   id="path324" />
		<path
   d="m 522.5,825.1 h -2.2 v -6 -1 -1.1 c -0.4,0.4 -0.6,0.6 -0.8,0.7 l -1.2,1 -1,-1.3 3.3,-2.6 h 1.8 v 10.3 z"
   id="path326" />
	</g>
	<g
   class="st0"
   id="g338">
		<path
   d="m 553.8,825.1 h -2.2 v -6 -1 -1.1 c -0.4,0.4 -0.6,0.6 -0.8,0.7 l -1.2,1 -1.1,-1.3 3.3,-2.6 h 1.8 v 10.3 z"
   id="path330" />
		<path
   d="m 563.8,819.2 c 0,2 -0.4,3.5 -1.3,4.5 -0.9,1 -2.2,1.5 -3.9,1.5 -0.6,0 -1.1,0 -1.4,-0.1 v -1.7 c 0.4,0.1 0.8,0.1 1.2,0.1 0.7,0 1.3,-0.1 1.8,-0.3 0.5,-0.2 0.8,-0.5 1.1,-1 0.3,-0.5 0.4,-1.1 0.4,-1.9 h -0.1 c -0.3,0.4 -0.6,0.8 -0.9,0.9 -0.4,0.2 -0.8,0.3 -1.3,0.3 -0.9,0 -1.6,-0.3 -2.1,-0.9 -0.5,-0.6 -0.8,-1.4 -0.8,-2.4 0,-1.1 0.3,-2 0.9,-2.6 0.6,-0.6 1.5,-1 2.6,-1 0.8,0 1.4,0.2 2,0.5 0.6,0.4 1,0.9 1.3,1.6 0.3,0.7 0.5,1.5 0.5,2.5 z m -3.7,-2.8 c -0.5,0 -0.8,0.2 -1.1,0.5 -0.3,0.3 -0.4,0.8 -0.4,1.3 0,0.5 0.1,0.9 0.3,1.2 0.2,0.3 0.6,0.4 1.1,0.4 0.4,0 0.8,-0.1 1.1,-0.4 0.3,-0.3 0.5,-0.6 0.5,-1 0,-0.6 -0.1,-1 -0.4,-1.4 -0.3,-0.4 -0.6,-0.6 -1.1,-0.6 z"
   id="path332" />
		<path
   d="m 572.1,819.2 c 0,2 -0.4,3.5 -1.3,4.5 -0.9,1 -2.2,1.5 -3.9,1.5 -0.6,0 -1.1,0 -1.4,-0.1 v -1.7 c 0.4,0.1 0.8,0.1 1.2,0.1 0.7,0 1.3,-0.1 1.8,-0.3 0.5,-0.2 0.8,-0.5 1.1,-1 0.3,-0.5 0.4,-1.1 0.4,-1.9 v 0 c -0.3,0.4 -0.6,0.8 -0.9,0.9 -0.4,0.2 -0.8,0.3 -1.3,0.3 -0.9,0 -1.6,-0.3 -2.1,-0.9 -0.5,-0.6 -0.8,-1.4 -0.8,-2.4 0,-1.1 0.3,-2 0.9,-2.6 0.6,-0.6 1.5,-1 2.6,-1 0.8,0 1.4,0.2 2,0.5 0.6,0.4 1,0.9 1.3,1.6 0.3,0.7 0.4,1.5 0.4,2.5 z m -3.7,-2.8 c -0.5,0 -0.8,0.2 -1.1,0.5 -0.3,0.3 -0.4,0.8 -0.4,1.3 0,0.5 0.1,0.9 0.3,1.2 0.2,0.3 0.6,0.4 1.1,0.4 0.4,0 0.8,-0.1 1.1,-0.4 0.3,-0.3 0.5,-0.6 0.5,-1 0,-0.6 -0.1,-1 -0.4,-1.4 -0.3,-0.4 -0.7,-0.6 -1.1,-0.6 z"
   id="path334" />
		<path
   d="m 573.1,820.7 c 0,-2 0.4,-3.6 1.3,-4.6 0.9,-1 2.2,-1.5 3.9,-1.5 0.6,0 1,0 1.4,0.1 v 1.7 c -0.4,-0.1 -0.8,-0.1 -1.2,-0.1 -0.7,0 -1.4,0.1 -1.8,0.3 -0.5,0.2 -0.8,0.6 -1.1,1 -0.2,0.4 -0.4,1.1 -0.4,1.9 h 0.1 c 0.5,-0.8 1.2,-1.2 2.2,-1.2 0.9,0 1.6,0.3 2.2,0.9 0.6,0.6 0.8,1.4 0.8,2.4 0,1.1 -0.3,2 -0.9,2.6 -0.6,0.6 -1.5,1 -2.6,1 -0.8,0 -1.4,-0.2 -2,-0.5 -0.6,-0.3 -1,-0.9 -1.3,-1.5 -0.3,-0.6 -0.6,-1.6 -0.6,-2.5 z m 3.7,2.8 c 0.5,0 0.8,-0.2 1.1,-0.5 0.3,-0.3 0.4,-0.8 0.4,-1.3 0,-0.5 -0.1,-0.9 -0.3,-1.2 -0.2,-0.3 -0.6,-0.4 -1.1,-0.4 -0.4,0 -0.8,0.1 -1.1,0.4 -0.3,0.3 -0.5,0.6 -0.5,1 0,0.6 0.1,1 0.4,1.4 0.3,0.4 0.7,0.6 1.1,0.6 z"
   id="path336" />
	</g>
	<g
   class="st0"
   id="g348">
		<path
   d="m 606,825.1 h -7.2 v -1.5 l 2.6,-2.6 c 0.8,-0.8 1.3,-1.3 1.5,-1.6 0.2,-0.3 0.4,-0.6 0.5,-0.8 0.1,-0.2 0.2,-0.5 0.2,-0.8 0,-0.4 -0.1,-0.7 -0.3,-0.9 -0.2,-0.2 -0.5,-0.3 -0.9,-0.3 -0.4,0 -0.8,0.1 -1.2,0.3 -0.4,0.2 -0.8,0.4 -1.2,0.8 l -1.2,-1.4 c 0.5,-0.4 0.9,-0.7 1.3,-0.9 0.3,-0.2 0.7,-0.3 1.1,-0.4 0.4,-0.1 0.8,-0.1 1.3,-0.1 0.6,0 1.2,0.1 1.7,0.4 0.5,0.2 0.9,0.6 1.1,1 0.3,0.4 0.4,0.9 0.4,1.5 0,0.5 -0.1,0.9 -0.2,1.3 -0.1,0.4 -0.4,0.8 -0.8,1.3 -0.4,0.4 -1,1.1 -1.9,1.9 l -1.3,1.2 v 0.1 h 4.5 z"
   id="path340" />
		<path
   d="m 614.1,819.9 c 0,1.8 -0.3,3.1 -0.9,4 -0.6,0.9 -1.5,1.3 -2.7,1.3 -1.2,0 -2.1,-0.4 -2.7,-1.3 -0.6,-0.9 -0.9,-2.2 -0.9,-4 0,-1.8 0.3,-3.2 0.9,-4 0.6,-0.9 1.5,-1.3 2.7,-1.3 1.2,0 2.1,0.5 2.7,1.4 0.6,0.9 0.9,2.2 0.9,3.9 z m -5,0 c 0,1.3 0.1,2.2 0.3,2.7 0.2,0.5 0.6,0.8 1.1,0.8 0.5,0 0.9,-0.3 1.1,-0.8 0.2,-0.6 0.3,-1.5 0.3,-2.7 0,-1.3 -0.1,-2.2 -0.3,-2.7 -0.2,-0.6 -0.6,-0.8 -1.1,-0.8 -0.5,0 -0.9,0.3 -1.1,0.8 -0.2,0.5 -0.3,1.4 -0.3,2.7 z"
   id="path342" />
		<path
   d="m 622.4,819.9 c 0,1.8 -0.3,3.1 -0.9,4 -0.6,0.9 -1.5,1.3 -2.7,1.3 -1.2,0 -2.1,-0.4 -2.7,-1.3 -0.6,-0.9 -0.9,-2.2 -0.9,-4 0,-1.8 0.3,-3.2 0.9,-4 0.6,-0.9 1.5,-1.3 2.7,-1.3 1.2,0 2.1,0.5 2.7,1.4 0.6,0.9 0.9,2.2 0.9,3.9 z m -5.1,0 c 0,1.3 0.1,2.2 0.3,2.7 0.2,0.5 0.6,0.8 1.1,0.8 0.5,0 0.9,-0.3 1.1,-0.8 0.2,-0.6 0.3,-1.5 0.3,-2.7 0,-1.3 -0.1,-2.2 -0.3,-2.7 -0.2,-0.6 -0.6,-0.8 -1.1,-0.8 -0.5,0 -0.9,0.3 -1.1,0.8 -0.1,0.5 -0.3,1.4 -0.3,2.7 z"
   id="path344" />
		<path
   d="m 628.9,825.1 h -2.2 v -6 -1 -1.1 c -0.4,0.4 -0.6,0.6 -0.8,0.7 l -1.2,1 -1,-1.3 3.3,-2.6 h 1.8 v 10.3 z"
   id="path346" />
	</g>
	<g
   class="st0"
   id="g358">
		<path
   d="M 661.3,825.1 H 654 v -1.5 l 2.6,-2.6 c 0.8,-0.8 1.3,-1.3 1.5,-1.6 0.2,-0.3 0.4,-0.6 0.5,-0.8 0.1,-0.2 0.2,-0.5 0.2,-0.8 0,-0.4 -0.1,-0.7 -0.3,-0.9 -0.2,-0.2 -0.5,-0.3 -0.9,-0.3 -0.4,0 -0.8,0.1 -1.2,0.3 -0.4,0.2 -0.8,0.4 -1.2,0.8 l -1.2,-1.4 c 0.5,-0.4 0.9,-0.7 1.3,-0.9 0.3,-0.2 0.7,-0.3 1.1,-0.4 0.4,-0.1 0.8,-0.1 1.3,-0.1 0.6,0 1.2,0.1 1.7,0.4 0.5,0.2 0.9,0.6 1.1,1 0.2,0.4 0.4,0.9 0.4,1.5 0,0.5 -0.1,0.9 -0.2,1.3 -0.2,0.4 -0.4,0.8 -0.8,1.3 -0.4,0.4 -1,1.1 -1.9,1.9 l -1.3,1.2 v 0.1 h 4.5 v 1.5 z"
   id="path350" />
		<path
   d="m 669.4,819.9 c 0,1.8 -0.3,3.1 -0.9,4 -0.6,0.9 -1.5,1.3 -2.7,1.3 -1.2,0 -2.1,-0.4 -2.7,-1.3 -0.6,-0.9 -0.9,-2.2 -0.9,-4 0,-1.8 0.3,-3.2 0.9,-4 0.6,-0.9 1.5,-1.3 2.7,-1.3 1.2,0 2.1,0.5 2.7,1.4 0.6,0.9 0.9,2.2 0.9,3.9 z m -5,0 c 0,1.3 0.1,2.2 0.3,2.7 0.2,0.5 0.6,0.8 1.1,0.8 0.5,0 0.9,-0.3 1.1,-0.8 0.2,-0.6 0.3,-1.5 0.3,-2.7 0,-1.3 -0.1,-2.2 -0.3,-2.7 -0.2,-0.6 -0.6,-0.8 -1.1,-0.8 -0.5,0 -0.9,0.3 -1.1,0.8 -0.2,0.5 -0.3,1.4 -0.3,2.7 z"
   id="path352" />
		<path
   d="m 677.7,819.9 c 0,1.8 -0.3,3.1 -0.9,4 -0.6,0.9 -1.5,1.3 -2.7,1.3 -1.2,0 -2.1,-0.4 -2.7,-1.3 -0.6,-0.9 -0.9,-2.2 -0.9,-4 0,-1.8 0.3,-3.2 0.9,-4 0.6,-0.9 1.5,-1.3 2.7,-1.3 1.2,0 2.1,0.5 2.7,1.4 0.6,0.9 0.9,2.2 0.9,3.9 z m -5.1,0 c 0,1.3 0.1,2.2 0.3,2.7 0.2,0.5 0.6,0.8 1.1,0.8 0.5,0 0.9,-0.3 1.1,-0.8 0.2,-0.6 0.3,-1.5 0.3,-2.7 0,-1.3 -0.1,-2.2 -0.3,-2.7 -0.2,-0.6 -0.6,-0.8 -1.1,-0.8 -0.5,0 -0.9,0.3 -1.1,0.8 -0.2,0.5 -0.3,1.4 -0.3,2.7 z"
   id="path354" />
		<path
   d="m 678.7,820.7 c 0,-2 0.4,-3.6 1.3,-4.6 0.9,-1 2.2,-1.5 3.9,-1.5 0.6,0 1,0 1.4,0.1 v 1.7 c -0.4,-0.1 -0.8,-0.1 -1.2,-0.1 -0.7,0 -1.4,0.1 -1.8,0.3 -0.4,0.2 -0.8,0.6 -1.1,1 -0.2,0.4 -0.4,1.1 -0.4,1.9 h 0.1 c 0.5,-0.8 1.2,-1.2 2.2,-1.2 0.9,0 1.6,0.3 2.2,0.9 0.5,0.6 0.8,1.4 0.8,2.4 0,1.1 -0.3,2 -0.9,2.6 -0.6,0.6 -1.5,1 -2.6,1 -0.8,0 -1.4,-0.2 -2,-0.5 -0.6,-0.3 -1,-0.9 -1.3,-1.5 -0.5,-0.7 -0.6,-1.6 -0.6,-2.5 z m 3.7,2.8 c 0.5,0 0.8,-0.2 1.1,-0.5 0.3,-0.3 0.4,-0.8 0.4,-1.3 0,-0.5 -0.1,-0.9 -0.3,-1.2 -0.2,-0.3 -0.6,-0.4 -1.1,-0.4 -0.4,0 -0.8,0.1 -1.1,0.4 -0.3,0.3 -0.5,0.6 -0.5,1 0,0.6 0.1,1 0.4,1.4 0.3,0.4 0.7,0.6 1.1,0.6 z"
   id="path356" />
	</g>
	<g
   class="st0"
   id="g368">
		<path
   d="m 712.6,825.1 h -7.2 v -1.5 L 708,821 c 0.8,-0.8 1.3,-1.3 1.5,-1.6 0.2,-0.3 0.4,-0.6 0.5,-0.8 0.1,-0.3 0.2,-0.5 0.2,-0.8 0,-0.4 -0.1,-0.7 -0.3,-0.9 -0.2,-0.2 -0.5,-0.3 -0.9,-0.3 -0.4,0 -0.8,0.1 -1.2,0.3 -0.4,0.2 -0.8,0.4 -1.2,0.8 l -1.2,-1.4 c 0.5,-0.4 0.9,-0.7 1.3,-0.9 0.3,-0.2 0.7,-0.3 1.1,-0.4 0.4,-0.1 0.8,-0.1 1.3,-0.1 0.6,0 1.2,0.1 1.7,0.4 0.5,0.2 0.9,0.6 1.1,1 0.2,0.4 0.4,0.9 0.4,1.5 0,0.5 -0.1,0.9 -0.2,1.3 -0.1,0.4 -0.4,0.8 -0.8,1.3 -0.3,0.4 -1,1.1 -1.9,1.9 l -1.3,1.2 v 0.1 h 4.5 z"
   id="path360" />
		<path
   d="m 720.8,819.9 c 0,1.8 -0.3,3.1 -0.9,4 -0.6,0.9 -1.5,1.3 -2.7,1.3 -1.2,0 -2.1,-0.4 -2.7,-1.3 -0.6,-0.9 -0.9,-2.2 -0.9,-4 0,-1.8 0.3,-3.2 0.9,-4 0.6,-0.9 1.5,-1.3 2.7,-1.3 1.2,0 2.1,0.5 2.7,1.4 0.6,0.9 0.9,2.2 0.9,3.9 z m -5,0 c 0,1.3 0.1,2.2 0.3,2.7 0.2,0.5 0.6,0.8 1.1,0.8 0.5,0 0.9,-0.3 1.1,-0.8 0.2,-0.6 0.3,-1.5 0.3,-2.7 0,-1.3 -0.1,-2.2 -0.3,-2.7 -0.2,-0.6 -0.6,-0.8 -1.1,-0.8 -0.5,0 -0.9,0.3 -1.1,0.8 -0.2,0.5 -0.3,1.4 -0.3,2.7 z"
   id="path362" />
		<path
   d="m 727.3,825.1 h -2.2 v -6 -1 -1.1 c -0.4,0.4 -0.6,0.6 -0.8,0.7 l -1.2,1 -1,-1.3 3.3,-2.6 h 1.8 v 10.3 z"
   id="path364" />
		<path
   d="m 735.5,825.1 h -2.2 v -6 -1 -1.1 c -0.4,0.4 -0.6,0.6 -0.8,0.7 l -1.2,1 -1.1,-1.3 3.3,-2.6 h 1.8 v 10.3 z"
   id="path366" />
	</g>
	<g
   class="st0"
   id="g378">
		<path
   d="m 765.8,825.1 h -7.2 v -1.5 l 2.6,-2.6 c 0.8,-0.8 1.3,-1.3 1.5,-1.6 0.2,-0.3 0.4,-0.6 0.5,-0.8 0.1,-0.2 0.2,-0.5 0.2,-0.8 0,-0.4 -0.1,-0.7 -0.3,-0.9 -0.2,-0.2 -0.5,-0.3 -0.9,-0.3 -0.4,0 -0.8,0.1 -1.2,0.3 -0.4,0.2 -0.8,0.4 -1.2,0.8 l -1.2,-1.4 c 0.5,-0.4 0.9,-0.7 1.3,-0.9 0.3,-0.2 0.7,-0.3 1.1,-0.4 0.4,-0.1 0.8,-0.1 1.3,-0.1 0.6,0 1.2,0.1 1.7,0.4 0.5,0.2 0.9,0.6 1.1,1 0.2,0.4 0.4,0.9 0.4,1.5 0,0.5 -0.1,0.9 -0.2,1.3 -0.2,0.4 -0.4,0.8 -0.8,1.3 -0.4,0.4 -1,1.1 -1.9,1.9 l -1.3,1.2 v 0.1 h 4.5 z"
   id="path370" />
		<path
   d="m 774,819.9 c 0,1.8 -0.3,3.1 -0.9,4 -0.6,0.9 -1.5,1.3 -2.7,1.3 -1.2,0 -2.1,-0.4 -2.7,-1.3 -0.6,-0.9 -0.9,-2.2 -0.9,-4 0,-1.8 0.3,-3.2 0.9,-4 0.6,-0.9 1.5,-1.3 2.7,-1.3 1.2,0 2.1,0.5 2.7,1.4 0.6,0.9 0.9,2.2 0.9,3.9 z m -5.1,0 c 0,1.3 0.1,2.2 0.3,2.7 0.2,0.5 0.6,0.8 1.1,0.8 0.5,0 0.9,-0.3 1.1,-0.8 0.2,-0.6 0.3,-1.5 0.3,-2.7 0,-1.3 -0.1,-2.2 -0.3,-2.7 -0.2,-0.6 -0.6,-0.8 -1.1,-0.8 -0.5,0 -0.9,0.3 -1.1,0.8 -0.2,0.5 -0.3,1.4 -0.3,2.7 z"
   id="path372" />
		<path
   d="m 780.5,825.1 h -2.2 v -6 -1 -1.1 c -0.4,0.4 -0.6,0.6 -0.8,0.7 l -1.2,1 -1.1,-1.3 3.3,-2.6 h 1.8 v 10.3 z"
   id="path374" />
		<path
   d="m 783.2,820.7 c 0,-2 0.4,-3.6 1.3,-4.6 0.9,-1 2.2,-1.5 3.9,-1.5 0.6,0 1,0 1.4,0.1 v 1.7 c -0.4,-0.1 -0.8,-0.1 -1.2,-0.1 -0.7,0 -1.4,0.1 -1.8,0.3 -0.4,0.2 -0.8,0.6 -1.1,1 -0.2,0.4 -0.4,1.1 -0.4,1.9 h 0.1 c 0.5,-0.8 1.2,-1.2 2.2,-1.2 0.9,0 1.6,0.3 2.2,0.9 0.5,0.6 0.8,1.4 0.8,2.4 0,1.1 -0.3,2 -0.9,2.6 -0.6,0.6 -1.5,1 -2.6,1 -0.8,0 -1.4,-0.2 -2,-0.5 -0.6,-0.3 -1,-0.9 -1.3,-1.5 -0.4,-0.7 -0.6,-1.6 -0.6,-2.5 z m 3.8,2.8 c 0.5,0 0.8,-0.2 1.1,-0.5 0.3,-0.3 0.4,-0.8 0.4,-1.3 0,-0.5 -0.1,-0.9 -0.3,-1.2 -0.2,-0.3 -0.6,-0.4 -1.1,-0.4 -0.4,0 -0.8,0.1 -1.1,0.4 -0.3,0.3 -0.5,0.6 -0.5,1 0,0.6 0.1,1 0.4,1.4 0.2,0.4 0.6,0.6 1.1,0.6 z"
   id="path376" />
	</g>
</g>
</svg>
