<?xml version="1.0" encoding="UTF-8" standalone="no"?>
<!-- Generator: Adobe Illustrator 24.0.0, SVG Export Plug-In . SVG Version: 6.00 Build 0)  -->

<svg
   version="1.1"
   id="Capa_1"
   x="0px"
   y="0px"
   viewBox="0 0 411.39592 411.39592"
   xml:space="preserve"
   sodipodi:docname="logo.svg"
   width="411.39594"
   height="411.39594"
   inkscape:version="1.1 (c4e8f9ed74, 2021-05-24)"
   xmlns:inkscape="http://www.inkscape.org/namespaces/inkscape"
   xmlns:sodipodi="http://sodipodi.sourceforge.net/DTD/sodipodi-0.dtd"
   xmlns="http://www.w3.org/2000/svg"
   xmlns:svg="http://www.w3.org/2000/svg"><defs
   id="defs47" /><sodipodi:namedview
   id="namedview45"
   pagecolor="#ffffff"
   bordercolor="#666666"
   borderopacity="1.0"
   inkscape:pageshadow="2"
   inkscape:pageopacity="0.0"
   inkscape:pagecheckerboard="0"
   showgrid="false"
   fit-margin-top="0"
   fit-margin-left="0"
   fit-margin-right="0"
   fit-margin-bottom="0"
   inkscape:zoom="1.1890604"
   inkscape:cx="185.86104"
   inkscape:cy="195.53254"
   inkscape:window-width="1600"
   inkscape:window-height="835"
   inkscape:window-x="0"
   inkscape:window-y="32"
   inkscape:window-maximized="1"
   inkscape:current-layer="Capa_1" />
<style
   type="text/css"
   id="style2">
	.st0{fill:#020203;}
	.st1{fill:none;stroke:#020203;stroke-linecap:round;stroke-linejoin:round;stroke-miterlimit:10;}
	.st2{fill:none;stroke:#030203;stroke-linecap:round;stroke-linejoin:round;stroke-miterlimit:10;}
	.st3{fill:none;stroke:#010202;stroke-linecap:round;stroke-linejoin:round;stroke-miterlimit:10;}
	.st4{fill:#010202;}
</style>
<path
   style="fill:none;stroke:#000000;stroke-width:1;stroke-linecap:round;stroke-linejoin:round;stroke-miterlimit:4;stroke-dasharray:none;stroke-opacity:1;fill-opacity:1"
   id="path863"
   sodipodi:type="arc"
   sodipodi:cx="205.69797"
   sodipodi:cy="205.69797"
   sodipodi:rx="205.19797"
   sodipodi:ry="205.19797"
   sodipodi:start="0"
   sodipodi:end="6.2817361"
   sodipodi:open="true"
   sodipodi:arc-type="arc"
   d="M 410.89594,205.69797 A 205.19797,205.19797 0 0 1 205.77231,410.89592 205.19797,205.19797 0 0 1 0.50005387,205.84665 205.19797,205.19797 0 0 1 205.47494,0.50012121 205.19797,205.19797 0 0 1 410.89572,205.40059" /><g
   id="g42"
   transform="matrix(0.98276074,0,0,0.98276074,47.561932,5.175477)">
	<path
   class="st0"
   d="m 92.2,63.13 c -6.8,19.65 -13.61,39.31 -20.54,59.34 -6.9,-19.81 -13.69,-39.3 -20.48,-58.79 -0.06,0.01 -0.11,0.03 -0.17,0.04 0,19.08 0,38.17 0,57.4 3.16,0 6.3,0 9.49,0 0,0.47 0,0.81 0,1.2 -6.84,0 -13.62,0 -20.47,0 0,-0.39 0,-0.72 0,-1.15 3.16,0 6.26,0 9.45,0 0,-19.67 0,-39.23 0,-58.94 -3.1,0 -6.24,0 -9.44,0 0,-0.47 0,-0.8 0,-1.19 6.47,0 12.9,0 19.49,0 5.29,15.31 10.6,30.68 16.02,46.37 5.4,-15.66 10.71,-31.02 16.01,-46.39 6.38,0 12.69,0 19.09,0 0.03,0.35 0.06,0.68 0.1,1.16 -3.22,0 -6.35,0 -9.55,0 0,19.7 0,39.26 0,58.93 3.13,0 6.23,0 9.43,0 0.05,0.42 0.09,0.76 0.14,1.19 -9.29,0 -18.5,0 -27.82,0 -0.02,-0.32 -0.05,-0.65 -0.08,-1.09 3.18,0 6.29,0 9.5,0 0,-19.4 0,-38.7 0,-58 -0.05,-0.04 -0.11,-0.06 -0.17,-0.08 z"
   id="path4" />
	<path
   class="st0"
   d="m 152.32,101.02 c -9.04,0 -17.78,0 -26.66,0 -0.06,0.85 -0.14,1.62 -0.15,2.4 -0.04,3.75 -0.04,7.51 1.07,11.15 1.62,5.32 5.25,7.91 10.8,7.76 6.21,-0.17 10.46,-3.06 12.31,-8.63 0.12,-0.37 0.31,-0.72 0.48,-1.14 0.42,0.1 0.79,0.18 1.24,0.29 -1.15,4.64 -3.88,7.86 -8.21,9.66 -10.44,4.34 -23.47,-2.43 -25.92,-13.43 -2.37,-10.64 3.82,-21.3 14.08,-24.24 9.08,-2.6 18.12,2.4 20.27,11.27 0.37,1.55 0.45,3.15 0.69,4.91 z m -8.94,-1.24 c 0.02,-3.22 0.36,-6.33 -0.53,-9.38 -0.51,-1.73 -1.38,-3.26 -3.07,-4.09 -3.07,-1.5 -8.28,-1.29 -10.96,2.37 -2.41,3.29 -2.8,7.16 -3.16,11.1 5.92,0 11.71,0 17.72,0 z"
   id="path6" />
	<line
   class="st1"
   x1="143.88"
   y1="178.44"
   x2="158"
   y2="199.81"
   id="line8" />
	<line
   class="st1"
   x1="155.78999"
   y1="162.78999"
   x2="160.72"
   y2="199.42999"
   id="line10" />
	<line
   class="st1"
   x1="167.41"
   y1="132.61"
   x2="162.61"
   y2="199.53"
   id="line12" />
	<line
   class="st2"
   x1="271.35999"
   y1="96.190002"
   x2="163.74001"
   y2="200.09"
   id="line14" />
	<line
   class="st3"
   x1="271.29999"
   y1="162.14"
   x2="165.42999"
   y2="201.22"
   id="line16" />
	<line
   class="st3"
   x1="282.04001"
   y1="178.91"
   x2="165.71001"
   y2="202.91"
   id="line18" />
	<line
   class="st3"
   x1="272.44"
   y1="233.69"
   x2="163.45"
   y2="203.48"
   id="line20" />
	<line
   class="st3"
   x1="256.63"
   y1="243.95"
   x2="161.48"
   y2="205.45"
   id="line22" />
	<line
   class="st1"
   x1="193.69"
   y1="311.64999"
   x2="163.74001"
   y2="206.87"
   id="line24" />
	<line
   class="st1"
   x1="176.32001"
   y1="322.85001"
   x2="161.96001"
   y2="206.60001"
   id="line26" />
	<line
   class="st1"
   x1="155.88"
   y1="260.92001"
   x2="160.63"
   y2="206.3"
   id="line28" />
	<line
   class="st1"
   x1="143.69"
   y1="244.98"
   x2="160.91"
   y2="204.03999"
   id="line30" />
	<line
   class="st1"
   x1="100.21"
   y1="259.67001"
   x2="158.94"
   y2="203.48"
   id="line32" />
	<circle
   class="st0"
   cx="161.25"
   cy="203.75999"
   r="5.27"
   id="circle34" />
	<path
   class="st4"
   d="m 221.91,348.89 c -1.98,-0.24 -3.97,-0.44 -5.94,-0.73 -13.64,-2.02 -25.73,-7.12 -35.02,-17.69 -1.29,-1.47 -2.4,-3.1 -3.53,-4.7 -0.6,-0.84 -1.08,-1.76 -1.68,-2.77 6.16,-4 12.25,-7.97 18.19,-11.83 1.96,2.2 3.7,4.47 5.75,6.4 5.66,5.33 12.54,8.22 20.15,9.39 8.01,1.23 15.91,0.69 23.58,-2.07 3.08,-1.11 5.93,-2.64 8.35,-4.87 6.16,-5.67 6.43,-13.15 0.72,-19.28 -3.07,-3.3 -6.82,-5.68 -10.75,-7.8 -6.88,-3.71 -14.19,-6.47 -21.43,-9.36 -7.14,-2.85 -14.27,-5.73 -20.8,-9.85 -5.57,-3.51 -10.6,-7.67 -13.4,-13.75 -5.2,-11.26 -3.74,-22.06 3.26,-32.08 5.51,-7.88 13.4,-12.65 22.48,-15.4 14.1,-4.27 28.15,-4.15 41.88,1.51 9,3.71 15.83,9.9 19.83,18.92 0.1,0.21 0.17,0.44 0.31,0.78 -5.72,3.6 -11.43,7.2 -17.18,10.82 -0.14,-0.18 -0.25,-0.28 -0.33,-0.41 -4.13,-7.4 -10.67,-11.45 -18.78,-13.07 -7.23,-1.45 -14.3,-0.72 -20.95,2.63 -4.2,2.11 -7.59,5.09 -9.27,9.63 -1.91,5.18 -0.33,10 4.42,13.63 3.47,2.65 7.43,4.39 11.44,6.02 8.38,3.39 16.83,6.6 25.14,10.14 6.94,2.96 13.54,6.6 19.35,11.5 5.79,4.88 10.1,10.73 11.52,18.31 2.27,12.12 -0.97,22.64 -9.74,31.35 -6.33,6.29 -14.12,10.07 -22.69,12.16 -4.41,1.08 -8.98,1.52 -13.48,2.25 -0.35,0.06 -0.7,0.15 -1.05,0.22 -3.45,0 -6.9,0 -10.35,0 z"
   id="path36" />
	<path
   class="st4"
   d="m 39.67,207.04 c 0.24,-1.69 0.47,-3.38 0.71,-5.07 1.61,-11.29 5.83,-21.55 12.57,-30.73 10.81,-14.72 25.14,-24.24 43.11,-27.94 16.9,-3.48 32.62,-0.15 47.18,8.92 4.61,2.87 8.82,6.25 12.72,10.03 0.11,0.11 0.2,0.24 0.36,0.44 -4.09,5.49 -8.16,10.96 -12.26,16.46 -1.87,-1.61 -3.63,-3.24 -5.51,-4.72 -6.38,-5.02 -13.47,-8.6 -21.51,-10.13 -10.45,-1.98 -20.37,-0.28 -29.62,4.82 -13.76,7.58 -22.58,19.02 -25.5,34.49 -2.58,13.7 0.8,26.18 9.35,37.18 7,9.01 16.09,15.06 27.21,17.84 12.25,3.06 23.73,0.9 34.29,-5.82 3.66,-2.33 6.91,-5.3 10.35,-7.98 0.31,-0.24 0.59,-0.53 0.98,-0.89 4.09,5.69 8.14,11.33 12.33,17.16 -2.32,2.01 -4.55,4.08 -6.91,5.97 -8.16,6.53 -17.28,11.07 -27.62,13.05 -6.67,1.28 -13.38,1.48 -20.11,0.66 -17.79,-2.15 -32.63,-10 -44.54,-23.25 -8.84,-9.84 -14.41,-21.32 -16.62,-34.38 -0.38,-2.24 -0.64,-4.49 -0.96,-6.74 0,-3.13 0,-6.25 0,-9.37 z"
   id="path38" />
	<path
   class="st4"
   d="m 271.5,161.58 c 4.12,5.74 8.16,11.36 12.31,17.13 -1.84,1.64 -3.61,3.31 -5.48,4.87 -8.5,7.1 -18.05,12.08 -29.02,14.19 -6.67,1.28 -13.38,1.48 -20.11,0.67 -17.79,-2.15 -32.63,-9.99 -44.55,-23.25 -8.84,-9.84 -14.4,-21.33 -16.63,-34.38 -6.26,-36.59 18.29,-71.17 53.29,-79.39 19.73,-4.64 37.64,-0.25 53.85,11.57 3,2.19 5.76,4.7 8.72,7.14 -4.23,5.68 -8.31,11.16 -12.42,16.68 -1.85,-1.59 -3.61,-3.21 -5.48,-4.7 -6.34,-5.01 -13.4,-8.59 -21.39,-10.13 -10.53,-2.03 -20.54,-0.32 -29.86,4.84 -13.78,7.63 -22.69,19.11 -25.43,34.67 -2.9,16.49 2.3,30.62 14.18,42.29 7.55,7.42 16.67,12 27.2,13.45 10.14,1.4 19.58,-0.86 28.37,-6 4.17,-2.44 7.96,-5.39 11.45,-8.72 0.31,-0.28 0.6,-0.55 1,-0.93 z"
   id="path40" />
</g>
</svg>
