<?xml version="1.0" encoding="utf-8"?>
<!-- Generator: Adobe Illustrator 24.0.0, SVG Export Plug-In . SVG Version: 6.00 Build 0)  -->
<svg version="1.1" id="Capa_1" xmlns="http://www.w3.org/2000/svg" xmlns:xlink="http://www.w3.org/1999/xlink" x="0px" y="0px"
	 viewBox="0 0 974.51 714.64" style="enable-background:new 0 0 974.51 714.64;" xml:space="preserve">
<style type="text/css">
	.st0{fill:none;stroke:#FDFDFD;stroke-width:9;stroke-miterlimit:10;}
</style>
<g>
	<path class="st0" d="M398.19,417.88c0,0,0-134.84,0-147.29c0-12.46-9.53-13.19-9.53-13.19h-69.62c0,0,0-24.18,0-35.17
		c0-10.99-11.72-11.72-11.72-11.72s-36.64,0-52.03,0s-13.92,11.72-13.92,11.72v191.26v207.38c0,0,0,16.12,12.46,16.12
		c12.46,0,595.77,0,595.77,0s13.92,0,13.92-18.32s0-324.63,0-324.63L709.63,420.81V290.37l-157.55,131.9V291.84L398.19,417.88z"/>
	<line class="st0" x1="398.19" y1="417.88" x2="241.37" y2="417.88"/>
	<polyline class="st0" points="319.05,415.68 319.05,299.16 319.05,257.4 240.64,257.4 	"/>
	<line class="st0" x1="397.46" y1="299.9" x2="319.05" y2="299.9"/>
	<path class="st0" d="M497.73,479.43h-23.94c-6.14,0-11.11-4.98-11.11-11.11v-23.94c0-6.14,4.98-11.11,11.11-11.11h23.94
		c6.14,0,11.11,4.98,11.11,11.11v23.94C508.84,474.46,503.87,479.43,497.73,479.43z"/>
	<path class="st0" d="M497.73,589.44h-23.94c-6.14,0-11.11-4.98-11.11-11.11v-23.94c0-6.14,4.98-11.11,11.11-11.11h23.94
		c6.14,0,11.11,4.98,11.11,11.11v23.94C508.84,584.47,503.87,589.44,497.73,589.44z"/>
	<path class="st0" d="M652.35,479.43h-23.94c-6.14,0-11.11-4.98-11.11-11.11v-23.94c0-6.14,4.98-11.11,11.11-11.11h23.94
		c6.14,0,11.11,4.98,11.11,11.11v23.94C663.46,474.46,658.49,479.43,652.35,479.43z"/>
	<path class="st0" d="M652.35,589.44h-23.94c-6.14,0-11.11-4.98-11.11-11.11v-23.94c0-6.14,4.98-11.11,11.11-11.11h23.94
		c6.14,0,11.11,4.98,11.11,11.11v23.94C663.46,584.47,658.49,589.44,652.35,589.44z"/>
	<path class="st0" d="M807.7,479.43h-23.94c-6.14,0-11.11-4.98-11.11-11.11v-23.94c0-6.14,4.98-11.11,11.11-11.11h23.94
		c6.14,0,11.11,4.98,11.11,11.11v23.94C818.82,474.46,813.84,479.43,807.7,479.43z"/>
	<path class="st0" d="M807.7,589.44h-23.94c-6.14,0-11.11-4.98-11.11-11.11v-23.94c0-6.14,4.98-11.11,11.11-11.11h23.94
		c6.14,0,11.11,4.98,11.11,11.11v23.94C818.82,584.47,813.84,589.44,807.7,589.44z"/>
	<path class="st0" d="M274.95,110.86c17.78,0,32.19,14.41,32.19,32.19s-14.41,32.19-32.19,32.19s-32.19-14.41-32.19-32.19
		c0-3.36,0.51-6.6,1.47-9.64"/>
	<path class="st0" d="M225.35,67.29c5.52-3.52,12.07-5.56,19.1-5.56c19.65,0,35.58,15.93,35.58,35.58s-15.93,35.58-35.58,35.58
		c-12.54,0-23.56-6.49-29.9-16.29"/>
	<circle class="st0" cx="178.52" cy="83.01" r="48.26"/>
	<line class="st0" x1="167.51" y1="557.36" x2="167.51" y2="152.47"/>
	<polygon class="st0" points="131.94,553.98 203.09,553.98 169.21,614.96 	"/>
</g>
</svg>
