<?xml version="1.0" encoding="utf-8"?>
<!-- Generator: Adobe Illustrator 24.0.0, SVG Export Plug-In . SVG Version: 6.00 Build 0)  -->
<svg version="1.1" id="Capa_1" xmlns="http://www.w3.org/2000/svg" xmlns:xlink="http://www.w3.org/1999/xlink" x="0px" y="0px"
	 viewBox="0 0 974.51 714.64" style="enable-background:new 0 0 974.51 714.64;" xml:space="preserve">
<style type="text/css">
	.st0{fill:#FCFCFC;}
</style>
<g>
	<path class="st0" d="M478.2,236.2c-3.08-31.79,4.94-60.01,25.31-84.29c17.84-21.27,40.71-34.22,68.25-37.96
		c57.67-7.83,106.53,29.27,120.36,79.54c15.45,56.12-14.54,110.15-61.03,130.43c-2.09-2.72-4.23-5.49-6.72-8.73
		c-0.09,1.29-0.2,2.06-0.2,2.84c0,37.74,0.02,75.49,0.02,113.23c0,27.83-0.01,55.65-0.07,83.48c0,1.88,0.54,2.99,2.12,4.19
		c14.28,10.84,23.33,25.06,25.76,42.88c3.49,25.61-5.07,46.77-25.47,62.65c-26.58,20.7-65.7,17.01-88.29-8.07
		c-14.33-15.91-19.84-34.6-16.44-55.73c1.37-8.5,4.47-16.39,9.16-23.78c4.62-7.28,10.37-13.29,17.08-18.56
		c0.83-0.65,1.38-2.19,1.38-3.31c0.07-37.74,0.07-75.49,0.07-113.23c0-27.43,0.01-54.86,0-82.3c0-14.37,5.84-25.65,18.11-33.21
		c21.96-13.54,51.38-0.29,56,25.08c0.08,0.44,0.22,0.88,0.57,2.19c6.26-3.7,12.48-6.79,18.06-10.78
		c19.56-13.99,32.6-32.72,38.05-56.16c7.93-34.08-0.06-64.45-23.61-90.28c-14.91-16.36-33.73-26.14-55.73-29.34
		c-28.26-4.12-53.52,3.2-75.4,21.27c-16.7,13.79-27.51,31.52-32.47,52.76c-2.5,10.7-3.08,21.44-2.15,32.34
		c0.12,1.36,0.48,2.03,2,2.53c16.21,5.42,32.37,11.01,48.56,16.49c2.53,0.86,2.89,2.42,2.4,4.79c-2.39,11.61-9.59,18.49-20.87,21.3
		c-5.98,1.49-9.77,5.71-13.22,10.27c-0.69,0.92-0.31,2.91,0.05,4.28c0.33,1.23,1.31,2.29,2,3.43c2.87,4.75,1.18,9.22-4.31,10.05
		c-4.57,0.69-9.32,0.84-13.94,0.49c-11.38-0.86-20.39,3.81-28.07,11.53c-6.59,6.63-9.53,14.67-7.22,24
		c2.87,11.6,15.75,17.21,25.65,10.65c6.19-4.1,11.41-9.69,16.97-14.71c4.83-4.36,9.64-8.73,16.27-10.11
		c7.95-1.65,16.32,2.28,21.2,9.82c0.62,0.96,1.1,2.17,1.98,2.76c3.84,2.55,4.33,6.24,4.13,10.4c-0.19,3.8-0.04,7.61-0.04,11.96
		c-1.15-0.56-2.06-0.92-2.88-1.42c-18-10.91-36.3-9.5-54.56-0.96c-14.63,6.84-27.36,16.44-38.75,27.87
		c-12.51,12.55-13.89,28.38-7.76,43.54c5.73,14.18,16.74,23.55,29.31,31.35c4.11,2.55,8.41,4.84,12.75,6.98
		c5.97,2.94,9.45,2.3,14.26-2.15c0.98-0.9,2-1.76,3.04-2.6c4.15-3.34,8.8-3.9,13.12-0.73c3.07,2.26,6.06,5.06,8.04,8.26
		c5.95,9.63,11.39,19.57,14.39,30.63c0.59,2.16,0.27,3.52-1.53,5.1c-10.69,9.36-17.45,21.22-21.42,34.75
		c-4.76,16.17-6.14,32.53-1.77,48.97c4.63,17.45,14.57,31.45,28.89,42.37c0.9,0.69,1.81,1.38,2.77,2.11
		c-53.37,25.27-134.58,28.22-202.82-18.96c-70.82-48.96-100.94-130.44-88.53-206.68c3.4-20.87,9.78-40.8,19.23-59.75
		c9.51-19.06,21.61-36.28,36.31-51.65c14.64-15.3,31.23-28.12,49.73-38.49c18.56-10.41,38.31-17.59,59.05-22.09
		C436.04,235.24,456.99,234.54,478.2,236.2z M485.26,252.8c-1.18-0.31-1.53-0.45-1.89-0.49c-18.84-2.06-37.62-2.06-56.38,1.04
		c-22.25,3.67-43.23,10.87-62.94,21.87c-20.24,11.31-37.94,25.71-53.05,43.26c-14.39,16.71-25.65,35.32-33.75,55.87
		c-6.71,17.03-10.69,34.66-12.69,52.81c-0.94,8.5-0.91,8.41,4.95,14.67c4.85,5.18,9.19,10.63,9.4,18.34
		c0.2,7.74,1.23,15.5,4.51,22.53c4.78,10.24,9.82,20.41,15.53,30.16c10.33,17.62,16.37,35.96,12.57,56.65
		c-0.24,1.3,0.58,3.19,1.53,4.25c11.12,12.38,23.49,23.37,37.42,32.49c6.88,4.5,14.06,8.53,21.31,12.9
		c0.16-0.83,0.26-1.04,0.21-1.18c-0.44-1.25-0.84-2.53-1.39-3.74c-8.12-17.66-5.78-35.33,0.46-52.78c1.94-5.42,5.71-9.79,12.68-8.95
		c1.27,0.15,2.62-0.35,3.94-0.54c7.87-1.13,9.07-3.39,8.11-12.46c-0.03-0.28-0.17-0.54-0.25-0.82c-1.5-5.1-3.11-10.18-4.48-15.32
		c-1.48-5.52-0.81-10.52,3.83-14.56c4.55-3.96,5.12-7.02,2.41-12.34c-4.36-8.57-11.22-14.4-20.35-17.19
		c-5.43-1.66-11.15-2.31-16.68-3.69c-4.67-1.17-5.33-2.38-4.59-7.12c0.91-5.92,2.22-11.8,2.78-17.75
		c0.78-8.37-1.97-11.82-10.58-12.39c-3.54-0.23-7.19,0.6-10.74,1.19c-6.93,1.15-13.6,1.49-20.42-1.38
		c-7.08-2.99-14.71-3.98-22.4-2.29c-3.27,0.72-6.44,1.91-9.8,2.92c-0.42-7.14-0.83-14.17-1.24-21.2
		c-0.41-7.09-0.82-14.18-1.24-21.48c5.2-0.37,9.41-2.15,13.19-5.07c5.67-4.37,8.03-10.49,9.13-17.22c1.3-8,5.7-13.21,13.37-15.85
		c5.02-1.73,10-3.62,14.9-5.69c4.79-2.02,7.36-5.87,7.91-11.01c0.27-2.56,0.28-5.14,0.58-7.69c0.36-3.1,0.66-6.32,4.49-7.82
		c2.9,4.4,5.84,8.71,8.59,13.13c1.45,2.33,3.35,3.66,6.04,3.58c4.5-0.13,9.4-4.19,10.59-8.73c1.3-4.96,0.42-9.77-0.99-14.6
		c-1.72-5.91-3.22-11.9-4.66-17.89c-0.51-2.13,0.31-3.36,2.81-3.86c6.47-1.3,10.78-6.2,11.84-12.73c0.36-2.21-0.08-3.95-2.25-4.97
		c-2.65-1.24-5.3-2.48-8.15-3.82c8.99-3.24,18.11-4.13,27.47-3.54c0,1.11,0.06,1.96-0.01,2.81c-0.89,10.47,8.17,17.09,17.64,12.5
		c9.55-4.62,19.38-6.44,29.92-5.35c4.97,0.51,10.07,0.13,14.16-3.19c5.6-4.54,11.14-9.18,16.31-14.19
		C478.6,261.35,481.61,257.14,485.26,252.8z M611.71,337.89c0-4.98,0.09-9.55-0.03-14.1c-0.1-3.79,0.08-7.69-0.76-11.34
		c-2.31-10.06-8.95-16.4-18.9-18.41c-9.79-1.98-18.53,0.85-25.14,8.68c-4.07,4.83-5.06,10.73-5.04,16.87
		c0.18,66.8,0.33,133.6,0.62,200.41c0.01,3.11-1.03,4.58-3.52,6.21c-18.7,12.25-27.75,29.58-25.15,51.92
		c3.62,31.01,31.52,51.5,62.21,46.41c29.74-4.93,49.71-34.38,43.18-63.94c-3.37-15.28-11.93-27-25.42-34.96
		c-2.07-1.22-2.88-2.5-2.74-4.94c0.3-5.61,0.32-11.24,0.34-16.86c0.11-39.74,0.18-79.47,0.27-119.21c0-1.21,0-2.43,0-4
		c-7.22,0-14.12,0-21,0c0-3.46,0-6.55,0-10.01c7.08,0,13.97,0,20.83,0c0-7.83,0-15.3,0-23.08c-7.14,0-14.03,0-20.87,0
		c0-3.35,0-6.36,0-9.64C597.56,337.89,604.38,337.89,611.71,337.89z"/>
	<path class="st0" d="M637.06,336.44c17.64,27.54,27.55,57.65,30.46,89.96c2.89,32.02-1.34,63.16-12.95,93.75
		c-4.84-2.51-9.55-4.58-13.85-7.3c-4.6-2.9-4.76-4.94-2.4-9.73c4.42-8.96,8.79-17.93,10.09-28.05c0.51-3.98,0.02-7.84-2.07-11
		c-7.87-11.86-7.03-24.29-3.02-37c1.71-5.43,3.61-10.83,5.73-16.11c3.17-7.88,2.64-15.89,1.15-23.91
		c-2.24-12.05-6.88-23.3-11.99-34.38c-0.79-1.72-1-3.81-1.09-5.74C636.94,343.45,637.06,339.94,637.06,336.44z"/>
	<path class="st0" d="M591.73,48.38c0,17.36,0,34.53,0,51.9c-3.19,0-6.38,0-9.78,0c0-17.3,0-34.48,0-51.9
		C585.11,48.38,588.27,48.38,591.73,48.38z"/>
	<path class="st0" d="M682.58,132.86c-2.33-2.24-4.65-4.46-6.78-6.51c9.79-9.72,19.54-19.4,29.5-29.29
		c1.84,1.81,4.23,4.15,6.57,6.43C701.95,113.44,692.3,123.12,682.58,132.86z"/>
	<path class="st0" d="M461.78,103.08c2.13-1.95,4.57-4.18,7.01-6.4c9.72,9.79,19.41,19.55,29.23,29.43
		c-2.25,2.01-4.69,4.2-7.05,6.31C481.66,123.07,471.93,113.28,461.78,103.08z"/>
	<path class="st0" d="M418.96,226.55c0-3.3,0-6.3,0-9.61c12.47,0,24.86,0,37.46,0c0,3.1,0,6.29,0,9.61
		C444.05,226.55,431.66,226.55,418.96,226.55z"/>
	<path class="st0" d="M675.71,317.07c2.18-2.04,4.57-4.28,6.9-6.46c7.86,7.87,15.84,15.86,23.8,23.83
		c-2.17,2.23-4.45,4.56-6.69,6.85C691.72,333.23,683.78,325.22,675.71,317.07z"/>
	<path class="st0" d="M597.81,470.98c0,19.15,0.03,38.31-0.04,57.46c-0.01,1.92,0.74,2.53,2.41,3.11
		c17.62,6.08,28.96,21.74,29.07,39.99c0.13,20.59-14.29,38.09-34.6,41.97c-19.36,3.7-38.55-6.45-46.75-24.72
		c-7.77-17.32-2.28-39.07,13.13-50.53c3.83-2.85,8.37-4.84,12.79-6.76c1.78-0.77,2.23-1.51,2.22-3.24
		c-0.05-15.15-0.03-30.3-0.04-45.45c0-22.87-0.01-45.73,0.01-68.6c0.01-6.61,4.44-11.28,10.62-11.33
		c6.34-0.05,11.13,4.69,11.14,11.22C597.83,433.06,597.8,452.02,597.81,470.98z M579.07,551.62c0.4-3.32,0.78-6.56,1.17-9.78
		c-12.71-1.86-26.55,13.06-29.39,27.09c0.93,0.33,1.88,0.75,2.86,0.99c2.11,0.53,4.49,1.74,6.29,1.17c1.25-0.4,1.61-3.34,2.55-5.06
		C566.19,559.33,570.29,553.07,579.07,551.62z"/>
</g>
</svg>
