<?xml version="1.0" encoding="utf-8"?>
<!-- Generator: Adobe Illustrator 24.0.0, SVG Export Plug-In . SVG Version: 6.00 Build 0)  -->
<svg version="1.1" id="Capa_1" xmlns="http://www.w3.org/2000/svg" xmlns:xlink="http://www.w3.org/1999/xlink" x="0px" y="0px"
	 viewBox="0 0 950 1080" style="enable-background:new 0 0 950 1080;" xml:space="preserve">
<style type="text/css">
	.st0{fill:url(#SVGID_1_);}
	.st1{fill:#0C8E36;}
	.st2{fill:#FFFBF7;}
	.st3{fill:none;stroke:#F70606;stroke-width:4;stroke-miterlimit:10;}
	.st4{fill:none;stroke:#020100;stroke-miterlimit:10;}
</style>
<g>
	<linearGradient id="SVGID_1_" gradientUnits="userSpaceOnUse" x1="481.3507" y1="1270.7637" x2="460.8753" y2="489.551">
		<stop  offset="0.4642" style="stop-color:#00FFFF"/>
		<stop  offset="0.4783" style="stop-color:#02FBFE"/>
		<stop  offset="0.6275" style="stop-color:#13D9F2"/>
		<stop  offset="0.7683" style="stop-color:#1FBFE9"/>
		<stop  offset="0.8964" style="stop-color:#26B0E4"/>
		<stop  offset="1" style="stop-color:#29ABE2"/>
	</linearGradient>
	<path class="st0" d="M410.1,924.8L147.9,467.3c0,0,288.2-107.8,624.8,0l-264,457.4C508.6,924.8,445.4,915.5,410.1,924.8z"/>
	<path class="st1" d="M425,952.7L322.7,772.3c0,0,123.5-39.8,271.5,3.7L491.9,952.7C491.9,952.7,439.8,950.8,425,952.7z"/>
</g>
<g>
	<path class="st2" d="M400.6,485.2c0,6.7-1.4,11.7-4.2,15c-2.8,3.3-7.1,5-12.8,5c-2,0-3.5-0.1-4.6-0.3V499c1.3,0.3,2.7,0.5,4.1,0.5
		c2.4,0,4.4-0.4,5.9-1.1c1.5-0.7,2.7-1.8,3.6-3.3c0.8-1.5,1.3-3.6,1.4-6.2h-0.3c-0.9,1.5-1.9,2.5-3.1,3.1c-1.2,0.6-2.7,0.9-4.4,0.9
		c-3,0-5.3-0.9-7-2.8c-1.7-1.9-2.6-4.5-2.6-7.9c0-3.6,1-6.5,3.1-8.6c2.1-2.1,4.9-3.2,8.5-3.2c2.5,0,4.7,0.6,6.6,1.8
		c1.9,1.2,3.3,2.9,4.3,5.1C400.1,479.4,400.6,482.1,400.6,485.2z M388.3,476c-1.5,0-2.7,0.5-3.5,1.5c-0.8,1-1.3,2.5-1.3,4.4
		c0,1.6,0.4,2.9,1.1,3.9s1.9,1.4,3.5,1.4c1.5,0,2.7-0.5,3.7-1.4c1-1,1.6-2,1.6-3.3c0-1.8-0.5-3.4-1.5-4.7
		C391,476.7,389.8,476,388.3,476z"/>
	<path class="st2" d="M427.8,485.2c0,6.7-1.4,11.7-4.2,15c-2.8,3.3-7.1,5-12.8,5c-2,0-3.5-0.1-4.6-0.3V499c1.3,0.3,2.7,0.5,4.1,0.5
		c2.4,0,4.4-0.4,5.9-1.1c1.5-0.7,2.7-1.8,3.6-3.3c0.8-1.5,1.3-3.6,1.4-6.2h-0.3c-0.9,1.5-1.9,2.5-3.1,3.1c-1.2,0.6-2.7,0.9-4.4,0.9
		c-3,0-5.3-0.9-7-2.8c-1.7-1.9-2.6-4.5-2.6-7.9c0-3.6,1-6.5,3.1-8.6c2.1-2.1,4.9-3.2,8.5-3.2c2.5,0,4.7,0.6,6.6,1.8
		c1.9,1.2,3.3,2.9,4.3,5.1C427.3,479.4,427.8,482.1,427.8,485.2z M415.5,476c-1.5,0-2.7,0.5-3.5,1.5c-0.8,1-1.3,2.5-1.3,4.4
		c0,1.6,0.4,2.9,1.1,3.9s1.9,1.4,3.5,1.4c1.5,0,2.7-0.5,3.7-1.4c1-1,1.6-2,1.6-3.3c0-1.8-0.5-3.4-1.5-4.7
		C418.2,476.7,417,476,415.5,476z"/>
	<path class="st2" d="M432.1,501.3c0-1.3,0.3-2.3,1-3c0.7-0.7,1.7-1,3-1c1.3,0,2.3,0.3,3,1c0.7,0.7,1.1,1.7,1.1,2.9
		c0,1.2-0.4,2.2-1.1,2.9c-0.7,0.7-1.7,1.1-3,1.1c-1.3,0-2.3-0.3-3-1S432.1,502.6,432.1,501.3z"/>
	<path class="st2" d="M468.5,485.2c0,6.7-1.4,11.7-4.2,15c-2.8,3.3-7.1,5-12.8,5c-2,0-3.5-0.1-4.6-0.3V499c1.3,0.3,2.7,0.5,4.1,0.5
		c2.4,0,4.4-0.4,5.9-1.1c1.5-0.7,2.7-1.8,3.6-3.3c0.8-1.5,1.3-3.6,1.4-6.2h-0.3c-0.9,1.5-1.9,2.5-3.1,3.1c-1.2,0.6-2.7,0.9-4.4,0.9
		c-3,0-5.3-0.9-7-2.8c-1.7-1.9-2.6-4.5-2.6-7.9c0-3.6,1-6.5,3.1-8.6c2.1-2.1,4.9-3.2,8.5-3.2c2.5,0,4.7,0.6,6.6,1.8
		c1.9,1.2,3.3,2.9,4.3,5.1C468,479.4,468.5,482.1,468.5,485.2z M456.2,476c-1.5,0-2.7,0.5-3.5,1.5c-0.8,1-1.3,2.5-1.3,4.4
		c0,1.6,0.4,2.9,1.1,3.9s1.9,1.4,3.5,1.4c1.5,0,2.7-0.5,3.7-1.4c1-1,1.6-2,1.6-3.3c0-1.8-0.5-3.4-1.5-4.7
		C459,476.7,457.7,476,456.2,476z"/>
	<path class="st2" d="M494.5,478.3c0,2.1-0.6,3.9-1.9,5.4c-1.3,1.5-3.1,2.5-5.4,3.1v0.1c2.7,0.3,4.8,1.2,6.2,2.5s2.1,3.1,2.1,5.4
		c0,3.3-1.2,5.8-3.6,7.6c-2.4,1.8-5.8,2.7-10.2,2.7c-3.7,0-7-0.6-9.8-1.8v-6.1c1.3,0.7,2.8,1.2,4.3,1.6c1.6,0.4,3.1,0.6,4.7,0.6
		c2.4,0,4.1-0.4,5.3-1.2c1.1-0.8,1.7-2.1,1.7-3.9c0-1.6-0.7-2.7-2-3.4c-1.3-0.7-3.4-1-6.2-1h-2.6v-5.5h2.6c2.6,0,4.6-0.3,5.8-1
		c1.2-0.7,1.8-1.9,1.8-3.5c0-2.6-1.6-3.9-4.8-3.9c-1.1,0-2.3,0.2-3.4,0.6s-2.4,1-3.8,1.9l-3.3-5c3.1-2.2,6.8-3.3,11.1-3.3
		c3.5,0,6.3,0.7,8.3,2.1S494.5,475.7,494.5,478.3z"/>
	<path class="st2" d="M515,480.8c0,3.6-0.7,6.2-2.1,8c-1.4,1.8-3.4,2.7-6.1,2.7c-2.6,0-4.5-0.9-5.9-2.8s-2.1-4.5-2.1-8
		c0-7.1,2.7-10.6,8-10.6c2.6,0,4.6,0.9,6,2.8C514.3,474.8,515,477.4,515,480.8z M504.7,480.8c0,2,0.2,3.4,0.5,4.4s0.9,1.5,1.7,1.5
		c1.5,0,2.2-2,2.2-5.9c0-3.9-0.7-5.8-2.2-5.8c-0.8,0-1.3,0.5-1.7,1.4S504.7,478.9,504.7,480.8z M531,470.7l-18.9,34h-5.6l18.9-34
		H531z M538.8,494.4c0,3.5-0.7,6.2-2.1,8c-1.4,1.8-3.4,2.7-6.1,2.7c-2.6,0-4.5-0.9-5.9-2.8c-1.4-1.8-2.1-4.5-2.1-7.9
		c0-7.1,2.7-10.6,8-10.6c2.6,0,4.6,0.9,6,2.8C538.1,488.3,538.8,491,538.8,494.4z M528.5,494.4c0,2,0.2,3.4,0.5,4.4
		c0.3,1,0.9,1.5,1.7,1.5c1.5,0,2.2-2,2.2-5.9c0-3.9-0.7-5.8-2.2-5.8c-0.8,0-1.3,0.5-1.7,1.4S528.5,492.5,528.5,494.4z"/>
</g>
<g>
	<path class="st2" d="M310.8,568.5c0,3.4-0.9,6.1-2.6,8c-1.7,1.9-4.1,2.9-7.2,2.9c-3.1,0-5.5-1-7.2-2.9c-1.7-1.9-2.5-4.6-2.5-8.1
		c0-3.5,0.9-6.1,2.6-8c1.7-1.9,4.1-2.9,7.3-2.9c3.1,0,5.4,1,7.1,2.9C310,562.4,310.8,565.1,310.8,568.5z M293.9,568.5
		c0,2.9,0.6,5.1,1.8,6.5s3,2.2,5.3,2.2c2.4,0,4.1-0.7,5.3-2.2s1.8-3.7,1.8-6.6c0-2.9-0.6-5-1.8-6.5c-1.2-1.5-3-2.2-5.3-2.2
		c-2.4,0-4.1,0.7-5.4,2.2C294.5,563.5,293.9,565.6,293.9,568.5z"/>
	<path class="st2" d="M329.7,579.1h-2.8l-5.7-9.3l-5.8,9.3h-2.6l7.1-11.1l-6.6-10.1h2.7l5.3,8.4l5.3-8.4h2.6l-6.6,10.1L329.7,579.1z
		"/>
	<path class="st2" d="M332.4,555.8c0.5-0.6,1-1.3,1.5-2.2c0.5-0.9,1-1.6,1.3-2.2h2.9v0.3c-0.4,0.6-1.1,1.4-1.9,2.3
		c-0.8,0.9-1.6,1.6-2.2,2.1h-1.6V555.8z M332.7,579.1v-21.2h2.5v21.2H332.7z"/>
	<path class="st2" d="M350.4,568h7.2v10.3c-1.1,0.4-2.3,0.6-3.4,0.8s-2.5,0.3-4,0.3c-3.2,0-5.7-1-7.5-2.9c-1.8-1.9-2.7-4.6-2.7-8
		c0-2.2,0.4-4.1,1.3-5.8c0.9-1.7,2.2-2.9,3.8-3.8c1.7-0.9,3.6-1.3,5.9-1.3c2.3,0,4.4,0.4,6.3,1.2l-1,2.2c-1.9-0.8-3.8-1.2-5.5-1.2
		c-2.6,0-4.6,0.8-6.1,2.3c-1.5,1.5-2.2,3.7-2.2,6.4c0,2.9,0.7,5,2.1,6.5s3.5,2.2,6.2,2.2c1.5,0,2.9-0.2,4.3-0.5v-6.5h-4.8V568z"/>
	<path class="st2" d="M374.5,579.1h-11.8v-21.2h11.8v2.2h-9.4v6.8h8.8v2.2h-8.8v7.8h9.4V579.1z"/>
	<path class="st2" d="M395.8,579.1H393l-11.6-17.8h-0.1c0.2,2.1,0.2,4,0.2,5.8v12.1h-2.3v-21.2h2.8l11.6,17.8h0.1
		c0-0.3-0.1-1.1-0.1-2.5s-0.1-2.4-0.1-3v-12.2h2.3V579.1z"/>
	<path class="st2" d="M420.1,568.5c0,3.4-0.9,6.1-2.6,8c-1.7,1.9-4.1,2.9-7.2,2.9c-3.1,0-5.5-1-7.2-2.9c-1.7-1.9-2.5-4.6-2.5-8.1
		c0-3.5,0.9-6.1,2.6-8c1.7-1.9,4.1-2.9,7.3-2.9c3.1,0,5.4,1,7.1,2.9C419.2,562.4,420.1,565.1,420.1,568.5z M403.2,568.5
		c0,2.9,0.6,5.1,1.8,6.5s3,2.2,5.3,2.2c2.4,0,4.1-0.7,5.3-2.2s1.8-3.7,1.8-6.6c0-2.9-0.6-5-1.8-6.5c-1.2-1.5-3-2.2-5.3-2.2
		c-2.4,0-4.1,0.7-5.4,2.2C403.8,563.5,403.2,565.6,403.2,568.5z"/>
	<path class="st2" d="M302.2,608.1h-11.7V606l4.4-4.5c1.3-1.3,2.2-2.3,2.6-2.9c0.4-0.6,0.7-1.1,0.9-1.6c0.2-0.5,0.3-1,0.3-1.6
		c0-0.8-0.2-1.4-0.7-1.8c-0.5-0.4-1.1-0.7-1.9-0.7c-0.7,0-1.3,0.1-1.9,0.4c-0.6,0.2-1.3,0.7-2.1,1.3l-1.5-1.8c1-0.8,1.9-1.4,2.8-1.7
		c0.9-0.3,1.9-0.5,2.9-0.5c1.6,0,2.9,0.4,3.9,1.3c1,0.8,1.5,2,1.5,3.4c0,0.8-0.1,1.5-0.4,2.2c-0.3,0.7-0.7,1.4-1.3,2.2
		c-0.6,0.7-1.5,1.7-2.9,3l-3,2.9v0.1h8.2V608.1z"/>
	<path class="st2" d="M316,599.5c0,3-0.5,5.2-1.4,6.7s-2.4,2.2-4.4,2.2c-1.9,0-3.4-0.8-4.4-2.3c-1-1.5-1.5-3.7-1.5-6.6
		c0-3,0.5-5.3,1.4-6.7s2.4-2.2,4.4-2.2c1.9,0,3.4,0.8,4.4,2.3C315.5,594.4,316,596.6,316,599.5z M307.1,599.5c0,2.4,0.2,4,0.7,5
		s1.3,1.5,2.3,1.5c1.1,0,1.8-0.5,2.3-1.5c0.5-1,0.7-2.7,0.7-5c0-2.3-0.2-4-0.7-5c-0.5-1-1.3-1.6-2.3-1.6c-1.1,0-1.8,0.5-2.3,1.5
		C307.3,595.5,307.1,597.1,307.1,599.5z"/>
	<path class="st2" d="M318.6,606.6c0-0.6,0.1-1,0.4-1.3c0.3-0.3,0.7-0.5,1.3-0.5c0.6,0,1,0.2,1.3,0.5c0.3,0.3,0.4,0.8,0.4,1.3
		c0,0.6-0.2,1-0.5,1.3c-0.3,0.3-0.7,0.5-1.3,0.5c-0.6,0-1-0.2-1.3-0.5C318.8,607.7,318.6,607.2,318.6,606.6z"/>
	<path class="st2" d="M336.4,598.2c0,3.4-0.7,5.9-2.1,7.6c-1.4,1.7-3.4,2.5-6.2,2.5c-1,0-1.8-0.1-2.3-0.2v-2.3
		c0.7,0.2,1.4,0.3,2.1,0.3c1.9,0,3.3-0.5,4.2-1.5c0.9-1,1.4-2.6,1.5-4.7h-0.1c-0.5,0.7-1,1.2-1.7,1.5s-1.4,0.5-2.3,0.5
		c-1.5,0-2.7-0.5-3.6-1.4s-1.3-2.3-1.3-3.9c0-1.8,0.5-3.2,1.5-4.3c1-1.1,2.4-1.6,4.1-1.6c1.2,0,2.3,0.3,3.2,0.9s1.6,1.5,2.1,2.6
		S336.4,596.6,336.4,598.2z M330.4,592.9c-1,0-1.7,0.3-2.2,0.9c-0.5,0.6-0.8,1.5-0.8,2.6c0,1,0.2,1.8,0.7,2.3s1.2,0.8,2.2,0.8
		c0.9,0,1.7-0.3,2.4-0.8s1-1.2,1-2c0-0.7-0.1-1.4-0.4-2c-0.3-0.6-0.7-1.1-1.1-1.4C331.6,593.1,331,592.9,330.4,592.9z"/>
	<path class="st2" d="M350.3,599.5c0,3-0.5,5.2-1.4,6.7s-2.4,2.2-4.4,2.2c-1.9,0-3.4-0.8-4.4-2.3c-1-1.5-1.5-3.7-1.5-6.6
		c0-3,0.5-5.3,1.4-6.7s2.4-2.2,4.4-2.2c1.9,0,3.4,0.8,4.4,2.3C349.8,594.4,350.3,596.6,350.3,599.5z M341.3,599.5c0,2.4,0.2,4,0.7,5
		s1.3,1.5,2.3,1.5c1.1,0,1.8-0.5,2.3-1.5c0.5-1,0.7-2.7,0.7-5c0-2.3-0.2-4-0.7-5c-0.5-1-1.3-1.6-2.3-1.6c-1.1,0-1.8,0.5-2.3,1.5
		C341.6,595.5,341.3,597.1,341.3,599.5z"/>
	<path class="st2" d="M359.9,596c0,1.8-0.3,3.2-1,4.1c-0.6,0.9-1.6,1.4-2.9,1.4c-1.2,0-2.1-0.5-2.8-1.4c-0.7-0.9-1-2.3-1-4
		c0-3.6,1.3-5.4,3.8-5.4c1.2,0,2.2,0.5,2.9,1.4C359.6,592.9,359.9,594.3,359.9,596z M354.6,596c0,1.2,0.1,2,0.3,2.6
		c0.2,0.6,0.6,0.9,1.1,0.9c1,0,1.6-1.2,1.6-3.5s-0.5-3.5-1.6-3.5c-0.5,0-0.9,0.3-1.1,0.9C354.7,594,354.6,594.9,354.6,596z
		 M367.6,590.9l-9.6,17.3h-2.3l9.6-17.3H367.6z M371.1,602.9c0,1.8-0.3,3.2-1,4.1c-0.7,0.9-1.6,1.4-2.9,1.4c-1.2,0-2.1-0.5-2.8-1.4
		c-0.7-0.9-1-2.3-1-4c0-3.6,1.3-5.4,3.8-5.4c1.2,0,2.2,0.5,2.8,1.4S371.1,601.2,371.1,602.9z M365.8,602.9c0,1.2,0.1,2,0.3,2.6
		c0.2,0.6,0.6,0.9,1.1,0.9c1,0,1.5-1.2,1.5-3.5c0-2.3-0.5-3.5-1.5-3.5c-0.5,0-0.9,0.3-1.1,0.8S365.8,601.8,365.8,602.9z"/>
</g>
<g>
	<path class="st2" d="M529.1,578.4l-2.6-6.8h-8.5l-2.6,6.8h-2.5l8.4-21.3h2.1l8.4,21.3H529.1z M525.6,569.4l-2.5-6.6
		c-0.3-0.8-0.6-1.9-1-3.1c-0.2,0.9-0.5,2-0.9,3.1l-2.5,6.6H525.6z"/>
	<path class="st2" d="M537,569.5v8.8h-2.5v-21.2h5.8c2.6,0,4.5,0.5,5.8,1.5c1.2,1,1.9,2.5,1.9,4.5c0,2.8-1.4,4.7-4.3,5.7l5.8,9.5
		h-2.9l-5.1-8.8H537z M537,567.4h3.4c1.7,0,3-0.3,3.8-1c0.8-0.7,1.2-1.7,1.2-3.1c0-1.4-0.4-2.4-1.2-3c-0.8-0.6-2.2-0.9-4-0.9H537
		V567.4z"/>
	<path class="st2" d="M562.3,567.2h7.2v10.3c-1.1,0.4-2.3,0.6-3.4,0.8s-2.5,0.3-4,0.3c-3.2,0-5.7-1-7.5-2.9c-1.8-1.9-2.7-4.6-2.7-8
		c0-2.2,0.4-4.1,1.3-5.8c0.9-1.7,2.2-2.9,3.8-3.8c1.7-0.9,3.6-1.3,5.9-1.3c2.3,0,4.4,0.4,6.3,1.2l-1,2.2c-1.9-0.8-3.8-1.2-5.5-1.2
		c-2.6,0-4.6,0.8-6.1,2.3c-1.5,1.5-2.2,3.7-2.2,6.4c0,2.9,0.7,5,2.1,6.5s3.5,2.2,6.2,2.2c1.5,0,2.9-0.2,4.3-0.5v-6.5h-4.8V567.2z"/>
	<path class="st2" d="M593,567.7c0,3.4-0.9,6.1-2.6,8c-1.7,1.9-4.1,2.9-7.2,2.9c-3.1,0-5.5-1-7.2-2.9c-1.7-1.9-2.5-4.6-2.5-8.1
		c0-3.5,0.9-6.1,2.6-8c1.7-1.9,4.1-2.9,7.3-2.9c3.1,0,5.4,1,7.1,2.9C592.2,561.6,593,564.3,593,567.7z M576.1,567.7
		c0,2.9,0.6,5.1,1.8,6.5c1.2,1.5,3,2.2,5.3,2.2c2.4,0,4.1-0.7,5.3-2.2c1.2-1.5,1.8-3.7,1.8-6.6c0-2.9-0.6-5-1.8-6.5s-3-2.2-5.3-2.2
		c-2.4,0-4.1,0.7-5.4,2.2C576.7,562.7,576.1,564.9,576.1,567.7z M581.2,555.1c0.5-0.6,1-1.3,1.5-2.2c0.5-0.9,1-1.6,1.3-2.2h2.9v0.3
		c-0.4,0.6-1.1,1.4-1.9,2.3c-0.8,0.9-1.6,1.6-2.2,2.1h-1.6V555.1z"/>
	<path class="st2" d="M614.3,578.4h-2.8l-11.6-17.8h-0.1c0.2,2.1,0.2,4,0.2,5.8v12.1h-2.3v-21.2h2.8l11.6,17.8h0.1
		c0-0.3-0.1-1.1-0.1-2.5c-0.1-1.4-0.1-2.4-0.1-3v-12.2h2.3V578.4z"/>
	<path class="st2" d="M561.2,598.7c0,3-0.5,5.2-1.4,6.7c-1,1.5-2.4,2.2-4.4,2.2c-1.9,0-3.4-0.8-4.4-2.3c-1-1.5-1.5-3.7-1.5-6.6
		c0-3,0.5-5.3,1.4-6.7s2.4-2.2,4.4-2.2c1.9,0,3.4,0.8,4.4,2.3C560.7,593.6,561.2,595.8,561.2,598.7z M552.2,598.7c0,2.4,0.2,4,0.7,5
		c0.5,1,1.3,1.5,2.3,1.5c1.1,0,1.8-0.5,2.3-1.5c0.5-1,0.7-2.7,0.7-5c0-2.3-0.2-4-0.7-5c-0.5-1-1.3-1.6-2.3-1.6
		c-1.1,0-1.8,0.5-2.3,1.5C552.5,594.7,552.2,596.4,552.2,598.7z"/>
	<path class="st2" d="M563.8,605.9c0-0.6,0.1-1,0.4-1.3c0.3-0.3,0.7-0.5,1.3-0.5c0.6,0,1,0.2,1.3,0.5c0.3,0.3,0.4,0.8,0.4,1.3
		c0,0.6-0.2,1-0.5,1.3c-0.3,0.3-0.7,0.5-1.3,0.5s-1-0.2-1.3-0.5C563.9,606.9,563.8,606.5,563.8,605.9z"/>
	<path class="st2" d="M581.6,597.5c0,3.4-0.7,5.9-2.1,7.6c-1.4,1.7-3.4,2.5-6.2,2.5c-1,0-1.8-0.1-2.3-0.2v-2.3
		c0.7,0.2,1.4,0.3,2.1,0.3c1.9,0,3.3-0.5,4.2-1.5c0.9-1,1.4-2.6,1.5-4.7h-0.1c-0.5,0.7-1,1.2-1.7,1.5s-1.4,0.5-2.3,0.5
		c-1.5,0-2.7-0.5-3.6-1.4s-1.3-2.3-1.3-3.9c0-1.8,0.5-3.2,1.5-4.3c1-1.1,2.4-1.6,4.1-1.6c1.2,0,2.3,0.3,3.2,0.9s1.6,1.5,2.1,2.6
		C581.3,594.5,581.6,595.9,581.6,597.5z M575.6,592.2c-1,0-1.7,0.3-2.2,0.9s-0.8,1.5-0.8,2.6c0,1,0.2,1.8,0.7,2.3
		c0.5,0.6,1.2,0.8,2.2,0.8c0.9,0,1.7-0.3,2.4-0.8c0.6-0.6,1-1.2,1-2c0-0.7-0.1-1.4-0.4-2c-0.3-0.6-0.7-1.1-1.1-1.4
		C576.7,592.4,576.2,592.2,575.6,592.2z"/>
	<path class="st2" d="M594.7,594.1c0,1.1-0.3,2-1,2.7c-0.6,0.7-1.5,1.2-2.7,1.5v0.1c1.4,0.2,2.4,0.6,3.1,1.3c0.7,0.7,1,1.6,1,2.7
		c0,1.7-0.6,2.9-1.8,3.8c-1.2,0.9-2.8,1.4-5,1.4c-1.9,0-3.5-0.3-4.8-0.9v-2.5c0.7,0.4,1.5,0.6,2.3,0.8c0.8,0.2,1.6,0.3,2.4,0.3
		c1.3,0,2.3-0.2,3-0.7c0.7-0.5,1-1.3,1-2.3c0-0.9-0.4-1.6-1.1-2c-0.7-0.4-1.9-0.6-3.4-0.6h-1.5v-2.3h1.5c2.8,0,4.1-1,4.1-2.9
		c0-0.7-0.2-1.3-0.7-1.7c-0.5-0.4-1.2-0.6-2.1-0.6c-0.7,0-1.3,0.1-1.9,0.3c-0.6,0.2-1.3,0.5-2.1,1.1l-1.4-1.9
		c1.6-1.2,3.4-1.7,5.5-1.7c1.7,0,3.1,0.4,4.1,1.1C594.3,591.7,594.7,592.8,594.7,594.1z"/>
	<path class="st2" d="M605,595.3c0,1.8-0.3,3.2-1,4.1c-0.6,0.9-1.6,1.4-2.9,1.4c-1.2,0-2.1-0.5-2.8-1.4c-0.7-0.9-1-2.3-1-4
		c0-3.6,1.3-5.4,3.8-5.4c1.2,0,2.2,0.5,2.9,1.4C604.7,592.2,605,593.5,605,595.3z M599.7,595.3c0,1.2,0.1,2,0.3,2.6
		c0.2,0.6,0.6,0.9,1.1,0.9c1,0,1.6-1.2,1.6-3.5s-0.5-3.5-1.6-3.5c-0.5,0-0.9,0.3-1.1,0.9C599.8,593.2,599.7,594.1,599.7,595.3z
		 M612.8,590.1l-9.6,17.3h-2.3l9.6-17.3H612.8z M616.3,602.2c0,1.8-0.3,3.2-1,4.1c-0.7,0.9-1.6,1.4-2.9,1.4c-1.2,0-2.1-0.5-2.8-1.4
		c-0.7-0.9-1-2.3-1-4c0-3.6,1.3-5.4,3.8-5.4c1.2,0,2.2,0.5,2.8,1.4C615.9,599.1,616.3,600.4,616.3,602.2z M611,602.2
		c0,1.2,0.1,2,0.3,2.6c0.2,0.6,0.6,0.9,1.1,0.9c1,0,1.5-1.2,1.5-3.5c0-2.3-0.5-3.5-1.5-3.5c-0.5,0-0.9,0.3-1.1,0.8
		C611.1,600.1,611,601,611,602.2z"/>
</g>
<g>
	<path class="st2" d="M387.3,693.6h-2.8l-11.6-17.8h-0.1c0.2,2.1,0.2,4,0.2,5.8v12.1h-2.3v-21.2h2.8l11.6,17.8h0.1
		c0-0.3-0.1-1.1-0.1-2.5s-0.1-2.4-0.1-3v-12.2h2.3V693.6z"/>
	<path class="st2" d="M393.1,693.6v-21.2h2.5v21.2H393.1z"/>
	<path class="st2" d="M408,693.6h-2.5v-19h-6.7v-2.2h15.9v2.2H408V693.6z"/>
	<path class="st2" d="M420.4,684.8v8.8h-2.5v-21.2h5.8c2.6,0,4.5,0.5,5.8,1.5c1.2,1,1.9,2.5,1.9,4.5c0,2.8-1.4,4.7-4.3,5.7l5.8,9.5
		h-2.9l-5.1-8.8H420.4z M420.4,682.7h3.4c1.7,0,3-0.3,3.8-1c0.8-0.7,1.2-1.7,1.2-3.1c0-1.4-0.4-2.4-1.2-3s-2.2-0.9-4-0.9h-3.2V682.7
		z"/>
	<path class="st2" d="M454.7,683c0,3.4-0.9,6.1-2.6,8c-1.7,1.9-4.1,2.9-7.2,2.9c-3.1,0-5.5-1-7.2-2.9c-1.7-1.9-2.5-4.6-2.5-8.1
		c0-3.5,0.9-6.1,2.6-8c1.7-1.9,4.1-2.9,7.3-2.9c3.1,0,5.4,1,7.1,2.9C453.9,676.9,454.7,679.6,454.7,683z M437.8,683
		c0,2.9,0.6,5.1,1.8,6.5s3,2.2,5.3,2.2c2.4,0,4.1-0.7,5.3-2.2s1.8-3.7,1.8-6.6c0-2.9-0.6-5-1.8-6.5c-1.2-1.5-3-2.2-5.3-2.2
		c-2.4,0-4.1,0.7-5.4,2.2C438.4,678,437.8,680.2,437.8,683z M442.9,670.3c0.5-0.6,1-1.3,1.5-2.2s1-1.6,1.3-2.2h2.9v0.3
		c-0.4,0.6-1.1,1.4-1.9,2.3c-0.8,0.9-1.6,1.6-2.2,2.1h-1.6V670.3z"/>
	<path class="st2" d="M468.8,682.5h7.2v10.3c-1.1,0.4-2.3,0.6-3.4,0.8s-2.5,0.3-4,0.3c-3.2,0-5.7-1-7.5-2.9c-1.8-1.9-2.7-4.6-2.7-8
		c0-2.2,0.4-4.1,1.3-5.8c0.9-1.7,2.2-2.9,3.8-3.8c1.7-0.9,3.6-1.3,5.9-1.3c2.3,0,4.4,0.4,6.3,1.2l-1,2.2c-1.9-0.8-3.8-1.2-5.5-1.2
		c-2.6,0-4.6,0.8-6.1,2.3c-1.5,1.5-2.2,3.7-2.2,6.4c0,2.9,0.7,5,2.1,6.5s3.5,2.2,6.2,2.2c1.5,0,2.9-0.2,4.3-0.5v-6.5h-4.8V682.5z"/>
	<path class="st2" d="M492.9,693.6h-11.8v-21.2h11.8v2.2h-9.4v6.8h8.8v2.2h-8.8v7.8h9.4V693.6z"/>
	<path class="st2" d="M514.2,693.6h-2.8l-11.6-17.8h-0.1c0.2,2.1,0.2,4,0.2,5.8v12.1h-2.3v-21.2h2.8l11.6,17.8h0.1
		c0-0.3-0.1-1.1-0.1-2.5c-0.1-1.4-0.1-2.4-0.1-3v-12.2h2.3V693.6z"/>
	<path class="st2" d="M538.5,683c0,3.4-0.9,6.1-2.6,8c-1.7,1.9-4.1,2.9-7.2,2.9c-3.1,0-5.5-1-7.2-2.9c-1.7-1.9-2.5-4.6-2.5-8.1
		c0-3.5,0.9-6.1,2.6-8c1.7-1.9,4.1-2.9,7.3-2.9c3.1,0,5.4,1,7.1,2.9C537.7,676.9,538.5,679.6,538.5,683z M521.6,683
		c0,2.9,0.6,5.1,1.8,6.5c1.2,1.5,3,2.2,5.3,2.2c2.4,0,4.1-0.7,5.3-2.2c1.2-1.5,1.8-3.7,1.8-6.6c0-2.9-0.6-5-1.8-6.5s-3-2.2-5.3-2.2
		c-2.4,0-4.1,0.7-5.4,2.2C522.2,678,521.6,680.2,521.6,683z"/>
	<path class="st2" d="M415.7,722.6l6.8-14.8h-9v-2.4h11.9v1.9l-6.8,15.3H415.7z"/>
	<path class="st2" d="M433.4,705.2c1.6,0,2.9,0.4,3.9,1.1c1,0.8,1.4,1.8,1.4,3c0,1.8-1.1,3.2-3.2,4.2c1.4,0.7,2.3,1.4,2.9,2.1
		c0.6,0.7,0.9,1.6,0.9,2.5c0,1.4-0.5,2.6-1.6,3.4c-1,0.9-2.5,1.3-4.2,1.3c-1.9,0-3.3-0.4-4.4-1.2c-1-0.8-1.5-1.9-1.5-3.4
		c0-1,0.3-1.8,0.8-2.6c0.5-0.8,1.4-1.4,2.6-2c-1.1-0.6-1.8-1.3-2.3-2c-0.4-0.7-0.7-1.5-0.7-2.4c0-1.3,0.5-2.2,1.5-3
		C430.6,705.5,431.8,705.2,433.4,705.2z M430.2,718.2c0,0.8,0.3,1.5,0.9,1.9c0.6,0.5,1.4,0.7,2.3,0.7c1,0,1.8-0.2,2.4-0.7
		c0.6-0.5,0.8-1.1,0.8-1.9c0-0.6-0.3-1.2-0.8-1.7c-0.5-0.5-1.3-1-2.4-1.5l-0.3-0.2c-1,0.5-1.8,1-2.2,1.5
		C430.4,716.8,430.2,717.5,430.2,718.2z M433.4,707.3c-0.8,0-1.4,0.2-1.9,0.6c-0.5,0.4-0.7,0.9-0.7,1.6c0,0.4,0.1,0.8,0.3,1.1
		c0.2,0.3,0.4,0.6,0.8,0.9s0.9,0.6,1.7,1c0.9-0.4,1.6-0.9,2-1.3c0.4-0.5,0.6-1,0.6-1.6c0-0.7-0.2-1.2-0.7-1.6
		C434.8,707.5,434.2,707.3,433.4,707.3z"/>
	<path class="st2" d="M441.9,721.2c0-0.6,0.1-1,0.4-1.3c0.3-0.3,0.7-0.5,1.3-0.5c0.6,0,1,0.2,1.3,0.5c0.3,0.3,0.4,0.8,0.4,1.3
		c0,0.6-0.2,1-0.5,1.3c-0.3,0.3-0.7,0.5-1.3,0.5c-0.6,0-1-0.2-1.3-0.5C442,722.2,441.9,721.7,441.9,721.2z"/>
	<path class="st2" d="M456.2,722.6h-2.8v-11.1c0-1.3,0-2.4,0.1-3.2c-0.2,0.2-0.4,0.4-0.7,0.6c-0.3,0.2-1.1,1-2.6,2.2l-1.4-1.8l5.1-4
		h2.3V722.6z"/>
	<path class="st2" d="M463.8,722.6l6.8-14.8h-9v-2.4h11.9v1.9l-6.8,15.3H463.8z"/>
	<path class="st2" d="M483.2,710.5c0,1.8-0.3,3.2-1,4.1c-0.6,0.9-1.6,1.4-2.9,1.4c-1.2,0-2.1-0.5-2.8-1.4c-0.7-0.9-1-2.3-1-4
		c0-3.6,1.3-5.4,3.8-5.4c1.2,0,2.2,0.5,2.9,1.4C482.8,707.5,483.2,708.8,483.2,710.5z M477.9,710.6c0,1.2,0.1,2,0.3,2.6
		c0.2,0.6,0.6,0.9,1.1,0.9c1,0,1.6-1.2,1.6-3.5s-0.5-3.5-1.6-3.5c-0.5,0-0.9,0.3-1.1,0.9C478,708.5,477.9,709.4,477.9,710.6z
		 M490.9,705.4l-9.6,17.3H479l9.6-17.3H490.9z M494.4,717.5c0,1.8-0.3,3.2-1,4.1c-0.7,0.9-1.6,1.4-2.9,1.4c-1.2,0-2.1-0.5-2.8-1.4
		c-0.7-0.9-1-2.3-1-4c0-3.6,1.3-5.4,3.8-5.4c1.2,0,2.2,0.5,2.8,1.4C494.1,714.4,494.4,715.7,494.4,717.5z M489.1,717.5
		c0,1.2,0.1,2,0.3,2.6c0.2,0.6,0.6,0.9,1.1,0.9c1,0,1.5-1.2,1.5-3.5c0-2.3-0.5-3.5-1.5-3.5c-0.5,0-0.9,0.3-1.1,0.8
		C489.2,715.4,489.1,716.3,489.1,717.5z"/>
</g>
<g>
	<path d="M258.8,240.6c0,5.9-1,10.3-2.9,13.2c-1.9,2.9-4.9,4.3-9,4.3c-3.9,0-6.9-1.5-8.9-4.4c-2-2.9-3-7.3-3-13c0-6,1-10.4,2.9-13.3
		c1.9-2.8,4.9-4.3,9-4.3c3.9,0,6.9,1.5,8.9,4.5C257.8,230.5,258.8,234.9,258.8,240.6z M242.2,240.6c0,4.2,0.4,7.2,1.1,9
		c0.7,1.8,1.9,2.7,3.6,2.7c1.7,0,2.9-0.9,3.6-2.7c0.7-1.8,1.1-4.8,1.1-8.9c0-4.2-0.4-7.2-1.1-9c-0.8-1.8-2-2.7-3.6-2.7
		c-1.7,0-2.9,0.9-3.6,2.7C242.5,233.5,242.2,236.4,242.2,240.6z"/>
	<path d="M263.2,254.3c0-1.3,0.3-2.3,1-3c0.7-0.7,1.7-1,3-1c1.3,0,2.3,0.3,3,1c0.7,0.7,1.1,1.7,1.1,2.9c0,1.2-0.4,2.2-1.1,2.9
		c-0.7,0.7-1.7,1.1-3,1.1c-1.3,0-2.3-0.3-3-1S263.2,255.5,263.2,254.3z"/>
	<path d="M299.6,240.6c0,5.9-1,10.3-2.9,13.2c-1.9,2.9-4.9,4.3-9,4.3c-3.9,0-6.9-1.5-8.9-4.4c-2-2.9-3-7.3-3-13c0-6,1-10.4,2.9-13.3
		c1.9-2.8,4.9-4.3,9-4.3c3.9,0,6.9,1.5,8.9,4.5C298.6,230.5,299.6,234.9,299.6,240.6z M282.9,240.6c0,4.2,0.4,7.2,1.1,9
		c0.7,1.8,1.9,2.7,3.6,2.7c1.7,0,2.9-0.9,3.6-2.7c0.7-1.8,1.1-4.8,1.1-8.9c0-4.2-0.4-7.2-1.1-9c-0.8-1.8-2-2.7-3.6-2.7
		c-1.7,0-2.9,0.9-3.6,2.7C283.3,233.5,282.9,236.4,282.9,240.6z"/>
	<path d="M306.5,257.6l12.8-27.9h-16.8v-6h24.4v4.5l-12.9,29.4H306.5z"/>
	<path d="M346,233.8c0,3.6-0.7,6.2-2.1,8s-3.4,2.7-6.1,2.7c-2.6,0-4.5-0.9-5.9-2.8c-1.4-1.8-2.1-4.5-2.1-8c0-7.1,2.7-10.6,8-10.6
		c2.6,0,4.6,0.9,6,2.8C345.3,227.7,346,230.4,346,233.8z M335.8,233.8c0,2,0.2,3.4,0.5,4.4s0.9,1.5,1.7,1.5c1.5,0,2.2-2,2.2-5.9
		c0-3.9-0.7-5.8-2.2-5.8c-0.8,0-1.3,0.5-1.7,1.4S335.8,231.8,335.8,233.8z M362,223.6l-18.9,34h-5.6l18.9-34H362z M369.9,247.3
		c0,3.5-0.7,6.2-2.1,8c-1.4,1.8-3.4,2.7-6.1,2.7c-2.6,0-4.5-0.9-5.9-2.8c-1.4-1.8-2.1-4.5-2.1-7.9c0-7.1,2.7-10.6,8-10.6
		c2.6,0,4.6,0.9,6,2.8C369.2,241.3,369.9,243.9,369.9,247.3z M359.6,247.4c0,2,0.2,3.4,0.5,4.4c0.3,1,0.9,1.5,1.7,1.5
		c1.5,0,2.2-2,2.2-5.9c0-3.9-0.7-5.8-2.2-5.8c-0.8,0-1.3,0.5-1.7,1.4S359.6,245.4,359.6,247.4z"/>
	<path d="M247.9,282.2h7.2v10.3c-1.1,0.4-2.3,0.6-3.4,0.8c-1.2,0.2-2.5,0.3-4,0.3c-3.2,0-5.7-1-7.5-2.9c-1.8-1.9-2.7-4.6-2.7-8
		c0-2.2,0.4-4.1,1.3-5.8c0.9-1.7,2.2-2.9,3.8-3.8c1.7-0.9,3.6-1.3,5.9-1.3c2.3,0,4.4,0.4,6.3,1.2l-1,2.2c-1.9-0.8-3.8-1.2-5.5-1.2
		c-2.6,0-4.6,0.8-6.1,2.3c-1.5,1.5-2.2,3.7-2.2,6.4c0,2.9,0.7,5,2.1,6.5c1.4,1.5,3.5,2.2,6.2,2.2c1.5,0,2.9-0.2,4.3-0.5v-6.5h-4.8
		V282.2z"/>
	<path d="M273.6,293.3l-2.6-6.8h-8.5l-2.6,6.8h-2.5l8.4-21.3h2.1l8.4,21.3H273.6z M270.2,284.3l-2.5-6.6c-0.3-0.8-0.6-1.9-1-3.1
		c-0.2,0.9-0.5,2-0.9,3.1l-2.5,6.6H270.2z"/>
	<path d="M291.1,287.7c0,1.9-0.7,3.3-2,4.4s-3.2,1.6-5.5,1.6c-2.5,0-4.5-0.3-5.8-1v-2.4c0.9,0.4,1.8,0.7,2.8,0.9
		c1,0.2,2,0.3,3.1,0.3c1.6,0,2.9-0.3,3.7-0.9c0.8-0.6,1.2-1.5,1.2-2.6c0-0.7-0.1-1.3-0.4-1.8c-0.3-0.5-0.8-0.9-1.5-1.3
		c-0.7-0.4-1.7-0.8-3.2-1.4c-2-0.7-3.4-1.5-4.2-2.5c-0.8-1-1.3-2.2-1.3-3.8c0-1.6,0.6-2.9,1.8-3.9c1.2-1,2.9-1.5,4.9-1.5
		c2.1,0,4.1,0.4,5.8,1.2l-0.8,2.1c-1.8-0.7-3.5-1.1-5.1-1.1c-1.3,0-2.3,0.3-3.1,0.8c-0.7,0.6-1.1,1.3-1.1,2.3c0,0.7,0.1,1.3,0.4,1.8
		c0.3,0.5,0.7,0.9,1.4,1.3s1.6,0.8,3,1.3c2.2,0.8,3.8,1.6,4.6,2.6C290.6,285,291.1,286.2,291.1,287.7z"/>
	<path d="M307.2,293.3h-11.8v-21.2h11.8v2.2h-9.4v6.8h8.8v2.2h-8.8v7.8h9.4V293.3z"/>
	<path d="M323.9,287.7c0,1.9-0.7,3.3-2,4.4s-3.2,1.6-5.5,1.6c-2.5,0-4.5-0.3-5.8-1v-2.4c0.9,0.4,1.8,0.7,2.8,0.9
		c1,0.2,2,0.3,3.1,0.3c1.6,0,2.9-0.3,3.7-0.9c0.8-0.6,1.2-1.5,1.2-2.6c0-0.7-0.1-1.3-0.4-1.8c-0.3-0.5-0.8-0.9-1.5-1.3
		c-0.7-0.4-1.7-0.8-3.2-1.4c-2-0.7-3.4-1.5-4.2-2.5c-0.8-1-1.3-2.2-1.3-3.8c0-1.6,0.6-2.9,1.8-3.9c1.2-1,2.9-1.5,4.9-1.5
		c2.1,0,4.1,0.4,5.8,1.2l-0.8,2.1c-1.8-0.7-3.5-1.1-5.1-1.1c-1.3,0-2.3,0.3-3.1,0.8c-0.7,0.6-1.1,1.3-1.1,2.3c0,0.7,0.1,1.3,0.4,1.8
		c0.3,0.5,0.7,0.9,1.4,1.3s1.6,0.8,3,1.3c2.2,0.8,3.8,1.6,4.6,2.6C323.5,285,323.9,286.2,323.9,287.7z"/>
	<path d="M353,282.5c0,3.5-1,6.2-2.9,8c-1.9,1.9-4.6,2.8-8.2,2.8H336v-21.2h6.5c3.3,0,5.9,0.9,7.7,2.7
		C352,276.6,353,279.2,353,282.5z M350.3,282.6c0-2.8-0.7-4.9-2.1-6.3s-3.5-2.1-6.2-2.1h-3.6v17h3c2.9,0,5.2-0.7,6.6-2.2
		C349.6,287.6,350.3,285.4,350.3,282.6z"/>
	<path d="M369.5,293.3h-11.8v-21.2h11.8v2.2h-9.4v6.8h8.8v2.2h-8.8v7.8h9.4V293.3z"/>
	<path d="M279.2,329h-11.8v-21.2h11.8v2.2h-9.4v6.8h8.8v2.2h-8.8v7.8h9.4V329z"/>
	<path d="M286.4,329h-2.5v-21.2h11.8v2.2h-9.4v7.8h8.8v2.2h-8.8V329z"/>
	<path d="M311.1,329h-11.8v-21.2h11.8v2.2h-9.4v6.8h8.8v2.2h-8.8v7.8h9.4V329z"/>
	<path d="M324.9,309.7c-2.3,0-4.2,0.8-5.5,2.3c-1.4,1.6-2,3.7-2,6.4c0,2.8,0.7,4.9,2,6.4c1.3,1.5,3.2,2.3,5.6,2.3
		c1.5,0,3.2-0.3,5.1-0.8v2.2c-1.5,0.6-3.3,0.8-5.4,0.8c-3.1,0-5.5-0.9-7.2-2.8s-2.5-4.6-2.5-8.1c0-2.2,0.4-4.1,1.2-5.8
		c0.8-1.6,2-2.9,3.5-3.8c1.5-0.9,3.4-1.3,5.5-1.3c2.2,0,4.2,0.4,5.8,1.2l-1,2.1C328.2,310.1,326.5,309.7,324.9,309.7z"/>
	<path d="M341.1,329h-2.5v-19H332v-2.2h15.9v2.2h-6.7V329z"/>
	<path d="M369.5,318.4c0,3.4-0.9,6.1-2.6,8c-1.7,1.9-4.1,2.9-7.2,2.9c-3.1,0-5.5-1-7.2-2.9c-1.7-1.9-2.5-4.6-2.5-8.1
		c0-3.5,0.9-6.1,2.6-8c1.7-1.9,4.1-2.9,7.3-2.9c3.1,0,5.4,1,7.1,2.9C368.6,312.3,369.5,315,369.5,318.4z M352.6,318.4
		c0,2.9,0.6,5.1,1.8,6.5c1.2,1.5,3,2.2,5.3,2.2c2.4,0,4.1-0.7,5.3-2.2c1.2-1.5,1.8-3.7,1.8-6.6c0-2.9-0.6-5-1.8-6.5
		c-1.2-1.5-3-2.2-5.3-2.2c-2.4,0-4.1,0.7-5.4,2.2C353.2,313.4,352.6,315.5,352.6,318.4z"/>
	<path d="M169.8,364.7v-21.2h2.5v21.2H169.8z"/>
	<path d="M194.7,364.7h-2.8l-11.6-17.8h-0.1c0.2,2.1,0.2,4,0.2,5.8v12.1h-2.3v-21.2h2.8l11.6,17.8h0.1c0-0.3-0.1-1.1-0.1-2.5
		c-0.1-1.4-0.1-2.4-0.1-3v-12.2h2.3V364.7z"/>
	<path d="M212.7,343.5h2.7l-7.7,21.2h-2.4l-7.6-21.2h2.6l4.9,13.7c0.6,1.6,1,3.1,1.3,4.6c0.3-1.6,0.8-3.1,1.4-4.7L212.7,343.5z"/>
	<path d="M230.1,364.7h-11.8v-21.2h11.8v2.2h-9.4v6.8h8.8v2.2h-8.8v7.8h9.4V364.7z"/>
	<path d="M237.3,355.9v8.8h-2.5v-21.2h5.8c2.6,0,4.5,0.5,5.8,1.5c1.2,1,1.9,2.5,1.9,4.5c0,2.8-1.4,4.7-4.3,5.7l5.8,9.5h-2.9
		l-5.1-8.8H237.3z M237.3,353.8h3.4c1.7,0,3-0.3,3.8-1c0.8-0.7,1.2-1.7,1.2-3.1c0-1.4-0.4-2.4-1.2-3s-2.2-0.9-4-0.9h-3.2V353.8z"/>
	<path d="M269.8,364.7H267l-11.6-17.8h-0.1c0.2,2.1,0.2,4,0.2,5.8v12.1h-2.3v-21.2h2.8l11.6,17.8h0.1c0-0.3-0.1-1.1-0.1-2.5
		c-0.1-1.4-0.1-2.4-0.1-3v-12.2h2.3V364.7z"/>
	<path d="M289,364.7l-2.6-6.8h-8.5l-2.6,6.8h-2.5l8.4-21.3h2.1l8.4,21.3H289z M285.6,355.7l-2.5-6.6c-0.3-0.8-0.6-1.9-1-3.1
		c-0.2,0.9-0.5,2-0.9,3.1l-2.5,6.6H285.6z"/>
	<path d="M311.4,353.9c0,3.5-1,6.2-2.9,8c-1.9,1.9-4.6,2.8-8.2,2.8h-5.9v-21.2h6.5c3.3,0,5.9,0.9,7.7,2.7
		C310.5,348.1,311.4,350.6,311.4,353.9z M308.8,354c0-2.8-0.7-4.9-2.1-6.3s-3.5-2.1-6.2-2.1h-3.6v17h3c2.9,0,5.2-0.7,6.6-2.2
		C308,359,308.8,356.8,308.8,354z"/>
	<path d="M328,364.7h-11.8v-21.2H328v2.2h-9.4v6.8h8.8v2.2h-8.8v7.8h9.4V364.7z"/>
	<path d="M335.1,355.9v8.8h-2.5v-21.2h5.8c2.6,0,4.5,0.5,5.8,1.5c1.2,1,1.9,2.5,1.9,4.5c0,2.8-1.4,4.7-4.3,5.7l5.8,9.5h-2.9
		l-5.1-8.8H335.1z M335.1,353.8h3.4c1.7,0,3-0.3,3.8-1c0.8-0.7,1.2-1.7,1.2-3.1c0-1.4-0.4-2.4-1.2-3s-2.2-0.9-4-0.9h-3.2V353.8z"/>
	<path d="M369.5,354.1c0,3.4-0.9,6.1-2.6,8c-1.7,1.9-4.1,2.9-7.2,2.9c-3.1,0-5.5-1-7.2-2.9c-1.7-1.9-2.5-4.6-2.5-8.1
		c0-3.5,0.9-6.1,2.6-8c1.7-1.9,4.1-2.9,7.3-2.9c3.1,0,5.4,1,7.1,2.9C368.6,348,369.5,350.7,369.5,354.1z M352.6,354.1
		c0,2.9,0.6,5.1,1.8,6.5c1.2,1.5,3,2.2,5.3,2.2c2.4,0,4.1-0.7,5.3-2.2c1.2-1.5,1.8-3.7,1.8-6.6c0-2.9-0.6-5-1.8-6.5
		c-1.2-1.5-3-2.2-5.3-2.2c-2.4,0-4.1,0.7-5.4,2.2C353.2,349.1,352.6,351.2,352.6,354.1z"/>
</g>
<g>
	<path d="M492.2,248.5l-5.8-15.1h-0.1c0.1,1.2,0.2,2.6,0.2,4.3v10.9h-1.8v-17.1h3l5.4,14.1h0.1l5.5-14.1h3v17.1h-2v-11
		c0-1.3,0.1-2.6,0.2-4.1h-0.1l-5.8,15.1H492.2z"/>
	<path d="M515.7,248.5h-9.5v-17.1h9.5v1.8h-7.5v5.5h7.1v1.8h-7.1v6.3h7.5V248.5z"/>
	<path d="M524.8,248.5h-2v-15.3h-5.4v-1.8h12.8v1.8h-5.4V248.5z"/>
	<path d="M543.5,248.5l-2.1-5.4h-6.8l-2.1,5.4h-2l6.8-17.2h1.7l6.7,17.2H543.5z M540.7,241.3l-2-5.3c-0.3-0.7-0.5-1.5-0.8-2.5
		c-0.2,0.7-0.4,1.6-0.7,2.5l-2,5.3H540.7z"/>
	<path d="M561.2,248.5H559l-9.3-14.3h-0.1c0.1,1.7,0.2,3.2,0.2,4.6v9.7h-1.8v-17.1h2.2l9.3,14.3h0.1c0-0.2-0.1-0.9-0.1-2
		s-0.1-2-0.1-2.4v-9.8h1.9V248.5z"/>
	<path d="M580.8,239.9c0,2.7-0.7,4.9-2.1,6.4s-3.3,2.3-5.8,2.3c-2.5,0-4.5-0.8-5.8-2.3s-2.1-3.7-2.1-6.5c0-2.8,0.7-4.9,2.1-6.5
		c1.4-1.5,3.3-2.3,5.8-2.3c2.5,0,4.4,0.8,5.7,2.3C580.1,235,580.8,237.2,580.8,239.9z M567.1,239.9c0,2.3,0.5,4.1,1.5,5.3
		c1,1.2,2.4,1.8,4.3,1.8c1.9,0,3.3-0.6,4.3-1.8c1-1.2,1.4-2.9,1.4-5.3c0-2.3-0.5-4-1.4-5.2c-1-1.2-2.4-1.8-4.3-1.8
		c-1.9,0-3.3,0.6-4.3,1.8C567.6,235.9,567.1,237.7,567.1,239.9z"/>
	<path d="M597.8,234.2c-1.4,0-2.4,0.5-3.2,1.5c-0.7,1-1.1,2.5-1.1,4.3c0,3.8,1.4,5.7,4.3,5.7c1.2,0,2.7-0.3,4.4-0.9v3
		c-1.4,0.6-3,0.9-4.7,0.9c-2.5,0-4.4-0.8-5.7-2.3c-1.3-1.5-2-3.7-2-6.5c0-1.8,0.3-3.3,1-4.7s1.6-2.4,2.8-3.1
		c1.2-0.7,2.6-1.1,4.3-1.1c1.7,0,3.3,0.4,5,1.2l-1.2,2.9c-0.6-0.3-1.3-0.6-1.9-0.8S598.5,234.2,597.8,234.2z"/>
	<path d="M619.8,248.5h-3.6v-7.4h-6.8v7.4h-3.6v-17.1h3.6v6.7h6.8v-6.7h3.6V248.5z"/>
	<path d="M631.9,245.8h-1.5v2.7h-2.6v-2.7h-5.5V244l5.6-8.3h2.5v8.1h1.5V245.8z M627.8,243.7v-2.2c0-0.4,0-0.9,0-1.6
		s0.1-1.1,0.1-1.2h-0.1c-0.2,0.5-0.5,0.9-0.8,1.4l-2.3,3.5H627.8z"/>
	<path d="M498.2,268.5c0,2.8-0.8,5-2.3,6.5c-1.5,1.5-3.7,2.2-6.6,2.2h-4.7v-17.1h5.2c2.7,0,4.7,0.7,6.2,2.2
		C497.5,263.8,498.2,265.9,498.2,268.5z M496.1,268.6c0-2.2-0.6-3.9-1.7-5c-1.1-1.1-2.8-1.7-5-1.7h-2.9v13.6h2.4
		c2.4,0,4.1-0.6,5.3-1.7C495.5,272.6,496.1,270.9,496.1,268.6z"/>
	<path d="M502,277.2v-17.1h2v17.1H502z"/>
	<path d="M523.5,268.6c0,2.7-0.7,4.9-2.1,6.4s-3.3,2.3-5.8,2.3c-2.5,0-4.5-0.8-5.8-2.3s-2.1-3.7-2.1-6.5c0-2.8,0.7-4.9,2.1-6.5
		c1.4-1.5,3.3-2.3,5.8-2.3c2.5,0,4.4,0.8,5.7,2.3C522.8,263.8,523.5,265.9,523.5,268.6z M509.9,268.6c0,2.3,0.5,4.1,1.5,5.3
		c1,1.2,2.4,1.8,4.3,1.8c1.9,0,3.3-0.6,4.3-1.8c1-1.2,1.4-2.9,1.4-5.3c0-2.3-0.5-4-1.4-5.2c-1-1.2-2.4-1.8-4.3-1.8
		c-1.9,0-3.3,0.6-4.3,1.8C510.4,264.6,509.9,266.4,509.9,268.6z M514.1,258.5c0.4-0.5,0.8-1.1,1.2-1.8c0.4-0.7,0.8-1.3,1-1.8h2.4
		v0.2c-0.3,0.5-0.9,1.1-1.5,1.9c-0.7,0.7-1.3,1.3-1.8,1.7h-1.3V258.5z"/>
	<path d="M538.7,277.2h-2.3l-4.6-7.5l-4.7,7.5h-2.1l5.7-8.9l-5.3-8.2h2.2l4.2,6.8l4.3-6.8h2.1l-5.3,8.1L538.7,277.2z"/>
	<path d="M541.2,277.2v-17.1h2v17.1H541.2z"/>
	<path d="M561.5,268.5c0,2.8-0.8,5-2.3,6.5c-1.5,1.5-3.7,2.2-6.6,2.2h-4.7v-17.1h5.2c2.7,0,4.7,0.7,6.2,2.2
		C560.7,263.8,561.5,265.9,561.5,268.5z M559.4,268.6c0-2.2-0.6-3.9-1.7-5c-1.1-1.1-2.8-1.7-5-1.7h-2.9v13.6h2.4
		c2.4,0,4.1-0.6,5.3-1.7C558.8,272.6,559.4,270.9,559.4,268.6z"/>
	<path d="M580.1,268.6c0,2.7-0.7,4.9-2.1,6.4s-3.3,2.3-5.8,2.3c-2.5,0-4.5-0.8-5.8-2.3s-2.1-3.7-2.1-6.5c0-2.8,0.7-4.9,2.1-6.5
		c1.4-1.5,3.3-2.3,5.8-2.3c2.5,0,4.4,0.8,5.7,2.3C579.4,263.8,580.1,265.9,580.1,268.6z M566.5,268.6c0,2.3,0.5,4.1,1.5,5.3
		c1,1.2,2.4,1.8,4.3,1.8c1.9,0,3.3-0.6,4.3-1.8c1-1.2,1.4-2.9,1.4-5.3c0-2.3-0.5-4-1.4-5.2c-1-1.2-2.4-1.8-4.3-1.8
		c-1.9,0-3.3,0.6-4.3,1.8C567,264.6,566.5,266.4,566.5,268.6z"/>
	<path d="M603.8,268.5c0,2.8-0.8,5-2.3,6.5c-1.5,1.5-3.7,2.2-6.6,2.2h-4.7v-17.1h5.2c2.7,0,4.7,0.7,6.2,2.2
		C603,263.8,603.8,265.9,603.8,268.5z M601.7,268.6c0-2.2-0.6-3.9-1.7-5c-1.1-1.1-2.8-1.7-5-1.7h-2.9v13.6h2.4
		c2.4,0,4.1-0.6,5.3-1.7C601.1,272.6,601.7,270.9,601.7,268.6z"/>
	<path d="M617.1,277.2h-9.5v-17.1h9.5v1.8h-7.5v5.5h7.1v1.8h-7.1v6.3h7.5V277.2z"/>
	<path d="M634.4,261.7c-1.9,0-3.4,0.6-4.4,1.9c-1.1,1.2-1.6,3-1.6,5.1c0,2.2,0.5,4,1.6,5.2c1,1.2,2.5,1.8,4.5,1.8
		c1.2,0,2.6-0.2,4.1-0.6v1.7c-1.2,0.4-2.6,0.7-4.4,0.7c-2.5,0-4.5-0.8-5.8-2.3c-1.4-1.5-2.1-3.7-2.1-6.5c0-1.8,0.3-3.3,1-4.6
		s1.6-2.3,2.9-3.1c1.2-0.7,2.7-1.1,4.4-1.1c1.8,0,3.4,0.3,4.7,1l-0.8,1.7C637,262,635.7,261.7,634.4,261.7z"/>
	<path d="M652.9,277.2l-2.1-5.4h-6.8l-2.1,5.4h-2l6.8-17.2h1.7l6.7,17.2H652.9z M650.2,270l-2-5.3c-0.3-0.7-0.5-1.5-0.8-2.5
		c-0.2,0.7-0.4,1.6-0.7,2.5l-2,5.3H650.2z"/>
	<path d="M659.3,270.1v7.1h-2v-17.1h4.7c2.1,0,3.6,0.4,4.6,1.2s1.5,2,1.5,3.6c0,2.3-1.1,3.8-3.4,4.6l4.6,7.7H667l-4.1-7.1H659.3z
		 M659.3,268.4h2.7c1.4,0,2.4-0.3,3.1-0.8c0.7-0.6,1-1.4,1-2.5c0-1.1-0.3-1.9-1-2.4s-1.7-0.7-3.2-0.7h-2.6V268.4z"/>
	<path d="M672.1,260.1h4.8c2.3,0,3.9,0.3,4.9,1c1,0.7,1.5,1.7,1.5,3.2c0,1-0.3,1.8-0.8,2.5c-0.6,0.7-1.4,1.1-2.5,1.3v0.1
		c2.6,0.4,3.9,1.8,3.9,4.1c0,1.5-0.5,2.7-1.5,3.6s-2.5,1.3-4.3,1.3h-6V260.1z M674.1,267.4h3.3c1.4,0,2.4-0.2,3-0.7s0.9-1.2,0.9-2.2
		c0-1-0.3-1.6-1-2.1c-0.7-0.4-1.8-0.6-3.3-0.6h-2.9V267.4z M674.1,269.1v6.4h3.6c1.4,0,2.4-0.3,3.1-0.8c0.7-0.5,1-1.4,1-2.5
		c0-1.1-0.4-1.8-1.1-2.3s-1.8-0.7-3.3-0.7H674.1z"/>
	<path d="M702.4,268.6c0,2.7-0.7,4.9-2.1,6.4s-3.3,2.3-5.8,2.3c-2.5,0-4.5-0.8-5.8-2.3s-2.1-3.7-2.1-6.5c0-2.8,0.7-4.9,2.1-6.5
		c1.4-1.5,3.3-2.3,5.8-2.3c2.5,0,4.4,0.8,5.7,2.3C701.8,263.8,702.4,265.9,702.4,268.6z M688.8,268.6c0,2.3,0.5,4.1,1.5,5.3
		c1,1.2,2.4,1.8,4.3,1.8c1.9,0,3.3-0.6,4.3-1.8c1-1.2,1.4-2.9,1.4-5.3c0-2.3-0.5-4-1.4-5.2c-1-1.2-2.4-1.8-4.3-1.8
		c-1.9,0-3.3,0.6-4.3,1.8C689.3,264.6,688.8,266.4,688.8,268.6z"/>
	<path d="M719.6,277.2h-2.3l-9.3-14.3h-0.1c0.1,1.7,0.2,3.2,0.2,4.6v9.7h-1.8v-17.1h2.2l9.3,14.3h0.1c0-0.2-0.1-0.9-0.1-2
		s-0.1-2-0.1-2.4v-9.8h1.9V277.2z"/>
	<path d="M739.1,268.6c0,2.7-0.7,4.9-2.1,6.4s-3.3,2.3-5.8,2.3c-2.5,0-4.5-0.8-5.8-2.3s-2.1-3.7-2.1-6.5c0-2.8,0.7-4.9,2.1-6.5
		c1.4-1.5,3.3-2.3,5.8-2.3c2.5,0,4.4,0.8,5.7,2.3C738.4,263.8,739.1,265.9,739.1,268.6z M725.5,268.6c0,2.3,0.5,4.1,1.5,5.3
		c1,1.2,2.4,1.8,4.3,1.8c1.9,0,3.3-0.6,4.3-1.8c1-1.2,1.4-2.9,1.4-5.3c0-2.3-0.5-4-1.4-5.2c-1-1.2-2.4-1.8-4.3-1.8
		c-1.9,0-3.3,0.6-4.3,1.8C726,264.6,725.5,266.4,725.5,268.6z"/>
	<path d="M756.2,262.9c-1.4,0-2.4,0.5-3.2,1.5c-0.7,1-1.1,2.5-1.1,4.3c0,3.8,1.4,5.7,4.3,5.7c1.2,0,2.7-0.3,4.4-0.9v3
		c-1.4,0.6-3,0.9-4.7,0.9c-2.5,0-4.4-0.8-5.7-2.3c-1.3-1.5-2-3.7-2-6.5c0-1.8,0.3-3.3,1-4.7s1.6-2.4,2.8-3.1
		c1.2-0.7,2.6-1.1,4.3-1.1c1.7,0,3.3,0.4,5,1.2L760,264c-0.6-0.3-1.3-0.6-1.9-0.8S756.8,262.9,756.2,262.9z"/>
	<path d="M779.7,268.6c0,2.8-0.7,5-2.1,6.5c-1.4,1.5-3.4,2.3-6,2.3c-2.6,0-4.6-0.8-6-2.3c-1.4-1.5-2.1-3.7-2.1-6.5
		c0-2.8,0.7-5,2.1-6.5s3.4-2.2,6-2.2s4.6,0.8,6,2.3C779,263.6,779.7,265.8,779.7,268.6z M767.2,268.6c0,1.9,0.4,3.3,1.1,4.3
		c0.7,1,1.8,1.4,3.2,1.4c2.9,0,4.3-1.9,4.3-5.8c0-3.8-1.4-5.8-4.3-5.8c-1.4,0-2.5,0.5-3.3,1.5C767.6,265.3,767.2,266.7,767.2,268.6z
		"/>
	<path d="M790.8,277.2h-9v-1.9l3.2-3.3c1-1,1.6-1.7,1.9-2c0.3-0.4,0.5-0.7,0.6-1s0.2-0.7,0.2-1c0-0.5-0.1-0.9-0.4-1.1
		c-0.3-0.3-0.7-0.4-1.1-0.4c-0.5,0-1,0.1-1.4,0.3c-0.5,0.2-1,0.6-1.5,1l-1.5-1.7c0.6-0.5,1.2-0.9,1.6-1.1c0.4-0.2,0.9-0.4,1.4-0.5
		c0.5-0.1,1-0.2,1.6-0.2c0.8,0,1.5,0.1,2.1,0.4s1.1,0.7,1.4,1.2c0.3,0.5,0.5,1.1,0.5,1.8c0,0.6-0.1,1.1-0.3,1.7
		c-0.2,0.5-0.5,1-1,1.6c-0.4,0.5-1.2,1.3-2.3,2.3l-1.6,1.6v0.1h5.6V277.2z"/>
	<path d="M499.4,297.4c0,2.7-0.7,4.9-2.1,6.4s-3.3,2.3-5.8,2.3c-2.5,0-4.5-0.8-5.8-2.3s-2.1-3.7-2.1-6.5c0-2.8,0.7-4.9,2.1-6.5
		c1.4-1.5,3.3-2.3,5.8-2.3c2.5,0,4.4,0.8,5.7,2.3C498.7,292.5,499.4,294.6,499.4,297.4z M485.8,297.4c0,2.3,0.5,4.1,1.5,5.3
		c1,1.2,2.4,1.8,4.3,1.8c1.9,0,3.3-0.6,4.3-1.8c1-1.2,1.4-2.9,1.4-5.3c0-2.3-0.5-4-1.4-5.2c-1-1.2-2.4-1.8-4.3-1.8
		c-1.9,0-3.3,0.6-4.3,1.8C486.3,293.3,485.8,295.1,485.8,297.4z M489.9,287.2c0.4-0.5,0.8-1.1,1.2-1.8c0.4-0.7,0.8-1.3,1-1.8h2.4
		v0.2c-0.3,0.5-0.9,1.1-1.5,1.9c-0.7,0.7-1.3,1.3-1.8,1.7h-1.3V287.2z"/>
	<path d="M514.6,305.9h-2.3l-4.6-7.5l-4.7,7.5H501l5.7-8.9l-5.3-8.2h2.2l4.2,6.8l4.3-6.8h2.1l-5.3,8.1L514.6,305.9z"/>
	<path d="M517,305.9v-17.1h2v17.1H517z"/>
	<path d="M537.3,297.2c0,2.8-0.8,5-2.3,6.5c-1.5,1.5-3.7,2.2-6.6,2.2h-4.7v-17.1h5.2c2.7,0,4.7,0.7,6.2,2.2
		C536.6,292.5,537.3,294.6,537.3,297.2z M535.2,297.3c0-2.2-0.6-3.9-1.7-5c-1.1-1.1-2.8-1.7-5-1.7h-2.9v13.6h2.4
		c2.4,0,4.1-0.6,5.3-1.7C534.7,301.3,535.2,299.6,535.2,297.3z"/>
	<path d="M556,297.4c0,2.7-0.7,4.9-2.1,6.4s-3.3,2.3-5.8,2.3c-2.5,0-4.5-0.8-5.8-2.3s-2.1-3.7-2.1-6.5c0-2.8,0.7-4.9,2.1-6.5
		c1.4-1.5,3.3-2.3,5.8-2.3c2.5,0,4.4,0.8,5.7,2.3C555.3,292.5,556,294.6,556,297.4z M542.4,297.4c0,2.3,0.5,4.1,1.5,5.3
		c1,1.2,2.4,1.8,4.3,1.8c1.9,0,3.3-0.6,4.3-1.8c1-1.2,1.4-2.9,1.4-5.3c0-2.3-0.5-4-1.4-5.2c-1-1.2-2.4-1.8-4.3-1.8
		c-1.9,0-3.3,0.6-4.3,1.8C542.9,293.3,542.4,295.1,542.4,297.4z"/>
	<path d="M579.6,297.2c0,2.8-0.8,5-2.3,6.5c-1.5,1.5-3.7,2.2-6.6,2.2H566v-17.1h5.2c2.7,0,4.7,0.7,6.2,2.2
		C578.9,292.5,579.6,294.6,579.6,297.2z M577.5,297.3c0-2.2-0.6-3.9-1.7-5c-1.1-1.1-2.8-1.7-5-1.7H568v13.6h2.4
		c2.4,0,4.1-0.6,5.3-1.7C576.9,301.3,577.5,299.6,577.5,297.3z"/>
	<path d="M593,305.9h-9.5v-17.1h9.5v1.8h-7.5v5.5h7.1v1.8h-7.1v6.3h7.5V305.9z"/>
	<path d="M616.3,305.9H614l-9.3-14.3h-0.1c0.1,1.7,0.2,3.2,0.2,4.6v9.7H603v-17.1h2.2l9.3,14.3h0.1c0-0.2-0.1-0.9-0.1-2
		s-0.1-2-0.1-2.4v-9.8h1.9V305.9z"/>
	<path d="M621,305.9v-17.1h2v17.1H621z"/>
	<path d="M632.9,305.9h-2v-15.3h-5.4v-1.8h12.8v1.8h-5.4V305.9z"/>
	<path d="M642.9,298.8v7.1h-2v-17.1h4.7c2.1,0,3.6,0.4,4.6,1.2s1.5,2,1.5,3.6c0,2.3-1.1,3.8-3.4,4.6l4.6,7.7h-2.3l-4.1-7.1H642.9z
		 M642.9,297.1h2.7c1.4,0,2.4-0.3,3.1-0.8c0.7-0.6,1-1.4,1-2.5c0-1.1-0.3-1.9-1-2.4s-1.7-0.7-3.2-0.7h-2.6V297.1z"/>
	<path d="M670.5,297.4c0,2.7-0.7,4.9-2.1,6.4s-3.3,2.3-5.8,2.3c-2.5,0-4.5-0.8-5.8-2.3s-2.1-3.7-2.1-6.5c0-2.8,0.7-4.9,2.1-6.5
		c1.4-1.5,3.3-2.3,5.8-2.3c2.5,0,4.4,0.8,5.7,2.3C669.8,292.5,670.5,294.6,670.5,297.4z M656.9,297.4c0,2.3,0.5,4.1,1.5,5.3
		c1,1.2,2.4,1.8,4.3,1.8c1.9,0,3.3-0.6,4.3-1.8c1-1.2,1.4-2.9,1.4-5.3c0-2.3-0.5-4-1.4-5.2c-1-1.2-2.4-1.8-4.3-1.8
		c-1.9,0-3.3,0.6-4.3,1.8C657.4,293.3,656.9,295.1,656.9,297.4z M661.1,287.2c0.4-0.5,0.8-1.1,1.2-1.8c0.4-0.7,0.8-1.3,1-1.8h2.4
		v0.2c-0.3,0.5-0.9,1.1-1.5,1.9c-0.7,0.7-1.3,1.3-1.8,1.7h-1.3V287.2z"/>
	<path d="M681.9,297h5.8v8.3c-0.9,0.3-1.8,0.5-2.8,0.7s-2,0.2-3.2,0.2c-2.6,0-4.6-0.8-6-2.3c-1.4-1.5-2.2-3.7-2.2-6.5
		c0-1.8,0.4-3.3,1.1-4.7s1.7-2.4,3.1-3.1c1.3-0.7,2.9-1.1,4.7-1.1c1.8,0,3.5,0.3,5.1,1l-0.8,1.8c-1.5-0.7-3-1-4.5-1
		c-2.1,0-3.7,0.6-4.9,1.9c-1.2,1.2-1.8,3-1.8,5.2c0,2.3,0.6,4.1,1.7,5.2c1.1,1.2,2.8,1.8,5,1.8c1.2,0,2.3-0.1,3.5-0.4v-5.3h-3.8V297
		z"/>
	<path d="M701.3,305.9h-9.5v-17.1h9.5v1.8h-7.5v5.5h7.1v1.8h-7.1v6.3h7.5V305.9z"/>
	<path d="M718.4,305.9h-2.3l-9.3-14.3h-0.1c0.1,1.7,0.2,3.2,0.2,4.6v9.7h-1.8v-17.1h2.2l9.3,14.3h0.1c0-0.2-0.1-0.9-0.1-2
		s-0.1-2-0.1-2.4v-9.8h1.9V305.9z"/>
	<path d="M737.9,297.4c0,2.7-0.7,4.9-2.1,6.4s-3.3,2.3-5.8,2.3c-2.5,0-4.5-0.8-5.8-2.3s-2.1-3.7-2.1-6.5c0-2.8,0.7-4.9,2.1-6.5
		c1.4-1.5,3.3-2.3,5.8-2.3c2.5,0,4.4,0.8,5.7,2.3C737.3,292.5,737.9,294.6,737.9,297.4z M724.3,297.4c0,2.3,0.5,4.1,1.5,5.3
		c1,1.2,2.4,1.8,4.3,1.8c1.9,0,3.3-0.6,4.3-1.8c1-1.2,1.4-2.9,1.4-5.3c0-2.3-0.5-4-1.4-5.2c-1-1.2-2.4-1.8-4.3-1.8
		c-1.9,0-3.3,0.6-4.3,1.8C724.8,293.3,724.3,295.1,724.3,297.4z"/>
	<path d="M762.9,305.9h-4.6l-7.4-12.9h-0.1c0.1,2.3,0.2,3.9,0.2,4.9v8h-3.2v-17.1h4.6l7.4,12.8h0.1c-0.1-2.2-0.2-3.8-0.2-4.7v-8.1
		h3.3V305.9z"/>
	<path d="M774.7,305.9h-9V304l3.2-3.3c1-1,1.6-1.7,1.9-2c0.3-0.4,0.5-0.7,0.6-1s0.2-0.7,0.2-1c0-0.5-0.1-0.9-0.4-1.1
		c-0.3-0.3-0.7-0.4-1.1-0.4c-0.5,0-1,0.1-1.4,0.3c-0.5,0.2-1,0.6-1.5,1l-1.5-1.7c0.6-0.5,1.2-0.9,1.6-1.1c0.4-0.2,0.9-0.4,1.4-0.5
		c0.5-0.1,1-0.2,1.6-0.2c0.8,0,1.5,0.1,2.1,0.4s1.1,0.7,1.4,1.2c0.3,0.5,0.5,1.1,0.5,1.8c0,0.6-0.1,1.1-0.3,1.7
		c-0.2,0.5-0.5,1-1,1.6c-0.4,0.5-1.2,1.3-2.3,2.3l-1.6,1.6v0.1h5.6V305.9z"/>
	<path d="M793,297.4c0,2.8-0.7,5-2.1,6.5c-1.4,1.5-3.4,2.3-6,2.3c-2.6,0-4.6-0.8-6-2.3c-1.4-1.5-2.1-3.7-2.1-6.5
		c0-2.8,0.7-5,2.1-6.5s3.4-2.2,6-2.2s4.6,0.8,6,2.3C792.3,292.4,793,294.5,793,297.4z M780.5,297.4c0,1.9,0.4,3.3,1.1,4.3
		c0.7,1,1.8,1.4,3.2,1.4c2.9,0,4.3-1.9,4.3-5.8c0-3.8-1.4-5.8-4.3-5.8c-1.4,0-2.5,0.5-3.3,1.5C780.9,294,780.5,295.5,780.5,297.4z"
		/>
	<path d="M499.4,326.1c0,2.7-0.7,4.9-2.1,6.4s-3.3,2.3-5.8,2.3c-2.5,0-4.5-0.8-5.8-2.3s-2.1-3.7-2.1-6.5c0-2.8,0.7-4.9,2.1-6.5
		c1.4-1.5,3.3-2.3,5.8-2.3c2.5,0,4.4,0.8,5.7,2.3C498.7,321.2,499.4,323.3,499.4,326.1z M485.8,326.1c0,2.3,0.5,4.1,1.5,5.3
		c1,1.2,2.4,1.8,4.3,1.8c1.9,0,3.3-0.6,4.3-1.8c1-1.2,1.4-2.9,1.4-5.3c0-2.3-0.5-4-1.4-5.2c-1-1.2-2.4-1.8-4.3-1.8
		c-1.9,0-3.3,0.6-4.3,1.8C486.3,322.1,485.8,323.8,485.8,326.1z"/>
	<path d="M513.6,334.6h-11.7v-1.6l9.1-13.7h-8.8v-1.8h11.2v1.6l-9.1,13.7h9.3V334.6z"/>
	<path d="M531.7,326.1c0,2.7-0.7,4.9-2.1,6.4s-3.3,2.3-5.8,2.3c-2.5,0-4.5-0.8-5.8-2.3s-2.1-3.7-2.1-6.5c0-2.8,0.7-4.9,2.1-6.5
		c1.4-1.5,3.3-2.3,5.8-2.3c2.5,0,4.4,0.8,5.7,2.3C531,321.2,531.7,323.3,531.7,326.1z M518.1,326.1c0,2.3,0.5,4.1,1.5,5.3
		c1,1.2,2.4,1.8,4.3,1.8c1.9,0,3.3-0.6,4.3-1.8c1-1.2,1.4-2.9,1.4-5.3c0-2.3-0.5-4-1.4-5.2c-1-1.2-2.4-1.8-4.3-1.8
		c-1.9,0-3.3,0.6-4.3,1.8C518.6,322.1,518.1,323.8,518.1,326.1z"/>
	<path d="M548.9,334.6h-2.3l-9.3-14.3h-0.1c0.1,1.7,0.2,3.2,0.2,4.6v9.7h-1.8v-17.1h2.2l9.3,14.3h0.1c0-0.2-0.1-0.9-0.1-2
		s-0.1-2-0.1-2.4v-9.8h1.9V334.6z"/>
	<path d="M568.4,326.1c0,2.7-0.7,4.9-2.1,6.4s-3.3,2.3-5.8,2.3c-2.5,0-4.5-0.8-5.8-2.3s-2.1-3.7-2.1-6.5c0-2.8,0.7-4.9,2.1-6.5
		c1.4-1.5,3.3-2.3,5.8-2.3c2.5,0,4.4,0.8,5.7,2.3C567.7,321.2,568.4,323.3,568.4,326.1z M554.8,326.1c0,2.3,0.5,4.1,1.5,5.3
		c1,1.2,2.4,1.8,4.3,1.8c1.9,0,3.3-0.6,4.3-1.8c1-1.2,1.4-2.9,1.4-5.3c0-2.3-0.5-4-1.4-5.2c-1-1.2-2.4-1.8-4.3-1.8
		c-1.9,0-3.3,0.6-4.3,1.8C555.3,322.1,554.8,323.8,554.8,326.1z"/>
	<path d="M593.7,326.1c0,2.8-0.7,5-2.1,6.5c-1.4,1.5-3.4,2.3-6,2.3c-2.6,0-4.6-0.8-6-2.3c-1.4-1.5-2.1-3.7-2.1-6.5
		c0-2.8,0.7-5,2.1-6.5s3.4-2.2,6-2.2s4.6,0.8,6,2.3C593,321.1,593.7,323.2,593.7,326.1z M581.3,326.1c0,1.9,0.4,3.3,1.1,4.3
		c0.7,1,1.8,1.4,3.2,1.4c2.9,0,4.3-1.9,4.3-5.8c0-3.8-1.4-5.8-4.3-5.8c-1.4,0-2.5,0.5-3.3,1.5C581.6,322.7,581.3,324.2,581.3,326.1z
		"/>
	<path d="M604.3,324.7c0,0.8-0.2,1.5-0.7,2c-0.5,0.6-1.2,0.9-2,1.2v0.1c1,0.1,1.8,0.4,2.3,0.9c0.5,0.5,0.8,1.2,0.8,2
		c0,1.2-0.4,2.2-1.3,2.9c-0.9,0.7-2.2,1-3.8,1c-1.4,0-2.6-0.2-3.7-0.7v-2.3c0.5,0.3,1,0.5,1.6,0.6s1.2,0.2,1.8,0.2
		c0.9,0,1.6-0.2,2-0.5s0.6-0.8,0.6-1.5c0-0.6-0.2-1-0.7-1.3c-0.5-0.3-1.3-0.4-2.3-0.4h-1V327h1c1,0,1.7-0.1,2.2-0.4
		c0.5-0.3,0.7-0.7,0.7-1.3c0-1-0.6-1.5-1.8-1.5c-0.4,0-0.8,0.1-1.3,0.2c-0.4,0.1-0.9,0.4-1.5,0.7l-1.3-1.9c1.2-0.8,2.6-1.3,4.2-1.3
		c1.3,0,2.4,0.3,3.1,0.8C603.9,323,604.3,323.7,604.3,324.7z"/>
	<path d="M494.4,346.3h2.1l-6.2,17.1h-2l-6.1-17.1h2.1l3.9,11.1c0.5,1.3,0.8,2.5,1.1,3.7c0.3-1.3,0.6-2.5,1.1-3.8L494.4,346.3z"/>
	<path d="M509.6,363.4l-2.1-5.4h-6.8l-2.1,5.4h-2l6.8-17.2h1.7l6.7,17.2H509.6z M506.8,356.1l-2-5.3c-0.3-0.7-0.5-1.5-0.8-2.5
		c-0.2,0.7-0.4,1.6-0.7,2.5l-2,5.3H506.8z"/>
	<path d="M524.8,351.2c0,1.7-0.6,3.1-1.8,4c-1.2,0.9-2.9,1.4-5.1,1.4h-2v6.7h-2v-17.1h4.4C522.7,346.3,524.8,347.9,524.8,351.2z
		 M516,354.9h1.8c1.8,0,3-0.3,3.8-0.9c0.8-0.6,1.2-1.5,1.2-2.7c0-1.1-0.4-2-1.1-2.5c-0.7-0.6-1.9-0.8-3.5-0.8H516V354.9z"/>
	<path d="M543.2,354.8c0,2.7-0.7,4.9-2.1,6.4s-3.3,2.3-5.8,2.3c-2.5,0-4.5-0.8-5.8-2.3s-2.1-3.7-2.1-6.5c0-2.8,0.7-4.9,2.1-6.5
		c1.4-1.5,3.3-2.3,5.8-2.3c2.5,0,4.4,0.8,5.7,2.3C542.5,349.9,543.2,352,543.2,354.8z M529.6,354.8c0,2.3,0.5,4.1,1.5,5.3
		c1,1.2,2.4,1.8,4.3,1.8c1.9,0,3.3-0.6,4.3-1.8c1-1.2,1.4-2.9,1.4-5.3c0-2.3-0.5-4-1.4-5.2c-1-1.2-2.4-1.8-4.3-1.8
		c-1.9,0-3.3,0.6-4.3,1.8C530.1,350.8,529.6,352.5,529.6,354.8z"/>
	<path d="M549,356.2v7.1h-2v-17.1h4.7c2.1,0,3.6,0.4,4.6,1.2s1.5,2,1.5,3.6c0,2.3-1.1,3.8-3.4,4.6l4.6,7.7h-2.3l-4.1-7.1H549z
		 M549,354.5h2.7c1.4,0,2.4-0.3,3.1-0.8c0.7-0.6,1-1.4,1-2.5c0-1.1-0.3-1.9-1-2.4s-1.7-0.7-3.2-0.7H549V354.5z"/>
	<path d="M581.7,354.6c0,2.8-0.8,5-2.3,6.5c-1.5,1.5-3.7,2.2-6.6,2.2H568v-17.1h5.2c2.7,0,4.7,0.7,6.2,2.2
		C580.9,350,581.7,352,581.7,354.6z M579.6,354.7c0-2.2-0.6-3.9-1.7-5c-1.1-1.1-2.8-1.7-5-1.7H570v13.6h2.4c2.4,0,4.1-0.6,5.3-1.7
		C579,358.7,579.6,357,579.6,354.7z"/>
	<path d="M595,363.4h-9.5v-17.1h9.5v1.8h-7.5v5.5h7.1v1.8h-7.1v6.3h7.5V363.4z"/>
	<path d="M615.7,363.4l-2.1-5.4h-6.8l-2.1,5.4h-2l6.8-17.2h1.7l6.7,17.2H615.7z M613,356.1l-2-5.3c-0.3-0.7-0.5-1.5-0.8-2.5
		c-0.2,0.7-0.4,1.6-0.7,2.5l-2,5.3H613z"/>
	<path d="M627.6,354.4h5.8v8.3c-0.9,0.3-1.8,0.5-2.8,0.7s-2,0.2-3.2,0.2c-2.6,0-4.6-0.8-6-2.3c-1.4-1.5-2.2-3.7-2.2-6.5
		c0-1.8,0.4-3.3,1.1-4.7s1.7-2.4,3.1-3.1c1.3-0.7,2.9-1.1,4.7-1.1c1.8,0,3.5,0.3,5.1,1l-0.8,1.8c-1.5-0.7-3-1-4.5-1
		c-2.1,0-3.7,0.6-4.9,1.9c-1.2,1.2-1.8,3-1.8,5.2c0,2.3,0.6,4.1,1.7,5.2c1.1,1.2,2.8,1.8,5,1.8c1.2,0,2.3-0.1,3.5-0.4v-5.3h-3.8
		V354.4z"/>
	<path d="M650.5,346.3v11.1c0,1.9-0.6,3.5-1.8,4.6s-2.8,1.7-4.8,1.7c-2.1,0-3.6-0.6-4.8-1.7c-1.1-1.1-1.7-2.7-1.7-4.6v-11h2v11.1
		c0,1.4,0.4,2.5,1.2,3.3c0.8,0.8,1.9,1.1,3.4,1.1c1.4,0,2.6-0.4,3.3-1.2c0.8-0.8,1.2-1.9,1.2-3.3v-11.1H650.5z"/>
	<path d="M665.7,363.4l-2.1-5.4h-6.8l-2.1,5.4h-2l6.8-17.2h1.7l6.7,17.2H665.7z M663,356.1l-2-5.3c-0.3-0.7-0.5-1.5-0.8-2.5
		c-0.2,0.7-0.4,1.6-0.7,2.5l-2,5.3H663z"/>
	<path d="M690.1,363.4h-3.6V356h-6.8v7.4h-3.6v-17.1h3.6v6.7h6.8v-6.7h3.6V363.4z"/>
	<path d="M702,363.4h-9v-1.9l3.2-3.3c1-1,1.6-1.7,1.9-2c0.3-0.4,0.5-0.7,0.6-1s0.2-0.7,0.2-1c0-0.5-0.1-0.9-0.4-1.1
		c-0.3-0.3-0.7-0.4-1.1-0.4c-0.5,0-1,0.1-1.4,0.3c-0.5,0.2-1,0.6-1.5,1l-1.5-1.7c0.6-0.5,1.2-0.9,1.6-1.1c0.4-0.2,0.9-0.4,1.4-0.5
		c0.5-0.1,1-0.2,1.6-0.2c0.8,0,1.5,0.1,2.1,0.4s1.1,0.7,1.4,1.2c0.3,0.5,0.5,1.1,0.5,1.8c0,0.6-0.1,1.1-0.3,1.7
		c-0.2,0.5-0.5,1-1,1.6c-0.4,0.5-1.2,1.3-2.3,2.3l-1.6,1.6v0.1h5.6V363.4z"/>
	<path d="M720.2,354.8c0,2.8-0.7,5-2.1,6.5c-1.4,1.5-3.4,2.3-6,2.3c-2.6,0-4.6-0.8-6-2.3c-1.4-1.5-2.1-3.7-2.1-6.5
		c0-2.8,0.7-5,2.1-6.5s3.4-2.2,6-2.2s4.6,0.8,6,2.3C719.5,349.8,720.2,352,720.2,354.8z M707.7,354.8c0,1.9,0.4,3.3,1.1,4.3
		c0.7,1,1.8,1.4,3.2,1.4c2.9,0,4.3-1.9,4.3-5.8c0-3.8-1.4-5.8-4.3-5.8c-1.4,0-2.5,0.5-3.3,1.5C708.1,351.4,707.7,352.9,707.7,354.8z
		"/>
</g>
<path class="st3" d="M147.9,467.3c0,0,284.5-107.8,624.8,0"/>
<line class="st4" x1="436.1" y1="417.1" x2="436.1" y2="296.3"/>
<line class="st4" x1="457.5" y1="296.3" x2="413.8" y2="296.3"/>
<g>
	<path d="M151.3,149.6c-1.2,0.4-3.6,1.1-6.3,1.1c-3.1,0-5.7-0.8-7.7-2.7c-1.8-1.7-2.9-4.5-2.9-7.7c0-6.2,4.3-10.7,11.2-10.7
		c2.4,0,4.3,0.5,5.1,0.9l-0.6,2.2c-1.1-0.5-2.5-0.9-4.6-0.9c-5,0-8.3,3.1-8.3,8.3c0,5.2,3.2,8.3,8,8.3c1.7,0,2.9-0.2,3.6-0.6v-6.2
		h-4.2v-2.1h6.8V149.6z"/>
	<path d="M158.7,144.1l-2.1,6.5h-2.8l7-20.7h3.2l7,20.7h-2.8l-2.2-6.5H158.7z M165.5,142l-2-5.9c-0.5-1.3-0.8-2.6-1.1-3.8h-0.1
		c-0.3,1.2-0.6,2.5-1,3.7l-2,6H165.5z"/>
	<path d="M173.7,147.3c1.2,0.7,2.9,1.3,4.8,1.3c2.7,0,4.3-1.4,4.3-3.5c0-1.9-1.1-3-3.9-4.1c-3.4-1.2-5.5-2.9-5.5-5.9
		c0-3.2,2.7-5.6,6.7-5.6c2.1,0,3.6,0.5,4.6,1l-0.7,2.2c-0.7-0.4-2.1-1-3.9-1c-2.8,0-3.9,1.7-3.9,3.1c0,1.9,1.3,2.9,4.1,4
		c3.5,1.3,5.3,3,5.3,6.1c0,3.2-2.4,5.9-7.2,5.9c-2,0-4.2-0.6-5.3-1.3L173.7,147.3z"/>
	<path d="M199.9,140.9h-8v7.4h8.9v2.2h-11.6v-20.7h11.2v2.2h-8.5v6.5h8V140.9z"/>
	<path d="M203.9,147.3c1.2,0.7,2.9,1.3,4.8,1.3c2.7,0,4.3-1.4,4.3-3.5c0-1.9-1.1-3-3.9-4.1c-3.4-1.2-5.5-2.9-5.5-5.9
		c0-3.2,2.7-5.6,6.7-5.6c2.1,0,3.6,0.5,4.6,1l-0.7,2.2c-0.7-0.4-2.1-1-3.9-1c-2.8,0-3.9,1.7-3.9,3.1c0,1.9,1.3,2.9,4.1,4
		c3.5,1.3,5.3,3,5.3,6.1c0,3.2-2.4,5.9-7.2,5.9c-2,0-4.2-0.6-5.3-1.3L203.9,147.3z"/>
	<path d="M225.9,150.6v-20.7h2.9l6.6,10.4c1.5,2.4,2.7,4.6,3.7,6.7l0.1,0c-0.2-2.8-0.3-5.3-0.3-8.5v-8.6h2.5v20.7h-2.7l-6.6-10.5
		c-1.4-2.3-2.8-4.7-3.9-6.9l-0.1,0c0.2,2.6,0.2,5.1,0.2,8.5v8.8H225.9z"/>
	<path d="M249.4,144.1l-2.1,6.5h-2.8l7-20.7h3.2l7,20.7h-2.8l-2.2-6.5H249.4z M256.2,142l-2-5.9c-0.5-1.3-0.8-2.6-1.1-3.8H253
		c-0.3,1.2-0.6,2.5-1,3.7l-2,6H256.2z"/>
	<path d="M266.4,132.2h-6.3v-2.3h15.3v2.3h-6.3v18.4h-2.7V132.2z"/>
	<path d="M280.3,129.9v12.2c0,4.6,2.1,6.6,4.8,6.6c3.1,0,5-2,5-6.6v-12.2h2.7v12c0,6.3-3.3,8.9-7.8,8.9c-4.2,0-7.4-2.4-7.4-8.8
		v-12.2H280.3z"/>
	<path d="M297.5,130.2c1.3-0.3,3.3-0.4,5.1-0.4c2.8,0,4.7,0.5,6,1.7c1,0.9,1.6,2.3,1.6,3.9c0,2.7-1.7,4.5-3.9,5.3v0.1
		c1.6,0.6,2.5,2,3,4.2c0.7,2.9,1.2,4.9,1.6,5.7h-2.8c-0.3-0.6-0.8-2.4-1.4-4.9c-0.6-2.8-1.7-3.9-4.1-4h-2.5v8.9h-2.7V130.2z
		 M300.1,139.6h2.7c2.8,0,4.7-1.6,4.7-3.9c0-2.7-1.9-3.8-4.7-3.9c-1.3,0-2.2,0.1-2.6,0.2V139.6z"/>
	<path d="M317.5,144.1l-2.1,6.5h-2.8l7-20.7h3.2l7,20.7H327l-2.2-6.5H317.5z M324.2,142l-2-5.9c-0.5-1.3-0.8-2.6-1.1-3.8h-0.1
		c-0.3,1.2-0.6,2.5-1,3.7l-2,6H324.2z"/>
	<path d="M332.9,129.9h2.7v18.4h8.8v2.2h-11.5V129.9z"/>
	<path d="M358,140.9h-8v7.4h8.9v2.2h-11.6v-20.7h11.2v2.2H350v6.5h8V140.9z"/>
	<path d="M362,147.3c1.2,0.7,2.9,1.3,4.8,1.3c2.7,0,4.3-1.4,4.3-3.5c0-1.9-1.1-3-3.9-4.1c-3.4-1.2-5.5-2.9-5.5-5.9
		c0-3.2,2.7-5.6,6.7-5.6c2.1,0,3.6,0.5,4.6,1l-0.7,2.2c-0.7-0.4-2.1-1-3.9-1c-2.8,0-3.9,1.7-3.9,3.1c0,1.9,1.3,2.9,4.1,4
		c3.5,1.3,5.3,3,5.3,6.1c0,3.2-2.4,5.9-7.2,5.9c-2,0-4.2-0.6-5.3-1.3L362,147.3z"/>
	<path d="M401,153.6c-2.8-0.7-5.5-1.6-7.9-2.4c-0.4-0.2-0.9-0.3-1.3-0.3c-4.9-0.2-9.1-3.8-9.1-10.4c0-6.6,4-10.9,9.6-10.9
		c5.6,0,9.3,4.4,9.3,10.4c0,5.3-2.5,8.7-5.9,9.9v0.1c2.1,0.5,4.3,1,6,1.3L401,153.6z M398.8,140.2c0-4.1-2.1-8.4-6.5-8.4
		c-4.5,0-6.7,4.2-6.7,8.6c0,4.4,2.4,8.3,6.6,8.3C396.4,148.7,398.8,144.9,398.8,140.2z"/>
	<path d="M407.8,129.9v12.2c0,4.6,2.1,6.6,4.8,6.6c3.1,0,5-2,5-6.6v-12.2h2.7v12c0,6.3-3.3,8.9-7.8,8.9c-4.2,0-7.4-2.4-7.4-8.8
		v-12.2H407.8z"/>
	<path d="M435.6,140.9h-8v7.4h8.9v2.2h-11.6v-20.7h11.2v2.2h-8.5v6.5h8V140.9z"/>
	<path d="M460.9,149.9c-1,0.5-2.9,1-5.5,1c-5.8,0-10.2-3.7-10.2-10.4c0-6.5,4.4-10.8,10.8-10.8c2.6,0,4.2,0.6,4.9,0.9l-0.6,2.2
		c-1-0.5-2.5-0.9-4.2-0.9c-4.8,0-8.1,3.1-8.1,8.5c0,5.1,2.9,8.3,7.9,8.3c1.6,0,3.3-0.3,4.4-0.9L460.9,149.9z"/>
	<path d="M481.3,140c0,7.1-4.3,10.9-9.6,10.9c-5.5,0-9.3-4.2-9.3-10.5c0-6.6,4.1-10.8,9.6-10.8C477.6,129.6,481.3,133.9,481.3,140z
		 M465.2,140.4c0,4.4,2.4,8.4,6.6,8.4c4.2,0,6.6-3.9,6.6-8.6c0-4.1-2.1-8.4-6.6-8.4C467.4,131.8,465.2,135.8,465.2,140.4z"/>
	<path d="M502.1,141.5c-0.2-2.9-0.3-6.3-0.3-8.9h-0.1c-0.7,2.4-1.6,5-2.6,7.8l-3.6,10h-2l-3.3-9.8c-1-2.9-1.8-5.6-2.4-8h-0.1
		c-0.1,2.6-0.2,6-0.4,9.1l-0.6,8.9h-2.5l1.4-20.7h3.4l3.5,10c0.9,2.5,1.6,4.8,2.1,7h0.1c0.5-2.1,1.3-4.4,2.2-7l3.7-10h3.4l1.3,20.7
		h-2.6L502.1,141.5z"/>
	<path d="M509.4,130.2c1.3-0.2,3-0.4,5.1-0.4c2.6,0,4.6,0.6,5.8,1.7c1.1,1,1.8,2.5,1.8,4.3c0,1.9-0.6,3.3-1.6,4.4
		c-1.4,1.5-3.7,2.3-6.3,2.3c-0.8,0-1.5,0-2.1-0.2v8.3h-2.7V130.2z M512,140.1c0.6,0.2,1.3,0.2,2.2,0.2c3.2,0,5.2-1.6,5.2-4.4
		c0-2.7-1.9-4-4.9-4c-1.2,0-2.1,0.1-2.5,0.2V140.1z"/>
	<path d="M543.3,140c0,7.1-4.3,10.9-9.6,10.9c-5.5,0-9.3-4.2-9.3-10.5c0-6.6,4.1-10.8,9.6-10.8C539.7,129.6,543.3,133.9,543.3,140z
		 M527.3,140.4c0,4.4,2.4,8.4,6.6,8.4c4.2,0,6.6-3.9,6.6-8.6c0-4.1-2.1-8.4-6.6-8.4C529.5,131.8,527.3,135.8,527.3,140.4z"/>
	<path d="M546.8,150.6v-20.7h2.9l6.6,10.4c1.5,2.4,2.7,4.6,3.7,6.7l0.1,0c-0.2-2.8-0.3-5.3-0.3-8.5v-8.6h2.5v20.7h-2.7l-6.6-10.5
		c-1.4-2.3-2.8-4.7-3.9-6.9l-0.1,0c0.2,2.6,0.2,5.1,0.2,8.5v8.8H546.8z"/>
	<path d="M577.6,140.9h-8v7.4h8.9v2.2h-11.6v-20.7h11.2v2.2h-8.5v6.5h8V140.9z"/>
	<path d="M582,150.6v-20.7h2.9l6.6,10.4c1.5,2.4,2.7,4.6,3.7,6.7l0.1,0c-0.2-2.8-0.3-5.3-0.3-8.5v-8.6h2.5v20.7h-2.7l-6.6-10.5
		c-1.4-2.3-2.8-4.7-3.9-6.9l-0.1,0c0.2,2.6,0.2,5.1,0.2,8.5v8.8H582z"/>
	<path d="M608.6,129.9h2.7v18.4h8.8v2.2h-11.5V129.9z"/>
	<path d="M626.4,144.1l-2.1,6.5h-2.8l7-20.7h3.2l7,20.7H636l-2.2-6.5H626.4z M633.2,142l-2-5.9c-0.5-1.3-0.8-2.6-1.1-3.8h-0.1
		c-0.3,1.2-0.6,2.5-1,3.7l-2,6H633.2z"/>
	<path d="M651.7,144.1l-2.1,6.5h-2.8l7-20.7h3.2l7,20.7h-2.8l-2.2-6.5H651.7z M658.5,142l-2-5.9c-0.5-1.3-0.8-2.6-1.1-3.8h-0.1
		c-0.3,1.2-0.6,2.5-1,3.7l-2,6H658.5z"/>
	<path d="M668.7,132.2h-6.3v-2.3h15.3v2.3h-6.3v18.4h-2.7V132.2z"/>
	<path d="M697.4,141.5c-0.2-2.9-0.3-6.3-0.3-8.9H697c-0.7,2.4-1.6,5-2.6,7.8l-3.6,10h-2l-3.3-9.8c-1-2.9-1.8-5.6-2.4-8h-0.1
		c-0.1,2.6-0.2,6-0.4,9.1l-0.6,8.9h-2.5l1.4-20.7h3.4l3.5,10c0.9,2.5,1.6,4.8,2.1,7h0.1c0.5-2.1,1.3-4.4,2.2-7l3.7-10h3.4l1.3,20.7
		h-2.6L697.4,141.5z"/>
	<path d="M722.2,140c0,7.1-4.3,10.9-9.6,10.9c-5.5,0-9.3-4.2-9.3-10.5c0-6.6,4.1-10.8,9.6-10.8C718.6,129.6,722.2,133.9,722.2,140z
		 M706.2,140.4c0,4.4,2.4,8.4,6.6,8.4c4.2,0,6.6-3.9,6.6-8.6c0-4.1-2.1-8.4-6.6-8.4C708.4,131.8,706.2,135.8,706.2,140.4z
		 M717.3,125.2l-3.9,3.6h-2.2l2.8-3.6H717.3z"/>
	<path d="M725.3,147.3c1.2,0.7,2.9,1.3,4.8,1.3c2.7,0,4.3-1.4,4.3-3.5c0-1.9-1.1-3-3.9-4.1c-3.4-1.2-5.5-2.9-5.5-5.9
		c0-3.2,2.7-5.6,6.7-5.6c2.1,0,3.6,0.5,4.6,1l-0.7,2.2c-0.7-0.4-2.1-1-3.9-1c-2.8,0-3.9,1.7-3.9,3.1c0,1.9,1.3,2.9,4.1,4
		c3.5,1.3,5.3,3,5.3,6.1c0,3.2-2.4,5.9-7.2,5.9c-2,0-4.2-0.6-5.3-1.3L725.3,147.3z"/>
	<path d="M740.8,129.9h11.1v2.2h-8.5v6.9h7.8v2.2h-7.8v9.3h-2.7V129.9z"/>
	<path d="M766.4,140.9h-8v7.4h8.9v2.2h-11.6v-20.7h11.2v2.2h-8.5v6.5h8V140.9z"/>
	<path d="M770.8,130.2c1.3-0.3,3.3-0.4,5.1-0.4c2.8,0,4.7,0.5,6,1.7c1,0.9,1.6,2.3,1.6,3.9c0,2.7-1.7,4.5-3.9,5.3v0.1
		c1.6,0.6,2.5,2,3,4.2c0.7,2.9,1.2,4.9,1.6,5.7h-2.8c-0.3-0.6-0.8-2.4-1.4-4.9c-0.6-2.8-1.7-3.9-4.1-4h-2.5v8.9h-2.7V130.2z
		 M773.5,139.6h2.7c2.8,0,4.7-1.6,4.7-3.9c0-2.7-1.9-3.8-4.8-3.9c-1.3,0-2.2,0.1-2.6,0.2V139.6z"/>
	<path d="M790.8,144.1l-2.1,6.5h-2.8l7-20.7h3.2l7,20.7h-2.8l-2.2-6.5H790.8z M797.6,142l-2-5.9c-0.5-1.3-0.8-2.6-1.1-3.8h-0.1
		c-0.3,1.2-0.6,2.5-1,3.7l-2,6H797.6z"/>
</g>
</svg>
