<?xml version="1.0" encoding="UTF-8" standalone="no"?>
<!-- Generator: Adobe Illustrator 24.0.0, SVG Export Plug-In . SVG Version: 6.00 Build 0)  -->

<svg
   version="1.1"
   id="Capa_1"
   x="0px"
   y="0px"
   viewBox="0 0 594.60692 430.24929"
   xml:space="preserve"
   sodipodi:docname="carbon_05b.svg"
   width="594.60693"
   height="430.24927"
   inkscape:version="1.1.1 (3bf5ae0d25, 2021-09-20)"
   xmlns:inkscape="http://www.inkscape.org/namespaces/inkscape"
   xmlns:sodipodi="http://sodipodi.sourceforge.net/DTD/sodipodi-0.dtd"
   xmlns="http://www.w3.org/2000/svg"
   xmlns:svg="http://www.w3.org/2000/svg"><defs
   id="defs87" /><sodipodi:namedview
   id="namedview85"
   pagecolor="#ffffff"
   bordercolor="#666666"
   borderopacity="1.0"
   inkscape:pageshadow="2"
   inkscape:pageopacity="0.0"
   inkscape:pagecheckerboard="0"
   showgrid="false"
   fit-margin-top="0"
   fit-margin-left="0"
   fit-margin-right="0"
   fit-margin-bottom="0"
   inkscape:zoom="0.80039827"
   inkscape:cx="277.36192"
   inkscape:cy="201.77455"
   inkscape:window-width="1600"
   inkscape:window-height="835"
   inkscape:window-x="0"
   inkscape:window-y="32"
   inkscape:window-maximized="1"
   inkscape:current-layer="Capa_1" />
<style
   type="text/css"
   id="style2">
	.st0{fill:#893F16;}
	.st1{fill:#8AC2BF;}
	.st2{fill:#FC3434;}
	.st3{fill:#347729;}
	.st4{fill:#B5ADA9;}
	.st5{font-family:'OpenSans-Bold';}
	.st6{font-size:12.529px;}
	.st7{font-family:'OpenSans-Regular';}
	.st8{font-size:10.0232px;}
	.st9{font-size:5.8435px;}
	.st10{fill:#8AC2BF;stroke:#FFFFFF;stroke-miterlimit:10;}
	.st11{fill:#FFFBF7;}
	.st12{font-size:14.41px;}
</style>
<g
   id="g82"
   transform="translate(-116.1581,-64.756347)">
	<path
   d="m 269.9,127.8 c -0.2,0 -0.5,0 -0.7,0 h -0.6 c -0.2,0 -0.4,0 -0.6,0 v 147.4 h -0.1 -0.4 v 0 l -145.3,21 -0.6,0.1 h -0.1 l -0.5,0.1 c 0,0.2 0.1,0.4 0.1,0.6 l 0.1,0.6 v 0 c 5,35.1 22.6,67.3 49.6,90.8 27.4,23.9 62.7,37 99.2,37 82.9,0 150.3,-66.8 150.3,-148.9 0,-82.1 -67.6,-148.7 -150.4,-148.7 z m 0,296.5 c -15.7,0 -31.2,-2.4 -45.9,-7.2 -0.4,-0.1 -0.8,-0.2 -1.2,-0.4 -18.8,-6.2 -36.2,-16 -51.3,-29.2 -26.8,-23.3 -44.2,-55.3 -49.2,-90.1 v 0 l 91.9,-13.3 53.3,-7.7 1,-0.1 -0.1,-0.4 v -0.2 0 l 0.1,0.2 0.2,0.4 h 0.2 l 0.6,-0.1 -0.4,-1 V 129 h 0.7 c 82.2,0 149.1,66.2 149.1,147.6 0,81.4 -66.9,147.7 -149,147.7 z"
   id="path4" />
	<path
   class="st0"
   d="m 267.5,276.5 -44.7,140.2 c -18.8,-6.2 -36.2,-16 -51.3,-29.2 -26.8,-23.3 -44.2,-55.3 -49.2,-90.1 l 91.9,-13.3 z"
   id="path6" />
	<path
   class="st1"
   d="m 418.9,276.7 c 0,81.4 -66.9,147.6 -149.1,147.6 -15.7,0 -31.2,-2.4 -45.9,-7.2 l 44.9,-140.8 v -0.5 l 0.2,-0.5 V 129 h 0.7 c 82.3,0 149.2,66.3 149.2,147.7 z"
   id="path8" />
	<path
   d="m 268.9,275.2 0.2,-147.4 h -0.6 c -0.2,0 -0.4,0 -0.6,0 -17.2,0.2 -34,3.3 -50,9.1 -27.7,10.1 -51.7,28 -69.2,51.7 -19,25.7 -29.1,56.1 -29.1,88 0,6.6 0.4,13.3 1.3,19.8 0,0.2 0.1,0.4 0.1,0.6 l 0.1,0.6 v 0 l 0.5,-0.1 h 0.1 l 0.6,-0.1 91.9,-13.3 53.3,-7.7 1,-0.1 v 0 h 0.1 0.2 V 276 Z m -1.5,0.1 -145.3,21 c -0.9,-6.4 -1.3,-13 -1.3,-19.6 0,-31.5 9.8,-61.5 28.5,-86.8 0.1,-0.2 0.2,-0.3 0.4,-0.5 0.1,-0.2 0.2,-0.3 0.4,-0.5 17.3,-23.1 40.6,-40.6 67.7,-50.5 0.2,-0.1 0.4,-0.1 0.6,-0.2 0.2,-0.1 0.4,-0.1 0.6,-0.2 15.7,-5.7 32.2,-8.6 49,-8.9 v 146.2 h -0.1 -0.5 z"
   id="path10" />
	<path
   class="st2"
   d="m 267.9,129 v 142.8 l -49,-134 c 15.7,-5.6 32.1,-8.5 49,-8.8 z"
   id="path12" />
	<path
   class="st3"
   d="M 267.1,273.5 150,188.9 c 17.3,-23.1 40.6,-40.6 67.7,-50.5 z"
   id="path14" />
	<path
   class="st4"
   d="m 267.4,275.3 -145.3,21 c -0.9,-6.4 -1.3,-13 -1.3,-19.6 0,-31.5 9.8,-61.5 28.5,-86.8 z"
   id="path16" />
	<rect
   x="267.89999"
   y="275.39999"
   width="1.2"
   height="0.5"
   id="rect18" />
	<rect
   x="267.89999"
   y="127.8"
   width="1.2"
   height="0.60000002"
   id="rect20" />
	<polygon
   points="268.9,276.3 224,417.1 223.8,417.6 222.6,417.3 222.8,416.7 267.5,276.5 267.8,275.6 267.8,275.5 267.9,275.5 267.9,275.5 268,275.6 268.4,275.7 269,275.9 "
   id="polygon22" />
	<polygon
   points="268.5,275.4 268,275.6 267.9,275.6 267.9,275.5 267.9,275.5 267.9,275.5 267.8,275.4 267.8,275.2 267.2,273.5 267.1,273.5 217.7,138.3 217.4,137.6 218.6,137.2 218.6,137.3 218.9,137.9 267.9,271.9 269,274.8 269,274.9 269.1,275.2 268.6,275.4 "
   id="polygon24" />
	<polygon
   points="268.6,275.4 268.6,275.4 268.4,275.7 268.3,275.9 267.9,275.6 267.9,275.6 267.8,275.6 267.4,275.3 267.4,275.3 149.3,189.9 148.3,189.2 149.1,188.2 150,188.9 267.1,273.5 267.2,273.5 267.9,274 269,274.8 269,274.9 "
   id="polygon26" />
	<rect
   x="121.5"
   y="296.29999"
   transform="matrix(0.9943,-0.1065,0.1065,0.9943,-30.9284,14.6335)"
   width="0.1"
   height="1.2"
   id="rect28" />
	<g
   id="g32">
		<text
   transform="translate(124.0365,74.7771)"
   class="st5 st6"
   id="text30">Superficie relativa afectada por procesos de degradación del suelo en México, 2002</text>
	</g>
	<g
   id="g46">
		<text
   transform="translate(116.1581,456.8367)"
   class="st7 st8"
   id="text34">Notas:</text>
		<text
   transform="translate(116.1581,468.865)"
   class="st7 st8"
   id="text36">1. Los porcentajes pueden no sumar 100% debido al redondeo de las cifras</text>
		<text
   transform="translate(116.1581,480.8923)"
   class="st7 st8"
   id="text38">2. Superficie nacional considerada 1,909,818.5 Km</text>
		<text
   transform="translate(349.6425,477.5549)"
   class="st7 st9"
   id="text40">2</text>
		<text
   transform="translate(352.9838,480.8923)"
   class="st7 st8"
   id="text42">. No incluye cuerpos de agua, asentamientos humanos, zonas urbanas,</text>
		<text
   transform="translate(116.1581,492.9207)"
   class="st7 st8"
   id="text44">    regiones desprovistas de vegetación y superficie insular.</text>
	</g>
	<g
   id="g58">
		<text
   transform="translate(516.496,234.3671)"
   class="st7 st6"
   id="text48">Sin desaparición aparente</text>
		<text
   transform="translate(516.496,266.947)"
   class="st7 st6"
   id="text50">Degradación química</text>
		<text
   transform="translate(516.496,299.517)"
   class="st7 st6"
   id="text52">Erosión hídrica</text>
		<text
   transform="translate(516.496,332.097)"
   class="st7 st6"
   id="text54">Erosión eólica</text>
		<text
   transform="translate(516.496,364.6671)"
   class="st7 st6"
   id="text56">Degradación física</text>
	</g>
	<circle
   class="st10"
   cx="492.10001"
   cy="230.8"
   r="10.6"
   id="circle60" />
	<circle
   class="st0"
   cx="492.10001"
   cy="261"
   r="10.6"
   id="circle62" />
	<circle
   class="st4"
   cx="492.10001"
   cy="296.10001"
   r="10.6"
   id="circle64" />
	<circle
   class="st3"
   cx="492.10001"
   cy="326.29999"
   r="10.6"
   id="circle66" />
	<circle
   class="st2"
   cx="492.10001"
   cy="358.89999"
   r="10.6"
   id="circle68" />
	<g
   id="g72">
		<text
   transform="translate(323.2743,290.0251)"
   class="st11 st5 st12"
   id="text70">55.1%</text>
	</g>
	<text
   transform="translate(229.0594,159.7927)"
   class="st11 st5 st12"
   id="text74">5.7%</text>
	<text
   transform="translate(181.4842,184.9676)"
   class="st11 st5 st12"
   id="text76">9.5%</text>
	<text
   transform="translate(141.1556,257.1345)"
   class="st11 st5 st12"
   id="text78">11.9%</text>
	<text
   transform="translate(164.6366,357.9568)"
   class="st11 st5 st12"
   id="text80">17.8%</text>
</g>
</svg>
