<?xml version="1.0" encoding="UTF-8" standalone="no"?>
<!-- Generator: Adobe Illustrator 24.0.0, SVG Export Plug-In . SVG Version: 6.00 Build 0)  -->

<svg
   version="1.1"
   id="Capa_1"
   x="0px"
   y="0px"
   viewBox="0 0 370.64833 550.18905"
   xml:space="preserve"
   sodipodi:docname="carbon_05a.svg"
   width="370.64835"
   height="550.18903"
   inkscape:version="1.1.1 (3bf5ae0d25, 2021-09-20)"
   xmlns:inkscape="http://www.inkscape.org/namespaces/inkscape"
   xmlns:sodipodi="http://sodipodi.sourceforge.net/DTD/sodipodi-0.dtd"
   xmlns:xlink="http://www.w3.org/1999/xlink"
   xmlns="http://www.w3.org/2000/svg"
   xmlns:svg="http://www.w3.org/2000/svg"><defs
   id="defs203" /><sodipodi:namedview
   id="namedview201"
   pagecolor="#ffffff"
   bordercolor="#666666"
   borderopacity="1.0"
   inkscape:pageshadow="2"
   inkscape:pageopacity="0.0"
   inkscape:pagecheckerboard="0"
   showgrid="false"
   fit-margin-top="0"
   fit-margin-left="0"
   fit-margin-right="0"
   fit-margin-bottom="0"
   inkscape:zoom="0.86893975"
   inkscape:cx="169.17168"
   inkscape:cy="279.07574"
   inkscape:window-width="1600"
   inkscape:window-height="835"
   inkscape:window-x="0"
   inkscape:window-y="32"
   inkscape:window-maximized="1"
   inkscape:current-layer="Capa_1" />
<style
   type="text/css"
   id="style2">
	.st0{fill:none;stroke:#000202;stroke-miterlimit:10;}
	.st1{fill:#71A254;}
	.st2{fill:#565061;}
	.st3{fill:#B2916E;}
	.st4{fill:#622419;}
	.st5{fill:#B77C55;}
	.st6{fill:#874936;}
	.st7{fill:#020000;}
	.st8{fill:#45271C;}
	.st9{fill:#91D147;stroke:#010200;stroke-miterlimit:10;}
	.st10{fill:#6BA01F;stroke:#010200;stroke-miterlimit:10;}
	.st11{fill:none;stroke:#010200;stroke-miterlimit:10;}
	.st12{fill:#51A000;stroke:#010200;stroke-miterlimit:10;}
	.st13{fill:#3B8400;stroke:#010200;stroke-miterlimit:10;}
	.st14{fill:#9DBB26;}
	.st15{fill:#CDDD45;}
	.st16{font-family:'OpenSans-Bold';}
	.st17{font-size:15.0841px;}
</style>
<g
   id="g198"
   transform="translate(-107.1,-68.811)">
	<g
   id="g194">
		<line
   class="st0"
   x1="394.39999"
   y1="543.09998"
   x2="342.10001"
   y2="543.09998"
   id="line4" />
		<line
   class="st0"
   x1="394.39999"
   y1="460.39999"
   x2="342.10001"
   y2="460.39999"
   id="line6" />
		<line
   class="st0"
   x1="394.39999"
   y1="383.5"
   x2="342.10001"
   y2="383.5"
   id="line8" />
		<line
   class="st0"
   x1="394.39999"
   y1="326"
   x2="342.10001"
   y2="326"
   id="line10" />
		<line
   class="st0"
   x1="394.39999"
   y1="287.79999"
   x2="342.10001"
   y2="287.79999"
   id="line12" />
		<line
   class="st0"
   x1="394.39999"
   y1="260.29999"
   x2="342.10001"
   y2="260.29999"
   id="line14" />
		<path
   class="st1"
   d="M 107.1,247.9"
   id="path16" />
		<path
   class="st2"
   d="m 107.1,472.9 v 99.3 l 58.2,46.8 h 119.2 l 57.8,-47.7 V 453.1 c 0,0 -229.1,-8 -235.2,19.8 z"
   id="path18" />
		<path
   class="st3"
   d="m 107.1,421.3 v 51.6 c 0,0 3.1,3.5 3.1,11 0,7.5 -1.3,19.4 4,18.5 5.3,-0.9 10.6,-7.5 14.1,-3.5 3.5,4 6.2,15.9 9.7,16.8 3.5,0.9 -0.9,9.3 4.4,9.7 5.3,0.4 7.9,-6.2 11.5,-4.4 3.6,1.8 13.2,7.9 9.3,17.7 -3.9,9.8 7.5,0.4 12.8,-0.4 5.3,-0.8 -0.4,-10.6 4.4,-14.6 4.8,-4 11.5,-2.7 11.5,-2.7 0,0 -9.3,16.3 -0.9,18.1 8.4,1.8 4.9,-11.5 9.7,-11.5 4.8,0 7.9,4.8 7.9,4.8 l 3.1,6.2 h 11 l 7.9,2.7 c 0,0 3.5,1.8 7.1,-0.4 3.6,-2.2 12.8,-9.3 12.8,-9.3 0,0 4.4,9.3 8.8,10.2 4.4,0.9 7.5,-3.5 7.5,-3.5 0,0 6.2,-11 7.5,-11 1.3,0 5.3,7.9 5.3,7.9 0,0 0.4,9.3 4.9,9.3 4.5,0 4,-13.2 4,-13.2 0,0 1.8,-9.3 5.3,-9.3 3.5,0 15.9,0.9 15.9,0.9 l 3.1,-19.9 c 0,0 5.7,-4.9 9.3,-4 3.6,0.9 7.9,0.9 7.9,0.9 l 12.4,4.4 v -93.1 z"
   id="path20" />
		<path
   class="st4"
   d="m 107.1,344.2 v 78.9 c 0,0 10.6,0.4 15,0.4 4.4,0 7.5,14.1 11.5,19 4,4.9 19.9,23.4 22.5,23.8 2.6,0.4 9.7,4 9.7,4 h 19.9 l 5.3,-6.6 c 0,0 8.8,1.8 13.7,0 4.9,-1.8 8.8,2.6 10.1,2.6 1.3,0 7.1,5.3 7.1,5.3 H 284 l 25.6,-22.1 8.4,-7.1 1.8,-6.6 c 0,0 5.3,-11 7.1,-11 1.8,0 6.6,-3.5 6.6,-3.5 l 8.8,0.1 -0.2,-84.6 z"
   id="path22" />
		<polygon
   class="st5"
   points="165.3,391.1 283.8,391.1 342.2,344.7 342.3,294.7 107.1,298.6 107.1,344.1 "
   id="polygon24" />
		<polygon
   class="st6"
   points="164.4,347.7 284,348.2 342.3,297.3 342.6,262.9 107.3,260.1 107.1,298.2 "
   id="polygon26" />
		<polygon
   class="st7"
   points="165.3,310.1 284,310.5 342.7,263.5 342.7,253.3 107.1,247.9 107.1,261.1 "
   id="polygon28" />
		<polygon
   class="st1"
   points="283.8,299.5 342.6,253.3 271.9,201.2 173.6,201.2 107.1,247.9 165.7,299.5 "
   id="polygon30" />
		<polygon
   class="st5"
   points="168.2,339.5 166.3,330.3 173.4,324 182.3,327 184.2,336.2 177.1,342.5 "
   id="polygon32" />
		<polygon
   class="st5"
   points="198,344.6 200.1,334.3 210.1,330.9 218,337.8 216,348.2 206,351.6 "
   id="polygon34" />
		<polygon
   class="st5"
   points="135.5,310.9 133.5,307.5 135.5,304 139.5,304 141.5,307.5 139.5,310.9 "
   id="polygon36" />
		<polygon
   class="st5"
   points="274.1,325 276.5,321.4 281,321.6 282.9,325.6 280.5,329.3 276.1,329 "
   id="polygon38" />
		<polygon
   class="st4"
   points="185.1,394.3 187.2,383.9 197.2,380.5 205.1,387.5 203.1,397.8 193.1,401.2 "
   id="polygon40" />
		<polygon
   class="st4"
   points="290.2,377.1 292.4,369 300.5,366.8 306.5,372.8 304.3,380.9 296.2,383.1 "
   id="polygon42" />
		<polygon
   class="st5"
   points="129.2,371.5 126.6,365 130.9,359.5 137.9,360.5 140.5,367 136.2,372.5 "
   id="polygon44" />
		<polygon
   class="st5"
   points="316,361.5 319.2,355.1 326.4,354.6 330.3,360.6 327.2,367 320,367.5 "
   id="polygon46" />
		<polygon
   class="st3"
   points="131.3,419.2 131.6,415.7 134.8,414.1 137.7,416.1 137.5,419.6 134.3,421.2 "
   id="polygon48" />
		<polygon
   class="st3"
   points="154.5,464.5 158,456.7 166.5,455.9 171.5,462.9 167.9,470.6 159.4,471.5 "
   id="polygon50" />
		<polygon
   class="st3"
   points="180,446.8 179.2,441.5 183.4,438.2 188.4,440.2 189.1,445.5 184.9,448.8 "
   id="polygon52" />
		<polygon
   class="st3"
   points="194.6,454.9 196.1,449.4 201.5,448 205.5,452 204,457.4 198.6,458.8 "
   id="polygon54" />
		<polygon
   class="st3"
   points="202.5,438.5 203.1,433.5 207.6,431.6 211.6,434.6 211,439.5 206.4,441.5 "
   id="polygon56" />
		<polygon
   class="st3"
   points="220.6,463.3 222.9,457.4 229.2,456.4 233.2,461.4 230.9,467.3 224.6,468.3 "
   id="polygon58" />
		<polygon
   class="st3"
   points="253.1,476.8 255.7,467.3 265.2,464.8 272.1,471.7 269.6,481.2 260.1,483.8 "
   id="polygon60" />
		<polygon
   class="st3"
   points="269.5,447 268.6,439.5 274.6,435 281.6,438 282.5,445.5 276.4,450 "
   id="polygon62" />
		<polygon
   class="st3"
   points="291.6,459.2 293.4,452.4 300.2,450.6 305.2,455.6 303.3,462.3 296.6,464.2 "
   id="polygon64" />
		<polygon
   class="st3"
   points="308.8,420.1 310.3,414.7 315.7,413.2 319.7,417.2 318.2,422.6 312.8,424.1 "
   id="polygon66" />
		<polygon
   class="st2"
   points="145.3,505.2 147.4,497.1 155.6,494.9 161.5,500.9 159.4,509 151.2,511.2 "
   id="polygon68" />
		<polygon
   class="st2"
   points="175.3,508.3 176.2,502.1 182.2,499.7 187.1,503.7 186.2,510 180.2,512.3 "
   id="polygon70" />
		<polygon
   class="st2"
   points="192.9,483.8 193.1,480.2 196.3,478.6 199.3,480.6 199.1,484.2 195.9,485.8 "
   id="polygon72" />
		<polygon
   class="st2"
   points="267.6,513.3 268.6,507 274.5,504.7 279.5,508.7 278.5,515 272.6,517.3 "
   id="polygon74" />
		<polygon
   class="st2"
   points="245.8,514.6 247.7,510 252.7,509.4 255.6,513.4 253.7,517.9 248.8,518.5 "
   id="polygon76" />
		<polygon
   class="st2"
   points="235.6,534.2 230.9,535.8 227,532.5 228,527.5 232.8,525.9 236.6,529.2 "
   id="polygon78" />
		<polygon
   class="st2"
   points="201,514 203.5,518.4 208.6,518.4 211.1,514 208.6,509.6 203.5,509.6 "
   id="polygon80" />
		<polygon
   class="st2"
   points="215.3,506.4 217.9,499.1 225.6,497.8 230.5,503.7 227.9,511 220.2,512.3 "
   id="polygon82" />
		<polygon
   class="st2"
   points="112.6,485.3 113.7,481.2 117.8,480.1 120.7,483.1 119.6,487.2 115.6,488.2 "
   id="polygon84" />
		<polygon
   class="st2"
   points="129.6,484.8 131.6,480.2 136.5,479.6 139.5,483.6 137.5,488.2 132.6,488.8 "
   id="polygon86" />
		<rect
   x="253.5"
   y="285.5"
   class="st8"
   width="3.9000001"
   height="14"
   id="rect88" />
		<path
   class="st9"
   d="m 257.3,284.3 c 0,0 -1.5,4.6 -7.2,1.8 0,0 -7.4,2.6 -7.4,-4.4 0,0 -4.9,1.8 -4.1,-4.9 0,0 -5.6,-3.3 -2.6,-7.7 0,0 -4.6,-5.4 2,-8.7 0,0 -1.8,-5.9 2.8,-7.4 0,0 -3.1,-5.4 1.8,-7.9 0,0 -1.8,-5.6 4.6,-7.7 0,0 -0.3,-4.1 2.8,-4.4 0,0 -0.3,-5.9 5.4,-5.9 0.2,0 0.3,0 0.5,0"
   id="path90" />
		<path
   class="st10"
   d="m 255.8,227.1 c 5.3,0.2 7.2,3.7 6.2,6.4 0,0 10.5,3.9 6.2,11.3 0,0 5.1,1.8 3.6,8.5 0,0 7.4,3.1 3.3,9.5 0,0 4.9,6.7 0,10.3 0,0 1.3,6.2 -3.3,6.7 0,0 -0.3,4.9 -6.7,4.4 0,0 -3.2,3.9 -8.5,0"
   id="path92" />
		<line
   class="st11"
   x1="256.5"
   y1="226.89999"
   x2="256.5"
   y2="285.5"
   id="line94" />
		<path
   class="st12"
   d="m 215.6,251.5 c 0,0 -6.3,-5.4 -14,0 0,0 -6.1,-1.9 -8.7,3 0,0 -11.1,-1.2 -11.6,7.6 0,0 -5.6,4.5 1.5,8.1 0,0 1.5,7.9 11.4,6.7 0,0 11.1,8.4 19.6,-1 0,0 6.5,3.4 9.7,-0.7 0,0 8.2,-1.5 4.8,-8.6 0,0 6.1,-8.4 -3.6,-10.6 -0.1,0.1 -0.6,-5.5 -9.1,-4.5 z"
   id="path96" />
		<rect
   x="200.89999"
   y="260.39999"
   class="st8"
   width="6.5"
   height="39.099998"
   id="rect98" />
		<path
   class="st13"
   d="m 192,230.3 c 0,0 6.9,-7.3 15.4,0 0,0 6.6,-2.5 9.5,4.1 0,0 12.2,-1.6 12.7,10.3 0,0 6.1,6.2 -1.6,11 0,0 -1.6,10.8 -12.4,9.2 0,0 -12.2,11.5 -21.4,-1.4 0,0 -7.1,4.6 -10.6,-0.9 0,0 -9,-2.1 -5.3,-11.7 0,0 -6.6,-11.5 4,-14.4 -0.1,-0.1 0.5,-7.6 9.7,-6.2 z"
   id="path100" />
		<path
   d="m 170.9,220.6 -16.3,-43.1 c 0,-0.1 -0.1,-0.1 -0.1,-0.2 -0.3,-0.3 -0.7,-0.3 -1,0 0,0.1 -0.1,0.1 -0.1,0.2 l -16.3,43.1 c -0.1,0.2 0,0.4 0.1,0.6 0.1,0.2 0.3,0.3 0.5,0.3 h 32.7 c 0.2,0 0.4,-0.1 0.5,-0.3 0,-0.2 0,-0.4 0,-0.6 z m -32.4,-0.5 14.7,-38.8 0.7,-1.7 0.7,1.7 14.7,38.8 z"
   id="path102" />
		<polygon
   class="st14"
   points="154.6,181.3 169.3,220.1 154.6,220.1 "
   id="polygon104" />
		<polygon
   class="st15"
   points="138.5,220.1 153.2,181.3 153.2,220.1 "
   id="polygon106" />
		<rect
   x="152.7"
   y="221.39999"
   class="st8"
   width="3"
   height="8.6000004"
   id="rect108" />
		<path
   d="m 154.6,177.7 v 43.1 c 0,0.4 -0.3,0.7 -0.7,0.7 -0.4,0 -0.7,-0.3 -0.7,-0.7 v -43.1 c 0,-0.1 0,-0.2 0,-0.2 0,-0.1 0.1,-0.1 0.1,-0.2 0.1,-0.1 0.3,-0.2 0.5,-0.2 0.2,0 0.4,0.1 0.5,0.2 0,0.1 0.1,0.1 0.1,0.2 0.1,0.1 0.2,0.1 0.2,0.2 z"
   id="path110" />
		<path
   class="st12"
   d="m 303.3,199.2 c 0,0 -4.9,-4.2 -10.9,0 0,0 -4.7,-1.4 -6.8,2.4 0,0 -8.6,-0.9 -9,5.9 0,0 -4.3,3.5 1.1,6.3 0,0 1.1,6.1 8.8,5.2 0,0 8.6,6.5 15.2,-0.8 0,0 5.1,2.6 7.5,-0.5 0,0 6.4,-1.2 3.8,-6.6 0,0 4.7,-6.5 -2.8,-8.2 0,-0.2 -0.3,-4.5 -6.9,-3.7 z"
   id="path112" />
		<rect
   x="291.89999"
   y="206.10001"
   class="st8"
   width="5"
   height="30.299999"
   id="rect114" />
		<path
   class="st13"
   d="m 285,182.8 c 0,0 5.3,-5.7 11.9,0 0,0 5.1,-1.9 7.4,3.2 0,0 9.4,-1.2 9.8,8 0,0 4.7,4.8 -1.2,8.5 0,0 -1.2,8.3 -9.6,7.1 0,0 -9.4,8.9 -16.6,-1.1 0,0 -5.5,3.6 -8.2,-0.7 0,0 -7,-1.6 -4.1,-9.1 0,0 -5.1,-8.9 3.1,-11.2 0,0.1 0.4,-5.8 7.5,-4.7 z"
   id="path116" />
		<rect
   x="318.5"
   y="243.10001"
   class="st8"
   width="2.9000001"
   height="8.3999996"
   id="rect118" />
		<path
   class="st9"
   d="m 321.4,241.2 c 0,0 -1.2,3.4 -5.4,1.3 0,0 -5.6,1.9 -5.6,-3.3 0,0 -3.7,1.3 -3.1,-3.6 0,0 -4.2,-2.5 -1.9,-5.8 0,0 -3.5,-4 1.5,-6.5 0,0 -1.3,-4.4 2.1,-5.6 0,0 -2.3,-4 1.3,-5.9 0,0 -1.3,-4.2 3.5,-5.8 0,0 -0.2,-3.1 2.1,-3.3 0,0 -0.2,-4.4 4,-4.4 0.1,0 0.3,0 0.4,0"
   id="path120" />
		<path
   class="st10"
   d="m 320.3,198.4 c 3.9,0.2 5.3,2.7 4.6,4.8 0,0 7.9,2.9 4.6,8.4 0,0 3.8,1.3 2.7,6.3 0,0 5.6,2.3 2.5,7.1 0,0 3.7,5 0,7.7 0,0 1,4.6 -2.5,5 0,0 -0.2,3.6 -5,3.3 0,0 -2.4,2.9 -6.4,0"
   id="path122" />
		<line
   class="st11"
   x1="320.79999"
   y1="198.3"
   x2="320.79999"
   y2="242.10001"
   id="line124" />
		<path
   class="st12"
   d="m 309.6,247.2 c 0,0 -4.9,-4.2 -10.9,0 0,0 -4.7,-1.4 -6.8,2.4 0,0 -8.6,-0.9 -9,5.9 0,0 -4.3,3.5 1.1,6.3 0,0 1.1,6.1 8.8,5.2 0,0 8.6,6.5 15.2,-0.8 0,0 5.1,2.6 7.5,-0.5 0,0 6.4,-1.2 3.8,-6.6 0,0 4.7,-6.5 -2.8,-8.2 0,-0.2 -0.4,-4.5 -6.9,-3.7 z"
   id="path126" />
		<rect
   x="298.10001"
   y="254.10001"
   class="st8"
   width="5"
   height="30.299999"
   id="rect128" />
		<path
   class="st13"
   d="m 291.3,230.7 c 0,0 5.3,-5.7 11.9,0 0,0 5.1,-1.9 7.4,3.2 0,0 9.4,-1.2 9.8,8 0,0 4.7,4.8 -1.2,8.5 0,0 -1.2,8.3 -9.6,7.1 0,0 -9.4,8.9 -16.6,-1.1 0,0 -5.5,3.5 -8.2,-0.7 0,0 -7,-1.6 -4.1,-9.1 0,0 -5.1,-8.9 3.1,-11.2 -0.1,0.1 0.3,-5.7 7.5,-4.7 z"
   id="path130" />
		<rect
   x="155.60001"
   y="277.5"
   class="st8"
   width="2.9000001"
   height="12"
   id="rect132" />
		<path
   class="st9"
   d="m 158.5,278.5 c 0,0 -1.1,3.5 -5.4,1.3 0,0 -5.6,1.9 -5.6,-3.3 0,0 -3.6,1.3 -3.1,-3.6 0,0 -4.2,-2.5 -1.9,-5.8 0,0 -3.5,-4 1.5,-6.5 0,0 -1.3,-4.4 2.1,-5.6 0,0 -2.3,-4 1.3,-5.9 0,0 -1.3,-4.2 3.5,-5.8 0,0 -0.2,-3.1 2.1,-3.3 0,0 -0.2,-4.4 4,-4.4 0.1,0 0.3,0 0.4,0"
   id="path134" />
		<path
   class="st10"
   d="m 157.4,235.7 c 3.9,0.2 5.4,2.7 4.6,4.8 0,0 7.9,2.9 4.6,8.4 0,0 3.8,1.3 2.7,6.3 0,0 5.6,2.3 2.5,7.1 0,0 3.6,5 0,7.7 0,0 1,4.6 -2.5,5 0,0 -0.2,3.6 -5,3.3 0,0 -2.4,2.9 -6.4,0"
   id="path136" />
		<line
   class="st11"
   x1="157.89999"
   y1="235.60001"
   x2="157.89999"
   y2="279.39999"
   id="line138" />
		<rect
   x="129.39999"
   y="237.2"
   class="st8"
   width="2.9000001"
   height="11.1"
   id="rect140" />
		<g
   id="g146">
			<path
   class="st9"
   d="m 132.3,238 c 0,0 -1.1,3.4 -5.4,1.3 0,0 -5.6,1.9 -5.6,-3.3 0,0 -3.6,1.3 -3.1,-3.6 0,0 -4.2,-2.5 -1.9,-5.8 0,0 -3.5,-4 1.5,-6.5 0,0 -1.3,-4.4 2.1,-5.6 0,0 -2.3,-4 1.3,-5.9 0,0 -1.3,-4.2 3.5,-5.8 0,0 -0.2,-3.1 2.1,-3.3 0,0 -0.2,-4.4 4,-4.4 0.1,0 0.3,0 0.4,0"
   id="path142" />
			<path
   class="st10"
   d="m 131.2,195.2 c 3.9,0.2 5.4,2.7 4.6,4.8 0,0 7.9,2.9 4.6,8.4 0,0 3.8,1.3 2.7,6.3 0,0 5.6,2.3 2.5,7.1 0,0 3.6,5 0,7.7 0,0 1,4.6 -2.5,5 0,0 -0.2,3.6 -5,3.3 0,0 -2.4,2.9 -6.4,0"
   id="path144" />
		</g>
		<line
   class="st11"
   x1="131.7"
   y1="195.10001"
   x2="131.7"
   y2="238.89999"
   id="line148" />
		<rect
   x="178.10001"
   y="196.60001"
   class="st8"
   width="2.9000001"
   height="11"
   id="rect150" />
		<path
   class="st9"
   d="m 180.9,197.2 c 0,0 -1.1,3.4 -5.4,1.3 0,0 -5.6,1.9 -5.6,-3.3 0,0 -3.6,1.3 -3.1,-3.6 0,0 -4.2,-2.5 -1.9,-5.8 0,0 -3.5,-4 1.5,-6.5 0,0 -1.3,-4.4 2.1,-5.6 0,0 -2.3,-4 1.3,-5.9 0,0 -1.3,-4.2 3.5,-5.8 0,0 -0.2,-3.1 2.1,-3.3 0,0 -0.2,-4.4 4,-4.4 0.1,0 0.3,0 0.4,0"
   id="path152" />
		<path
   class="st10"
   d="m 179.8,154.5 c 3.9,0.2 5.4,2.7 4.6,4.8 0,0 7.9,2.9 4.6,8.4 0,0 3.8,1.3 2.7,6.3 0,0 5.6,2.3 2.5,7.1 0,0 3.6,5 0,7.7 0,0 1,4.6 -2.5,5 0,0 -0.2,3.6 -5,3.3 0,0 -2.4,2.9 -6.4,0"
   id="path154" />
		<line
   class="st11"
   x1="180.3"
   y1="154.3"
   x2="180.3"
   y2="198.10001"
   id="line156" />
		<path
   d="m 219.5,196.7 -16.3,-43.1 c 0,-0.1 -0.1,-0.1 -0.1,-0.2 -0.3,-0.3 -0.7,-0.3 -1,0 0,0.1 -0.1,0.1 -0.1,0.2 l -16.3,43.1 c -0.1,0.2 0,0.4 0.1,0.6 0.1,0.2 0.3,0.3 0.5,0.3 H 219 c 0.2,0 0.4,-0.1 0.5,-0.3 0.1,-0.2 0.1,-0.4 0,-0.6 z m -32.3,-0.4 14.7,-38.8 0.7,-1.7 0.7,1.7 14.7,38.8 z"
   id="path158" />
		<polygon
   class="st14"
   points="203.2,157.5 217.9,196.3 203.2,196.3 "
   id="polygon160" />
		<polygon
   class="st15"
   points="187.2,196.3 201.9,157.5 201.9,196.3 "
   id="polygon162" />
		<rect
   x="201.39999"
   y="197.60001"
   class="st8"
   width="3"
   height="8.6000004"
   id="rect164" />
		<path
   d="M 203.2,153.9 V 197 c 0,0.4 -0.3,0.7 -0.7,0.7 -0.4,0 -0.7,-0.3 -0.7,-0.7 v -43.1 c 0,-0.1 0,-0.2 0,-0.2 0,-0.1 0.1,-0.1 0.1,-0.2 0.1,-0.1 0.3,-0.2 0.5,-0.2 0.2,0 0.4,0.1 0.5,0.2 0,0.1 0.1,0.1 0.1,0.2 0.2,0 0.2,0.1 0.2,0.2 z"
   id="path166" />
		<rect
   x="259.5"
   y="203.89999"
   class="st8"
   width="2.9000001"
   height="11.6"
   id="rect168" />
		<path
   class="st9"
   d="m 262.4,205.2 c 0,0 -1.1,3.4 -5.4,1.3 0,0 -5.6,1.9 -5.6,-3.3 0,0 -3.6,1.3 -3.1,-3.6 0,0 -4.2,-2.5 -1.9,-5.8 0,0 -3.5,-4 1.5,-6.5 0,0 -1.3,-4.4 2.1,-5.6 0,0 -2.3,-4 1.3,-5.9 0,0 -1.3,-4.2 3.5,-5.8 0,0 -0.2,-3.1 2.1,-3.3 0,0 -0.2,-4.4 4,-4.4 0.1,0 0.3,0 0.4,0"
   id="path170" />
		<path
   class="st10"
   d="m 261.3,162.4 c 3.9,0.2 5.4,2.7 4.6,4.8 0,0 7.9,2.9 4.6,8.4 0,0 3.8,1.3 2.7,6.3 0,0 5.6,2.3 2.5,7.1 0,0 3.6,5 0,7.7 0,0 1,4.6 -2.5,5 0,0 -0.2,3.6 -5,3.3 0,0 -2.4,2.9 -6.4,0"
   id="path172" />
		<line
   class="st11"
   x1="261.79999"
   y1="162.3"
   x2="261.79999"
   y2="206.10001"
   id="line174" />
		<path
   class="st12"
   d="m 240.6,188.4 c 0,0 -4.9,-4.2 -10.9,0 0,0 -4.7,-1.4 -6.8,2.4 0,0 -8.6,-0.9 -9,5.9 0,0 -4.3,3.5 1.1,6.3 0,0 1.1,6.1 8.8,5.2 0,0 8.6,6.5 15.2,-0.8 0,0 5.1,2.6 7.5,-0.5 0,0 6.4,-1.2 3.8,-6.6 0,0 4.7,-6.5 -2.8,-8.2 0,-0.1 -0.4,-4.4 -6.9,-3.7 z"
   id="path176" />
		<rect
   x="229.2"
   y="195.3"
   class="st8"
   width="5"
   height="30.299999"
   id="rect178" />
		<path
   class="st13"
   d="m 222.3,172 c 0,0 5.3,-5.7 11.9,0 0,0 5.1,-1.9 7.4,3.2 0,0 9.4,-1.2 9.8,8 0,0 4.7,4.8 -1.2,8.5 0,0 -1.2,8.3 -9.6,7.1 0,0 -9.4,8.9 -16.6,-1.1 0,0 -5.5,3.6 -8.2,-0.7 0,0 -7,-1.6 -4.1,-9.1 0,0 -5.1,-8.9 3.1,-11.2 -0.1,0.1 0.4,-5.8 7.5,-4.7 z"
   id="path180" />
		<text
   transform="translate(399.2751,263.7598)"
   class="st16 st17"
   id="text182">O Horizon</text>
		<text
   transform="translate(400.0745,294.209)"
   class="st16 st17"
   id="text184">A Horizon</text>
		<text
   transform="translate(401.054,329.9536)"
   class="st16 st17"
   id="text186">E Horizon</text>
		<text
   transform="translate(400.3024,389.5283)"
   class="st16 st17"
   id="text188">Bt Horizon</text>
		<text
   transform="translate(400.3024,463.0029)"
   class="st16 st17"
   id="text190">C Horizon</text>
		<text
   transform="translate(400.3024,544.4219)"
   class="st16 st17"
   id="text192">R Horizon</text>
	</g>
	<g
   id="Pc4qtT_1_">
		
			<image
   style="overflow:visible"
   width="476"
   height="474"
   id="Pc4qtT"
   xlink:href="3CB8A7D95548FEDB.png"
   transform="matrix(0.1392,0,0,0.1392,198.3608,68.811)">
		</image>
	</g>
</g>
</svg>
