<?xml version="1.0" encoding="UTF-8" standalone="no"?>
<!-- Generator: Adobe Illustrator 24.0.0, SVG Export Plug-In . SVG Version: 6.00 Build 0)  -->

<svg
   version="1.1"
   id="Capa_1"
   x="0px"
   y="0px"
   viewBox="0 0 611.20001 653.00002"
   xml:space="preserve"
   sodipodi:docname="sostenibilidad_11a.svg"
   width="611.20001"
   height="653"
   inkscape:version="1.1.1 (3bf5ae0d25, 2021-09-20)"
   xmlns:inkscape="http://www.inkscape.org/namespaces/inkscape"
   xmlns:sodipodi="http://sodipodi.sourceforge.net/DTD/sodipodi-0.dtd"
   xmlns="http://www.w3.org/2000/svg"
   xmlns:svg="http://www.w3.org/2000/svg"><defs
   id="defs581" /><sodipodi:namedview
   id="namedview579"
   pagecolor="#ffffff"
   bordercolor="#666666"
   borderopacity="1.0"
   inkscape:pageshadow="2"
   inkscape:pageopacity="0.0"
   inkscape:pagecheckerboard="0"
   showgrid="false"
   inkscape:zoom="0.75537771"
   inkscape:cx="301.83575"
   inkscape:cy="351.47979"
   inkscape:window-width="1600"
   inkscape:window-height="835"
   inkscape:window-x="0"
   inkscape:window-y="32"
   inkscape:window-maximized="1"
   inkscape:current-layer="Capa_1" />
<style
   type="text/css"
   id="style2">
	.st0{fill:#D9F0ED;}
	.st1{fill:#890B0B;}
	.st2{fill:none;stroke:#3A5370;stroke-width:3;stroke-miterlimit:10;}
	.st3{fill:#3A5370;}
	.st4{fill:#020100;}
	.st5{fill:#51A000;stroke:#010200;stroke-miterlimit:10;}
	.st6{fill:#B08863;stroke:#010200;stroke-miterlimit:10;}
	.st7{fill:#3B8400;stroke:#010200;stroke-miterlimit:10;}
	.st8{fill:#91D147;stroke:#010200;stroke-miterlimit:10;}
	.st9{fill:#6BA01F;stroke:#010200;stroke-miterlimit:10;}
	.st10{fill:none;stroke:#010200;stroke-miterlimit:10;}
	.st11{fill:#0C1630;}
	.st12{fill:#E6DDC6;}
	.st13{fill:#B3B2AE;}
	.st14{fill:#E5DDC6;}
	.st15{fill:#F6F1E4;}
	.st16{fill:#CBC0A1;}
	.st17{fill:#E5DDC7;}
	.st18{fill:#F4F1EC;}
	.st19{fill:#E5DEC6;}
	.st20{fill:#CAC1A0;}
	.st21{fill:#E6DDC5;}
	.st22{fill:#99D5DB;}
	.st23{fill:#E6DCC6;}
	.st24{fill:none;stroke:#0C1630;stroke-width:5;stroke-linecap:round;stroke-linejoin:round;stroke-miterlimit:10;}
	.st25{fill:#FFFFFB;}
	.st26{fill:#305370;}
	.st27{fill:#E6DCC8;}
	.st28{fill:#B5B2AF;}
	.st29{fill:#18DEED;}
	.st30{fill:none;stroke:#0C1630;stroke-width:3;stroke-linecap:round;stroke-linejoin:round;stroke-miterlimit:10;}
	.st31{fill:none;stroke:#ECA831;stroke-width:3;stroke-linecap:round;stroke-linejoin:round;stroke-miterlimit:10;}
	.st32{fill:#FBC269;}
	.st33{fill:#ECA831;}
	.st34{fill:none;stroke:#0C1630;stroke-linecap:round;stroke-linejoin:round;stroke-miterlimit:10;}
	.st35{fill:none;stroke:#ECA831;stroke-linecap:round;stroke-linejoin:round;stroke-miterlimit:10;}
	.st36{fill:#848484;stroke:#000000;stroke-miterlimit:10;}
	.st37{fill:#6C8AA8;}
	.st38{fill:#FAF4DC;}
	.st39{fill:#F9CF1E;}
	.st40{fill:#102030;}
	.st41{fill:none;}
	.st42{fill:#020000;}
	.st43{fill:#E8F9F6;}
</style>
<g
   id="g576"
   transform="translate(-173.9,-49)">
	<rect
   x="174.2"
   y="49"
   class="st0"
   width="610.09998"
   height="234.2"
   id="rect4" />
	<path
   class="st1"
   d="m 308.3,120.5 c 0,2.7 0,5.1 0,7.8 3.4,0 6.5,0 9.8,0 0,1.9 0,3.6 0,5.6 3.5,0 6.9,0 10.3,0 0,3 0,5.7 0,8.6 -1.8,0 -3.6,0 -5.6,0 6,47.1 11.9,93.8 17.9,140.7 -23.5,0 -46.7,0 -70.2,0 6,-46.9 11.9,-93.6 17.9,-140.7 -2,0 -3.8,0 -5.6,0 0,-2.9 0,-5.6 0,-8.6 3.4,0 6.8,0 10.3,0 0,-2 0,-3.6 0,-5.6 3.3,0 6.4,0 9.8,0 0,-2.7 0,-5.2 0,-7.9 1.9,0.1 3.4,0.1 5.4,0.1 z M 280.2,266 c 7.3,-7.6 14.1,-14.6 21,-21.8 -5.3,-5.6 -10.5,-10.9 -16.1,-16.7 -1.6,13 -3.2,25.4 -4.9,38.5 z m 50.2,-0.6 c 0.2,-0.1 0.4,-0.1 0.5,-0.2 -1.6,-12.4 -3.2,-24.8 -4.8,-37.7 -5.6,5.8 -10.7,11.2 -16,16.7 6.9,7.2 13.6,14.2 20.3,21.2 z m -7,-54.4 c 0.2,0 0.4,-0.1 0.6,-0.1 -1.3,-10 -2.5,-19.9 -3.9,-30.4 -4.1,4.8 -7.9,9.1 -11.6,13.4 5.1,5.8 10,11.4 14.9,17.1 z m -20.7,-17.2 c -3.8,-4.4 -7.5,-8.7 -11.6,-13.4 -1.4,10.6 -2.6,20.6 -3.9,30.5 0.1,0.1 0.3,0.1 0.4,0.2 5,-5.7 10,-11.4 15.1,-17.3 z m 6.1,58.4 c -0.2,0.1 -0.4,0.1 -0.6,0.1 0,5.9 0,11.8 0.1,17.8 0,0.5 1,1.2 1.6,1.3 5.3,0.1 10.7,0.1 16,0.1 0.2,0 0.5,-0.2 1,-0.4 -6.1,-6.5 -12.1,-12.7 -18.1,-18.9 z m -24.7,19 c 6.6,0 12.6,0 18.7,0 0,-6.5 0,-12.7 0,-19.4 -6.3,6.6 -12.3,12.8 -18.7,19.4 z m 31.5,-126.5 c -2.5,3.2 -4.8,5.9 -6.8,8.7 -0.5,0.6 -0.6,2.1 -0.1,2.7 3,4.1 6.2,8.1 9.4,12.2 0.1,-0.1 0.3,-0.1 0.5,-0.2 -1,-7.6 -2,-15.2 -3,-23.4 z m -19.9,-0.1 c -1,8.2 -2,15.8 -3,23.4 3.6,-3.9 6.8,-7.9 9.9,-12 0.4,-0.6 0.4,-1.9 0,-2.5 -2.1,-2.8 -4.3,-5.5 -6.9,-8.9 z m 26,71.2 c -4.6,-5.3 -8.8,-10.1 -12.9,-14.9 -0.5,4.8 -0.5,9.4 -0.5,13.9 0,0.3 0.8,0.9 1.2,1 3.9,0 7.7,0 12.2,0 z m -18.8,-15.4 c -4.5,5.3 -8.7,10.1 -13.2,15.3 4.7,0 8.9,0 13.2,0 0,-5 0,-9.8 0,-15.3 z m 5.6,23 c 0,4.4 0,8.6 0,13.2 4.3,-4.5 8.3,-8.7 12.6,-13.2 -4.6,0 -8.5,0 -12.6,0 z m -17.7,0.1 c -0.2,0.2 -0.3,0.4 -0.5,0.7 4.4,3.8 8.7,7.6 12.5,11 0,-3.2 0,-7.4 0,-11.7 -4.1,0 -8,0 -12,0 z M 317,171.9 c -3,-3.8 -5.6,-7.1 -8.6,-10.9 0,4 0,7.4 0,10.9 2.8,0 5.5,0 8.6,0 z m -14.1,-11 c -3,3.9 -5.7,7.3 -8.5,11 3.1,0 5.8,0 8.5,0 0,-3.5 0,-6.9 0,-11 z m 5.5,26.4 c 3,-3.5 5.5,-6.4 8.3,-9.7 -3.1,0 -5.6,0 -8.3,0 0,3.1 0,6 0,9.7 z m -13.9,-9.7 c 2.9,3.3 5.5,6.3 8.3,9.6 0,-3.6 0,-6.6 0,-9.6 -2.7,0 -5.2,0 -8.3,0 z m 18.7,-35 c -1.8,0 -3.2,0 -4.8,0 0,1.9 0,3.7 0,6.1 1.8,-2.2 3.1,-4 4.8,-6.1 z m -10.4,6.1 c 0,-2.4 0,-4.2 0,-6 -1.6,0 -3,0 -4.7,0 1.7,2.1 3,3.9 4.7,6 z"
   id="path6" />
	<path
   class="st2"
   d="m 408.4,260.3 h -64.9 c 0,0 -5.5,1 -5.5,5.9 0,4.9 0,18.6 0,18.6"
   id="path8" />
	<line
   class="st2"
   x1="453.5"
   y1="263.39999"
   x2="509.70001"
   y2="263.39999"
   id="line10" />
	<g
   id="g16">
		<circle
   class="st3"
   cx="426.89999"
   cy="284.79999"
   id="ellipse12"
   r="38.5" />
		<path
   class="st4"
   d="m 426.9,246.8 c 21,0 38,17.1 38,38 0,21 -17.1,38 -38,38 -20.9,0 -38,-17.1 -38,-38 -0.1,-21 17,-38 38,-38 m 0,-1 c -21.6,0 -39,17.5 -39,39 0,21.5 17.5,39 39,39 21.5,0 39,-17.5 39,-39 0,-21.6 -17.5,-39 -39,-39 z"
   id="path14" />
	</g>
	<g
   id="g24">
		<path
   class="st5"
   d="m 730,230.2 c 0,0 -6.9,-5.9 -15.3,0 0,0 -6.6,-2 -9.5,3.3 0,0 -12.2,-1.3 -12.7,8.3 0,0 -6.1,5 1.6,8.8 0,0 1.6,8.6 12.4,7.3 0,0 12.2,9.2 21.4,-1.1 0,0 7.1,3.7 10.6,-0.7 0,0 9,-1.6 5.3,-9.4 0,0 6.6,-9.2 -4,-11.6 0,0.1 -0.5,-6 -9.8,-4.9 z"
   id="path18" />
		<rect
   x="714"
   y="239.89999"
   class="st6"
   width="7"
   height="42.599998"
   id="rect20" />
		<path
   class="st7"
   d="m 704.3,207.1 c 0,0 7.5,-8 16.7,0 0,0 7.2,-2.8 10.4,4.5 0,0 13.3,-1.8 13.8,11.2 0,0 6.6,6.8 -1.7,12 0,0 -1.7,11.7 -13.6,10 0,0 -13.3,12.5 -23.4,-1.5 0,0 -7.8,5 -11.5,-1 0,0 -9.8,-2.2 -5.8,-12.7 0,0 -7.2,-12.5 4.3,-15.7 0.2,-0.1 0.7,-8.3 10.8,-6.8 z"
   id="path22" />
	</g>
	<g
   id="g36">
		<rect
   x="670.5"
   y="239.89999"
   class="st6"
   width="7"
   height="42.599998"
   id="rect26" />
		<g
   id="g32">
			<path
   class="st8"
   d="m 673.8,266.7 c 0,0 -1.7,5.1 -8,2 0,0 -8.3,2.9 -8.3,-4.9 0,0 -5.4,2 -4.6,-5.4 0,0 -6.3,-3.7 -2.8,-8.6 0,0 -5.1,-6 2.3,-9.7 0,0 -2,-6.6 3.1,-8.3 0,0 -3.4,-6 2,-8.9 0,0 -2,-6.3 5.1,-8.6 0,0 -0.3,-4.6 3.1,-4.9 0,0 -0.3,-6.6 6,-6.6 0.2,0 0.4,0 0.6,0"
   id="path28" />
			<path
   class="st9"
   d="m 672.2,203.1 c 5.8,0.2 8,4.1 6.8,7.1 0,0 11.7,4.3 6.8,12.6 0,0 5.7,2 4,9.4 0,0 8.3,3.4 3.7,10.6 0,0 5.4,7.4 0,11.4 0,0 1.4,6.8 -3.7,7.4 0,0 -0.3,5.4 -7.4,4.9 0,0 -3.5,4.3 -9.5,0"
   id="path30" />
		</g>
		<line
   class="st10"
   x1="673"
   y1="202.89999"
   x2="673"
   y2="268"
   id="line34" />
	</g>
	<g
   id="g48">
		<rect
   x="204.60001"
   y="239.89999"
   class="st6"
   width="7"
   height="42.599998"
   id="rect38" />
		<g
   id="g44">
			<path
   class="st8"
   d="m 207.9,266.7 c 0,0 -1.7,5.1 -8,2 0,0 -8.3,2.9 -8.3,-4.9 0,0 -5.4,2 -4.6,-5.4 0,0 -6.3,-3.7 -2.9,-8.6 0,0 -5.1,-6 2.3,-9.7 0,0 -2,-6.6 3.1,-8.3 0,0 -3.4,-6 2,-8.9 0,0 -2,-6.3 5.1,-8.6 0,0 -0.3,-4.6 3.1,-4.9 0,0 -0.3,-6.6 6,-6.6 0.2,0 0.4,0 0.6,0"
   id="path40" />
			<path
   class="st9"
   d="m 206.2,203.1 c 5.9,0.2 8,4.1 6.9,7.1 0,0 11.7,4.3 6.9,12.6 0,0 5.7,2 4,9.4 0,0 8.3,3.4 3.7,10.6 0,0 5.4,7.4 0,11.4 0,0 1.4,6.8 -3.7,7.4 0,0 -0.3,5.4 -7.4,4.9 0,0 -3.5,4.3 -9.5,0"
   id="path42" />
		</g>
		<line
   class="st10"
   x1="207"
   y1="202.89999"
   x2="207"
   y2="268"
   id="line46" />
	</g>
	<circle
   class="st11"
   cx="306.60001"
   cy="285.89999"
   r="22.200001"
   id="circle50" />
	<g
   id="g470">
		<path
   d="m 174.9,287.5 v 0 h -0.4 c -0.4,0.2 -0.6,0.3 -0.6,65.2 0.1,34.3 0.2,82.1 0.4,142.1 0.1,19.1 0.1,38.3 0.2,56.8 v 0.2 c 0.3,80.4 0.7,148.8 0.7,149.7 V 702 H 785 V 287.5 Z M 784,701.1 H 176.2 c 0,-2.3 -0.1,-12.6 -0.1,-28.5 v -0.9 c -0.1,-18.1 -0.2,-43.1 -0.3,-71.9 v -0.9 c -0.1,-14.8 -0.1,-30.5 -0.2,-46.8 0,-0.3 0,-0.6 0,-0.9 0,-5.1 0,-10.2 -0.1,-15.3 0,-0.3 0,-0.6 0,-0.9 0,-4.2 0,-8.3 -0.1,-12.5 v -0.9 c -0.1,-10 -0.1,-20.2 -0.1,-30.3 v -0.9 c 0,-8.7 -0.1,-17.4 -0.1,-26 0,-0.3 0,-0.6 0,-0.9 0,-7.9 -0.1,-15.8 -0.1,-23.5 0,-0.3 0,-0.6 0,-0.9 0,-12.3 -0.1,-24.2 -0.1,-35.7 0,-0.3 0,-0.6 0,-0.9 0,-3.8 0,-7.5 0,-11.1 v -0.9 c 0,-11.8 -0.1,-22.9 -0.1,-33.2 v -0.9 c 0,-13.9 0,-26.3 0,-36.5 V 319 c 0,-17.1 0.1,-28.1 0.2,-30.2 H 784 Z"
   id="path52" />
		<path
   class="st12"
   d="m 784,672.6 v 28.5 H 176.2 c 0,-2.3 -0.1,-12.6 -0.1,-28.5 z"
   id="path54" />
		<path
   class="st13"
   d="m 784,599.8 v 71.9 H 176 c -0.1,-18.1 -0.2,-43.1 -0.3,-71.9 z"
   id="path56" />
		<path
   class="st14"
   d="m 784,552.9 v 46 H 175.7 c -0.1,-14.8 -0.1,-30.5 -0.2,-46.8 4.8,0.5 26.5,-0.5 79.2,-3.2 26.2,-1.4 51,-2.7 58.2,-2.7 16.9,0 137.2,4.8 216.6,9.8 17.9,1.1 41.4,1.6 66.8,1.6 81.3,0 182.5,-4.5 187.7,-4.7 z"
   id="path58" />
		<path
   class="st15"
   d="M 784,538.2 V 552 c -6,0.3 -179,7.9 -254.4,3.1 -79.4,-5 -199.8,-9.8 -216.7,-9.8 -7.2,0 -32,1.3 -58.2,2.7 -33.2,1.8 -74.3,3.9 -79.2,3.3 0,-5.1 0,-10.2 -0.1,-15.3 11.2,-0.3 177.2,-5.3 229,-5.3 25.7,0 97.8,2.2 167.5,4.2 70.8,2.1 143.8,4.3 170.4,4.3 2.5,0 4.6,0 6.2,-0.1 z"
   id="path60" />
		<path
   class="st16"
   d="m 784,494.4 v 42.8 l -35.6,0.9 c -19,0.5 -99.1,-1.9 -176.5,-4.2 -69.7,-2.1 -141.8,-4.2 -167.5,-4.2 -51.9,0 -217.7,5 -229,5.3 0,-4.2 0,-8.3 -0.1,-12.5 9.3,-0.9 148.7,-14.4 309.9,-8 166,6.6 297.1,9.4 298.4,9.4 V 523 c -1.3,0 -132.4,-2.8 -298.4,-9.4 -160.7,-6.4 -299.8,7 -310,8 -0.1,-10 -0.1,-20.2 -0.1,-30.3 18,-0.6 312,-11 374.8,-6.7 10.3,0.7 22.2,1.6 34.7,2.5 52.7,3.9 120.5,8.8 165.9,8.8 13.6,-0.1 25,-0.5 33.5,-1.5 z"
   id="path62" />
		<path
   class="st17"
   d="m 784,465.3 v 28.1 c -37.3,4.5 -130.8,-2.4 -199.1,-7.4 -12.6,-0.9 -24.5,-1.8 -34.8,-2.5 -62.8,-4.3 -356.5,6 -374.9,6.7 0,-8.7 -0.1,-17.4 -0.1,-26 38.9,-5.6 137.4,-1.4 216.6,2 33.2,1.4 62,2.6 82.8,3 7.9,0.1 17.9,0.2 29.3,0.2 89,0.1 268.1,-3.8 280.2,-4.1 z"
   id="path64" />
		<path
   class="st18"
   d="m 784,440 v 24.4 c -13.5,0.3 -240.1,5.3 -309.4,4 -20.8,-0.4 -49.5,-1.6 -82.8,-3 -79.2,-3.4 -177.7,-7.5 -216.7,-2 0,-7.9 -0.1,-15.8 -0.1,-23.5 14.1,-0.3 240.2,-4.5 324,7.2 27.4,3.8 62.4,5.3 98.7,5.3 78.1,-0.1 161.6,-6.9 186.3,-12.4 z"
   id="path66" />
		<path
   class="st19"
   d="m 784,402.8 v 36.3 c -35.8,8 -198.6,19 -284.8,7 -83.9,-11.6 -310,-7.5 -324.2,-7.2 0,-12.3 -0.1,-24.2 -0.1,-35.7 6.8,-0.4 74.5,-3.9 119.6,-3.1 51.8,1 113,3.5 187.2,7.6 15.2,0.9 35.8,1.2 59,1.2 95.7,0 237.1,-5.9 243.3,-6.1 z"
   id="path68" />
		<path
   class="st20"
   d="m 784,392.5 v 9.3 c -6.9,0.3 -224.1,9.3 -302.2,4.9 -74.1,-4.1 -135.4,-6.6 -187.2,-7.6 -45,-0.8 -112.6,2.7 -119.6,3.1 0,-3.8 0,-7.5 0,-11.1 9.7,-0.3 149.3,-3.9 205.4,-0.4 46.4,2.8 188.8,6.5 279.5,6.5 27.8,0 50.7,-0.4 64.5,-1.2 z"
   id="path70" />
		<path
   class="st21"
   d="m 784,357 v 34.6 l -59.7,3.6 c -59,3.5 -283.4,-1.7 -343.9,-5.4 -56.1,-3.4 -195.5,0.2 -205.4,0.4 0,-11.8 -0.1,-22.9 -0.1,-33.2 z"
   id="path72" />
		<path
   class="st22"
   d="m 784,319.6 v 36.5 H 174.9 c 0,-13.9 0,-26.3 0,-36.5 z"
   id="path74" />
		<path
   class="st23"
   d="m 784,288.4 v 30.2 H 174.9 c 0,-17.1 0.1,-28.1 0.2,-30.2 z"
   id="path76" />
		<rect
   x="174.2"
   y="318.60001"
   width="610.20001"
   height="0.89999998"
   id="rect78" />
		<rect
   x="174.89999"
   y="356.10001"
   width="609.59998"
   height="0.89999998"
   id="rect80" />
		<path
   d="M 784.2,392.5 H 784 l -59.7,3.6 c -13.8,0.8 -36.8,1.2 -64.5,1.2 -90.7,0 -233.1,-3.7 -279.5,-6.5 -56.1,-3.4 -195.7,0.2 -205.4,0.4 -0.3,0 -0.5,0 -0.5,0 v -0.9 c 0.1,0 0.2,0 0.6,0 10,-0.3 149.4,-3.9 205.4,-0.4 60.6,3.7 285,8.9 343.9,5.4 l 59.7,-3.6 h 0.2 z"
   id="path82" />
		<path
   d="m 784.2,402.8 c 0,0 -0.1,0 -0.2,0 -6.2,0.3 -147.6,6.1 -243.3,6.1 -23.2,0 -43.7,-0.4 -59,-1.2 -74.1,-4.1 -135.3,-6.6 -187.2,-7.6 -45,-0.9 -112.8,2.7 -119.6,3.1 -0.3,0 -0.5,0 -0.6,0 l -0.1,-0.9 c 0,0 0.2,0 0.6,0 7,-0.4 74.6,-3.9 119.6,-3.1 51.8,1 113.1,3.5 187.2,7.6 78.2,4.4 295.4,-4.6 302.2,-4.9 0.1,0 0.1,0 0.2,0 z"
   id="path84" />
		<path
   d="m 784.8,439.9 c -0.2,0.1 -0.5,0.1 -0.7,0.2 -24.7,5.4 -108.3,12.2 -186.2,12.3 -36.3,0 -71.4,-1.5 -98.7,-5.3 -83.8,-11.6 -309.9,-7.4 -324,-7.2 -0.4,0 -0.6,0 -0.7,0 V 439 c 0.1,0 0.3,0 0.7,0 14.2,-0.3 240.3,-4.5 324.2,7.2 86.1,11.9 249,0.9 284.8,-7 0.2,0 0.3,-0.1 0.5,-0.1 z"
   id="path86" />
		<path
   d="m 784.7,465.3 c -0.1,0 -0.3,0 -0.6,0 -12.2,0.3 -191.2,4.2 -280.1,4.2 -11.5,0 -21.4,-0.1 -29.3,-0.2 -20.8,-0.4 -49.5,-1.6 -82.8,-3 -79.3,-3.4 -177.8,-7.6 -216.6,-2 -0.2,0 -0.5,0.1 -0.7,0.1 l -0.1,-0.9 c 0.3,0 0.6,-0.1 0.8,-0.1 39,-5.5 137.5,-1.4 216.7,2 33.2,1.4 62,2.6 82.8,3 69.3,1.3 296,-3.7 309.4,-4 0.3,0 0.5,0 0.6,0 z"
   id="path88" />
		<path
   d="m 784.3,494.4 c -0.1,0 -0.2,0 -0.2,0 -8.5,1 -20,1.5 -33.3,1.5 -45.4,0 -113.1,-5 -165.9,-8.8 -12.6,-0.9 -24.5,-1.8 -34.7,-2.5 -62.8,-4.3 -356.8,6 -374.8,6.7 -0.5,0 -0.8,0 -0.8,0 v -0.9 c 0.1,0 0.4,0 0.9,0 18.4,-0.6 312.1,-11 374.9,-6.7 10.3,0.7 22.2,1.6 34.8,2.5 68.3,5 161.9,11.8 199.1,7.4 0,0 0.1,0 0.1,0 z"
   id="path90" />
		<path
   d="m 783.8,522.9 v 0.9 c -1.3,0 -132.4,-2.8 -298.4,-9.4 -161.2,-6.4 -300.6,7.1 -309.9,8 -0.3,0 -0.4,0 -0.5,0 l -0.1,-0.9 c 0.1,0 0.2,0 0.6,-0.1 10.2,-1 149.3,-14.4 310,-8 165.9,6.8 297,9.5 298.3,9.5 z"
   id="path92" />
		<path
   d="m 784.7,538.1 h -0.6 l -35.5,0.9 c -1.6,0 -3.7,0.1 -6.2,0.1 -26.5,0 -99.5,-2.2 -170.4,-4.3 -69.7,-2.1 -141.8,-4.2 -167.5,-4.2 -51.9,0 -217.9,5 -229,5.3 -0.3,0 -0.5,0 -0.6,0 V 535 c 0.1,0 0.2,0 0.6,0 11.3,-0.3 177.2,-5.3 229,-5.3 25.7,0 97.8,2.2 167.5,4.2 77.4,2.3 157.5,4.7 176.5,4.2 l 35.6,-0.9 h 0.6 z"
   id="path94" />
		<path
   d="m 784.2,552.9 c 0,0 -0.1,0 -0.2,0 -5.2,0.2 -106.5,4.7 -187.7,4.7 -25.4,0 -48.9,-0.4 -66.8,-1.6 -79.4,-5 -199.7,-9.8 -216.6,-9.8 -7.2,0 -32,1.3 -58.2,2.7 -52.7,2.8 -74.4,3.8 -79.2,3.2 -0.5,-0.1 -0.8,-0.1 -0.9,-0.2 -0.1,0 -0.1,-0.1 -0.1,-0.1 l 0.1,-0.1 0.6,-0.5 c 0,-0.1 -0.1,-0.1 -0.1,-0.1 0.1,0 0.2,0 0.4,0.1 4.8,0.6 45.9,-1.5 79.2,-3.3 26.2,-1.4 51,-2.7 58.2,-2.7 16.9,0 137.3,4.8 216.7,9.8 75.4,4.8 248.5,-2.8 254.4,-3.1 0.1,0 0.1,0 0.2,0 z"
   id="path96" />
		<rect
   x="174.89999"
   y="598.90002"
   width="609.29999"
   height="0.89999998"
   id="rect98" />
		<rect
   x="175.3"
   y="671.70001"
   width="608.90002"
   height="0.89999998"
   id="rect100" />
		<path
   class="st24"
   d="m 304,288 v 299.1 c 0,0 4.8,49.1 52.2,49.1 47.4,0 224.7,0 224.7,0"
   id="path102" />
		<path
   class="st4"
   d="m 588.5,350.7 c -25.8,0 -49.8,8.3 -69.2,22.3 -0.2,0.1 -0.3,0.2 -0.5,0.3 -29,21.1 -47.8,55.1 -47.8,93.3 0,64 52.7,116 117.4,116 64.7,0 117.4,-52 117.4,-116 0,-64 -52.6,-115.9 -117.3,-115.9 z m 75.2,203.8 c -0.2,0.2 -0.5,0.4 -0.8,0.6 -20.2,16.7 -46.2,26.7 -74.5,26.7 -28.3,0 -54.3,-10 -74.5,-26.7 -0.4,-0.3 -0.8,-0.6 -1.1,-0.9 -22.8,-19.3 -38,-47.2 -40.5,-78.5 0,-0.3 0,-0.6 -0.1,-0.9 -0.2,-2.6 -0.3,-5.3 -0.3,-8 0,-2.3 0.1,-4.6 0.2,-6.9 0,-0.3 0,-0.6 0.1,-0.9 2.4,-34.8 20.5,-65.4 47.3,-84.9 0.4,-0.3 0.9,-0.6 1.3,-0.9 19.1,-13.5 42.4,-21.4 67.6,-21.4 25.2,0 48.5,7.9 67.6,21.4 0.1,0.1 0.2,0.1 0.3,0.2 27.4,19.5 45.9,50.4 48.3,85.6 0,0.3 0,0.5 0.1,0.8 0.1,2.3 0.2,4.7 0.2,7 0,2.7 -0.1,5.3 -0.3,8 0,0.3 0,0.6 -0.1,0.9 -2.4,31.4 -17.7,59.4 -40.8,78.8 z"
   id="path104" />
		<path
   class="st4"
   d="m 588.1,339.1 c -71.2,0 -129.1,57.2 -129.1,127.6 0,70.4 57.9,127.6 129.1,127.6 71.2,0 129.2,-57.2 129.2,-127.6 -0.1,-70.4 -58,-127.6 -129.2,-127.6 z m 0,254.3 c -70.7,0 -128.2,-56.8 -128.2,-126.7 0,-69.9 57.5,-126.7 128.2,-126.7 70.7,0 128.2,56.8 128.2,126.7 0,69.9 -57.5,126.7 -128.2,126.7 z"
   id="path106" />
		<path
   class="st25"
   d="m 588.1,340 c -70.7,0 -128.2,56.8 -128.2,126.7 0,69.9 57.5,126.7 128.2,126.7 70.7,0 128.2,-56.8 128.2,-126.7 C 716.3,396.8 658.8,340 588.1,340 Z m 0.4,242.7 c -64.7,0 -117.4,-52 -117.4,-116 0,-38.2 18.8,-72.2 47.8,-93.3 V 373 h 0.5 c 19.4,-14 43.3,-22.3 69.2,-22.3 64.7,0 117.4,52 117.4,116 -0.2,64 -52.8,116 -117.5,116 z"
   id="path108" />
		<path
   class="st26"
   d="m 704.9,466.7 c 0,2.7 -0.1,5.3 -0.3,8 H 472.3 c -0.2,-2.6 -0.3,-5.3 -0.3,-8 0,-2.3 0.1,-4.6 0.2,-6.9 h 232.5 v -0.1 c 0.1,2.3 0.2,4.7 0.2,7 z"
   id="path110" />
		<path
   class="st27"
   d="M 656,373 H 520.9 c 19.1,-13.5 42.4,-21.4 67.6,-21.4 25.1,0 48.5,8 67.5,21.4 z"
   id="path112" />
		<path
   class="st27"
   d="m 663,555.1 c -20.2,16.7 -46.2,26.7 -74.5,26.7 -28.3,0 -54.3,-10 -74.5,-26.7 z"
   id="path114" />
		<path
   class="st13"
   d="m 704.6,475.6 c -2.5,31.5 -17.8,59.5 -40.8,78.9 v -0.3 h -151 C 490,534.9 474.8,507 472.3,475.7 Z"
   id="path116" />
		<path
   class="st28"
   d="M 704.6,458.9 H 472.3 c 2.4,-34.8 20.5,-65.4 47.3,-84.9 h 136.7 v -0.7 c 27.4,19.4 45.9,50.3 48.3,85.6 z"
   id="path118" />
		<rect
   x="471.5"
   y="458.89999"
   class="st4"
   width="233.2"
   height="0.89999998"
   id="rect120" />
		<rect
   x="471.89999"
   y="474.70001"
   class="st4"
   width="233.3"
   height="0.89999998"
   id="rect122" />
		<rect
   x="518.79999"
   y="373"
   class="st4"
   width="137.5"
   height="0.89999998"
   id="rect124" />
		<rect
   x="512.5"
   y="554.20001"
   class="st4"
   width="151.2"
   height="0.89999998"
   id="rect126" />
		<ellipse
   class="st29"
   cx="488"
   cy="463.89999"
   rx="3.2"
   ry="2.0999999"
   id="ellipse128" />
		<ellipse
   class="st29"
   cx="517.09998"
   cy="468.39999"
   rx="3.2"
   ry="3.7"
   id="ellipse130" />
		<ellipse
   class="st29"
   cx="524.29999"
   cy="465.5"
   rx="2.5999999"
   ry="2.0999999"
   id="ellipse132" />
		<ellipse
   class="st29"
   cx="559.5"
   cy="464.20001"
   rx="3.7"
   ry="2.9000001"
   id="ellipse134" />
		<ellipse
   class="st29"
   cx="592.29999"
   cy="465.79999"
   rx="2.7"
   ry="2.5"
   id="ellipse136" />
		<ellipse
   class="st29"
   cx="600.20001"
   cy="468.29999"
   rx="2.7"
   ry="2.5"
   id="ellipse138" />
		<ellipse
   class="st29"
   cx="645.79999"
   cy="467.10001"
   rx="3.8"
   ry="2.9000001"
   id="ellipse140" />
		<ellipse
   class="st29"
   cx="693.90002"
   cy="464.70001"
   rx="3.3"
   ry="2.3"
   id="ellipse142" />
		<g
   id="g196">
			<g
   id="g176">
				<polyline
   class="st30"
   points="514.6,394.8 508.8,399 509.3,402.7 505.1,409 505.1,425.4 532.5,449.1 532.5,465.5 532.5,483.4       562,505.3 562,523.8 568.1,526.1 572.3,530.1     "
   id="polyline144" />
				<polyline
   class="st30"
   points="566.2,391.1 555.4,405.9 554.7,416.1 538.6,429.1 538.6,443.9 532.5,449.1     "
   id="polyline146" />
				<polyline
   class="st30"
   points="533,398.5 537,401.4 537,409.3 526.7,416.4 522.2,416.4 522.2,428.3 516.7,434.9     "
   id="polyline148" />
				<polyline
   class="st30"
   points="563.3,404 563.3,411.7 554.7,416.1     "
   id="polyline150" />
				<polyline
   class="st30"
   points="563.1,421.2 552.5,431.2 538.6,431.2     "
   id="polyline152" />
				<line
   class="st30"
   x1="496.60001"
   y1="403.20001"
   x2="505.10001"
   y2="409"
   id="line154" />
				<polyline
   class="st30"
   points="520.9,398.7 520.9,409.8 522.2,416.4     "
   id="polyline156" />
				<polyline
   class="st30"
   points="537,409.3 542.2,405.9 544.9,402.4     "
   id="polyline158" />
				<polyline
   class="st30"
   points="532.5,483.4 528.5,491.9 528.5,505.6 512.7,515.6 505.1,525.6 505.1,530.9     "
   id="polyline160" />
				<polyline
   class="st30"
   points="504.3,537.2 512.5,529.6 512.5,515.6     "
   id="polyline162" />
				<polyline
   class="st30"
   points="506.4,508.7 516.1,499.8 528,499.8     "
   id="polyline164" />
				<polyline
   class="st30"
   points="551,497.6 545.4,505.3 545.4,516.4 552,524     "
   id="polyline166" />
				<line
   class="st30"
   x1="537.20001"
   y1="418.5"
   x2="538.59998"
   y2="429.10001"
   id="line168" />
				<polyline
   class="st30"
   points="555.2,500.8 552.3,509.8 555.4,516.4     "
   id="polyline170" />
				<polyline
   class="st30"
   points="545.4,516.4 538.3,515.3 528.8,522.2 528.8,531.2     "
   id="polyline172" />
				<polyline
   class="st30"
   points="553.9,538.8 559.1,531.7 562,523.8     "
   id="polyline174" />
			</g>
			<line
   class="st31"
   x1="517.70001"
   y1="462.79999"
   x2="528.79999"
   y2="462.79999"
   id="line178" />
			<line
   class="st31"
   x1="538"
   y1="462.79999"
   x2="549"
   y2="462.79999"
   id="line180" />
			<line
   class="st31"
   x1="544.09998"
   y1="452.79999"
   x2="536.70001"
   y2="461.5"
   id="line182" />
			<line
   class="st31"
   x1="523"
   y1="452.79999"
   x2="529.59998"
   y2="459.89999"
   id="line184" />
			<line
   class="st31"
   x1="528.29999"
   y1="467.10001"
   x2="519.59998"
   y2="474.20001"
   id="line186" />
			<line
   class="st31"
   x1="532.79999"
   y1="470.20001"
   x2="529.29999"
   y2="479.20001"
   id="line188" />
			<line
   class="st31"
   x1="538.29999"
   y1="468.39999"
   x2="547.5"
   y2="474.70001"
   id="line190" />
			<circle
   class="st32"
   cx="533.5"
   cy="464.89999"
   r="8.1999998"
   id="circle192" />
			<circle
   class="st33"
   cx="533.40002"
   cy="464.5"
   r="3.8"
   id="circle194" />
		</g>
		<g
   id="g250">
			<g
   id="g230">
				<polyline
   class="st30"
   points="620.6,394.8 614.8,399 615.3,402.7 611.1,409 611.1,425.4 638.5,449.1 638.5,465.5 638.5,483.4       668.1,505.3 668.1,523.8 674.1,526.1 678.3,530.1     "
   id="polyline198" />
				<polyline
   class="st30"
   points="672.3,391.1 661.5,405.9 660.7,416.1 644.6,429.1 644.6,443.9 638.5,449.1     "
   id="polyline200" />
				<polyline
   class="st30"
   points="639,398.5 643,401.4 643,409.3 632.7,416.4 628.2,416.4 628.2,428.3 622.7,434.9     "
   id="polyline202" />
				<polyline
   class="st30"
   points="669.4,404 669.4,411.7 660.7,416.1     "
   id="polyline204" />
				<polyline
   class="st30"
   points="669.1,421.2 658.6,431.2 644.6,431.2     "
   id="polyline206" />
				<line
   class="st30"
   x1="602.70001"
   y1="403.20001"
   x2="611.09998"
   y2="409"
   id="line208" />
				<polyline
   class="st30"
   points="626.9,398.7 626.9,409.8 628.2,416.4     "
   id="polyline210" />
				<polyline
   class="st30"
   points="643,409.3 648.3,405.9 650.9,402.4     "
   id="polyline212" />
				<polyline
   class="st30"
   points="638.5,483.4 634.6,491.9 634.6,505.6 618.7,515.6 611.1,525.6 611.1,530.9     "
   id="polyline214" />
				<polyline
   class="st30"
   points="610.3,537.2 618.5,529.6 618.5,515.6     "
   id="polyline216" />
				<polyline
   class="st30"
   points="612.4,508.7 622.2,499.8 634,499.8     "
   id="polyline218" />
				<polyline
   class="st30"
   points="657,497.6 651.5,505.3 651.5,516.4 658,524     "
   id="polyline220" />
				<line
   class="st30"
   x1="643.29999"
   y1="418.5"
   x2="644.59998"
   y2="429.10001"
   id="line222" />
				<polyline
   class="st30"
   points="661.2,500.8 658.3,509.8 661.5,516.4     "
   id="polyline224" />
				<polyline
   class="st30"
   points="651.5,516.4 644.3,515.3 634.8,522.2 634.8,531.2     "
   id="polyline226" />
				<polyline
   class="st30"
   points="659.9,538.8 665.2,531.7 668.1,523.8     "
   id="polyline228" />
			</g>
			<line
   class="st31"
   x1="623.79999"
   y1="462.79999"
   x2="634.79999"
   y2="462.79999"
   id="line232" />
			<line
   class="st31"
   x1="644"
   y1="462.79999"
   x2="655.09998"
   y2="462.79999"
   id="line234" />
			<line
   class="st31"
   x1="650.09998"
   y1="452.79999"
   x2="642.70001"
   y2="461.5"
   id="line236" />
			<line
   class="st31"
   x1="629"
   y1="452.79999"
   x2="635.59998"
   y2="459.89999"
   id="line238" />
			<line
   class="st31"
   x1="634.29999"
   y1="467.10001"
   x2="625.59998"
   y2="474.20001"
   id="line240" />
			<line
   class="st31"
   x1="638.79999"
   y1="470.20001"
   x2="635.40002"
   y2="479.20001"
   id="line242" />
			<line
   class="st31"
   x1="644.29999"
   y1="468.39999"
   x2="653.59998"
   y2="474.70001"
   id="line244" />
			<circle
   class="st32"
   cx="639.5"
   cy="464.89999"
   r="8.1999998"
   id="circle246" />
			<circle
   class="st33"
   cx="639.5"
   cy="464.5"
   r="3.8"
   id="circle248" />
		</g>
		<g
   id="g304">
			<g
   id="g284">
				<polyline
   class="st34"
   points="355.6,611.2 353.5,612.8 353.7,614.1 352.1,616.4 352.1,622.4 362.2,631.1 362.2,637.1       362.2,643.6 373,651.6 373,658.4 375.2,659.3 376.7,660.7     "
   id="polyline252" />
				<polyline
   class="st34"
   points="374.5,609.9 370.6,615.3 370.3,619 364.4,623.8 364.4,629.2 362.2,631.1     "
   id="polyline254" />
				<polyline
   class="st34"
   points="362.4,612.6 363.8,613.6 363.8,616.5 360,619.1 358.4,619.1 358.4,623.5 356.4,625.9     "
   id="polyline256" />
				<polyline
   class="st34"
   points="373.5,614.6 373.5,617.4 370.3,619     "
   id="polyline258" />
				<polyline
   class="st34"
   points="373.4,620.9 369.5,624.5 364.4,624.5     "
   id="polyline260" />
				<line
   class="st34"
   x1="349"
   y1="614.29999"
   x2="352.10001"
   y2="616.40002"
   id="line262" />
				<polyline
   class="st34"
   points="357.9,612.7 357.9,616.7 358.4,619.1     "
   id="polyline264" />
				<polyline
   class="st34"
   points="363.8,616.5 365.7,615.3 366.7,614     "
   id="polyline266" />
				<polyline
   class="st34"
   points="362.2,643.6 360.7,646.7 360.7,651.7 354.9,655.4 352.1,659.1 352.1,661     "
   id="polyline268" />
				<polyline
   class="st34"
   points="351.8,663.3 354.8,660.5 354.8,655.4     "
   id="polyline270" />
				<polyline
   class="st34"
   points="352.6,652.9 356.2,649.6 360.5,649.6     "
   id="polyline272" />
				<polyline
   class="st34"
   points="368.9,648.8 366.9,651.6 366.9,655.7 369.3,658.5     "
   id="polyline274" />
				<line
   class="st34"
   x1="363.89999"
   y1="619.90002"
   x2="364.39999"
   y2="623.79999"
   id="line276" />
				<polyline
   class="st34"
   points="370.5,650 369.4,653.3 370.6,655.7     "
   id="polyline278" />
				<polyline
   class="st34"
   points="366.9,655.7 364.3,655.3 360.8,657.8 360.8,661.1     "
   id="polyline280" />
				<polyline
   class="st34"
   points="370,663.9 371.9,661.3 373,658.4     "
   id="polyline282" />
			</g>
			<line
   class="st35"
   x1="356.79999"
   y1="636.09998"
   x2="360.79999"
   y2="636.09998"
   id="line286" />
			<line
   class="st35"
   x1="364.20001"
   y1="636.09998"
   x2="368.20001"
   y2="636.09998"
   id="line288" />
			<line
   class="st35"
   x1="366.39999"
   y1="632.40002"
   x2="363.70001"
   y2="635.59998"
   id="line290" />
			<line
   class="st35"
   x1="358.70001"
   y1="632.40002"
   x2="361.10001"
   y2="635"
   id="line292" />
			<line
   class="st35"
   x1="360.60001"
   y1="637.70001"
   x2="357.39999"
   y2="640.29999"
   id="line294" />
			<line
   class="st35"
   x1="362.29999"
   y1="638.79999"
   x2="361"
   y2="642.09998"
   id="line296" />
			<line
   class="st35"
   x1="364.29999"
   y1="638.09998"
   x2="367.70001"
   y2="640.5"
   id="line298" />
			<circle
   class="st32"
   cx="362.5"
   cy="636.79999"
   r="3"
   id="circle300" />
			<circle
   class="st33"
   cx="362.5"
   cy="636.70001"
   r="1.4"
   id="circle302" />
		</g>
		<g
   id="g358">
			<g
   id="g338">
				<polyline
   class="st34"
   points="417.1,611.2 414.9,612.8 415.1,614.1 413.6,616.4 413.6,622.4 423.6,631.1 423.6,637.1       423.6,643.6 434.4,651.6 434.4,658.4 436.6,659.3 438.2,660.7     "
   id="polyline306" />
				<polyline
   class="st34"
   points="436,609.9 432,615.3 431.7,619 425.8,623.8 425.8,629.2 423.6,631.1     "
   id="polyline308" />
				<polyline
   class="st34"
   points="423.8,612.6 425.3,613.6 425.3,616.5 421.5,619.1 419.9,619.1 419.9,623.5 417.8,625.9     "
   id="polyline310" />
				<polyline
   class="st34"
   points="434.9,614.6 434.9,617.4 431.7,619     "
   id="polyline312" />
				<polyline
   class="st34"
   points="434.8,620.9 431,624.5 425.8,624.5     "
   id="polyline314" />
				<line
   class="st34"
   x1="410.5"
   y1="614.29999"
   x2="413.60001"
   y2="616.40002"
   id="line316" />
				<polyline
   class="st34"
   points="419.4,612.7 419.4,616.7 419.9,619.1     "
   id="polyline318" />
				<polyline
   class="st34"
   points="425.3,616.5 427.2,615.3 428.1,614     "
   id="polyline320" />
				<polyline
   class="st34"
   points="423.6,643.6 422.2,646.7 422.2,651.7 416.4,655.4 413.6,659.1 413.6,661     "
   id="polyline322" />
				<polyline
   class="st34"
   points="413.3,663.3 416.3,660.5 416.3,655.4     "
   id="polyline324" />
				<polyline
   class="st34"
   points="414.1,652.9 417.6,649.6 422,649.6     "
   id="polyline326" />
				<polyline
   class="st34"
   points="430.4,648.8 428.4,651.6 428.4,655.7 430.8,658.5     "
   id="polyline328" />
				<line
   class="st34"
   x1="425.39999"
   y1="619.90002"
   x2="425.79999"
   y2="623.79999"
   id="line330" />
				<polyline
   class="st34"
   points="431.9,650 430.9,653.3 432,655.7     "
   id="polyline332" />
				<polyline
   class="st34"
   points="428.4,655.7 425.7,655.3 422.3,657.8 422.3,661.1     "
   id="polyline334" />
				<polyline
   class="st34"
   points="431.4,663.9 433.4,661.3 434.4,658.4     "
   id="polyline336" />
			</g>
			<line
   class="st35"
   x1="418.20001"
   y1="636.09998"
   x2="422.29999"
   y2="636.09998"
   id="line340" />
			<line
   class="st35"
   x1="425.60001"
   y1="636.09998"
   x2="429.70001"
   y2="636.09998"
   id="line342" />
			<line
   class="st35"
   x1="427.89999"
   y1="632.40002"
   x2="425.20001"
   y2="635.59998"
   id="line344" />
			<line
   class="st35"
   x1="420.10001"
   y1="632.40002"
   x2="422.60001"
   y2="635"
   id="line346" />
			<line
   class="st35"
   x1="422.10001"
   y1="637.70001"
   x2="418.89999"
   y2="640.29999"
   id="line348" />
			<line
   class="st35"
   x1="423.70001"
   y1="638.79999"
   x2="422.5"
   y2="642.09998"
   id="line350" />
			<line
   class="st35"
   x1="425.70001"
   y1="638.09998"
   x2="429.10001"
   y2="640.5"
   id="line352" />
			<circle
   class="st32"
   cx="424"
   cy="636.79999"
   r="3"
   id="circle354" />
			<circle
   class="st33"
   cx="424"
   cy="636.70001"
   r="1.4"
   id="circle356" />
		</g>
		<g
   id="g412">
			<g
   id="g392">
				<polyline
   class="st34"
   points="481.1,611.2 479,612.8 479.2,614.1 477.7,616.4 477.7,622.4 487.7,631.1 487.7,637.1       487.7,643.6 498.5,651.6 498.5,658.4 500.7,659.3 502.3,660.7     "
   id="polyline360" />
				<polyline
   class="st34"
   points="500.1,609.9 496.1,615.3 495.8,619 489.9,623.8 489.9,629.2 487.7,631.1     "
   id="polyline362" />
				<polyline
   class="st34"
   points="487.9,612.6 489.4,613.6 489.4,616.5 485.6,619.1 484,619.1 484,623.5 481.9,625.9     "
   id="polyline364" />
				<polyline
   class="st34"
   points="499,614.6 499,617.4 495.8,619     "
   id="polyline366" />
				<polyline
   class="st34"
   points="498.9,620.9 495,624.5 489.9,624.5     "
   id="polyline368" />
				<line
   class="st34"
   x1="474.60001"
   y1="614.29999"
   x2="477.70001"
   y2="616.40002"
   id="line370" />
				<polyline
   class="st34"
   points="483.5,612.7 483.5,616.7 484,619.1     "
   id="polyline372" />
				<polyline
   class="st34"
   points="489.4,616.5 491.3,615.3 492.2,614     "
   id="polyline374" />
				<polyline
   class="st34"
   points="487.7,643.6 486.3,646.7 486.3,651.7 480.5,655.4 477.7,659.1 477.7,661     "
   id="polyline376" />
				<polyline
   class="st34"
   points="477.4,663.3 480.4,660.5 480.4,655.4     "
   id="polyline378" />
				<polyline
   class="st34"
   points="478.2,652.9 481.7,649.6 486.1,649.6     "
   id="polyline380" />
				<polyline
   class="st34"
   points="494.5,648.8 492.4,651.6 492.4,655.7 494.9,658.5     "
   id="polyline382" />
				<line
   class="st34"
   x1="489.5"
   y1="619.90002"
   x2="489.89999"
   y2="623.79999"
   id="line384" />
				<polyline
   class="st34"
   points="496,650 495,653.3 496.1,655.7     "
   id="polyline386" />
				<polyline
   class="st34"
   points="492.4,655.7 489.8,655.3 486.4,657.8 486.4,661.1     "
   id="polyline388" />
				<polyline
   class="st34"
   points="495.5,663.9 497.5,661.3 498.5,658.4     "
   id="polyline390" />
			</g>
			<line
   class="st35"
   x1="482.29999"
   y1="636.09998"
   x2="486.39999"
   y2="636.09998"
   id="line394" />
			<line
   class="st35"
   x1="489.70001"
   y1="636.09998"
   x2="493.79999"
   y2="636.09998"
   id="line396" />
			<line
   class="st35"
   x1="492"
   y1="632.40002"
   x2="489.29999"
   y2="635.59998"
   id="line398" />
			<line
   class="st35"
   x1="484.20001"
   y1="632.40002"
   x2="486.60001"
   y2="635"
   id="line400" />
			<line
   class="st35"
   x1="486.20001"
   y1="637.70001"
   x2="483"
   y2="640.29999"
   id="line402" />
			<line
   class="st35"
   x1="487.79999"
   y1="638.79999"
   x2="486.5"
   y2="642.09998"
   id="line404" />
			<line
   class="st35"
   x1="489.79999"
   y1="638.09998"
   x2="493.20001"
   y2="640.5"
   id="line406" />
			<circle
   class="st32"
   cx="488.10001"
   cy="636.79999"
   r="3"
   id="circle408" />
			<circle
   class="st33"
   cx="488"
   cy="636.70001"
   r="1.4"
   id="circle410" />
		</g>
		<g
   id="g466">
			<g
   id="g446">
				<polyline
   class="st34"
   points="546,611.2 543.9,612.8 544.1,614.1 542.6,616.4 542.6,622.4 552.6,631.1 552.6,637.1       552.6,643.6 563.4,651.6 563.4,658.4 565.6,659.3 567.2,660.7     "
   id="polyline414" />
				<polyline
   class="st34"
   points="565,609.9 561,615.3 560.7,619 554.8,623.8 554.8,629.2 552.6,631.1     "
   id="polyline416" />
				<polyline
   class="st34"
   points="552.8,612.6 554.2,613.6 554.2,616.5 550.5,619.1 548.8,619.1 548.8,623.5 546.8,625.9     "
   id="polyline418" />
				<polyline
   class="st34"
   points="563.9,614.6 563.9,617.4 560.7,619     "
   id="polyline420" />
				<polyline
   class="st34"
   points="563.8,620.9 559.9,624.5 554.8,624.5     "
   id="polyline422" />
				<line
   class="st34"
   x1="539.5"
   y1="614.29999"
   x2="542.59998"
   y2="616.40002"
   id="line424" />
				<polyline
   class="st34"
   points="548.3,612.7 548.3,616.7 548.8,619.1     "
   id="polyline426" />
				<polyline
   class="st34"
   points="554.2,616.5 556.2,615.3 557.1,614     "
   id="polyline428" />
				<polyline
   class="st34"
   points="552.6,643.6 551.2,646.7 551.2,651.7 545.4,655.4 542.6,659.1 542.6,661     "
   id="polyline430" />
				<polyline
   class="st34"
   points="542.3,663.3 545.3,660.5 545.3,655.4     "
   id="polyline432" />
				<polyline
   class="st34"
   points="543,652.9 546.6,649.6 551,649.6     "
   id="polyline434" />
				<polyline
   class="st34"
   points="559.3,648.8 557.3,651.6 557.3,655.7 559.7,658.5     "
   id="polyline436" />
				<line
   class="st34"
   x1="554.29999"
   y1="619.90002"
   x2="554.79999"
   y2="623.79999"
   id="line438" />
				<polyline
   class="st34"
   points="560.9,650 559.8,653.3 561,655.7     "
   id="polyline440" />
				<polyline
   class="st34"
   points="557.3,655.7 554.7,655.3 551.2,657.8 551.2,661.1     "
   id="polyline442" />
				<polyline
   class="st34"
   points="560.4,663.9 562.3,661.3 563.4,658.4     "
   id="polyline444" />
			</g>
			<line
   class="st35"
   x1="547.20001"
   y1="636.09998"
   x2="551.20001"
   y2="636.09998"
   id="line448" />
			<line
   class="st35"
   x1="554.59998"
   y1="636.09998"
   x2="558.59998"
   y2="636.09998"
   id="line450" />
			<line
   class="st35"
   x1="556.79999"
   y1="632.40002"
   x2="554.09998"
   y2="635.59998"
   id="line452" />
			<line
   class="st35"
   x1="549.09998"
   y1="632.40002"
   x2="551.5"
   y2="635"
   id="line454" />
			<line
   class="st35"
   x1="551"
   y1="637.70001"
   x2="547.90002"
   y2="640.29999"
   id="line456" />
			<line
   class="st35"
   x1="552.70001"
   y1="638.79999"
   x2="551.40002"
   y2="642.09998"
   id="line458" />
			<line
   class="st35"
   x1="554.70001"
   y1="638.09998"
   x2="558.09998"
   y2="640.5"
   id="line460" />
			<circle
   class="st32"
   cx="553"
   cy="636.79999"
   r="3"
   id="circle462" />
			<circle
   class="st33"
   cx="552.90002"
   cy="636.70001"
   r="1.4"
   id="circle464" />
		</g>
		<rect
   x="174.60001"
   y="280.70001"
   class="st36"
   width="610"
   height="7.5999999"
   id="rect468" />
	</g>
	<g
   id="g558">
		<g
   id="g476">
			<path
   class="st37"
   d="m 579.3,275.7 c -0.5,-2.7 -2.7,-4.6 -5.5,-4.6 -2.8,0 -5,2 -5.5,4.6 H 567 v -2 h -35 c -0.6,-0.9 -2.7,-3.9 -6.2,-3.9 -3.4,0 -5,2.3 -5.5,3.2 h -0.5 c -0.5,-0.8 -2.2,-3.2 -5.9,-3.2 -3.6,0 -5.1,2.3 -5.6,3.2 h -7.6 v -3.1 h 2.6 v -0.6 h 59.1 v -0.8 h 15.4 c 1.1,0.7 2.8,2 2.8,2.9 v 0.5 h 7.5 l 0.5,0.9 v 2.3 l -0.5,0.7 z"
   id="path472" />
			<path
   d="m 577.5,268.9 c 1.2,0.8 2.5,1.9 2.5,2.4 v 1 h 1 6.7 l 0.3,0.5 v 2 l -0.2,0.4 h -8 c -0.7,-2.7 -3,-4.6 -5.9,-4.6 -2.9,0 -5.2,1.9 -5.9,4.6 h -0.5 v -1 -1 h -1 -34.3 c -0.6,-0.9 -2,-2.7 -4.2,-3.5 h 33.8 1 v -0.8 h 14.7 m -54.1,0.8 c -1.8,0.7 -2.9,2 -3.4,2.8 -0.5,-0.8 -1.7,-2.1 -3.6,-2.8 h 7 m -12,0 c -1.9,0.7 -2.9,2 -3.4,2.8 h -6.8 v -2.1 h 1.6 1 v -0.6 l 7.6,-0.1 m 66.4,-1.8 h -16 v 0.8 h -59.1 v 0.6 h -2.6 v 4.1 h 8.5 c 0,0 1.2,-3.2 5.3,-3.2 4,0 5.6,3.2 5.6,3.2 h 1.2 c 0,0 1.3,-3.2 5.2,-3.2 3.9,0 5.9,3.9 5.9,3.9 h 34.8 v 2 h 2.3 c 0.2,-2.6 2.4,-4.6 5,-4.6 2.6,0 4.8,2 5,4.6 h 9.4 L 589,275 v -2.6 l -0.5,-0.9 c 0,0 0,-0.1 0,-0.4 H 581 c 0,-1.4 -3.2,-3.2 -3.2,-3.2 z"
   id="path474" />
		</g>
		<g
   id="g482">
			<path
   class="st3"
   d="m 509,265.5 c 0.5,-0.3 0.8,-0.8 0.8,-1.4 0,-0.8 -0.7,-1.5 -1.5,-1.5 -0.5,0 -1,0.3 -1.3,0.7 -0.3,-0.4 -0.8,-0.7 -1.3,-0.7 -0.8,0 -1.5,0.7 -1.5,1.5 0,0.6 0.3,1.1 0.8,1.4 h -1.9 c -2.9,-6.1 0.1,-12.3 0.1,-12.4 v -0.1 -2.1 h 58.1 v 2.5 0.1 c 2.3,6.3 1,10.5 0.4,12 z m -2.6,0 c 0.2,-0.1 0.4,-0.3 0.6,-0.5 0.1,0.2 0.3,0.4 0.6,0.5 z"
   id="path478" />
			<path
   class="st4"
   d="m 560.8,251.4 v 1.9 0.2 l 0.1,0.2 c 2.2,5.9 1.2,9.7 0.5,11.4 h -51.3 c 0.1,-0.3 0.2,-0.5 0.2,-0.9 0,-1.1 -0.9,-2 -2,-2 -0.5,0 -0.9,0.2 -1.3,0.5 -0.4,-0.3 -0.8,-0.5 -1.3,-0.5 -1.1,0 -2,0.9 -2,2 0,0.3 0.1,0.6 0.2,0.9 h -0.4 c -2.5,-5.8 0.2,-11.6 0.3,-11.6 l 0.1,-0.2 v -0.2 -1.5 l 56.9,-0.2 m 1,-1 h -59.1 v 2.5 c 0,0 -3.3,6.5 0,13.1 h 59.1 v 0.4 c 0,0 3.1,-4.7 0,-13.1 z m -53.6,14.8 c -0.6,0 -1,-0.5 -1,-1 0,-0.5 0.5,-1 1,-1 0.6,0 1,0.5 1,1 0,0.5 -0.4,1 -1,1 z m -2.5,0 c -0.6,0 -1,-0.5 -1,-1 0,-0.5 0.5,-1 1,-1 0.6,0 1,0.5 1,1 0,0.5 -0.5,1 -1,1 z"
   id="path480" />
		</g>
		<path
   class="st38"
   d="m 509.3,264.2 c 0,-0.6 -0.5,-1 -1,-1 -0.6,0 -1,0.5 -1,1 0,0.5 0.5,1 1,1 0.5,0 1,-0.4 1,-1 z"
   id="path484" />
		<path
   class="st39"
   d="m 506.7,264.2 c 0,-0.6 -0.5,-1 -1,-1 -0.6,0 -1,0.5 -1,1 0,0.5 0.5,1 1,1 0.5,0 1,-0.4 1,-1 z"
   id="path486" />
		<g
   id="g490">
			<rect
   x="502.79999"
   y="266"
   class="st40"
   width="59.099998"
   height="2.5999999"
   id="rect488" />
		</g>
		<g
   id="g496">
			<path
   class="st3"
   d="m 525.8,281.1 c -2.5,0 -4.6,-2 -4.6,-4.6 0,-2.6 2,-4.6 4.6,-4.6 2.5,0 4.6,2 4.6,4.6 0,2.6 -2.1,4.6 -4.6,4.6 z"
   id="path492" />
			<path
   class="st4"
   d="m 525.8,272.5 c 2.2,0 4.1,1.8 4.1,4.1 0,2.3 -1.8,4.1 -4.1,4.1 -2.3,0 -4.1,-1.8 -4.1,-4.1 0,-2.3 1.9,-4.1 4.1,-4.1 m 0,-1 c -2.8,0 -5.1,2.3 -5.1,5.1 0,2.8 2.3,5.1 5.1,5.1 2.8,0 5.1,-2.3 5.1,-5.1 0,-2.8 -2.3,-5.1 -5.1,-5.1 z"
   id="path494" />
		</g>
		<g
   id="g502">
			<path
   class="st3"
   d="m 513.9,281.1 c -2.5,0 -4.6,-2 -4.6,-4.6 0,-2.6 2,-4.6 4.6,-4.6 2.5,0 4.6,2 4.6,4.6 0,2.6 -2.1,4.6 -4.6,4.6 z"
   id="path498" />
			<path
   class="st4"
   d="m 513.9,272.5 c 2.2,0 4.1,1.8 4.1,4.1 0,2.3 -1.8,4.1 -4.1,4.1 -2.3,0 -4.1,-1.8 -4.1,-4.1 0,-2.3 1.8,-4.1 4.1,-4.1 m 0,-1 c -2.8,0 -5.1,2.3 -5.1,5.1 0,2.8 2.3,5.1 5.1,5.1 2.8,0 5.1,-2.3 5.1,-5.1 -0.1,-2.8 -2.3,-5.1 -5.1,-5.1 z"
   id="path500" />
		</g>
		<path
   class="st38"
   d="m 504.6,264.2 c 0,0.6 0.5,1 1,1 0.6,0 1,-0.5 1,-1 0,-0.5 -0.5,-1 -1,-1 -0.5,0 -1,0.4 -1,1 z"
   id="path504" />
		<path
   class="st41"
   d="M 561.8,266.4"
   id="path506" />
		<rect
   x="502.79999"
   y="266"
   class="st41"
   width="59.099998"
   height="2.5999999"
   id="rect508" />
		<g
   id="g514">
			<path
   class="st40"
   d="m 513.9,278.6 c -1.2,0 -2.2,-1 -2.2,-2.2 0,-1.2 1,-2.2 2.2,-2.2 1.2,0 2.2,1 2.2,2.2 0,1.2 -0.9,2.2 -2.2,2.2 z"
   id="path510" />
			<path
   class="st4"
   d="m 513.9,274.7 c 0.9,0 1.7,0.8 1.7,1.7 0,0.9 -0.8,1.7 -1.7,1.7 -0.9,0 -1.7,-0.8 -1.7,-1.7 0,-0.9 0.8,-1.7 1.7,-1.7 m 0,-1 c -1.5,0 -2.7,1.2 -2.7,2.7 0,1.5 1.2,2.7 2.7,2.7 1.5,0 2.7,-1.2 2.7,-2.7 0,-1.5 -1.2,-2.7 -2.7,-2.7 z"
   id="path512" />
		</g>
		<g
   id="g528">
			<g
   id="g520">
				<path
   class="st3"
   d="m 573.6,280.2 c -2,-0.1 -3.5,-1.8 -3.4,-3.8 0,-0.1 0,-0.2 0,-0.3 0.2,-1.8 1.8,-3.1 3.5,-3.1 0.1,0 0.1,0 0.2,0 1.8,0.1 3.3,1.6 3.4,3.5 0,0.1 0,0.2 0,0.3 -0.1,1.9 -1.7,3.4 -3.6,3.4 0.1,0 0,0 -0.1,0 z"
   id="path516" />
				<path
   class="st4"
   d="m 573.8,273.5 c 0.1,0 0.1,0 0.2,0 1.6,0.1 2.9,1.4 2.9,3 0,0.1 0,0.2 0,0.3 -0.1,1.6 -1.5,2.9 -3.1,2.9 -0.1,0 -0.1,0 -0.2,0 -1.7,-0.1 -3,-1.6 -2.9,-3.3 0,-0.1 0,-0.2 0,-0.3 0.3,-1.5 1.6,-2.6 3.1,-2.6 m 0,-1 c -2,0 -3.8,1.5 -4,3.5 0,0.1 0,0.2 0,0.4 -0.1,2.3 1.6,4.2 3.9,4.3 0.1,0 0.2,0 0.2,0 2.2,0 4,-1.7 4.1,-3.9 0,-0.1 0,-0.2 0,-0.4 -0.1,-2.1 -1.7,-3.8 -3.9,-4 -0.1,0.1 -0.2,0.1 -0.3,0.1 z"
   id="path518" />
			</g>
			<g
   id="g526">
				<path
   class="st3"
   d="m 573.8,278.1 c -0.9,0 -1.7,-0.9 -1.6,-1.8 0,-0.9 0.8,-1.6 1.7,-1.6 1,0 1.7,0.9 1.7,1.8 0,0.9 -0.8,1.6 -1.7,1.6 z"
   id="path522" />
				<path
   class="st4"
   d="m 573.8,275.2 v 0 c 0.7,0 1.2,0.6 1.2,1.3 0,0.6 -0.6,1.1 -1.2,1.1 h -0.1 c -0.7,0 -1.2,-0.6 -1.1,-1.3 0.1,-0.6 0.6,-1.1 1.2,-1.1 m 0,-1 c -1.2,0 -2.1,0.9 -2.2,2.1 -0.1,1.2 0.9,2.2 2.1,2.3 0,0 0.1,0 0.1,0 1.2,0 2.1,-0.9 2.2,-2.1 0.1,-1.2 -0.9,-2.2 -2.1,-2.3 0,0 0,0 -0.1,0 z"
   id="path524" />
			</g>
		</g>
		<g
   id="g544">
			<g
   id="g534">
				<path
   class="st3"
   d="m 581.5,271.5 c -0.5,-1.6 -3.1,-3.2 -3.4,-3.4 L 578,268 h -11.2 v -12.6 c 0,-0.8 0.1,-1.1 0.2,-1.3 1.3,0 7.7,-0.1 12.2,-0.1 2.9,0 4,0 4.3,0.1 0.5,0.9 2.1,5.2 3.5,9 l 0.1,0.2 1.2,0.6 c 0.3,0.3 0.4,3 -0.2,7.5 h -6.6 z m -6.2,-6.5 h 3.3 v -2 h -3.3 z m 6.3,-3.7 c 0,0 0.7,0 0.7,0.4 0,0.5 0.3,0.9 0.8,0.9 h 0.1 c 0.3,0 1.1,-0.1 1.1,-0.1 h 0.8 l -2.9,-5.9 c -0.2,-0.3 -0.6,-0.8 -1.3,-0.8 h -5.6 l -0.2,5.6 h 6.5 z m -12.4,-6.1 c -0.6,0 -0.9,0.6 -0.9,1.1 v 4.3 c 0,0.5 0.4,0.9 0.9,0.9 h 3.5 c 0.5,0 1.1,-0.4 1.1,-0.9 l -0.1,-4.4 c 0,-0.5 -0.4,-0.9 -1,-0.9 z"
   id="path530" />
				<path
   class="st4"
   d="m 579.2,254.6 c 2.4,0 3.5,0 4,0 0.6,1.2 2,5.2 3.3,8.7 l 0.1,0.4 0.3,0.2 0.8,0.4 c 0.2,0.6 0.3,3.1 -0.2,6.7 h -5.9 c -0.7,-1.6 -2.8,-2.9 -3.5,-3.3 l -0.2,-0.1 h -0.3 -10.5 v -12.1 c 0,-0.4 0,-0.6 0.1,-0.8 2.1,-0.1 7.9,-0.1 12,-0.1 m -10,7.4 h 3.5 c 0.8,0 1.6,-0.6 1.6,-1.5 l -0.1,-4.4 c 0,-0.8 -0.7,-1.4 -1.4,-1.4 h -3.6 c -0.8,0 -1.4,0.9 -1.4,1.6 v 4.3 c 0,0.7 0.6,1.4 1.4,1.4 m 5.4,-0.2 h 1 5.9 c 0,0 0.2,0 0.2,0 0.1,0.6 0.6,1.2 1.3,1.2 h 0.1 0.1 c 0.2,0 0.9,-0.1 1.1,-0.1 l 1.5,-0.1 -0.7,-1.4 -2.6,-5.2 c -0.3,-0.5 -0.9,-1.1 -1.7,-1.1 h -5.1 -1 v 1 l -0.1,4.5 v 1.2 m 0.2,3.7 h 1 2.3 1 v -1 -1 -1 h -1 -2.3 -1 v 1 1 1 m 4.4,-11.9 c -5,0 -12.4,0.1 -12.4,0.1 0,0 -0.5,0.4 -0.5,1.8 0,1.4 0,13.1 0,13.1 h 11.5 c 0,0 3.2,1.9 3.2,3.4 h 7.5 c 0.2,-1.6 1,-7.7 0,-8.5 l -1.1,-0.5 c 0,0 -3.3,-9.1 -3.7,-9.3 0,-0.1 -2,-0.1 -4.5,-0.1 z m -10,7.4 c -0.2,0 -0.4,-0.2 -0.4,-0.4 v -4.3 c 0,-0.2 0.2,-0.6 0.4,-0.6 h 3.6 c 0.2,0 0.5,0.2 0.5,0.5 l 0.1,4.4 c 0,0.2 -0.4,0.4 -0.6,0.4 z m 6.5,-0.2 0.1,-4.5 c 0,0 4.6,0 5.1,0 0.5,0 0.9,0.5 0.9,0.5 l 2.6,5.2 c 0,0 -0.8,0 -1.2,0.1 0,0 0,0 0,0 -0.3,0 -0.3,-0.4 -0.3,-0.4 0,-0.9 -1.2,-0.9 -1.2,-0.9 z m 0.1,3.7 v -1 h 2.3 v 1 z"
   id="path532" />
			</g>
			<rect
   x="575.79999"
   y="263.39999"
   class="st39"
   width="2.3"
   height="1"
   id="rect536" />
			<path
   class="st39"
   d="m 581,256.1 c -0.5,0 -5.4,0.1 -5.4,0.1 v 4.5 h 6 c 0,0 1.1,0 1.1,0.9 0,0 0,0.4 0.3,0.4 0.3,0 1.2,-0.1 1.2,-0.1 l -2.5,-5.4 c 0.1,0.1 -0.2,-0.4 -0.7,-0.4 z"
   id="path538" />
			<path
   class="st39"
   d="m 568.8,256.3 v 4.3 c 0,0.2 0.2,0.4 0.4,0.4 h 3.8 c 0.2,0 0.4,-0.2 0.4,-0.4 v -4.4 c 0,-0.2 -0.2,-0.5 -0.4,-0.5 h -3.8 c -0.2,-0.1 -0.4,0.3 -0.4,0.6 z"
   id="path540" />
			<rect
   x="575.79999"
   y="263.39999"
   class="st38"
   width="2.3"
   height="1"
   id="rect542" />
		</g>
		<g
   id="g550">
			<path
   class="st40"
   d="m 573.8,278.8 c -1.2,0 -2.2,-1 -2.2,-2.2 0,-1.2 1,-2.2 2.2,-2.2 1.2,0 2.2,1 2.2,2.2 0.1,1.2 -0.9,2.2 -2.2,2.2 z"
   id="path546" />
			<path
   class="st4"
   d="m 573.8,274.9 c 0.9,0 1.7,0.8 1.7,1.7 0,0.9 -0.8,1.7 -1.7,1.7 -0.9,0 -1.7,-0.8 -1.7,-1.7 0.1,-1 0.8,-1.7 1.7,-1.7 m 0,-1 c -1.5,0 -2.7,1.2 -2.7,2.7 0,1.5 1.2,2.7 2.7,2.7 1.5,0 2.7,-1.2 2.7,-2.7 0,-1.5 -1.2,-2.7 -2.7,-2.7 z"
   id="path548" />
		</g>
		<g
   id="g556">
			<circle
   class="st40"
   cx="525.79999"
   cy="276.60001"
   id="ellipse552"
   r="2.2" />
			<path
   class="st4"
   d="m 525.8,274.9 c 0.9,0 1.7,0.8 1.7,1.7 0,0.9 -0.8,1.7 -1.7,1.7 -0.9,0 -1.7,-0.8 -1.7,-1.7 0,-1 0.8,-1.7 1.7,-1.7 m 0,-1 c -1.5,0 -2.7,1.2 -2.7,2.7 0,1.5 1.2,2.7 2.7,2.7 1.5,0 2.7,-1.2 2.7,-2.7 0,-1.5 -1.2,-2.7 -2.7,-2.7 z"
   id="path554" />
		</g>
	</g>
	<g
   id="g566">
		<path
   class="st0"
   d="m 621.5,109 c -1.3,-0.4 -5.5,-0.8 -5.5,-0.8 0,-2.1 -5.4,-2.2 -5.4,-2.2 0.8,-3.9 -3.7,-4 -3.7,-4 -1.8,-5.1 -7.3,-2.4 -7.3,-2.4 -2,-3.6 -5.9,-0.4 -5.9,-0.4 -0.6,-2.1 -3.2,-0.8 -3.2,-0.8 -0.2,-4.9 -6.4,-5.1 -6.4,-5.1 -1.1,-6 -6.6,-3.9 -6.6,-3.9 -1.7,-3.9 -5.1,-0.8 -5.1,-0.8 -3.3,-1.2 -5,3.1 -5,3.1 -1.9,-2.8 -4.8,-1.1 -4.8,-1.1 0.2,-6.3 -7.5,-6.2 -7.5,-6.2 -2.5,-7.9 -11,-6 -11,-6 -7.2,-2.9 -9.9,6.4 -9.9,6.4 -6,-2.6 -6.8,4.4 -6.8,4.4 -6,-2.9 -7.5,5.2 -7.5,5.2 -2,-2.6 -7.6,-0.5 -7.6,-0.5 -5.6,0.9 -4,8 -4,8 -2,-0.4 -3,2.6 -3,2.6 -2.8,-3.1 -7.3,-0.3 -7.3,-0.3 -1.6,-1.2 -6.1,0.4 -6.1,0.4 -2.7,-0.7 -4,2.8 -4,2.8 -1.5,-0.7 -4,0.2 -4,0.7 0,0.5 -1.6,0.7 -1.6,0.7 -3.7,-1.1 -6.1,1.2 -6.1,1.2 -0.1,0.5 -0.4,0.7 -2.3,0.7 -2,0 -6.4,1.5 -6.4,1.5 -2.1,2 2.6,0.7 4.8,1.2 2.2,0.5 6.2,-0.6 6.2,-0.6 2.5,2.4 5.4,0.4 5.4,0.4 1.5,7 11.4,5.7 11.4,5.7 10.9,6.2 19.1,-0.8 19.1,-0.8 4,4 10.7,0 10.7,0 5.4,6 13.3,0.4 13.3,0.4 1.7,2 3.7,3.2 5.6,3.9 0,0 0,0 0,0 6.6,2.2 13.6,-1.4 13.6,-1.4 9,8.8 13.6,-1 13.6,-1 3.2,3.2 7.1,0 7.1,0 1.6,1.6 7,-1.1 7,-1.1 13.6,3.4 14.2,-4.1 15.5,-3.9 1.3,0.2 14.8,-1.6 16,-2.1 1.2,-0.5 2.8,-0.8 5.6,-1.4 2.8,-0.6 0.4,-2.1 -0.9,-2.5 z m -83.1,9.2 -0.1,-0.2 -0.2,0.1 c 0,0 -2,1.4 -4.6,2 -3.4,0.8 -6.3,0.1 -8.5,-2.4 l -0.1,-0.1 -0.2,0.1 c -0.1,0 -6.7,3.8 -10.4,0 l -0.2,-0.2 -0.2,0.1 c -0.1,0.1 -8.2,6.9 -18.8,0.8 h -0.1 -0.1 c 0,0 -2.5,0.3 -5.1,-0.2 -3.4,-0.7 -5.5,-2.5 -6,-5.3 l -0.1,-0.3 -0.3,0.2 c -0.1,0.1 -2.8,1.9 -5.1,-0.3 l -0.1,-0.1 h -0.1 c 0,0 -4.1,1.1 -6.1,0.6 -0.8,-0.2 -2,-0.2 -3,-0.1 -0.8,0 -2,0.1 -2.1,-0.1 0,0 0,-0.2 0.4,-0.6 0.5,-0.2 4.5,-1.5 6.3,-1.5 1.8,0 2.4,-0.2 2.5,-0.8 0.4,-0.3 2.6,-2.1 5.9,-1.1 v 0 0 c 0.5,-0.1 1.8,-0.3 1.8,-0.9 0,-0.1 0.3,-0.2 0.8,-0.4 0.8,-0.3 2,-0.4 2.9,0 l 0.2,0.1 0.1,-0.2 c 0,-0.1 1.3,-3.3 3.7,-2.7 h 0.1 0.1 c 1.2,-0.4 4.7,-1.3 5.9,-0.4 l 0.1,0.1 0.1,-0.1 c 0,0 4.3,-2.7 7,0.2 l 0.3,0.3 0.1,-0.4 c 0,0 0.9,-2.8 2.7,-2.4 l 0.4,0.1 -0.1,-0.3 c 0,0 -0.8,-3.6 0.8,-5.9 0.7,-1 1.7,-1.6 3.1,-1.8 0.1,0 5.5,-2.1 7.4,0.4 l 0.3,0.4 0.1,-0.5 c 0,0 0.8,-4 3.3,-5.3 1.1,-0.6 2.4,-0.5 3.9,0.2 l 0.3,0.2 v -0.3 c 0,0 0.4,-3.2 2.4,-4.3 1.1,-0.6 2.4,-0.6 4,0.1 l 0.2,0.1 0.1,-0.3 c 0,-0.1 1.4,-4.7 4.7,-6.3 1.4,-0.7 3,-0.7 4.8,-0.1 V 122 c -1.7,-0.7 -3.6,-1.9 -5.2,-3.8 z"
   id="path560" />
		<path
   class="st42"
   d="m 621.5,108.8 c -1.2,-0.3 -4.5,-0.7 -5.3,-0.8 -0.3,-1.8 -4.2,-2.2 -5.3,-2.2 0.2,-1 0,-1.9 -0.6,-2.5 -1,-1.2 -2.7,-1.4 -3.3,-1.5 -0.5,-1.4 -1.3,-2.3 -2.5,-2.8 -2,-0.8 -4.2,0 -4.8,0.3 -0.5,-0.9 -1.2,-1.4 -2.1,-1.6 -1.5,-0.3 -3.1,0.7 -3.8,1.1 -0.2,-0.4 -0.5,-0.7 -0.8,-0.9 -0.8,-0.3 -1.7,-0.1 -2.2,0.1 -0.4,-4.3 -5.4,-4.9 -6.5,-5 -0.4,-1.8 -1.2,-3 -2.4,-3.7 -1.7,-1 -3.7,-0.5 -4.3,-0.3 -0.5,-1.1 -1.2,-1.7 -2,-1.9 -1.4,-0.3 -2.9,0.7 -3.3,1.1 -2.8,-0.9 -4.5,1.8 -5,2.9 -1.6,-2 -3.7,-1.4 -4.6,-1 0,-1.6 -0.5,-2.9 -1.5,-3.9 -2,-2 -5.2,-2.2 -6,-2.2 -2.5,-7.4 -10.3,-6.1 -11.1,-6 -1.9,-0.7 -3.6,-0.7 -5.2,0 -3,1.5 -4.5,5.3 -4.8,6.3 -1.7,-0.7 -3.1,-0.7 -4.2,0 -1.8,1.1 -2.5,3.5 -2.6,4.4 -1.5,-0.7 -2.8,-0.7 -4,-0.1 -2.2,1.1 -3.2,4 -3.5,5.2 -2.2,-2.2 -7.4,-0.3 -7.5,-0.2 -1.5,0.2 -2.6,0.9 -3.4,2.1 -1.4,2.1 -1.1,5 -0.9,5.9 -1.6,0 -2.5,1.7 -2.8,2.4 -2.6,-2.5 -6.4,-0.6 -7.2,-0.1 -1.7,-1 -5.6,0.2 -6.2,0.4 -2.4,-0.6 -3.8,1.9 -4.1,2.7 -1.2,-0.5 -2.9,-0.1 -3.7,0.4 -0.3,0.2 -0.4,0.3 -0.4,0.5 -0.1,0.1 -0.7,0.3 -1.3,0.4 -3.8,-1.1 -6.2,1.2 -6.3,1.3 v 0.1 0.1 c 0,0.3 -0.1,0.6 -2.1,0.6 -2,0 -6.3,1.4 -6.5,1.5 l -0.1,0.1 c -0.4,0.3 -0.7,0.7 -0.6,1.1 0.2,0.5 1,0.5 2.5,0.4 1,0 2.1,-0.1 2.9,0.1 2,0.5 5.5,-0.3 6.2,-0.5 2.1,1.9 4.5,0.9 5.3,0.5 1.7,6.4 10.5,5.7 11.5,5.6 10,5.7 17.9,0.2 19.1,-0.8 3.7,3.5 9.6,0.6 10.7,0 5,5.3 12.1,1.2 13.3,0.4 7,7.9 17.9,3.2 19.3,2.5 2.5,2.4 4.9,3.6 7.1,3.6 0.4,0 0.7,0 1.1,-0.1 3.2,-0.6 5,-3.5 5.5,-4.4 2.9,2.6 6.2,0.5 7,-0.1 1.8,1.4 6.3,-0.8 7,-1.2 10.5,2.7 13.3,-1.3 14.7,-3.2 0.3,-0.4 0.6,-0.8 0.7,-0.8 1.4,0.2 15,-1.6 16.2,-2.2 1.1,-0.5 2.4,-0.8 4.7,-1.2 l 0.8,-0.2 c 1,-0.2 1.5,-0.5 1.5,-1 0,-0.9 -1.7,-1.5 -2.3,-1.7 z m 0.7,2.2 -0.8,0.2 c -2.3,0.5 -3.7,0.7 -4.8,1.2 -1.1,0.5 -14.6,2.3 -15.9,2.1 -0.5,-0.1 -0.8,0.4 -1.2,1 -1.3,1.8 -4,5.6 -14.3,2.9 h -0.1 -0.1 c -1.5,0.7 -5.5,2.4 -6.7,1.2 l -0.2,-0.2 -0.2,0.1 c -0.2,0.1 -3.7,3 -6.8,0 l -0.2,-0.2 -0.2,0.3 c 0,0 -1.8,3.8 -5.3,4.4 -2.4,0.4 -5.1,-0.7 -8,-3.5 l -0.1,-0.1 -0.2,0.1 c -0.1,0.1 -6.7,3.4 -13.1,1.5 -0.1,0 -0.2,-0.1 -0.2,-0.1 -0.1,0 -0.2,-0.1 -0.2,-0.1 -1.9,-0.7 -3.8,-1.8 -5.5,-3.8 l -0.1,-0.2 -0.2,0.1 c 0,0 -2,1.4 -4.6,2 -3.4,0.8 -6.3,0.1 -8.5,-2.4 l -0.1,-0.1 -0.2,0.1 c -0.1,0 -6.7,3.8 -10.4,0 l -0.2,-0.2 -0.2,0.1 c -0.1,0.1 -8.2,6.9 -18.8,0.8 h -0.1 -0.1 c 0,0 -2.5,0.3 -5.1,-0.2 -3.4,-0.7 -5.5,-2.5 -6,-5.3 l -0.1,-0.3 -0.3,0.2 c -0.1,0.1 -2.8,1.9 -5.1,-0.3 l -0.1,-0.1 h -0.1 c 0,0 -4.1,1.1 -6.1,0.6 -0.8,-0.2 -2,-0.2 -3,-0.1 -0.8,0 -2,0.1 -2.1,-0.1 0,0 0,-0.2 0.4,-0.6 0.5,-0.2 4.5,-1.5 6.3,-1.5 1.8,0 2.4,-0.2 2.5,-0.8 0.4,-0.3 2.6,-2.1 5.9,-1.1 v 0 0 c 0.5,-0.1 1.8,-0.3 1.8,-0.9 0,-0.1 0.3,-0.2 0.8,-0.4 0.8,-0.3 2,-0.4 2.9,0 l 0.2,0.1 0.1,-0.2 c 0,-0.1 1.3,-3.3 3.7,-2.7 h 0.1 0.1 c 1.2,-0.4 4.7,-1.3 5.9,-0.4 l 0.1,0.1 0.1,-0.1 c 0,0 4.3,-2.7 7,0.2 l 0.3,0.3 0.1,-0.4 c 0,0 0.9,-2.8 2.7,-2.4 l 0.4,0.1 -0.1,-0.3 c 0,0 -0.8,-3.6 0.8,-5.9 0.7,-1 1.7,-1.6 3.1,-1.8 0.1,0 5.5,-2.1 7.4,0.4 l 0.3,0.4 0.1,-0.5 c 0,0 0.8,-4 3.3,-5.3 1.1,-0.6 2.4,-0.5 3.9,0.2 l 0.3,0.2 V 89 c 0,0 0.4,-3.2 2.4,-4.3 1.1,-0.6 2.4,-0.6 4,0.1 l 0.2,0.1 0.1,-0.3 c 0,-0.1 1.4,-4.7 4.7,-6.3 1.4,-0.7 3,-0.7 4.8,-0.1 0,0 0.1,0 0.2,0.1 h 0.1 v 0 0 c 0,0 0.1,0 0.2,0 1.3,-0.2 8.3,-1.2 10.5,5.8 l 0.1,0.2 h 0.2 c 0,0 3.8,-0.1 5.8,2 1,1 1.4,2.3 1.4,3.9 v 0.4 l 0.4,-0.2 c 0.1,-0.1 2.8,-1.5 4.5,1.1 l 0.2,0.4 0.2,-0.4 c 0,0 1.7,-4.1 4.7,-2.9 l 0.1,0.1 0.1,-0.1 c 0,0 1.5,-1.4 3,-1 0.7,0.2 1.3,0.8 1.8,1.8 l 0.1,0.2 0.2,-0.1 c 0,0 2.3,-0.8 4.1,0.2 1.1,0.6 1.8,1.8 2.2,3.5 v 0.2 h 0.2 c 0,0 1.5,0.1 3.1,0.7 2,0.8 3,2.3 3.1,4.2 v 0.4 l 0.3,-0.2 c 0,0 1.3,-0.6 2.1,-0.2 0.3,0.2 0.6,0.5 0.7,0.9 l 0.1,0.4 0.3,-0.2 c 0,0 1.9,-1.6 3.6,-1.2 0.8,0.2 1.4,0.7 1.9,1.6 l 0.1,0.2 0.2,-0.1 c 0,0 2.6,-1.2 4.7,-0.4 1,0.4 1.8,1.3 2.3,2.7 v 0.2 h 0.2 c 0,0 2.1,0.1 3.1,1.3 0.5,0.6 0.6,1.4 0.4,2.4 l -0.1,0.3 h 0.3 c 1.4,0.1 5.2,0.5 5.2,2 v 0.2 h 0.2 c 0,0 4.2,0.5 5.5,0.8 1,0.3 1.9,0.9 1.9,1.2 0.5,0 0.2,0.2 -0.6,0.4 z"
   id="path562" />
		<path
   class="st43"
   d="M 543.8,78.4 V 122 c -1.9,-0.7 -3.8,-1.8 -5.5,-3.8 l -0.1,-0.2 -0.2,0.1 c 0,0 -2,1.4 -4.6,2 -3.4,0.8 -6.3,0.1 -8.5,-2.4 l -0.1,-0.1 -0.2,0.1 c -0.1,0 -6.7,3.8 -10.4,0 l -0.2,-0.2 -0.2,0.1 c -0.1,0.1 -8.2,6.9 -18.8,0.8 h -0.1 -0.1 c 0,0 -2.5,0.3 -5.1,-0.2 -3.4,-0.7 -5.5,-2.5 -6,-5.3 l -0.1,-0.3 -0.3,0.2 c -0.1,0.1 -2.8,1.9 -5.1,-0.3 l -0.1,-0.1 H 478 c 0,0 -4.1,1.1 -6.1,0.6 -0.8,-0.2 -2,-0.2 -3,-0.1 -0.8,0 -2,0.1 -2.1,-0.1 0,0 0,-0.2 0.4,-0.6 0.5,-0.2 4.5,-1.5 6.3,-1.5 1.8,0 2.4,-0.2 2.5,-0.8 0.4,-0.3 2.6,-2.1 5.9,-1.1 v 0 0 c 0.5,-0.1 1.8,-0.3 1.8,-0.9 0,-0.1 0.3,-0.2 0.8,-0.4 0.8,-0.3 2,-0.4 2.9,0 l 0.2,0.1 0.1,-0.2 c 0,-0.1 1.3,-3.3 3.7,-2.7 h 0.1 0.1 c 1.2,-0.4 4.7,-1.3 5.9,-0.4 l 0.1,0.1 0.1,-0.1 c 0,0 4.3,-2.7 7,0.2 l 0.3,0.3 0.1,-0.4 c 0,0 0.9,-2.8 2.7,-2.4 l 0.4,0.1 -0.1,-0.3 c 0,0 -0.8,-3.6 0.8,-5.9 0.7,-1 1.7,-1.6 3.1,-1.8 0.1,0 5.5,-2.1 7.4,0.4 l 0.3,0.4 0.1,-0.5 c 0,0 0.8,-4 3.3,-5.3 1.1,-0.6 2.4,-0.5 3.9,0.2 l 0.3,0.2 v -0.3 c 0,0 0.4,-3.2 2.4,-4.3 1.1,-0.6 2.4,-0.6 4,0.1 l 0.2,0.1 0.1,-0.3 c 0,-0.1 1.4,-4.7 4.7,-6.3 1.8,-0.7 3.4,-0.7 5.1,-0.1 z"
   id="path564" />
	</g>
	<g
   id="g574">
		<path
   class="st0"
   d="m 734.4,107.7 c -1.3,-0.4 -5.5,-0.8 -5.5,-0.8 0,-2.1 -5.4,-2.2 -5.4,-2.2 0.8,-3.9 -3.7,-4 -3.7,-4 -1.8,-5.1 -7.3,-2.4 -7.3,-2.4 -2,-3.6 -5.9,-0.4 -5.9,-0.4 -0.6,-2.1 -3.2,-0.8 -3.2,-0.8 C 703.2,92.2 697,92 697,92 c -1.1,-6 -6.6,-3.9 -6.6,-3.9 -1.7,-3.9 -5.1,-0.8 -5.1,-0.8 -3.3,-1.2 -5,3.1 -5,3.1 -1.9,-2.8 -4.8,-1.1 -4.8,-1.1 0.2,-6.3 -7.5,-6.2 -7.5,-6.2 -2.5,-7.9 -11,-6 -11,-6 -7.2,-2.9 -9.9,6.4 -9.9,6.4 -6,-2.6 -6.8,4.4 -6.8,4.4 -6,-2.9 -7.5,5.2 -7.5,5.2 -2,-2.6 -7.6,-0.5 -7.6,-0.5 -5.6,0.9 -4,8 -4,8 -2,-0.4 -3,2.6 -3,2.6 -2.8,-3.1 -7.3,-0.3 -7.3,-0.3 -1.6,-1.2 -6.2,0.4 -6.2,0.4 -2.7,-0.7 -4,2.8 -4,2.8 -1.5,-0.7 -4,0.2 -4,0.7 0,0.5 -1.6,0.7 -1.6,0.7 -3.7,-1.1 -6.2,1.2 -6.2,1.2 -0.1,0.5 -0.4,0.7 -2.3,0.7 -2,0 -6.4,1.5 -6.4,1.5 -2.1,2 2.6,0.7 4.8,1.2 2.2,0.5 6.2,-0.6 6.2,-0.6 2.5,2.4 5.4,0.4 5.4,0.4 1.5,7 11.4,5.7 11.4,5.7 10.9,6.2 19.1,-0.8 19.1,-0.8 4,4 10.7,0 10.7,0 5.4,6 13.3,0.4 13.3,0.4 1.7,2 3.7,3.2 5.6,3.9 0,0 0,0 0,0 6.6,2.2 13.6,-1.4 13.6,-1.4 9,8.8 13.6,-1 13.6,-1 3.2,3.2 7.1,0 7.1,0 1.6,1.6 7,-1.1 7,-1.1 13.6,3.4 14.2,-4.1 15.5,-3.9 1.3,0.2 14.8,-1.6 16,-2.1 1.2,-0.5 2.8,-0.8 5.6,-1.4 2.8,-0.6 0.6,-2.1 -0.7,-2.5 z m -83.1,9.2 -0.1,-0.2 -0.2,0.1 c 0,0 -2,1.4 -4.6,2 -3.4,0.8 -6.3,0.1 -8.5,-2.4 l -0.1,-0.1 -0.2,0.1 c -0.1,0 -6.7,3.8 -10.4,0 l -0.2,-0.2 -0.2,0.1 c -0.1,0.1 -8.2,6.9 -18.8,0.8 h -0.1 -0.1 c 0,0 -2.5,0.3 -5.1,-0.2 -3.4,-0.7 -5.5,-2.5 -6,-5.3 l -0.1,-0.3 -0.3,0.2 c -0.1,0.1 -2.8,1.9 -5.1,-0.3 l -0.1,-0.1 H 591 c 0,0 -4.1,1.1 -6.1,0.6 -0.8,-0.2 -2,-0.2 -3,-0.1 -0.8,0 -2,0.1 -2.1,-0.1 0,0 0,-0.2 0.4,-0.6 0.5,-0.2 4.5,-1.5 6.3,-1.5 1.8,0 2.4,-0.2 2.5,-0.8 0.3,-0.3 2.6,-2.1 5.9,-1.1 v 0 0 c 0.5,-0.1 1.8,-0.3 1.8,-0.9 0,-0.1 0.3,-0.2 0.8,-0.4 0.8,-0.3 2,-0.4 2.9,0 l 0.2,0.1 0.1,-0.2 c 0,-0.1 1.3,-3.3 3.7,-2.7 h 0.1 0.1 c 1.2,-0.4 4.7,-1.3 5.9,-0.4 l 0.1,0.1 0.1,-0.1 c 0,0 4.3,-2.7 7,0.2 l 0.3,0.3 0.1,-0.4 c 0,0 0.9,-2.8 2.7,-2.4 l 0.3,0.1 -0.1,-0.3 c 0,0 -0.8,-3.6 0.8,-5.9 0.7,-1 1.7,-1.6 3.1,-1.8 0.1,0 5.5,-2.1 7.4,0.4 l 0.3,0.4 0.1,-0.5 c 0,0 0.8,-4 3.3,-5.3 1.1,-0.6 2.4,-0.5 3.9,0.2 l 0.3,0.2 v -0.3 c 0,0 0.4,-3.2 2.4,-4.3 1.1,-0.6 2.4,-0.6 4,0.1 l 0.2,0.1 0.1,-0.3 c 0,-0.1 1.4,-4.7 4.7,-6.3 1.4,-0.7 3,-0.7 4.8,-0.1 v 43.5 c -1.5,-0.6 -3.4,-1.8 -5.1,-3.7 z"
   id="path568" />
		<path
   class="st42"
   d="m 734.5,107.5 c -1.2,-0.3 -4.5,-0.7 -5.3,-0.8 -0.3,-1.8 -4.2,-2.2 -5.3,-2.2 0.2,-1 0,-1.9 -0.6,-2.5 -1,-1.2 -2.7,-1.4 -3.3,-1.5 -0.5,-1.4 -1.3,-2.3 -2.5,-2.8 -2,-0.8 -4.2,0 -4.8,0.3 -0.5,-0.9 -1.2,-1.4 -2.1,-1.6 -1.5,-0.3 -3.1,0.7 -3.8,1.1 -0.2,-0.4 -0.5,-0.7 -0.8,-0.9 -0.8,-0.3 -1.7,-0.1 -2.2,0.1 -0.4,-4.3 -5.4,-4.9 -6.5,-5 -0.4,-1.8 -1.2,-3 -2.4,-3.7 -1.7,-1 -3.7,-0.5 -4.3,-0.3 -0.5,-1.1 -1.2,-1.7 -2,-1.9 -1.4,-0.3 -2.9,0.7 -3.3,1.1 -2.8,-0.9 -4.5,1.8 -5,2.9 -1.6,-2 -3.7,-1.4 -4.6,-1 0,-1.6 -0.5,-2.9 -1.5,-3.9 -2,-2 -5.2,-2.2 -6,-2.2 -2.5,-7.4 -10.3,-6.1 -11.1,-6 -1.9,-0.7 -3.6,-0.7 -5.2,0 -3,1.5 -4.5,5.3 -4.8,6.3 -1.7,-0.7 -3.1,-0.7 -4.2,0 -1.8,1.1 -2.5,3.5 -2.6,4.4 -1.5,-0.7 -2.8,-0.7 -4,-0.1 -2.2,1.1 -3.2,4 -3.5,5.2 -2.2,-2.2 -7.4,-0.3 -7.5,-0.2 -1.5,0.2 -2.6,0.9 -3.4,2.1 -1.4,2.1 -1.1,5 -0.9,5.9 -1.6,0 -2.5,1.7 -2.8,2.4 -2.6,-2.5 -6.4,-0.6 -7.2,-0.1 -1.7,-1 -5.6,0.2 -6.2,0.4 -2.4,-0.6 -3.8,1.9 -4.1,2.7 -1.2,-0.5 -2.9,-0.1 -3.7,0.4 -0.3,0.2 -0.4,0.3 -0.4,0.5 -0.1,0.1 -0.7,0.3 -1.3,0.4 -3.8,-1.1 -6.2,1.2 -6.3,1.3 v 0.1 0.1 c 0,0.3 -0.1,0.6 -2.1,0.6 -2,0 -6.3,1.4 -6.5,1.5 l -0.1,0.1 c -0.3,0.3 -0.7,0.7 -0.6,1.1 0.2,0.5 1,0.5 2.5,0.4 1,0 2.2,-0.1 2.9,0.1 2,0.5 5.5,-0.3 6.2,-0.5 2.1,1.9 4.5,0.9 5.3,0.5 1.7,6.4 10.5,5.7 11.5,5.6 10,5.7 17.9,0.2 19.1,-0.8 3.7,3.5 9.6,0.6 10.7,0 5,5.3 12.1,1.2 13.3,0.4 7,7.9 17.9,3.2 19.3,2.5 2.5,2.4 4.9,3.6 7.1,3.6 0.4,0 0.7,0 1.1,-0.1 3.2,-0.6 5,-3.5 5.5,-4.4 2.9,2.6 6.2,0.5 7,-0.1 1.8,1.4 6.3,-0.8 7,-1.2 10.5,2.7 13.3,-1.3 14.7,-3.2 0.3,-0.4 0.6,-0.8 0.7,-0.8 1.4,0.2 15,-1.6 16.2,-2.2 1.1,-0.5 2.4,-0.8 4.7,-1.2 l 0.8,-0.2 c 1,-0.2 1.5,-0.5 1.5,-1 0,-0.8 -1.7,-1.5 -2.3,-1.7 z m 0.6,2.2 -0.8,0.2 c -2.3,0.5 -3.7,0.7 -4.8,1.2 -1.1,0.5 -14.6,2.3 -15.9,2.1 -0.5,-0.1 -0.8,0.4 -1.2,1 -1.3,1.8 -4,5.6 -14.3,2.9 h -0.1 -0.1 c -1.5,0.7 -5.5,2.4 -6.7,1.2 l -0.2,-0.2 -0.2,0.1 c -0.2,0.1 -3.7,3 -6.8,0 l -0.2,-0.2 -0.2,0.3 c 0,0 -1.8,3.8 -5.3,4.4 -2.4,0.4 -5.1,-0.7 -8,-3.5 l -0.1,-0.1 -0.2,0.1 c -0.1,0.1 -6.7,3.4 -13.1,1.5 -0.1,0 -0.2,-0.1 -0.2,-0.1 -0.1,0 -0.2,-0.1 -0.2,-0.1 -1.9,-0.7 -3.8,-1.8 -5.5,-3.8 l -0.1,-0.2 -0.2,0.1 c 0,0 -2,1.4 -4.6,2 -3.4,0.8 -6.3,0.1 -8.5,-2.4 l -0.1,-0.1 -0.2,0.1 c -0.1,0 -6.7,3.8 -10.4,0 l -0.2,-0.2 -0.2,0.1 c -0.1,0.1 -8.2,6.9 -18.8,0.8 h -0.1 -0.1 c 0,0 -2.5,0.3 -5.1,-0.2 -3.4,-0.7 -5.5,-2.5 -6,-5.3 l -0.1,-0.3 -0.3,0.2 c -0.1,0.1 -2.8,1.9 -5.1,-0.3 l -0.1,-0.1 h -0.1 c 0,0 -4.1,1.1 -6.1,0.6 -0.8,-0.2 -2,-0.2 -3,-0.1 -0.8,0 -2,0.1 -2.1,-0.1 0,0 0,-0.2 0.4,-0.6 0.5,-0.2 4.5,-1.5 6.3,-1.5 1.8,0 2.4,-0.2 2.5,-0.8 0.3,-0.3 2.6,-2.1 5.9,-1.1 v 0 0 c 0.5,-0.1 1.8,-0.3 1.8,-0.9 0,-0.1 0.3,-0.2 0.8,-0.4 0.8,-0.3 2,-0.4 2.9,0 l 0.2,0.1 0.1,-0.2 c 0,-0.1 1.3,-3.3 3.7,-2.7 h 0.1 0.1 c 1.2,-0.4 4.7,-1.3 5.9,-0.4 l 0.1,0.1 0.1,-0.1 c 0,0 4.3,-2.7 7,0.2 l 0.3,0.3 0.1,-0.4 c 0,0 0.9,-2.8 2.7,-2.4 l 0.3,0.1 -0.1,-0.3 c 0,0 -0.8,-3.6 0.8,-5.9 0.7,-1 1.7,-1.6 3.1,-1.8 0.1,0 5.5,-2.1 7.4,0.4 l 0.3,0.4 0.1,-0.5 c 0,0 0.8,-4 3.3,-5.3 1.1,-0.6 2.4,-0.5 3.9,0.2 l 0.3,0.2 v -0.3 c 0,0 0.4,-3.2 2.4,-4.3 1.1,-0.6 2.4,-0.6 4,0.1 l 0.2,0.1 0.1,-0.3 c 0,-0.1 1.4,-4.7 4.7,-6.3 1.4,-0.7 3,-0.7 4.8,-0.1 0,0 0.1,0 0.2,0.1 h 0.1 v 0 0 c 0,0 0.1,0 0.2,0 1.3,-0.2 8.3,-1.2 10.5,5.8 l 0.1,0.2 h 0.2 c 0,0 3.8,-0.1 5.8,2 1,1 1.4,2.3 1.4,3.9 v 0.4 l 0.4,-0.2 c 0.1,-0.1 2.8,-1.5 4.5,1.1 l 0.2,0.4 0.2,-0.4 c 0,0 1.7,-4.1 4.7,-2.9 l 0.1,0.1 0.1,-0.1 c 0,0 1.5,-1.4 3,-1 0.7,0.2 1.3,0.8 1.8,1.8 l 0.1,0.2 0.2,-0.1 c 0,0 2.3,-0.8 4.1,0.2 1.1,0.6 1.8,1.8 2.2,3.5 v 0.2 h 0.2 c 0,0 1.5,0.1 3.1,0.7 2,0.8 3,2.3 3.1,4.2 v 0.4 l 0.3,-0.2 c 0,0 1.3,-0.6 2.1,-0.2 0.3,0.2 0.6,0.5 0.7,0.9 l 0.1,0.4 0.3,-0.2 c 0,0 1.9,-1.6 3.6,-1.2 0.8,0.2 1.4,0.7 1.9,1.6 l 0.1,0.2 0.2,-0.1 c 0,0 2.6,-1.2 4.7,-0.4 1,0.4 1.8,1.3 2.3,2.7 v 0.2 h 0.2 c 0,0 2.1,0.1 3.1,1.3 0.5,0.6 0.6,1.4 0.4,2.4 l -0.1,0.3 h 0.3 c 1.4,0.1 5.2,0.5 5.2,2 v 0.2 h 0.2 c 0,0 4.2,0.5 5.5,0.8 1,0.3 1.9,0.9 1.9,1.2 0.7,0 0.4,0.3 -0.5,0.4 z"
   id="path570" />
		<path
   class="st43"
   d="m 656.8,77.2 v 43.5 c -1.9,-0.7 -3.8,-1.8 -5.5,-3.8 l -0.1,-0.2 -0.2,0.1 c 0,0 -2,1.4 -4.6,2 -3.4,0.8 -6.3,0.1 -8.5,-2.4 l -0.1,-0.1 -0.2,0.1 c -0.1,0 -6.7,3.8 -10.4,0 l -0.2,-0.2 -0.2,0.1 c -0.1,0.1 -8.2,6.9 -18.8,0.8 h -0.1 -0.1 c 0,0 -2.5,0.3 -5.1,-0.2 -3.4,-0.7 -5.5,-2.5 -6,-5.3 l -0.1,-0.3 -0.3,0.2 c -0.1,0.1 -2.8,1.9 -5.1,-0.3 l -0.1,-0.1 H 591 c 0,0 -4.1,1.1 -6.1,0.6 -0.8,-0.2 -2,-0.2 -3,-0.1 -0.8,0 -2,0.1 -2.1,-0.1 0,0 0,-0.2 0.4,-0.6 0.5,-0.2 4.5,-1.5 6.3,-1.5 1.8,0 2.4,-0.2 2.5,-0.8 0.3,-0.3 2.6,-2.1 5.9,-1.1 v 0 0 c 0.5,-0.1 1.8,-0.3 1.8,-0.9 0,-0.1 0.3,-0.2 0.8,-0.4 0.8,-0.3 2,-0.4 2.9,0 l 0.2,0.1 0.1,-0.2 c 0,-0.1 1.3,-3.3 3.7,-2.7 h 0.1 0.1 c 1.2,-0.4 4.7,-1.3 5.9,-0.4 l 0.1,0.1 0.1,-0.1 c 0,0 4.3,-2.7 7,0.2 l 0.3,0.3 0.1,-0.4 c 0,0 0.9,-2.8 2.7,-2.4 l 0.3,0.1 -0.1,-0.3 c 0,0 -0.8,-3.6 0.8,-5.9 0.7,-1 1.7,-1.6 3.1,-1.8 0.1,0 5.5,-2.1 7.4,0.4 l 0.3,0.4 0.1,-0.5 c 0,0 0.8,-4 3.3,-5.3 1.1,-0.6 2.4,-0.5 3.9,0.2 l 0.3,0.2 v -0.3 c 0,0 0.4,-3.2 2.4,-4.3 1.1,-0.6 2.4,-0.6 4,0.1 l 0.2,0.1 0.1,-0.3 c 0,-0.1 1.4,-4.7 4.7,-6.3 1.9,-0.7 3.5,-0.7 5.2,0 z"
   id="path572" />
	</g>
</g>
</svg>
