<?xml version="1.0" encoding="UTF-8" standalone="no"?>
<!-- Generator: Adobe Illustrator 24.0.0, SVG Export Plug-In . SVG Version: 6.00 Build 0)  -->

<svg
   version="1.1"
   id="Capa_1"
   x="0px"
   y="0px"
   viewBox="0 0 841.03998 609.29999"
   xml:space="preserve"
   sodipodi:docname="sostenibilidad_09.svg"
   width="841.03998"
   height="609.29999"
   inkscape:version="1.1.1 (3bf5ae0d25, 2021-09-20)"
   xmlns:inkscape="http://www.inkscape.org/namespaces/inkscape"
   xmlns:sodipodi="http://sodipodi.sourceforge.net/DTD/sodipodi-0.dtd"
   xmlns="http://www.w3.org/2000/svg"
   xmlns:svg="http://www.w3.org/2000/svg"><defs
   id="defs427" /><sodipodi:namedview
   id="namedview425"
   pagecolor="#ffffff"
   bordercolor="#666666"
   borderopacity="1.0"
   inkscape:pageshadow="2"
   inkscape:pageopacity="0.0"
   inkscape:pagecheckerboard="0"
   showgrid="false"
   inkscape:zoom="0.60219342"
   inkscape:cx="425.11258"
   inkscape:cy="316.34354"
   inkscape:window-width="1600"
   inkscape:window-height="835"
   inkscape:window-x="0"
   inkscape:window-y="32"
   inkscape:window-maximized="1"
   inkscape:current-layer="Capa_1" />
<style
   type="text/css"
   id="style2">
	.st0{fill:none;stroke:#000000;stroke-miterlimit:10;}
	.st1{fill:none;stroke:#FC0606;stroke-width:3;stroke-linecap:round;stroke-linejoin:round;stroke-miterlimit:10;}
	.st2{fill:none;stroke:#757474;stroke-width:3;stroke-linecap:round;stroke-linejoin:round;}
	.st3{fill:none;stroke:#757474;stroke-width:3;stroke-linecap:round;stroke-linejoin:round;stroke-dasharray:5.069,5.069;}
</style>
<g
   id="g422"
   transform="translate(-50.44,-186.58)">
	<g
   id="g94">
		<g
   id="g92">
			<path
   d="m 53.52,604.59 c 0,1.05 0.4,1.87 1.19,2.44 0.79,0.58 1.89,0.87 3.3,0.87 2.94,0 4.41,-1.1 4.41,-3.31 0,-0.93 -0.23,-2.05 -0.69,-3.36 h 2.34 c 0.45,1.08 0.68,2.29 0.68,3.62 0,1.92 -0.58,3.38 -1.74,4.4 -1.16,1.02 -2.83,1.52 -5.01,1.52 -1.37,0 -2.57,-0.25 -3.6,-0.75 -1.03,-0.5 -1.82,-1.22 -2.37,-2.15 -0.55,-0.93 -0.82,-2.03 -0.82,-3.29 0,-1.28 0.31,-2.57 0.93,-3.86 l 2.27,0.9 c -0.23,0.49 -0.44,0.99 -0.61,1.49 -0.19,0.51 -0.28,1 -0.28,1.48 z"
   id="path4" />
			<path
   d="m 59.51,589.49 c 1.64,0 2.92,0.43 3.85,1.3 0.93,0.87 1.39,2.07 1.39,3.62 0,0.97 -0.21,1.82 -0.64,2.56 -0.42,0.74 -1.03,1.31 -1.83,1.7 -0.79,0.4 -1.72,0.6 -2.78,0.6 -1.65,0 -2.93,-0.43 -3.84,-1.29 -0.91,-0.86 -1.37,-2.07 -1.37,-3.62 0,-0.97 0.21,-1.82 0.63,-2.56 0.42,-0.74 1.02,-1.31 1.81,-1.7 0.8,-0.42 1.72,-0.61 2.78,-0.61 z m 0,6.96 c 1,0 1.75,-0.16 2.26,-0.49 0.51,-0.33 0.77,-0.86 0.77,-1.6 0,-0.73 -0.25,-1.26 -0.76,-1.58 -0.51,-0.32 -1.26,-0.48 -2.27,-0.48 -1,0 -1.75,0.16 -2.24,0.49 -0.49,0.33 -0.75,0.86 -0.75,1.6 0,0.73 0.25,1.26 0.74,1.59 0.49,0.31 1.24,0.47 2.25,0.47 z"
   id="path6" />
			<path
   d="m 64.56,577.91 v 2.75 h -5.89 c -0.73,0 -1.27,0.13 -1.64,0.39 -0.36,0.26 -0.55,0.67 -0.55,1.24 0,0.77 0.26,1.32 0.77,1.67 0.51,0.34 1.37,0.51 2.56,0.51 h 4.74 v 2.75 H 54.49 v -2.1 l 1.29,-0.37 v -0.15 c -0.49,-0.31 -0.85,-0.73 -1.1,-1.27 -0.25,-0.54 -0.37,-1.15 -0.37,-1.83 0,-1.17 0.32,-2.06 0.95,-2.67 0.63,-0.61 1.55,-0.91 2.74,-0.91 h 6.56 z"
   id="path8" />
			<path
   d="m 61.57,568.05 c 1.03,0 1.82,0.36 2.36,1.08 0.54,0.72 0.81,1.79 0.81,3.22 0,0.73 -0.05,1.36 -0.15,1.88 -0.1,0.52 -0.25,1 -0.44,1.45 h -2.27 c 0.24,-0.51 0.44,-1.09 0.6,-1.73 0.16,-0.64 0.24,-1.2 0.24,-1.69 0,-1 -0.29,-1.5 -0.87,-1.5 -0.22,0 -0.39,0.07 -0.53,0.2 -0.14,0.13 -0.29,0.36 -0.46,0.69 -0.17,0.32 -0.37,0.76 -0.6,1.3 -0.32,0.77 -0.62,1.34 -0.9,1.71 -0.28,0.36 -0.59,0.63 -0.95,0.79 -0.36,0.17 -0.8,0.25 -1.32,0.25 -0.9,0 -1.59,-0.35 -2.08,-1.04 -0.49,-0.69 -0.73,-1.68 -0.73,-2.95 0,-1.21 0.26,-2.4 0.79,-3.54 l 1.98,0.83 c -0.22,0.5 -0.39,0.98 -0.53,1.42 -0.14,0.44 -0.21,0.89 -0.21,1.34 0,0.81 0.22,1.22 0.66,1.22 0.25,0 0.46,-0.13 0.64,-0.39 0.18,-0.26 0.45,-0.83 0.8,-1.72 0.32,-0.79 0.62,-1.36 0.89,-1.73 0.27,-0.37 0.59,-0.64 0.96,-0.81 0.38,-0.19 0.81,-0.28 1.31,-0.28 z"
   id="path10" />
			<path
   d="m 64.56,558.76 -1.29,0.37 v 0.14 c 0.47,0.29 0.83,0.71 1.09,1.25 0.26,0.54 0.38,1.16 0.38,1.85 0,1.18 -0.32,2.08 -0.95,2.68 -0.63,0.6 -1.55,0.9 -2.74,0.9 h -6.57 v -2.75 h 5.89 c 0.73,0 1.27,-0.13 1.64,-0.39 0.36,-0.26 0.55,-0.67 0.55,-1.23 0,-0.77 -0.26,-1.33 -0.77,-1.67 -0.51,-0.34 -1.37,-0.51 -2.56,-0.51 h -4.74 v -2.75 h 10.08 v 2.11 z"
   id="path12" />
			<path
   d="m 64.56,544.75 v 2.75 h -5.89 c -0.73,0 -1.27,0.12 -1.64,0.36 -0.36,0.24 -0.55,0.63 -0.55,1.15 0,0.7 0.26,1.21 0.77,1.53 0.52,0.32 1.37,0.48 2.55,0.48 h 4.74 v 2.75 H 54.49 v -2.1 l 1.29,-0.37 v -0.15 c -0.46,-0.27 -0.82,-0.66 -1.09,-1.17 -0.26,-0.51 -0.39,-1.1 -0.39,-1.76 0,-1.51 0.49,-2.53 1.48,-3.06 v -0.24 c -0.47,-0.27 -0.83,-0.67 -1.09,-1.19 -0.26,-0.52 -0.39,-1.12 -0.39,-1.78 0,-1.14 0.29,-2.01 0.88,-2.59 0.59,-0.58 1.52,-0.88 2.82,-0.88 h 6.57 v 2.76 h -5.89 c -0.73,0 -1.27,0.12 -1.64,0.37 -0.36,0.24 -0.55,0.63 -0.55,1.15 0,0.67 0.24,1.18 0.72,1.51 0.48,0.33 1.24,0.5 2.29,0.5 h 5.06 z"
   id="path14" />
			<path
   d="m 59.51,526.48 c 1.64,0 2.92,0.43 3.85,1.3 0.93,0.87 1.39,2.07 1.39,3.62 0,0.97 -0.21,1.82 -0.64,2.56 -0.42,0.74 -1.03,1.31 -1.83,1.7 -0.79,0.4 -1.72,0.6 -2.78,0.6 -1.65,0 -2.93,-0.43 -3.84,-1.29 -0.91,-0.86 -1.37,-2.07 -1.37,-3.62 0,-0.97 0.21,-1.82 0.63,-2.56 0.42,-0.74 1.02,-1.31 1.81,-1.7 0.8,-0.41 1.72,-0.61 2.78,-0.61 z m 0,6.97 c 1,0 1.75,-0.16 2.26,-0.49 0.51,-0.33 0.77,-0.86 0.77,-1.6 0,-0.73 -0.25,-1.26 -0.76,-1.58 -0.51,-0.32 -1.26,-0.48 -2.27,-0.48 -1,0 -1.75,0.16 -2.24,0.49 -0.49,0.33 -0.75,0.86 -0.75,1.6 0,0.73 0.25,1.26 0.74,1.59 0.49,0.31 1.24,0.47 2.25,0.47 z"
   id="path16" />
			<path
   d="m 64.74,516.23 c 0,1.18 -0.46,2.11 -1.38,2.79 -0.92,0.68 -2.19,1.01 -3.82,1.01 -1.65,0 -2.94,-0.34 -3.86,-1.03 -0.92,-0.69 -1.38,-1.64 -1.38,-2.84 0,-1.27 0.49,-2.24 1.48,-2.9 v -0.09 c -0.75,0.14 -1.42,0.21 -2.01,0.21 h -3.23 v -2.76 h 14.03 v 2.11 l -1.31,0.53 v 0.12 c 0.99,0.61 1.48,1.56 1.48,2.85 z m -2.19,-0.97 c 0,-0.7 -0.2,-1.22 -0.61,-1.55 -0.41,-0.33 -1.1,-0.51 -2.08,-0.54 h -0.3 c -1.08,0 -1.86,0.17 -2.33,0.5 -0.47,0.33 -0.7,0.88 -0.7,1.63 0,0.61 0.26,1.09 0.78,1.43 0.52,0.34 1.28,0.51 2.27,0.51 0.99,0 1.74,-0.17 2.23,-0.51 0.5,-0.34 0.74,-0.83 0.74,-1.47 z"
   id="path18" />
			<path
   d="m 64.74,503.17 c 0,1.62 -0.45,2.89 -1.34,3.8 -0.9,0.91 -2.16,1.37 -3.8,1.37 -1.69,0 -2.99,-0.42 -3.92,-1.27 -0.93,-0.85 -1.38,-2.01 -1.38,-3.5 0,-1.42 0.41,-2.53 1.22,-3.33 0.81,-0.79 1.93,-1.19 3.36,-1.19 h 1.33 v 6.5 c 0.78,-0.03 1.39,-0.26 1.83,-0.69 0.44,-0.43 0.66,-1.04 0.66,-1.82 0,-0.61 -0.06,-1.18 -0.19,-1.72 -0.13,-0.54 -0.33,-1.11 -0.6,-1.69 h 2.13 c 0.24,0.48 0.42,0.99 0.54,1.54 0.12,0.55 0.16,1.21 0.16,2 z m -8.49,0.39 c 0,0.58 0.19,1.04 0.55,1.37 0.37,0.33 0.89,0.52 1.57,0.57 v -3.86 c -0.68,0.01 -1.2,0.19 -1.57,0.53 -0.36,0.34 -0.55,0.81 -0.55,1.39 z"
   id="path20" />
			<path
   d="m 56.55,486.46 v 2.38 h 8.01 v 2.75 h -8.01 v 1.51 h -1.32 l -0.74,-1.51 h -0.74 c -1.15,0 -1.99,-0.28 -2.52,-0.85 -0.53,-0.57 -0.79,-1.47 -0.79,-2.71 0,-0.95 0.14,-1.79 0.42,-2.53 l 2.02,0.7 c -0.17,0.55 -0.26,1.06 -0.26,1.53 0,0.39 0.12,0.67 0.35,0.85 0.23,0.18 0.53,0.26 0.89,0.26 h 0.63 v -2.38 z"
   id="path22" />
			<path
   d="m 64.74,480.32 c 0,1.62 -0.45,2.89 -1.34,3.8 -0.9,0.91 -2.16,1.37 -3.8,1.37 -1.69,0 -2.99,-0.42 -3.92,-1.27 -0.93,-0.85 -1.38,-2.01 -1.38,-3.5 0,-1.42 0.41,-2.53 1.22,-3.33 0.81,-0.79 1.93,-1.19 3.36,-1.19 h 1.33 v 6.5 c 0.78,-0.03 1.39,-0.26 1.83,-0.69 0.44,-0.43 0.66,-1.04 0.66,-1.82 0,-0.61 -0.06,-1.18 -0.19,-1.72 -0.13,-0.54 -0.33,-1.11 -0.6,-1.69 h 2.13 c 0.24,0.48 0.42,0.99 0.54,1.54 0.12,0.55 0.16,1.21 0.16,2 z m -8.49,0.39 c 0,0.58 0.19,1.04 0.55,1.37 0.37,0.33 0.89,0.52 1.57,0.57 v -3.86 c -0.68,0.01 -1.2,0.19 -1.57,0.53 -0.36,0.34 -0.55,0.8 -0.55,1.39 z"
   id="path24" />
			<path
   d="m 54.3,468.35 c 0,-0.37 0.03,-0.68 0.08,-0.93 l 2.58,0.21 c -0.06,0.22 -0.09,0.49 -0.09,0.81 0,0.88 0.23,1.56 0.68,2.05 0.45,0.49 1.08,0.73 1.89,0.73 h 5.13 v 2.75 H 54.49 v -2.08 l 1.69,-0.41 v -0.14 c -0.56,-0.31 -1.02,-0.73 -1.37,-1.27 -0.34,-0.52 -0.51,-1.1 -0.51,-1.72 z"
   id="path26" />
			<path
   d="m 62.55,461.34 c 0,-0.48 -0.1,-1.06 -0.32,-1.73 h 2.05 c 0.31,0.69 0.46,1.53 0.46,2.52 0,1.1 -0.28,1.9 -0.83,2.4 -0.56,0.5 -1.39,0.75 -2.5,0.75 h -4.86 v 1.32 h -1.16 l -0.92,-1.51 -2.13,-0.79 v -1.76 h 2.15 v -2.82 h 2.06 v 2.82 h 4.86 c 0.39,0 0.68,-0.11 0.87,-0.33 0.18,-0.21 0.27,-0.5 0.27,-0.87 z"
   id="path28" />
			<path
   d="m 51.88,457.69 c -0.9,0 -1.34,-0.5 -1.34,-1.5 0,-1 0.45,-1.5 1.34,-1.5 0.43,0 0.76,0.12 1,0.37 0.24,0.25 0.36,0.62 0.36,1.12 -0.01,1.01 -0.46,1.51 -1.36,1.51 z m 12.68,-2.86 v 2.75 H 54.49 v -2.75 z"
   id="path30" />
			<path
   d="m 64.56,449.19 v 2.75 H 50.54 v -2.75 z"
   id="path32" />
			<path
   d="m 51.88,446.43 c -0.9,0 -1.34,-0.5 -1.34,-1.5 0,-1 0.45,-1.5 1.34,-1.5 0.43,0 0.76,0.12 1,0.37 0.24,0.25 0.36,0.62 0.36,1.12 -0.01,1.01 -0.46,1.51 -1.36,1.51 z m 12.68,-2.87 v 2.75 H 54.49 v -2.75 z"
   id="path34" />
			<path
   d="m 64.56,433.66 v 7.96 h -1.62 l -6.36,-4.67 v 4.39 h -2.1 v -7.52 h 1.78 l 6.19,4.54 v -4.71 h 2.11 z"
   id="path36" />
			<path
   d="m 64.56,425.27 -1.37,0.53 v 0.07 c 0.58,0.46 0.99,0.94 1.21,1.43 0.23,0.49 0.34,1.13 0.34,1.92 0,0.97 -0.28,1.73 -0.83,2.29 -0.55,0.56 -1.34,0.83 -2.36,0.83 -1.07,0 -1.86,-0.37 -2.37,-1.12 -0.51,-0.75 -0.79,-1.88 -0.84,-3.39 l -0.05,-1.75 h -0.44 c -1.02,0 -1.53,0.52 -1.53,1.57 0,0.81 0.24,1.75 0.73,2.84 l -1.86,0.91 c -0.61,-1.16 -0.91,-2.45 -0.91,-3.86 0,-1.35 0.29,-2.39 0.88,-3.11 0.59,-0.72 1.48,-1.08 2.69,-1.08 h 6.72 v 1.92 z m -4.66,0.81 0.04,1.06 c 0.02,0.8 0.17,1.39 0.43,1.79 0.26,0.4 0.67,0.59 1.21,0.59 0.77,0 1.16,-0.44 1.16,-1.33 0,-0.64 -0.18,-1.15 -0.55,-1.53 -0.37,-0.38 -0.85,-0.57 -1.46,-0.57 H 59.9 Z"
   id="path38" />
			<path
   d="m 64.56,411.21 v 2.75 h -5.89 c -0.73,0 -1.27,0.13 -1.64,0.39 -0.36,0.26 -0.55,0.67 -0.55,1.24 0,0.77 0.26,1.32 0.77,1.67 0.51,0.34 1.37,0.51 2.56,0.51 h 4.74 v 2.75 H 54.49 v -2.1 l 1.29,-0.37 v -0.15 c -0.49,-0.31 -0.85,-0.73 -1.1,-1.27 -0.25,-0.54 -0.37,-1.15 -0.37,-1.83 0,-1.17 0.32,-2.06 0.95,-2.67 0.63,-0.61 1.55,-0.91 2.74,-0.91 h 6.56 z"
   id="path40" />
			<path
   d="m 62.55,404.14 c 0,-0.48 -0.1,-1.06 -0.32,-1.73 h 2.05 c 0.31,0.69 0.46,1.53 0.46,2.52 0,1.1 -0.28,1.9 -0.83,2.4 -0.56,0.5 -1.39,0.75 -2.5,0.75 h -4.86 v 1.32 h -1.16 l -0.92,-1.51 -2.13,-0.79 v -1.76 h 2.15 v -2.82 h 2.06 v 2.82 h 4.86 c 0.39,0 0.68,-0.11 0.87,-0.33 0.18,-0.22 0.27,-0.51 0.27,-0.87 z"
   id="path42" />
			<path
   d="m 64.74,395.81 c 0,1.62 -0.45,2.89 -1.34,3.8 -0.9,0.91 -2.16,1.37 -3.8,1.37 -1.69,0 -2.99,-0.42 -3.92,-1.27 -0.93,-0.85 -1.38,-2.01 -1.38,-3.5 0,-1.42 0.41,-2.53 1.22,-3.33 0.81,-0.79 1.93,-1.19 3.36,-1.19 h 1.33 v 6.5 c 0.78,-0.03 1.39,-0.26 1.83,-0.69 0.44,-0.43 0.66,-1.04 0.66,-1.82 0,-0.61 -0.06,-1.18 -0.19,-1.72 -0.13,-0.54 -0.33,-1.11 -0.6,-1.69 h 2.13 c 0.24,0.48 0.42,0.99 0.54,1.54 0.12,0.55 0.16,1.21 0.16,2 z m -8.49,0.39 c 0,0.58 0.19,1.04 0.55,1.37 0.37,0.33 0.89,0.52 1.57,0.57 v -3.86 c -0.68,0.01 -1.2,0.19 -1.57,0.53 -0.36,0.34 -0.55,0.8 -0.55,1.39 z"
   id="path44" />
			<path
   d="m 61.57,382.43 c 1.03,0 1.82,0.36 2.36,1.08 0.54,0.72 0.81,1.79 0.81,3.22 0,0.73 -0.05,1.36 -0.15,1.88 -0.1,0.52 -0.25,1 -0.44,1.45 h -2.27 c 0.24,-0.51 0.44,-1.09 0.6,-1.73 0.16,-0.64 0.24,-1.2 0.24,-1.69 0,-1 -0.29,-1.5 -0.87,-1.5 -0.22,0 -0.39,0.07 -0.53,0.2 -0.14,0.13 -0.29,0.36 -0.46,0.69 -0.17,0.32 -0.37,0.76 -0.6,1.3 -0.32,0.77 -0.62,1.34 -0.9,1.71 -0.28,0.36 -0.59,0.63 -0.95,0.79 -0.36,0.17 -0.8,0.25 -1.32,0.25 -0.9,0 -1.59,-0.35 -2.08,-1.04 -0.49,-0.69 -0.73,-1.68 -0.73,-2.95 0,-1.21 0.26,-2.4 0.79,-3.54 l 1.98,0.83 c -0.22,0.5 -0.39,0.98 -0.53,1.42 -0.14,0.44 -0.21,0.89 -0.21,1.34 0,0.81 0.22,1.22 0.66,1.22 0.25,0 0.46,-0.13 0.64,-0.39 0.18,-0.26 0.45,-0.83 0.8,-1.72 0.32,-0.79 0.62,-1.36 0.89,-1.73 0.27,-0.37 0.59,-0.64 0.96,-0.81 0.38,-0.19 0.81,-0.28 1.31,-0.28 z"
   id="path46" />
			<path
   d="m 81.66,611.11 c -1.59,0 -3.08,-0.23 -4.47,-0.7 -1.39,-0.47 -2.61,-1.14 -3.65,-2.01 v -2.25 c 1.16,0.85 2.43,1.49 3.82,1.92 1.39,0.43 2.82,0.65 4.28,0.65 1.47,0 2.9,-0.22 4.27,-0.66 1.37,-0.44 2.62,-1.07 3.73,-1.89 v 2.24 c -1.02,0.88 -2.21,1.56 -3.58,2.02 -1.36,0.45 -2.83,0.68 -4.4,0.68 z"
   id="path48" />
			<path
   d="m 86.72,595.13 v 2.75 h -5.89 c -0.73,0 -1.27,0.12 -1.64,0.36 -0.36,0.24 -0.55,0.63 -0.55,1.15 0,0.7 0.26,1.21 0.77,1.53 0.52,0.32 1.37,0.48 2.55,0.48 h 4.74 v 2.75 H 76.64 v -2.1 l 1.29,-0.37 v -0.15 c -0.46,-0.27 -0.82,-0.66 -1.09,-1.17 -0.26,-0.51 -0.39,-1.1 -0.39,-1.76 0,-1.51 0.49,-2.53 1.48,-3.06 v -0.24 c -0.47,-0.27 -0.83,-0.67 -1.09,-1.19 -0.26,-0.52 -0.39,-1.12 -0.39,-1.78 0,-1.14 0.29,-2.01 0.88,-2.59 0.59,-0.58 1.52,-0.88 2.82,-0.88 h 6.57 v 2.76 h -5.89 c -0.73,0 -1.27,0.12 -1.64,0.37 -0.36,0.24 -0.55,0.63 -0.55,1.15 0,0.67 0.24,1.18 0.72,1.51 0.48,0.33 1.24,0.5 2.29,0.5 h 5.07 z"
   id="path50" />
			<path
   d="m 74.04,586.14 c -0.9,0 -1.34,-0.5 -1.34,-1.5 0,-1 0.45,-1.5 1.34,-1.5 0.43,0 0.76,0.12 1,0.37 0.24,0.25 0.36,0.62 0.36,1.12 -0.01,1.01 -0.46,1.51 -1.36,1.51 z m 12.68,-2.87 v 2.75 H 76.64 v -2.75 z"
   id="path52" />
			<path
   d="m 86.72,577.64 v 2.75 H 72.69 v -2.75 z"
   id="path54" />
			<path
   d="m 86.72,572.01 v 2.75 H 72.69 v -2.75 z"
   id="path56" />
			<path
   d="m 74.04,569.24 c -0.9,0 -1.34,-0.5 -1.34,-1.5 0,-1 0.45,-1.5 1.34,-1.5 0.43,0 0.76,0.12 1,0.37 0.24,0.25 0.36,0.62 0.36,1.12 -0.01,1.01 -0.46,1.51 -1.36,1.51 z m 12.68,-2.87 v 2.75 H 76.64 v -2.75 z"
   id="path58" />
			<path
   d="m 81.66,554.33 c 1.64,0 2.92,0.43 3.85,1.3 0.93,0.87 1.39,2.07 1.39,3.62 0,0.97 -0.21,1.82 -0.64,2.56 -0.42,0.74 -1.03,1.31 -1.83,1.7 -0.79,0.4 -1.72,0.6 -2.78,0.6 -1.65,0 -2.93,-0.43 -3.84,-1.29 -0.91,-0.86 -1.37,-2.07 -1.37,-3.62 0,-0.97 0.21,-1.82 0.63,-2.56 0.42,-0.74 1.02,-1.31 1.81,-1.7 0.8,-0.41 1.72,-0.61 2.78,-0.61 z m 0,6.97 c 1,0 1.75,-0.16 2.26,-0.49 0.51,-0.33 0.77,-0.86 0.77,-1.6 0,-0.73 -0.25,-1.26 -0.76,-1.58 -0.51,-0.32 -1.26,-0.48 -2.27,-0.48 -1,0 -1.75,0.16 -2.24,0.49 -0.49,0.33 -0.75,0.86 -0.75,1.6 0,0.73 0.25,1.26 0.74,1.59 0.5,0.31 1.25,0.47 2.25,0.47 z"
   id="path60" />
			<path
   d="m 86.72,542.75 v 2.75 h -5.89 c -0.73,0 -1.27,0.13 -1.64,0.39 -0.36,0.26 -0.55,0.67 -0.55,1.24 0,0.77 0.26,1.32 0.77,1.67 0.51,0.34 1.37,0.51 2.56,0.51 h 4.74 v 2.75 H 76.64 v -2.1 l 1.29,-0.37 v -0.15 c -0.49,-0.31 -0.85,-0.73 -1.1,-1.27 -0.25,-0.54 -0.37,-1.15 -0.37,-1.83 0,-1.17 0.32,-2.06 0.95,-2.67 0.63,-0.61 1.55,-0.91 2.74,-0.91 h 6.57 z"
   id="path62" />
			<path
   d="m 86.9,535.36 c 0,1.62 -0.45,2.89 -1.34,3.8 -0.9,0.91 -2.16,1.37 -3.8,1.37 -1.69,0 -2.99,-0.42 -3.92,-1.27 -0.93,-0.85 -1.38,-2.01 -1.38,-3.5 0,-1.42 0.41,-2.53 1.22,-3.33 0.81,-0.79 1.93,-1.19 3.36,-1.19 h 1.33 v 6.5 c 0.78,-0.03 1.39,-0.26 1.83,-0.69 0.44,-0.43 0.66,-1.04 0.66,-1.82 0,-0.61 -0.06,-1.18 -0.19,-1.72 -0.13,-0.54 -0.33,-1.11 -0.6,-1.69 h 2.13 c 0.24,0.48 0.42,0.99 0.54,1.54 0.12,0.55 0.16,1.22 0.16,2 z m -8.49,0.39 c 0,0.58 0.19,1.04 0.55,1.37 0.37,0.33 0.89,0.52 1.57,0.57 v -3.86 c -0.68,0.01 -1.2,0.19 -1.57,0.53 -0.37,0.34 -0.55,0.81 -0.55,1.39 z"
   id="path64" />
			<path
   d="m 83.73,521.99 c 1.03,0 1.82,0.36 2.36,1.08 0.54,0.72 0.81,1.79 0.81,3.22 0,0.73 -0.05,1.36 -0.15,1.88 -0.1,0.52 -0.25,1 -0.44,1.45 h -2.27 c 0.24,-0.51 0.44,-1.09 0.6,-1.73 0.16,-0.64 0.24,-1.2 0.24,-1.69 0,-1 -0.29,-1.5 -0.87,-1.5 -0.22,0 -0.39,0.07 -0.53,0.2 -0.14,0.13 -0.29,0.36 -0.46,0.69 -0.17,0.32 -0.37,0.76 -0.6,1.3 -0.32,0.77 -0.62,1.34 -0.9,1.71 -0.28,0.36 -0.59,0.63 -0.95,0.79 -0.36,0.17 -0.8,0.25 -1.32,0.25 -0.9,0 -1.59,-0.35 -2.08,-1.04 -0.49,-0.69 -0.73,-1.68 -0.73,-2.95 0,-1.21 0.26,-2.4 0.79,-3.54 l 1.98,0.83 c -0.22,0.5 -0.39,0.98 -0.53,1.42 -0.14,0.44 -0.21,0.89 -0.21,1.34 0,0.81 0.22,1.22 0.66,1.22 0.25,0 0.46,-0.13 0.64,-0.39 0.18,-0.26 0.45,-0.83 0.8,-1.72 0.32,-0.79 0.62,-1.36 0.89,-1.73 0.27,-0.37 0.59,-0.64 0.96,-0.81 0.38,-0.2 0.81,-0.28 1.31,-0.28 z"
   id="path66" />
			<path
   d="m 86.9,511.85 c 0,1.18 -0.46,2.11 -1.38,2.79 -0.92,0.68 -2.19,1.01 -3.82,1.01 -1.65,0 -2.94,-0.34 -3.86,-1.03 -0.92,-0.69 -1.38,-1.64 -1.38,-2.84 0,-1.27 0.49,-2.24 1.48,-2.9 v -0.09 C 77.19,508.93 76.52,509 75.93,509 H 72.7 v -2.76 h 14.03 v 2.11 l -1.31,0.53 V 509 c 0.98,0.62 1.48,1.57 1.48,2.85 z m -2.19,-0.96 c 0,-0.7 -0.2,-1.22 -0.61,-1.55 -0.41,-0.33 -1.1,-0.51 -2.08,-0.54 h -0.3 c -1.08,0 -1.86,0.17 -2.33,0.5 -0.47,0.33 -0.7,0.88 -0.7,1.63 0,0.61 0.26,1.09 0.78,1.43 0.52,0.34 1.28,0.51 2.27,0.51 0.99,0 1.74,-0.17 2.23,-0.51 0.49,-0.34 0.74,-0.83 0.74,-1.47 z"
   id="path68" />
			<path
   d="m 86.9,498.8 c 0,1.62 -0.45,2.89 -1.34,3.8 -0.9,0.91 -2.16,1.37 -3.8,1.37 -1.69,0 -2.99,-0.42 -3.92,-1.27 -0.93,-0.85 -1.38,-2.01 -1.38,-3.5 0,-1.42 0.41,-2.53 1.22,-3.33 0.81,-0.79 1.93,-1.19 3.36,-1.19 h 1.33 v 6.5 c 0.78,-0.03 1.39,-0.26 1.83,-0.69 0.44,-0.43 0.66,-1.04 0.66,-1.82 0,-0.61 -0.06,-1.18 -0.19,-1.72 -0.13,-0.54 -0.33,-1.11 -0.6,-1.69 h 2.13 c 0.24,0.48 0.42,0.99 0.54,1.54 0.12,0.55 0.16,1.21 0.16,2 z m -8.49,0.39 c 0,0.58 0.19,1.04 0.55,1.37 0.37,0.33 0.89,0.52 1.57,0.57 v -3.86 c -0.68,0.01 -1.2,0.19 -1.57,0.53 -0.37,0.34 -0.55,0.8 -0.55,1.39 z"
   id="path70" />
			<path
   d="m 84.71,483.41 c 0,-0.48 -0.1,-1.06 -0.32,-1.73 h 2.05 c 0.31,0.69 0.46,1.53 0.46,2.52 0,1.1 -0.28,1.9 -0.83,2.4 -0.56,0.5 -1.39,0.75 -2.5,0.75 H 78.7 v 1.32 h -1.16 l -0.92,-1.51 -2.13,-0.79 v -1.76 h 2.15 v -2.82 h 2.06 v 2.82 h 4.86 c 0.39,0 0.68,-0.11 0.87,-0.33 0.19,-0.22 0.28,-0.51 0.28,-0.87 z"
   id="path72" />
			<path
   d="m 81.66,470.49 c 1.64,0 2.92,0.43 3.85,1.3 0.93,0.87 1.39,2.07 1.39,3.62 0,0.97 -0.21,1.82 -0.64,2.56 -0.42,0.74 -1.03,1.31 -1.83,1.7 -0.79,0.4 -1.72,0.6 -2.78,0.6 -1.65,0 -2.93,-0.43 -3.84,-1.29 -0.91,-0.86 -1.37,-2.07 -1.37,-3.62 0,-0.97 0.21,-1.82 0.63,-2.56 0.42,-0.74 1.02,-1.31 1.81,-1.7 0.8,-0.42 1.72,-0.61 2.78,-0.61 z m 0,6.96 c 1,0 1.75,-0.16 2.26,-0.49 0.51,-0.33 0.77,-0.86 0.77,-1.6 0,-0.73 -0.25,-1.26 -0.76,-1.58 -0.51,-0.32 -1.26,-0.48 -2.27,-0.48 -1,0 -1.75,0.16 -2.24,0.49 -0.49,0.33 -0.75,0.86 -0.75,1.6 0,0.73 0.25,1.26 0.74,1.59 0.5,0.31 1.25,0.47 2.25,0.47 z"
   id="path74" />
			<path
   d="m 86.72,458.91 v 2.75 h -5.89 c -0.73,0 -1.27,0.13 -1.64,0.39 -0.36,0.26 -0.55,0.67 -0.55,1.24 0,0.77 0.26,1.32 0.77,1.67 0.51,0.34 1.37,0.51 2.56,0.51 h 4.74 v 2.75 H 76.64 v -2.1 l 1.29,-0.37 v -0.15 c -0.49,-0.31 -0.85,-0.73 -1.1,-1.27 -0.25,-0.54 -0.37,-1.15 -0.37,-1.83 0,-1.17 0.32,-2.06 0.95,-2.67 0.63,-0.61 1.55,-0.91 2.74,-0.91 h 6.57 z"
   id="path76" />
			<path
   d="m 86.9,451.52 c 0,1.62 -0.45,2.89 -1.34,3.8 -0.9,0.91 -2.16,1.37 -3.8,1.37 -1.69,0 -2.99,-0.42 -3.92,-1.27 -0.93,-0.85 -1.38,-2.01 -1.38,-3.5 0,-1.42 0.41,-2.53 1.22,-3.33 0.81,-0.79 1.93,-1.19 3.36,-1.19 h 1.33 v 6.5 c 0.78,-0.03 1.39,-0.26 1.83,-0.69 0.44,-0.43 0.66,-1.04 0.66,-1.82 0,-0.61 -0.06,-1.18 -0.19,-1.72 -0.13,-0.54 -0.33,-1.11 -0.6,-1.69 h 2.13 c 0.24,0.48 0.42,0.99 0.54,1.54 0.12,0.55 0.16,1.21 0.16,2 z m -8.49,0.39 c 0,0.58 0.19,1.04 0.55,1.37 0.37,0.33 0.89,0.52 1.57,0.57 v -3.86 c -0.68,0.01 -1.2,0.19 -1.57,0.53 -0.37,0.34 -0.55,0.8 -0.55,1.39 z"
   id="path78" />
			<path
   d="m 86.72,442.42 v 2.75 H 72.69 v -2.75 z"
   id="path80" />
			<path
   d="m 86.72,433.14 -1.37,0.53 v 0.07 c 0.58,0.46 0.99,0.94 1.21,1.43 0.23,0.49 0.34,1.13 0.34,1.92 0,0.97 -0.28,1.73 -0.83,2.29 -0.55,0.56 -1.34,0.83 -2.36,0.83 -1.07,0 -1.86,-0.37 -2.37,-1.12 -0.51,-0.75 -0.79,-1.88 -0.84,-3.39 l -0.05,-1.75 H 80 c -1.02,0 -1.53,0.52 -1.53,1.57 0,0.81 0.24,1.75 0.73,2.84 l -1.86,0.91 c -0.61,-1.16 -0.91,-2.45 -0.91,-3.86 0,-1.35 0.29,-2.39 0.88,-3.11 0.59,-0.72 1.48,-1.08 2.69,-1.08 h 6.72 z m -4.67,0.81 0.04,1.06 c 0.02,0.8 0.17,1.39 0.43,1.79 0.26,0.4 0.67,0.59 1.21,0.59 0.77,0 1.16,-0.44 1.16,-1.33 0,-0.64 -0.18,-1.15 -0.55,-1.53 -0.37,-0.38 -0.85,-0.57 -1.46,-0.57 h -0.83 z"
   id="path82" />
			<path
   d="m 86.9,425.2 c 0,1.18 -0.46,2.11 -1.38,2.79 -0.92,0.68 -2.19,1.01 -3.82,1.01 -1.65,0 -2.94,-0.34 -3.86,-1.03 -0.92,-0.69 -1.38,-1.64 -1.38,-2.84 0,-1.27 0.49,-2.24 1.48,-2.9 v -0.09 c -0.75,0.14 -1.42,0.21 -2.01,0.21 H 72.7 v -2.76 h 14.03 v 2.11 l -1.31,0.53 v 0.12 c 0.98,0.61 1.48,1.57 1.48,2.85 z m -2.19,-0.97 c 0,-0.7 -0.2,-1.22 -0.61,-1.55 -0.41,-0.33 -1.1,-0.51 -2.08,-0.54 h -0.3 c -1.08,0 -1.86,0.17 -2.33,0.5 -0.47,0.33 -0.7,0.88 -0.7,1.63 0,0.61 0.26,1.09 0.78,1.43 0.52,0.34 1.28,0.51 2.27,0.51 0.99,0 1.74,-0.17 2.23,-0.51 0.49,-0.34 0.74,-0.83 0.74,-1.47 z"
   id="path84" />
			<path
   d="m 86.72,410.3 -1.37,0.53 v 0.07 c 0.58,0.46 0.99,0.94 1.21,1.43 0.23,0.49 0.34,1.13 0.34,1.92 0,0.97 -0.28,1.73 -0.83,2.29 -0.55,0.56 -1.34,0.83 -2.36,0.83 -1.07,0 -1.86,-0.37 -2.37,-1.12 -0.51,-0.75 -0.79,-1.88 -0.84,-3.39 l -0.05,-1.75 H 80 c -1.02,0 -1.53,0.52 -1.53,1.57 0,0.81 0.24,1.75 0.73,2.84 l -1.86,0.91 c -0.61,-1.16 -0.91,-2.45 -0.91,-3.86 0,-1.35 0.29,-2.39 0.88,-3.11 0.59,-0.72 1.48,-1.08 2.69,-1.08 h 6.72 z m -4.67,0.82 0.04,1.06 c 0.02,0.8 0.17,1.39 0.43,1.79 0.26,0.4 0.67,0.59 1.21,0.59 0.77,0 1.16,-0.44 1.16,-1.33 0,-0.64 -0.18,-1.15 -0.55,-1.53 -0.37,-0.38 -0.85,-0.57 -1.46,-0.57 h -0.83 z"
   id="path86" />
			<path
   d="m 83.73,398.52 c 1.03,0 1.82,0.36 2.36,1.08 0.54,0.72 0.81,1.79 0.81,3.22 0,0.73 -0.05,1.36 -0.15,1.88 -0.1,0.52 -0.25,1 -0.44,1.45 h -2.27 c 0.24,-0.51 0.44,-1.09 0.6,-1.73 0.16,-0.64 0.24,-1.2 0.24,-1.69 0,-1 -0.29,-1.5 -0.87,-1.5 -0.22,0 -0.39,0.07 -0.53,0.2 -0.14,0.13 -0.29,0.36 -0.46,0.69 -0.17,0.32 -0.37,0.76 -0.6,1.3 -0.32,0.77 -0.62,1.34 -0.9,1.71 -0.28,0.36 -0.59,0.63 -0.95,0.79 -0.36,0.17 -0.8,0.25 -1.32,0.25 -0.9,0 -1.59,-0.35 -2.08,-1.04 -0.49,-0.69 -0.73,-1.68 -0.73,-2.95 0,-1.21 0.26,-2.4 0.79,-3.54 l 1.98,0.83 c -0.22,0.5 -0.39,0.98 -0.53,1.42 -0.14,0.44 -0.21,0.89 -0.21,1.34 0,0.81 0.22,1.22 0.66,1.22 0.25,0 0.46,-0.13 0.64,-0.39 0.18,-0.26 0.45,-0.83 0.8,-1.72 0.32,-0.79 0.62,-1.36 0.89,-1.73 0.27,-0.37 0.59,-0.64 0.96,-0.81 0.38,-0.19 0.81,-0.28 1.31,-0.28 z"
   id="path88" />
			<path
   d="m 81.66,392.3 c 1.58,0 3.05,0.23 4.42,0.7 1.36,0.47 2.55,1.14 3.56,2.01 v 2.24 c -1.11,-0.81 -2.35,-1.44 -3.72,-1.88 -1.37,-0.44 -2.8,-0.67 -4.28,-0.67 -1.47,0 -2.89,0.22 -4.28,0.65 -1.39,0.43 -2.66,1.07 -3.82,1.92 v -2.25 c 1.05,-0.88 2.27,-1.56 3.66,-2.02 1.4,-0.47 2.88,-0.7 4.46,-0.7 z"
   id="path90" />
		</g>
	</g>
	<g
   id="g210">
		<g
   id="g208">
			<path
   d="m 636.3,497.31 c 0,1.19 -0.43,2.13 -1.28,2.81 -0.86,0.69 -2.05,1.03 -3.57,1.03 -1.41,0 -2.65,-0.26 -3.73,-0.79 v -2.6 c 0.89,0.4 1.64,0.68 2.26,0.84 0.62,0.16 1.18,0.24 1.69,0.24 0.61,0 1.08,-0.12 1.41,-0.35 0.33,-0.23 0.49,-0.58 0.49,-1.05 0,-0.26 -0.07,-0.49 -0.22,-0.69 -0.14,-0.2 -0.36,-0.4 -0.64,-0.58 -0.28,-0.19 -0.85,-0.48 -1.71,-0.89 -0.81,-0.38 -1.41,-0.74 -1.81,-1.09 -0.4,-0.35 -0.72,-0.75 -0.96,-1.22 -0.24,-0.46 -0.36,-1 -0.36,-1.62 0,-1.17 0.4,-2.08 1.19,-2.75 0.79,-0.67 1.88,-1 3.28,-1 0.69,0 1.34,0.08 1.96,0.24 0.62,0.16 1.27,0.39 1.95,0.69 l -0.9,2.17 c -0.7,-0.29 -1.28,-0.49 -1.74,-0.6 -0.46,-0.11 -0.91,-0.17 -1.36,-0.17 -0.53,0 -0.93,0.12 -1.22,0.37 -0.28,0.25 -0.42,0.57 -0.42,0.96 0,0.25 0.06,0.46 0.17,0.64 0.11,0.18 0.3,0.36 0.55,0.53 0.25,0.17 0.84,0.48 1.77,0.92 1.23,0.59 2.08,1.18 2.53,1.77 0.44,0.61 0.67,1.33 0.67,2.19 z"
   id="path96" />
			<path
   d="m 643.03,501.15 c -1.62,0 -2.89,-0.45 -3.8,-1.34 -0.91,-0.9 -1.37,-2.16 -1.37,-3.8 0,-1.69 0.42,-2.99 1.27,-3.92 0.85,-0.93 2.01,-1.38 3.5,-1.38 1.42,0 2.53,0.41 3.33,1.22 0.79,0.81 1.19,1.93 1.19,3.36 v 1.33 h -6.5 c 0.03,0.78 0.26,1.39 0.69,1.83 0.43,0.44 1.04,0.66 1.82,0.66 0.61,0 1.18,-0.06 1.72,-0.19 0.54,-0.13 1.11,-0.33 1.69,-0.6 v 2.13 c -0.48,0.24 -0.99,0.42 -1.54,0.54 -0.55,0.12 -1.21,0.16 -2,0.16 z m -0.38,-8.49 c -0.58,0 -1.04,0.19 -1.37,0.55 -0.33,0.37 -0.52,0.89 -0.57,1.57 h 3.86 c -0.01,-0.68 -0.19,-1.2 -0.53,-1.57 -0.35,-0.36 -0.81,-0.55 -1.39,-0.55 z"
   id="path98" />
			<path
   d="m 663.48,500.97 h -2.75 v -5.89 c 0,-1.45 -0.54,-2.18 -1.62,-2.18 -0.77,0 -1.32,0.26 -1.67,0.78 -0.34,0.52 -0.51,1.37 -0.51,2.54 v 4.74 h -2.75 v -14.03 h 2.75 v 2.86 c 0,0.22 -0.02,0.75 -0.06,1.57 l -0.06,0.81 h 0.14 c 0.61,-0.99 1.59,-1.48 2.92,-1.48 1.18,0 2.08,0.32 2.7,0.96 0.61,0.64 0.92,1.55 0.92,2.74 v 6.58 z"
   id="path100" />
			<path
   d="m 672.71,500.97 -0.53,-1.37 h -0.07 c -0.46,0.58 -0.94,0.99 -1.43,1.21 -0.49,0.23 -1.13,0.34 -1.92,0.34 -0.97,0 -1.73,-0.28 -2.29,-0.83 -0.56,-0.55 -0.83,-1.34 -0.83,-2.36 0,-1.07 0.37,-1.86 1.12,-2.37 0.75,-0.51 1.88,-0.79 3.39,-0.84 l 1.75,-0.05 v -0.44 c 0,-1.02 -0.52,-1.53 -1.57,-1.53 -0.81,0 -1.75,0.24 -2.84,0.73 l -0.91,-1.86 c 1.16,-0.61 2.45,-0.91 3.86,-0.91 1.35,0 2.39,0.29 3.11,0.88 0.72,0.59 1.08,1.48 1.08,2.69 v 6.72 h -1.92 z m -0.81,-4.67 -1.06,0.04 c -0.8,0.02 -1.39,0.17 -1.79,0.43 -0.4,0.26 -0.59,0.67 -0.59,1.21 0,0.77 0.44,1.16 1.33,1.16 0.64,0 1.15,-0.18 1.53,-0.55 0.38,-0.37 0.57,-0.85 0.57,-1.46 v -0.83 z"
   id="path102" />
			<path
   d="m 686.35,501.15 c -3.14,0 -4.71,-1.72 -4.71,-5.17 0,-1.71 0.43,-3.02 1.28,-3.93 0.85,-0.9 2.08,-1.36 3.67,-1.36 1.17,0 2.21,0.23 3.14,0.69 l -0.81,2.13 c -0.43,-0.17 -0.84,-0.32 -1.21,-0.43 -0.37,-0.11 -0.75,-0.17 -1.12,-0.17 -1.43,0 -2.15,1.02 -2.15,3.05 0,1.97 0.72,2.96 2.15,2.96 0.53,0 1.02,-0.07 1.47,-0.21 0.45,-0.14 0.9,-0.36 1.35,-0.66 v 2.35 c -0.44,0.28 -0.89,0.48 -1.35,0.59 -0.45,0.11 -1.02,0.16 -1.71,0.16 z"
   id="path104" />
			<path
   d="m 698.89,500.97 -0.37,-1.29 h -0.14 c -0.29,0.47 -0.71,0.83 -1.25,1.09 -0.54,0.26 -1.16,0.38 -1.85,0.38 -1.18,0 -2.08,-0.32 -2.68,-0.95 -0.6,-0.63 -0.9,-1.55 -0.9,-2.74 v -6.57 h 2.75 v 5.89 c 0,0.73 0.13,1.27 0.39,1.64 0.26,0.36 0.67,0.55 1.23,0.55 0.77,0 1.33,-0.26 1.67,-0.77 0.34,-0.51 0.51,-1.37 0.51,-2.56 V 490.9 H 701 v 10.08 h -2.11 z"
   id="path106" />
			<path
   d="m 710.28,500.97 -0.53,-1.37 h -0.07 c -0.46,0.58 -0.94,0.99 -1.43,1.21 -0.49,0.23 -1.13,0.34 -1.92,0.34 -0.97,0 -1.73,-0.28 -2.29,-0.83 -0.56,-0.55 -0.83,-1.34 -0.83,-2.36 0,-1.07 0.37,-1.86 1.12,-2.37 0.75,-0.51 1.88,-0.79 3.39,-0.84 l 1.75,-0.05 v -0.44 c 0,-1.02 -0.52,-1.53 -1.57,-1.53 -0.81,0 -1.75,0.24 -2.84,0.73 l -0.91,-1.86 c 1.16,-0.61 2.45,-0.91 3.86,-0.91 1.35,0 2.39,0.29 3.11,0.88 0.72,0.59 1.08,1.48 1.08,2.69 v 6.72 h -1.92 z m -0.81,-4.67 -1.06,0.04 c -0.8,0.02 -1.39,0.17 -1.79,0.43 -0.4,0.26 -0.59,0.67 -0.59,1.21 0,0.77 0.44,1.16 1.33,1.16 0.64,0 1.15,-0.18 1.53,-0.55 0.38,-0.37 0.57,-0.85 0.57,-1.46 v -0.83 z"
   id="path108" />
			<path
   d="m 718.22,501.15 c -1.18,0 -2.11,-0.46 -2.79,-1.38 -0.68,-0.92 -1.01,-2.19 -1.01,-3.82 0,-1.65 0.34,-2.94 1.03,-3.86 0.69,-0.92 1.64,-1.38 2.84,-1.38 1.27,0 2.24,0.49 2.9,1.48 h 0.09 c -0.14,-0.75 -0.21,-1.42 -0.21,-2.01 v -3.23 h 2.76 v 14.03 h -2.11 l -0.53,-1.31 h -0.12 c -0.61,0.99 -1.57,1.48 -2.85,1.48 z m 0.97,-2.19 c 0.7,0 1.22,-0.2 1.55,-0.61 0.33,-0.41 0.51,-1.1 0.54,-2.08 v -0.3 c 0,-1.08 -0.17,-1.86 -0.5,-2.33 -0.33,-0.47 -0.88,-0.7 -1.63,-0.7 -0.61,0 -1.09,0.26 -1.43,0.78 -0.34,0.52 -0.51,1.28 -0.51,2.27 0,0.99 0.17,1.74 0.51,2.23 0.34,0.49 0.83,0.74 1.47,0.74 z"
   id="path110" />
			<path
   d="m 732.34,490.7 c 0.37,0 0.68,0.03 0.93,0.08 l -0.21,2.58 c -0.22,-0.06 -0.49,-0.09 -0.81,-0.09 -0.88,0 -1.56,0.23 -2.05,0.68 -0.49,0.45 -0.73,1.08 -0.73,1.89 v 5.13 h -2.75 v -10.08 h 2.08 l 0.41,1.69 h 0.14 c 0.31,-0.56 0.73,-1.02 1.27,-1.37 0.52,-0.33 1.1,-0.51 1.72,-0.51 z"
   id="path112" />
			<path
   d="m 734.98,488.29 c 0,-0.9 0.5,-1.34 1.5,-1.34 1,0 1.5,0.45 1.5,1.34 0,0.43 -0.12,0.76 -0.37,1 -0.25,0.24 -0.62,0.36 -1.12,0.36 -1.01,-0.01 -1.51,-0.46 -1.51,-1.36 z m 2.87,12.68 h -2.75 v -10.08 h 2.75 z"
   id="path114" />
			<path
   d="m 746.27,501.15 c -1.18,0 -2.11,-0.43 -2.79,-1.29 h -0.14 c 0.1,0.84 0.14,1.33 0.14,1.46 v 4.08 h -2.75 v -14.51 h 2.24 l 0.39,1.31 h 0.13 c 0.64,-1 1.6,-1.5 2.86,-1.5 1.19,0 2.12,0.46 2.79,1.38 0.67,0.92 1.01,2.2 1.01,3.83 0,1.08 -0.16,2.01 -0.47,2.8 -0.32,0.79 -0.77,1.4 -1.35,1.81 -0.59,0.42 -1.27,0.63 -2.06,0.63 z m -0.81,-8.25 c -0.68,0 -1.18,0.21 -1.49,0.63 -0.31,0.42 -0.48,1.11 -0.49,2.07 v 0.3 c 0,1.08 0.16,1.86 0.48,2.33 0.32,0.47 0.83,0.7 1.53,0.7 1.23,0 1.85,-1.02 1.85,-3.05 0,-0.99 -0.15,-1.74 -0.46,-2.23 -0.3,-0.5 -0.77,-0.75 -1.42,-0.75 z"
   id="path116" />
			<path
   d="m 755.17,500.97 h -2.75 v -14.03 h 2.75 z"
   id="path118" />
			<path
   d="m 757.93,488.29 c 0,-0.9 0.5,-1.34 1.5,-1.34 1,0 1.5,0.45 1.5,1.34 0,0.43 -0.12,0.76 -0.37,1 -0.25,0.24 -0.62,0.36 -1.12,0.36 -1.01,-0.01 -1.51,-0.46 -1.51,-1.36 z m 2.87,12.68 h -2.75 v -10.08 h 2.75 z"
   id="path120" />
			<path
   d="m 767.78,501.15 c -3.14,0 -4.71,-1.72 -4.71,-5.17 0,-1.71 0.43,-3.02 1.28,-3.93 0.85,-0.9 2.08,-1.36 3.67,-1.36 1.17,0 2.21,0.23 3.14,0.69 l -0.81,2.13 c -0.43,-0.17 -0.84,-0.32 -1.21,-0.43 -0.37,-0.11 -0.75,-0.17 -1.12,-0.17 -1.43,0 -2.15,1.02 -2.15,3.05 0,1.97 0.72,2.96 2.15,2.96 0.53,0 1.02,-0.07 1.47,-0.21 0.45,-0.14 0.9,-0.36 1.35,-0.66 v 2.35 c -0.44,0.28 -0.89,0.48 -1.35,0.59 -0.45,0.11 -1.02,0.16 -1.71,0.16 z"
   id="path122" />
			<path
   d="m 779.58,500.97 -0.53,-1.37 h -0.07 c -0.46,0.58 -0.94,0.99 -1.43,1.21 -0.49,0.23 -1.13,0.34 -1.92,0.34 -0.97,0 -1.73,-0.28 -2.29,-0.83 -0.56,-0.55 -0.83,-1.34 -0.83,-2.36 0,-1.07 0.37,-1.86 1.12,-2.37 0.75,-0.51 1.88,-0.79 3.39,-0.84 l 1.75,-0.05 v -0.44 c 0,-1.02 -0.52,-1.53 -1.57,-1.53 -0.81,0 -1.75,0.24 -2.84,0.73 l -0.91,-1.86 c 1.16,-0.61 2.45,-0.91 3.86,-0.91 1.35,0 2.39,0.29 3.11,0.88 0.72,0.59 1.08,1.48 1.08,2.69 v 6.72 h -1.92 z m -0.81,-4.67 -1.06,0.04 c -0.8,0.02 -1.39,0.17 -1.79,0.43 -0.4,0.26 -0.59,0.67 -0.59,1.21 0,0.77 0.44,1.16 1.33,1.16 0.64,0 1.15,-0.18 1.53,-0.55 0.38,-0.37 0.57,-0.85 0.57,-1.46 v -0.83 z"
   id="path124" />
			<path
   d="m 787.52,501.15 c -1.18,0 -2.11,-0.46 -2.79,-1.38 -0.68,-0.92 -1.01,-2.19 -1.01,-3.82 0,-1.65 0.34,-2.94 1.03,-3.86 0.69,-0.92 1.64,-1.38 2.84,-1.38 1.27,0 2.24,0.49 2.9,1.48 h 0.09 c -0.14,-0.75 -0.21,-1.42 -0.21,-2.01 v -3.23 h 2.76 v 14.03 h -2.11 l -0.53,-1.31 h -0.12 c -0.62,0.99 -1.57,1.48 -2.85,1.48 z m 0.96,-2.19 c 0.7,0 1.22,-0.2 1.55,-0.61 0.33,-0.41 0.51,-1.1 0.54,-2.08 v -0.3 c 0,-1.08 -0.17,-1.86 -0.5,-2.33 -0.33,-0.47 -0.88,-0.7 -1.63,-0.7 -0.61,0 -1.09,0.26 -1.43,0.78 -0.34,0.52 -0.51,1.28 -0.51,2.27 0,0.99 0.17,1.74 0.51,2.23 0.35,0.49 0.84,0.74 1.47,0.74 z"
   id="path126" />
			<path
   d="m 805.17,495.91 c 0,1.64 -0.43,2.92 -1.3,3.85 -0.87,0.93 -2.07,1.39 -3.62,1.39 -0.97,0 -1.82,-0.21 -2.56,-0.64 -0.74,-0.42 -1.31,-1.03 -1.7,-1.83 -0.4,-0.79 -0.6,-1.72 -0.6,-2.78 0,-1.65 0.43,-2.93 1.29,-3.84 0.86,-0.91 2.07,-1.37 3.62,-1.37 0.97,0 1.82,0.21 2.56,0.63 0.74,0.42 1.31,1.02 1.7,1.81 0.41,0.8 0.61,1.73 0.61,2.78 z m -6.97,0 c 0,1 0.16,1.75 0.49,2.26 0.33,0.51 0.86,0.77 1.6,0.77 0.73,0 1.26,-0.25 1.58,-0.76 0.32,-0.51 0.48,-1.26 0.48,-2.27 0,-1 -0.16,-1.75 -0.49,-2.24 -0.33,-0.49 -0.86,-0.75 -1.6,-0.75 -0.73,0 -1.26,0.25 -1.59,0.74 -0.31,0.5 -0.47,1.25 -0.47,2.25 z"
   id="path128" />
			<path
   d="m 816.8,501.15 c -1.62,0 -2.89,-0.45 -3.8,-1.34 -0.91,-0.9 -1.37,-2.16 -1.37,-3.8 0,-1.69 0.42,-2.99 1.27,-3.92 0.85,-0.93 2.01,-1.38 3.5,-1.38 1.42,0 2.53,0.41 3.33,1.22 0.79,0.81 1.19,1.93 1.19,3.36 v 1.33 h -6.5 c 0.03,0.78 0.26,1.39 0.69,1.83 0.43,0.44 1.04,0.66 1.82,0.66 0.61,0 1.18,-0.06 1.72,-0.19 0.54,-0.13 1.11,-0.33 1.69,-0.6 v 2.13 c -0.48,0.24 -0.99,0.42 -1.54,0.54 -0.55,0.12 -1.21,0.16 -2,0.16 z m -0.39,-8.49 c -0.58,0 -1.04,0.19 -1.37,0.55 -0.33,0.37 -0.52,0.89 -0.57,1.57 h 3.86 c -0.01,-0.68 -0.19,-1.2 -0.53,-1.57 -0.34,-0.36 -0.81,-0.55 -1.39,-0.55 z"
   id="path130" />
			<path
   d="m 825.89,500.97 h -2.75 v -14.03 h 2.75 z"
   id="path132" />
			<path
   d="m 840.71,500.97 -0.37,-1.29 h -0.14 c -0.29,0.47 -0.71,0.83 -1.25,1.09 -0.54,0.26 -1.16,0.38 -1.85,0.38 -1.18,0 -2.08,-0.32 -2.68,-0.95 -0.6,-0.63 -0.9,-1.55 -0.9,-2.74 v -6.57 h 2.75 v 5.89 c 0,0.73 0.13,1.27 0.39,1.64 0.26,0.36 0.67,0.55 1.23,0.55 0.77,0 1.33,-0.26 1.67,-0.77 0.34,-0.51 0.51,-1.37 0.51,-2.56 v -4.74 h 2.75 v 10.08 h -2.11 z"
   id="path134" />
			<path
   d="m 852.74,497.98 c 0,1.03 -0.36,1.82 -1.08,2.36 -0.72,0.54 -1.79,0.81 -3.22,0.81 -0.73,0 -1.36,-0.05 -1.88,-0.15 -0.52,-0.1 -1,-0.25 -1.45,-0.44 v -2.27 c 0.51,0.24 1.09,0.44 1.73,0.6 0.64,0.16 1.2,0.24 1.69,0.24 1,0 1.5,-0.29 1.5,-0.87 0,-0.22 -0.07,-0.39 -0.2,-0.53 -0.13,-0.14 -0.36,-0.29 -0.69,-0.46 -0.32,-0.17 -0.76,-0.37 -1.3,-0.6 -0.77,-0.32 -1.34,-0.62 -1.71,-0.9 -0.36,-0.28 -0.63,-0.59 -0.79,-0.95 -0.17,-0.36 -0.25,-0.8 -0.25,-1.32 0,-0.9 0.35,-1.59 1.04,-2.08 0.69,-0.49 1.68,-0.73 2.95,-0.73 1.21,0 2.4,0.26 3.54,0.79 l -0.83,1.98 c -0.5,-0.22 -0.98,-0.39 -1.42,-0.53 -0.44,-0.14 -0.89,-0.21 -1.34,-0.21 -0.81,0 -1.22,0.22 -1.22,0.66 0,0.25 0.13,0.46 0.39,0.64 0.26,0.18 0.83,0.45 1.72,0.8 0.79,0.32 1.36,0.62 1.73,0.89 0.37,0.27 0.64,0.59 0.81,0.96 0.19,0.38 0.28,0.81 0.28,1.31 z"
   id="path136" />
			<path
   d="m 864.04,495.91 c 0,1.64 -0.43,2.92 -1.3,3.85 -0.87,0.93 -2.07,1.39 -3.62,1.39 -0.97,0 -1.82,-0.21 -2.56,-0.64 -0.74,-0.42 -1.31,-1.03 -1.7,-1.83 -0.4,-0.79 -0.6,-1.72 -0.6,-2.78 0,-1.65 0.43,-2.93 1.29,-3.84 0.86,-0.91 2.07,-1.37 3.62,-1.37 0.97,0 1.82,0.21 2.56,0.63 0.74,0.42 1.31,1.02 1.7,1.81 0.42,0.8 0.61,1.73 0.61,2.78 z m -6.96,0 c 0,1 0.16,1.75 0.49,2.26 0.33,0.51 0.86,0.77 1.6,0.77 0.73,0 1.26,-0.25 1.58,-0.76 0.32,-0.51 0.48,-1.26 0.48,-2.27 0,-1 -0.16,-1.75 -0.49,-2.24 -0.33,-0.49 -0.86,-0.75 -1.6,-0.75 -0.73,0 -1.26,0.25 -1.59,0.74 -0.31,0.5 -0.47,1.25 -0.47,2.25 z"
   id="path138" />
			<path
   d="m 874.3,501.15 c -1.18,0 -2.11,-0.46 -2.79,-1.38 -0.68,-0.92 -1.01,-2.19 -1.01,-3.82 0,-1.65 0.34,-2.94 1.03,-3.86 0.69,-0.92 1.64,-1.38 2.84,-1.38 1.27,0 2.24,0.49 2.9,1.48 h 0.09 c -0.14,-0.75 -0.21,-1.42 -0.21,-2.01 v -3.23 h 2.76 v 14.03 h -2.11 l -0.53,-1.31 h -0.12 c -0.61,0.99 -1.57,1.48 -2.85,1.48 z m 0.97,-2.19 c 0.7,0 1.22,-0.2 1.55,-0.61 0.33,-0.41 0.51,-1.1 0.54,-2.08 v -0.3 c 0,-1.08 -0.17,-1.86 -0.5,-2.33 -0.33,-0.47 -0.88,-0.7 -1.63,-0.7 -0.61,0 -1.09,0.26 -1.43,0.78 -0.34,0.52 -0.51,1.28 -0.51,2.27 0,0.99 0.17,1.74 0.51,2.23 0.34,0.49 0.83,0.74 1.47,0.74 z"
   id="path140" />
			<path
   d="m 887.36,501.15 c -1.62,0 -2.89,-0.45 -3.8,-1.34 -0.91,-0.9 -1.37,-2.16 -1.37,-3.8 0,-1.69 0.42,-2.99 1.27,-3.92 0.84,-0.92 2.01,-1.38 3.5,-1.38 1.42,0 2.53,0.41 3.33,1.22 0.79,0.81 1.19,1.93 1.19,3.36 v 1.33 h -6.5 c 0.03,0.78 0.26,1.39 0.69,1.83 0.43,0.44 1.04,0.66 1.82,0.66 0.61,0 1.18,-0.06 1.72,-0.19 0.54,-0.13 1.11,-0.33 1.7,-0.6 v 2.13 c -0.48,0.24 -1,0.42 -1.54,0.54 -0.54,0.12 -1.23,0.16 -2.01,0.16 z m -0.39,-8.49 c -0.58,0 -1.04,0.19 -1.37,0.55 -0.33,0.37 -0.52,0.89 -0.57,1.57 h 3.86 c -0.01,-0.68 -0.19,-1.2 -0.53,-1.57 -0.35,-0.36 -0.81,-0.55 -1.39,-0.55 z"
   id="path142" />
			<path
   d="m 633.88,515.11 h -2.38 v 8.01 h -2.75 v -8.01 h -1.51 v -1.32 l 1.51,-0.74 v -0.74 c 0,-1.15 0.28,-1.99 0.85,-2.52 0.57,-0.53 1.47,-0.79 2.71,-0.79 0.95,0 1.79,0.14 2.53,0.42 l -0.7,2.02 c -0.55,-0.17 -1.06,-0.26 -1.53,-0.26 -0.39,0 -0.67,0.12 -0.85,0.35 -0.18,0.23 -0.26,0.53 -0.26,0.89 v 0.63 h 2.38 z"
   id="path144" />
			<path
   d="m 640.01,523.31 c -1.62,0 -2.89,-0.45 -3.8,-1.34 -0.91,-0.9 -1.37,-2.16 -1.37,-3.8 0,-1.69 0.42,-2.99 1.27,-3.92 0.85,-0.93 2.01,-1.38 3.5,-1.38 1.42,0 2.53,0.41 3.33,1.22 0.79,0.81 1.19,1.93 1.19,3.36 v 1.33 h -6.5 c 0.03,0.78 0.26,1.39 0.69,1.83 0.43,0.44 1.04,0.66 1.82,0.66 0.61,0 1.18,-0.06 1.72,-0.19 0.54,-0.13 1.11,-0.33 1.69,-0.6 v 2.13 c -0.48,0.24 -0.99,0.42 -1.54,0.54 -0.55,0.12 -1.21,0.16 -2,0.16 z m -0.38,-8.5 c -0.58,0 -1.04,0.19 -1.37,0.55 -0.33,0.37 -0.52,0.89 -0.57,1.57 h 3.86 c -0.01,-0.68 -0.19,-1.2 -0.53,-1.57 -0.35,-0.36 -0.81,-0.55 -1.39,-0.55 z"
   id="path146" />
			<path
   d="m 651.99,512.86 c 0.37,0 0.68,0.03 0.93,0.08 l -0.21,2.58 c -0.22,-0.06 -0.49,-0.09 -0.81,-0.09 -0.88,0 -1.56,0.23 -2.05,0.68 -0.49,0.45 -0.73,1.08 -0.73,1.89 v 5.13 h -2.75 v -10.08 h 2.08 l 0.41,1.69 H 649 c 0.31,-0.56 0.73,-1.02 1.27,-1.37 0.51,-0.34 1.09,-0.51 1.72,-0.51 z"
   id="path148" />
			<path
   d="m 658.99,521.12 c 0.48,0 1.06,-0.1 1.73,-0.32 v 2.05 c -0.69,0.31 -1.53,0.46 -2.52,0.46 -1.1,0 -1.9,-0.28 -2.4,-0.83 -0.5,-0.56 -0.75,-1.39 -0.75,-2.5 v -4.86 h -1.32 v -1.16 l 1.51,-0.92 0.79,-2.13 h 1.76 v 2.15 h 2.82 v 2.06 h -2.82 v 4.86 c 0,0.39 0.11,0.68 0.33,0.87 0.22,0.17 0.51,0.27 0.87,0.27 z"
   id="path150" />
			<path
   d="m 662.64,510.44 c 0,-0.9 0.5,-1.34 1.5,-1.34 1,0 1.5,0.45 1.5,1.34 0,0.43 -0.12,0.76 -0.37,1 -0.25,0.24 -0.62,0.36 -1.12,0.36 -1.01,-0.01 -1.51,-0.46 -1.51,-1.36 z m 2.87,12.69 h -2.75 v -10.08 h 2.75 z"
   id="path152" />
			<path
   d="m 671.14,523.13 h -2.75 V 509.1 h 2.75 z"
   id="path154" />
			<path
   d="m 673.91,510.44 c 0,-0.9 0.5,-1.34 1.5,-1.34 1,0 1.5,0.45 1.5,1.34 0,0.43 -0.12,0.76 -0.37,1 -0.25,0.24 -0.62,0.36 -1.12,0.36 -1.01,-0.01 -1.51,-0.46 -1.51,-1.36 z m 2.87,12.69 h -2.75 v -10.08 h 2.75 z"
   id="path156" />
			<path
   d="m 686.67,523.13 h -7.96 v -1.62 l 4.67,-6.36 h -4.39 v -2.1 h 7.52 v 1.78 l -4.54,6.19 h 4.71 v 2.11 z"
   id="path158" />
			<path
   d="m 695.07,523.13 -0.53,-1.37 h -0.07 c -0.46,0.58 -0.94,0.99 -1.43,1.21 -0.49,0.23 -1.13,0.34 -1.92,0.34 -0.97,0 -1.73,-0.28 -2.29,-0.83 -0.56,-0.55 -0.83,-1.34 -0.83,-2.36 0,-1.07 0.37,-1.86 1.12,-2.37 0.75,-0.51 1.88,-0.79 3.39,-0.84 l 1.75,-0.05 v -0.44 c 0,-1.02 -0.52,-1.53 -1.57,-1.53 -0.81,0 -1.75,0.24 -2.84,0.73 l -0.91,-1.86 c 1.16,-0.61 2.45,-0.91 3.86,-0.91 1.35,0 2.39,0.29 3.11,0.88 0.72,0.59 1.08,1.48 1.08,2.69 v 6.72 h -1.92 z m -0.82,-4.67 -1.06,0.04 c -0.8,0.02 -1.39,0.17 -1.79,0.43 -0.4,0.26 -0.59,0.67 -0.59,1.21 0,0.77 0.44,1.16 1.33,1.16 0.64,0 1.15,-0.18 1.53,-0.55 0.38,-0.37 0.57,-0.85 0.57,-1.46 v -0.83 z"
   id="path160" />
			<path
   d="m 709.12,523.13 h -2.75 v -5.89 c 0,-0.73 -0.13,-1.27 -0.39,-1.64 -0.26,-0.36 -0.67,-0.55 -1.24,-0.55 -0.77,0 -1.32,0.26 -1.67,0.77 -0.34,0.51 -0.51,1.37 -0.51,2.56 v 4.74 h -2.75 v -10.08 h 2.1 l 0.37,1.29 h 0.15 c 0.31,-0.49 0.73,-0.85 1.27,-1.1 0.54,-0.25 1.15,-0.37 1.83,-0.37 1.17,0 2.06,0.32 2.67,0.95 0.61,0.63 0.91,1.55 0.91,2.74 v 6.58 z"
   id="path162" />
			<path
   d="m 716.2,521.12 c 0.48,0 1.06,-0.1 1.73,-0.32 v 2.05 c -0.69,0.31 -1.53,0.46 -2.52,0.46 -1.1,0 -1.9,-0.28 -2.4,-0.83 -0.5,-0.56 -0.75,-1.39 -0.75,-2.5 v -4.86 h -1.32 v -1.16 l 1.51,-0.92 0.79,-2.13 H 715 v 2.15 h 2.82 v 2.06 H 715 v 4.86 c 0,0.39 0.11,0.68 0.33,0.87 0.22,0.17 0.51,0.27 0.87,0.27 z"
   id="path164" />
			<path
   d="m 724.53,523.31 c -1.62,0 -2.89,-0.45 -3.8,-1.34 -0.91,-0.9 -1.37,-2.16 -1.37,-3.8 0,-1.69 0.42,-2.99 1.27,-3.92 0.85,-0.93 2.01,-1.38 3.5,-1.38 1.42,0 2.53,0.41 3.33,1.22 0.79,0.81 1.19,1.93 1.19,3.36 v 1.33 h -6.5 c 0.03,0.78 0.26,1.39 0.69,1.83 0.43,0.44 1.04,0.66 1.82,0.66 0.61,0 1.18,-0.06 1.72,-0.19 0.54,-0.13 1.11,-0.33 1.69,-0.6 v 2.13 c -0.48,0.24 -0.99,0.42 -1.54,0.54 -0.55,0.12 -1.22,0.16 -2,0.16 z m -0.39,-8.5 c -0.58,0 -1.04,0.19 -1.37,0.55 -0.33,0.37 -0.52,0.89 -0.57,1.57 h 3.86 c -0.01,-0.68 -0.19,-1.2 -0.53,-1.57 -0.35,-0.36 -0.81,-0.55 -1.39,-0.55 z"
   id="path166" />
			<path
   d="m 737.9,520.13 c 0,1.03 -0.36,1.82 -1.08,2.36 -0.72,0.54 -1.79,0.81 -3.22,0.81 -0.73,0 -1.36,-0.05 -1.88,-0.15 -0.52,-0.1 -1,-0.25 -1.45,-0.44 v -2.27 c 0.51,0.24 1.09,0.44 1.73,0.6 0.64,0.16 1.2,0.24 1.69,0.24 1,0 1.5,-0.29 1.5,-0.87 0,-0.22 -0.07,-0.39 -0.2,-0.53 -0.13,-0.14 -0.36,-0.29 -0.69,-0.46 -0.32,-0.17 -0.76,-0.37 -1.3,-0.6 -0.77,-0.32 -1.34,-0.62 -1.71,-0.9 -0.36,-0.28 -0.63,-0.59 -0.79,-0.95 -0.17,-0.36 -0.25,-0.8 -0.25,-1.32 0,-0.9 0.35,-1.59 1.04,-2.08 0.69,-0.49 1.68,-0.73 2.95,-0.73 1.21,0 2.4,0.26 3.54,0.79 l -0.83,1.98 c -0.5,-0.22 -0.98,-0.39 -1.42,-0.53 -0.44,-0.14 -0.89,-0.21 -1.34,-0.21 -0.81,0 -1.22,0.22 -1.22,0.66 0,0.25 0.13,0.46 0.39,0.64 0.26,0.18 0.83,0.45 1.72,0.8 0.79,0.32 1.36,0.62 1.73,0.89 0.37,0.27 0.64,0.59 0.81,0.96 0.2,0.38 0.28,0.81 0.28,1.31 z"
   id="path168" />
			<path
   d="m 748.04,523.31 c -1.18,0 -2.11,-0.46 -2.79,-1.38 -0.68,-0.92 -1.01,-2.19 -1.01,-3.82 0,-1.65 0.34,-2.94 1.03,-3.86 0.69,-0.92 1.64,-1.38 2.84,-1.38 1.27,0 2.24,0.49 2.9,1.48 h 0.09 c -0.14,-0.75 -0.21,-1.42 -0.21,-2.01 v -3.23 h 2.76 v 14.03 h -2.11 l -0.53,-1.31 h -0.12 c -0.62,0.98 -1.57,1.48 -2.85,1.48 z m 0.96,-2.19 c 0.7,0 1.22,-0.2 1.55,-0.61 0.33,-0.41 0.51,-1.1 0.54,-2.08 v -0.3 c 0,-1.08 -0.17,-1.86 -0.5,-2.33 -0.33,-0.47 -0.88,-0.7 -1.63,-0.7 -0.61,0 -1.09,0.26 -1.43,0.78 -0.34,0.52 -0.51,1.28 -0.51,2.27 0,0.99 0.17,1.74 0.51,2.23 0.34,0.49 0.83,0.74 1.47,0.74 z"
   id="path170" />
			<path
   d="m 761.09,523.31 c -1.62,0 -2.89,-0.45 -3.8,-1.34 -0.91,-0.9 -1.37,-2.16 -1.37,-3.8 0,-1.69 0.42,-2.99 1.27,-3.92 0.85,-0.93 2.01,-1.38 3.5,-1.38 1.42,0 2.53,0.41 3.33,1.22 0.79,0.81 1.19,1.93 1.19,3.36 v 1.33 h -6.5 c 0.03,0.78 0.26,1.39 0.69,1.83 0.43,0.44 1.04,0.66 1.82,0.66 0.61,0 1.18,-0.06 1.72,-0.19 0.54,-0.13 1.11,-0.33 1.69,-0.6 v 2.13 c -0.48,0.24 -0.99,0.42 -1.54,0.54 -0.55,0.12 -1.21,0.16 -2,0.16 z m -0.39,-8.5 c -0.58,0 -1.04,0.19 -1.37,0.55 -0.33,0.37 -0.52,0.89 -0.57,1.57 h 3.86 c -0.01,-0.68 -0.19,-1.2 -0.53,-1.57 -0.34,-0.36 -0.81,-0.55 -1.39,-0.55 z"
   id="path172" />
			<path
   d="m 774.47,520.13 c 0,1.03 -0.36,1.82 -1.08,2.36 -0.72,0.54 -1.79,0.81 -3.22,0.81 -0.73,0 -1.36,-0.05 -1.88,-0.15 -0.52,-0.1 -1,-0.25 -1.45,-0.44 v -2.27 c 0.51,0.24 1.09,0.44 1.73,0.6 0.64,0.16 1.2,0.24 1.69,0.24 1,0 1.5,-0.29 1.5,-0.87 0,-0.22 -0.07,-0.39 -0.2,-0.53 -0.13,-0.14 -0.36,-0.29 -0.69,-0.46 -0.32,-0.17 -0.76,-0.37 -1.3,-0.6 -0.77,-0.32 -1.34,-0.62 -1.71,-0.9 -0.36,-0.28 -0.63,-0.59 -0.79,-0.95 -0.17,-0.36 -0.25,-0.8 -0.25,-1.32 0,-0.9 0.35,-1.59 1.04,-2.08 0.69,-0.49 1.68,-0.73 2.95,-0.73 1.21,0 2.4,0.26 3.54,0.79 l -0.83,1.98 c -0.5,-0.22 -0.98,-0.39 -1.42,-0.53 -0.44,-0.14 -0.89,-0.21 -1.34,-0.21 -0.81,0 -1.22,0.22 -1.22,0.66 0,0.25 0.13,0.46 0.39,0.64 0.26,0.18 0.83,0.45 1.72,0.8 0.79,0.32 1.36,0.62 1.73,0.89 0.37,0.27 0.64,0.59 0.81,0.96 0.19,0.38 0.28,0.81 0.28,1.31 z"
   id="path174" />
			<path
   d="m 779.8,523.31 c -1.18,0 -2.11,-0.46 -2.79,-1.38 -0.68,-0.92 -1.01,-2.19 -1.01,-3.82 0,-1.65 0.34,-2.94 1.03,-3.86 0.69,-0.92 1.64,-1.38 2.84,-1.38 1.27,0 2.24,0.49 2.9,1.48 h 0.09 c -0.14,-0.75 -0.21,-1.42 -0.21,-2.01 v -3.23 h 2.76 v 14.03 h -2.11 l -0.53,-1.31 h -0.12 c -0.61,0.98 -1.57,1.48 -2.85,1.48 z m 0.97,-2.19 c 0.7,0 1.22,-0.2 1.55,-0.61 0.33,-0.41 0.51,-1.1 0.54,-2.08 v -0.3 c 0,-1.08 -0.17,-1.86 -0.5,-2.33 -0.33,-0.47 -0.88,-0.7 -1.63,-0.7 -0.61,0 -1.09,0.26 -1.43,0.78 -0.34,0.52 -0.51,1.28 -0.51,2.27 0,0.99 0.17,1.74 0.51,2.23 0.34,0.49 0.83,0.74 1.47,0.74 z"
   id="path176" />
			<path
   d="m 792.86,523.31 c -1.62,0 -2.89,-0.45 -3.8,-1.34 -0.91,-0.9 -1.37,-2.16 -1.37,-3.8 0,-1.69 0.42,-2.99 1.27,-3.92 0.85,-0.93 2.01,-1.38 3.5,-1.38 1.42,0 2.53,0.41 3.33,1.22 0.79,0.81 1.19,1.93 1.19,3.36 v 1.33 h -6.5 c 0.03,0.78 0.26,1.39 0.69,1.83 0.43,0.44 1.04,0.66 1.82,0.66 0.61,0 1.18,-0.06 1.72,-0.19 0.54,-0.13 1.11,-0.33 1.69,-0.6 v 2.13 c -0.48,0.24 -0.99,0.42 -1.54,0.54 -0.55,0.12 -1.22,0.16 -2,0.16 z m -0.39,-8.5 c -0.58,0 -1.04,0.19 -1.37,0.55 -0.33,0.37 -0.52,0.89 -0.57,1.57 h 3.86 c -0.01,-0.68 -0.19,-1.2 -0.53,-1.57 -0.35,-0.36 -0.81,-0.55 -1.39,-0.55 z"
   id="path178" />
			<path
   d="M 806.75,523.13 H 804 V 509.1 h 2.75 z"
   id="path180" />
			<path
   d="m 816.03,523.13 -0.53,-1.37 h -0.07 c -0.46,0.58 -0.94,0.99 -1.43,1.21 -0.49,0.23 -1.13,0.34 -1.92,0.34 -0.97,0 -1.73,-0.28 -2.29,-0.83 -0.56,-0.55 -0.83,-1.34 -0.83,-2.36 0,-1.07 0.37,-1.86 1.12,-2.37 0.75,-0.51 1.88,-0.79 3.39,-0.84 l 1.75,-0.05 v -0.44 c 0,-1.02 -0.52,-1.53 -1.57,-1.53 -0.81,0 -1.75,0.24 -2.84,0.73 l -0.91,-1.86 c 1.16,-0.61 2.45,-0.91 3.86,-0.91 1.35,0 2.39,0.29 3.11,0.88 0.72,0.59 1.08,1.48 1.08,2.69 v 6.72 h -1.92 z m -0.81,-4.67 -1.06,0.04 c -0.8,0.02 -1.39,0.17 -1.79,0.43 -0.4,0.26 -0.59,0.67 -0.59,1.21 0,0.77 0.44,1.16 1.33,1.16 0.64,0 1.15,-0.18 1.53,-0.55 0.38,-0.37 0.57,-0.85 0.57,-1.46 v -0.83 z"
   id="path182" />
			<path
   d="m 828.77,523.31 c -1.18,0 -2.11,-0.46 -2.79,-1.38 -0.68,-0.92 -1.01,-2.19 -1.01,-3.82 0,-1.65 0.34,-2.94 1.03,-3.86 0.69,-0.92 1.64,-1.38 2.84,-1.38 1.27,0 2.24,0.49 2.9,1.48 h 0.09 c -0.14,-0.75 -0.21,-1.42 -0.21,-2.01 v -3.23 h 2.76 v 14.03 h -2.11 l -0.53,-1.31 h -0.12 c -0.62,0.98 -1.57,1.48 -2.85,1.48 z m 0.96,-2.19 c 0.7,0 1.22,-0.2 1.55,-0.61 0.33,-0.41 0.51,-1.1 0.54,-2.08 v -0.3 c 0,-1.08 -0.17,-1.86 -0.5,-2.33 -0.33,-0.47 -0.88,-0.7 -1.63,-0.7 -0.61,0 -1.09,0.26 -1.43,0.78 -0.34,0.52 -0.51,1.28 -0.51,2.27 0,0.99 0.17,1.74 0.51,2.23 0.35,0.49 0.84,0.74 1.47,0.74 z"
   id="path184" />
			<path
   d="m 841.82,523.31 c -1.62,0 -2.89,-0.45 -3.8,-1.34 -0.91,-0.9 -1.37,-2.16 -1.37,-3.8 0,-1.69 0.42,-2.99 1.27,-3.92 0.85,-0.93 2.01,-1.38 3.5,-1.38 1.42,0 2.53,0.41 3.33,1.22 0.79,0.81 1.19,1.93 1.19,3.36 v 1.33 h -6.5 c 0.03,0.78 0.26,1.39 0.69,1.83 0.43,0.44 1.04,0.66 1.82,0.66 0.61,0 1.18,-0.06 1.72,-0.19 0.54,-0.13 1.11,-0.33 1.69,-0.6 v 2.13 c -0.48,0.24 -0.99,0.42 -1.54,0.54 -0.55,0.12 -1.21,0.16 -2,0.16 z m -0.38,-8.5 c -0.58,0 -1.04,0.19 -1.37,0.55 -0.33,0.37 -0.52,0.89 -0.57,1.57 h 3.86 c -0.01,-0.68 -0.19,-1.2 -0.53,-1.57 -0.35,-0.36 -0.81,-0.55 -1.39,-0.55 z m -1.59,-2.87 v -0.24 c 1.03,-1.2 1.74,-2.11 2.12,-2.71 h 3.08 v 0.19 c -0.31,0.31 -0.85,0.78 -1.6,1.39 -0.75,0.62 -1.34,1.07 -1.77,1.37 z"
   id="path186" />
			<path
   d="m 852.26,523.31 c -3.14,0 -4.71,-1.72 -4.71,-5.17 0,-1.71 0.43,-3.02 1.28,-3.93 0.85,-0.9 2.08,-1.36 3.67,-1.36 1.17,0 2.21,0.23 3.14,0.69 l -0.81,2.13 c -0.43,-0.17 -0.84,-0.32 -1.21,-0.43 -0.37,-0.11 -0.75,-0.17 -1.12,-0.17 -1.43,0 -2.15,1.02 -2.15,3.05 0,1.97 0.72,2.96 2.15,2.96 0.53,0 1.02,-0.07 1.47,-0.21 0.45,-0.14 0.9,-0.36 1.35,-0.66 v 2.35 c -0.44,0.28 -0.89,0.48 -1.35,0.59 -0.45,0.1 -1.02,0.16 -1.71,0.16 z"
   id="path188" />
			<path
   d="m 864.06,523.13 -0.53,-1.37 h -0.07 c -0.46,0.58 -0.94,0.99 -1.43,1.21 -0.49,0.23 -1.13,0.34 -1.92,0.34 -0.97,0 -1.73,-0.28 -2.29,-0.83 -0.56,-0.55 -0.83,-1.34 -0.83,-2.36 0,-1.07 0.37,-1.86 1.12,-2.37 0.75,-0.51 1.88,-0.79 3.39,-0.84 l 1.75,-0.05 v -0.44 c 0,-1.02 -0.52,-1.53 -1.57,-1.53 -0.81,0 -1.75,0.24 -2.84,0.73 l -0.91,-1.86 c 1.16,-0.61 2.45,-0.91 3.86,-0.91 1.35,0 2.39,0.29 3.11,0.88 0.72,0.59 1.08,1.48 1.08,2.69 v 6.72 h -1.92 z m -0.81,-4.67 -1.06,0.04 c -0.8,0.02 -1.39,0.17 -1.79,0.43 -0.4,0.26 -0.59,0.67 -0.59,1.21 0,0.77 0.44,1.16 1.33,1.16 0.64,0 1.15,-0.18 1.53,-0.55 0.38,-0.37 0.57,-0.85 0.57,-1.46 v -0.83 z"
   id="path190" />
			<path
   d="m 872,523.31 c -1.18,0 -2.11,-0.46 -2.79,-1.38 -0.68,-0.92 -1.01,-2.19 -1.01,-3.82 0,-1.65 0.34,-2.94 1.03,-3.86 0.69,-0.92 1.64,-1.38 2.84,-1.38 1.27,0 2.24,0.49 2.9,1.48 h 0.09 c -0.14,-0.75 -0.21,-1.42 -0.21,-2.01 v -3.23 h 2.76 v 14.03 h -2.11 l -0.53,-1.31 h -0.12 c -0.61,0.98 -1.57,1.48 -2.85,1.48 z m 0.97,-2.19 c 0.7,0 1.22,-0.2 1.55,-0.61 0.33,-0.41 0.51,-1.1 0.54,-2.08 v -0.3 c 0,-1.08 -0.17,-1.86 -0.5,-2.33 -0.33,-0.47 -0.88,-0.7 -1.63,-0.7 -0.61,0 -1.09,0.26 -1.43,0.78 -0.34,0.52 -0.51,1.28 -0.51,2.27 0,0.99 0.17,1.74 0.51,2.23 0.34,0.49 0.83,0.74 1.47,0.74 z"
   id="path192" />
			<path
   d="m 886.9,523.13 -0.53,-1.37 h -0.07 c -0.46,0.58 -0.94,0.99 -1.43,1.21 -0.49,0.23 -1.13,0.34 -1.92,0.34 -0.97,0 -1.73,-0.28 -2.29,-0.83 -0.56,-0.55 -0.83,-1.34 -0.83,-2.36 0,-1.07 0.37,-1.86 1.12,-2.37 0.75,-0.51 1.88,-0.79 3.38,-0.84 l 1.75,-0.05 v -0.44 c 0,-1.02 -0.52,-1.53 -1.57,-1.53 -0.81,0 -1.75,0.24 -2.84,0.73 l -0.91,-1.86 c 1.16,-0.61 2.45,-0.91 3.86,-0.91 1.35,0 2.39,0.29 3.11,0.88 0.72,0.59 1.08,1.48 1.08,2.69 v 6.72 h -1.91 z m -0.82,-4.67 -1.06,0.04 c -0.8,0.02 -1.39,0.17 -1.79,0.43 -0.4,0.26 -0.59,0.67 -0.59,1.21 0,0.77 0.44,1.16 1.33,1.16 0.64,0 1.15,-0.18 1.53,-0.55 0.38,-0.37 0.57,-0.85 0.57,-1.46 v -0.83 z"
   id="path194" />
			<path
   d="m 631.5,545.46 c -1.18,0 -2.11,-0.46 -2.79,-1.38 -0.68,-0.92 -1.01,-2.19 -1.01,-3.82 0,-1.65 0.34,-2.94 1.03,-3.86 0.69,-0.92 1.64,-1.38 2.84,-1.38 1.27,0 2.24,0.49 2.9,1.48 h 0.09 c -0.14,-0.75 -0.21,-1.42 -0.21,-2.01 v -3.23 h 2.76 v 14.03 H 635 l -0.53,-1.31 h -0.12 c -0.62,0.98 -1.57,1.48 -2.85,1.48 z m 0.96,-2.19 c 0.7,0 1.22,-0.2 1.55,-0.61 0.33,-0.41 0.51,-1.1 0.54,-2.08 v -0.3 c 0,-1.08 -0.17,-1.86 -0.5,-2.33 -0.33,-0.47 -0.88,-0.7 -1.63,-0.7 -0.61,0 -1.09,0.26 -1.43,0.78 -0.34,0.52 -0.51,1.28 -0.51,2.27 0,0.99 0.17,1.74 0.51,2.23 0.34,0.49 0.83,0.74 1.47,0.74 z"
   id="path196" />
			<path
   d="m 644.55,545.46 c -1.62,0 -2.89,-0.45 -3.8,-1.34 -0.91,-0.9 -1.37,-2.16 -1.37,-3.8 0,-1.69 0.42,-2.99 1.27,-3.92 0.85,-0.93 2.01,-1.38 3.5,-1.38 1.42,0 2.53,0.41 3.33,1.22 0.79,0.81 1.19,1.93 1.19,3.36 v 1.33 h -6.5 c 0.03,0.78 0.26,1.39 0.69,1.83 0.43,0.44 1.04,0.66 1.82,0.66 0.61,0 1.18,-0.06 1.72,-0.19 0.54,-0.13 1.11,-0.33 1.69,-0.6 v 2.13 c -0.48,0.24 -0.99,0.42 -1.54,0.54 -0.55,0.12 -1.21,0.16 -2,0.16 z m -0.39,-8.49 c -0.58,0 -1.04,0.19 -1.37,0.55 -0.33,0.37 -0.52,0.89 -0.57,1.57 h 3.86 c -0.01,-0.68 -0.19,-1.2 -0.53,-1.57 -0.34,-0.37 -0.81,-0.55 -1.39,-0.55 z"
   id="path198" />
			<path
   d="m 661.88,545.28 h -2.79 v -7.63 l 0.03,-1.25 0.05,-1.37 c -0.46,0.46 -0.78,0.77 -0.96,0.91 l -1.51,1.22 -1.34,-1.68 4.25,-3.38 h 2.29 v 13.18 z"
   id="path200" />
			<path
   d="m 674.68,537.73 c 0,2.6 -0.55,4.53 -1.64,5.81 -1.09,1.28 -2.75,1.92 -4.97,1.92 -0.78,0 -1.37,-0.04 -1.78,-0.13 v -2.24 c 0.5,0.13 1.03,0.19 1.59,0.19 0.93,0 1.7,-0.14 2.3,-0.41 0.6,-0.27 1.06,-0.7 1.38,-1.29 0.32,-0.59 0.5,-1.39 0.55,-2.42 H 672 c -0.35,0.56 -0.75,0.96 -1.21,1.19 -0.46,0.23 -1.03,0.34 -1.71,0.34 -1.15,0 -2.05,-0.37 -2.71,-1.1 -0.66,-0.73 -0.99,-1.76 -0.99,-3.07 0,-1.41 0.4,-2.53 1.2,-3.35 0.8,-0.82 1.89,-1.23 3.28,-1.23 0.97,0 1.83,0.23 2.56,0.69 0.73,0.46 1.29,1.12 1.68,1.99 0.39,0.87 0.58,1.9 0.58,3.11 z m -4.76,-3.55 c -0.58,0 -1.03,0.2 -1.35,0.59 -0.32,0.4 -0.49,0.97 -0.49,1.71 0,0.64 0.15,1.14 0.44,1.51 0.29,0.37 0.74,0.56 1.34,0.56 0.56,0 1.05,-0.18 1.45,-0.55 0.4,-0.37 0.6,-0.79 0.6,-1.28 0,-0.71 -0.19,-1.32 -0.56,-1.81 -0.37,-0.48 -0.85,-0.73 -1.43,-0.73 z"
   id="path202" />
			<path
   d="m 675.97,539.68 c 0,-2.61 0.55,-4.55 1.65,-5.82 1.1,-1.27 2.75,-1.91 4.95,-1.91 0.75,0 1.34,0.04 1.77,0.14 v 2.23 c -0.53,-0.12 -1.06,-0.18 -1.59,-0.18 -0.96,0 -1.74,0.14 -2.34,0.43 -0.6,0.29 -1.06,0.72 -1.36,1.28 -0.3,0.56 -0.48,1.37 -0.53,2.41 h 0.12 c 0.6,-1.02 1.55,-1.53 2.86,-1.53 1.18,0 2.1,0.37 2.77,1.11 0.67,0.74 1,1.76 1,3.06 0,1.41 -0.4,2.52 -1.19,3.34 -0.79,0.82 -1.89,1.23 -3.3,1.23 -0.97,0 -1.82,-0.23 -2.55,-0.68 -0.73,-0.45 -1.28,-1.11 -1.68,-1.97 -0.38,-0.88 -0.58,-1.92 -0.58,-3.14 z m 4.76,3.55 c 0.6,0 1.05,-0.2 1.37,-0.6 0.32,-0.4 0.48,-0.97 0.48,-1.71 0,-0.64 -0.15,-1.15 -0.45,-1.52 -0.3,-0.37 -0.75,-0.55 -1.35,-0.55 -0.56,0 -1.05,0.18 -1.45,0.55 -0.4,0.37 -0.6,0.79 -0.6,1.28 0,0.72 0.19,1.32 0.56,1.81 0.39,0.5 0.87,0.74 1.44,0.74 z"
   id="path204" />
			<path
   d="m 695.74,538.69 c 0,2.3 -0.38,4.01 -1.13,5.11 -0.75,1.11 -1.92,1.66 -3.48,1.66 -1.52,0 -2.67,-0.57 -3.44,-1.71 -0.77,-1.14 -1.16,-2.83 -1.16,-5.06 0,-2.33 0.38,-4.04 1.13,-5.14 0.75,-1.1 1.91,-1.65 3.47,-1.65 1.52,0 2.67,0.58 3.45,1.73 0.78,1.15 1.16,2.84 1.16,5.06 z m -6.44,0 c 0,1.62 0.14,2.78 0.42,3.48 0.28,0.7 0.75,1.05 1.41,1.05 0.65,0 1.12,-0.35 1.41,-1.06 0.29,-0.71 0.43,-1.86 0.43,-3.46 0,-1.62 -0.15,-2.78 -0.44,-3.48 -0.29,-0.7 -0.76,-1.06 -1.4,-1.06 -0.66,0 -1.12,0.35 -1.41,1.06 -0.28,0.69 -0.42,1.85 -0.42,3.47 z"
   id="path206" />
		</g>
	</g>
	<line
   class="st0"
   x1="780.22998"
   y1="763.75"
   x2="161.47"
   y2="763.75"
   id="line212" />
	<line
   class="st0"
   x1="220.31"
   y1="770.31"
   x2="220.31"
   y2="763.59998"
   id="line214" />
	<line
   class="st0"
   x1="270.79001"
   y1="770.31"
   x2="270.79001"
   y2="763.59998"
   id="line216" />
	<line
   class="st0"
   x1="324.39001"
   y1="770.31"
   x2="324.39001"
   y2="763.59998"
   id="line218" />
	<line
   class="st0"
   x1="374.87"
   y1="770.31"
   x2="374.87"
   y2="763.59998"
   id="line220" />
	<line
   class="st0"
   x1="427.95001"
   y1="770.31"
   x2="427.95001"
   y2="763.59998"
   id="line222" />
	<line
   class="st0"
   x1="478.42999"
   y1="770.31"
   x2="478.42999"
   y2="763.59998"
   id="line224" />
	<line
   class="st0"
   x1="531.34003"
   y1="770.31"
   x2="531.34003"
   y2="763.59998"
   id="line226" />
	<line
   class="st0"
   x1="581.81"
   y1="770.31"
   x2="581.81"
   y2="763.59998"
   id="line228" />
	<line
   class="st0"
   x1="635.77002"
   y1="770.31"
   x2="635.77002"
   y2="763.59998"
   id="line230" />
	<line
   class="st0"
   x1="686.23999"
   y1="770.31"
   x2="686.23999"
   y2="763.59998"
   id="line232" />
	<line
   class="st0"
   x1="738.02002"
   y1="770.31"
   x2="738.02002"
   y2="763.59998"
   id="line234" />
	<path
   class="st1"
   d="m 168.27,692.04 c 0,0 8.48,-0.72 26.56,-14.62 18.07,-13.9 25.72,-36.84 36.14,-38.92 10.42,-2.08 25.72,-20.16 32.67,-27.8 6.95,-7.64 24.33,-27.11 24.33,-27.11 l 9.04,-13.9 10.43,6.95 c 0,0 17.38,-32.67 20.16,-34.75 2.78,-2.09 14.6,-12.51 14.6,-12.51 l 25.02,-30.58 23.63,2.09 c 0,0 5.56,-13.9 7.65,-18.07 2.09,-4.17 13.9,-18.77 13.9,-18.77 l 11.12,5.56 c 0,0 17.38,-17.38 20.16,-24.33 2.78,-6.95 8.34,-10.43 13.9,-9.73 5.56,0.7 6.95,9.04 14.6,11.82 7.65,2.78 13.21,11.12 13.21,11.12 0,0 12.51,22.94 15.99,25.72 3.48,2.78 12.51,4.87 15.99,-1.39 3.48,-6.26 17.38,-34.75 29.89,-34.06 12.51,0.7 20.16,-6.95 20.16,-6.95 0,0 12.51,11.82 16.68,7.65 4.17,-4.17 25.72,-25.02 25.72,-35.45 0,-10.43 18.07,-13.9 18.07,-13.9 0,0 11.82,-1.39 13.9,-8.34 2.09,-6.95 9.73,-15.99 9.73,-15.99 0,0 8.34,13.21 15.29,11.12 6.95,-2.09 9.73,-15.29 9.73,-15.29 l 10.43,-22.24 c 0,0 2.78,-11.82 11.12,-11.82 8.34,0 19.46,-8.34 19.46,-8.34 l 5.56,-6.95"
   id="path236" />
	<line
   class="st0"
   x1="167.03"
   y1="189.5"
   x2="167.03"
   y2="771.21002"
   id="line238" />
	<g
   id="g248">
		<g
   id="g246">
			<path
   class="st2"
   d="m 732.09,336.15 c 0,0 0.79,-0.35 2.25,-1.08"
   id="path240" />
			<path
   class="st3"
   d="m 738.84,332.75 c 6.94,-3.74 18.58,-10.61 31.71,-20.9"
   id="path242" />
			<path
   class="st2"
   d="m 772.54,310.27 c 0.64,-0.52 1.29,-1.04 1.94,-1.57"
   id="path244" />
		</g>
	</g>
	<line
   class="st0"
   x1="167.53"
   y1="189.81"
   x2="161.74001"
   y2="189.81"
   id="line250" />
	<line
   class="st0"
   x1="167.53"
   y1="306.09"
   x2="161.74001"
   y2="306.09"
   id="line252" />
	<line
   class="st0"
   x1="167.53"
   y1="420.67999"
   x2="161.74001"
   y2="420.67999"
   id="line254" />
	<line
   class="st0"
   x1="167.53"
   y1="535.33002"
   x2="161.74001"
   y2="535.33002"
   id="line256" />
	<line
   class="st0"
   x1="167.53"
   y1="651.06"
   x2="161.74001"
   y2="651.06"
   id="line258" />
	<g
   id="g262">
		<path
   d="m 152.79,767.27 c 0,1.76 -0.29,3.07 -0.87,3.92 -0.58,0.85 -1.47,1.27 -2.67,1.27 -1.17,0 -2.04,-0.44 -2.64,-1.31 -0.59,-0.88 -0.89,-2.17 -0.89,-3.88 0,-1.78 0.29,-3.1 0.86,-3.94 0.57,-0.84 1.46,-1.27 2.66,-1.27 1.17,0 2.05,0.44 2.64,1.33 0.59,0.89 0.91,2.18 0.91,3.88 z m -4.95,0 c 0,1.24 0.11,2.13 0.32,2.67 0.21,0.54 0.57,0.8 1.08,0.8 0.5,0 0.86,-0.27 1.08,-0.82 0.22,-0.55 0.33,-1.43 0.33,-2.65 0,-1.24 -0.11,-2.13 -0.34,-2.67 -0.22,-0.54 -0.58,-0.81 -1.07,-0.81 -0.5,0 -0.86,0.27 -1.08,0.81 -0.21,0.54 -0.32,1.43 -0.32,2.67 z"
   id="path260" />
	</g>
	<g
   id="g268">
		<path
   d="m 141.37,649.1 c 0.98,0 1.75,0.27 2.33,0.82 0.58,0.55 0.87,1.3 0.87,2.25 0,1.13 -0.35,2 -1.04,2.61 -0.69,0.61 -1.69,0.91 -2.99,0.91 -1.12,0 -2.03,-0.18 -2.72,-0.55 v -1.84 c 0.36,0.19 0.79,0.35 1.27,0.47 0.48,0.12 0.94,0.18 1.38,0.18 1.3,0 1.96,-0.53 1.96,-1.6 0,-1.02 -0.67,-1.53 -2.02,-1.53 -0.24,0 -0.51,0.02 -0.81,0.07 -0.29,0.05 -0.53,0.1 -0.72,0.16 l -0.85,-0.46 0.38,-5.15 h 5.48 v 1.81 h -3.61 l -0.19,1.98 0.24,-0.05 c 0.28,-0.04 0.63,-0.08 1.04,-0.08 z"
   id="path264" />
		<path
   d="m 152.79,650.51 c 0,1.76 -0.29,3.07 -0.87,3.92 -0.58,0.85 -1.47,1.27 -2.67,1.27 -1.17,0 -2.04,-0.44 -2.64,-1.31 -0.59,-0.88 -0.89,-2.17 -0.89,-3.88 0,-1.78 0.29,-3.1 0.86,-3.94 0.57,-0.84 1.46,-1.27 2.66,-1.27 1.17,0 2.05,0.44 2.64,1.33 0.59,0.89 0.91,2.17 0.91,3.88 z m -4.95,0 c 0,1.24 0.11,2.13 0.32,2.67 0.21,0.54 0.57,0.8 1.08,0.8 0.5,0 0.86,-0.27 1.08,-0.82 0.22,-0.55 0.33,-1.43 0.33,-2.65 0,-1.24 -0.11,-2.13 -0.34,-2.67 -0.22,-0.54 -0.58,-0.81 -1.07,-0.81 -0.5,0 -0.86,0.27 -1.08,0.81 -0.21,0.54 -0.32,1.43 -0.32,2.67 z"
   id="path266" />
	</g>
	<g
   id="g276">
		<path
   d="m 134.9,543.43 h -2.14 v -5.85 l 0.02,-0.96 0.03,-1.05 c -0.35,0.35 -0.6,0.59 -0.74,0.7 l -1.16,0.93 -1.03,-1.29 3.26,-2.59 h 1.76 z"
   id="path270" />
		<path
   d="m 144.71,538.38 c 0,1.77 -0.29,3.07 -0.87,3.92 -0.58,0.85 -1.47,1.27 -2.67,1.27 -1.17,0 -2.04,-0.44 -2.64,-1.31 -0.59,-0.88 -0.89,-2.17 -0.89,-3.88 0,-1.78 0.29,-3.1 0.86,-3.94 0.58,-0.85 1.46,-1.27 2.66,-1.27 1.17,0 2.05,0.44 2.64,1.33 0.59,0.89 0.91,2.17 0.91,3.88 z m -4.95,0 c 0,1.24 0.11,2.13 0.32,2.66 0.21,0.54 0.57,0.81 1.08,0.81 0.5,0 0.86,-0.27 1.08,-0.82 0.22,-0.54 0.33,-1.43 0.33,-2.65 0,-1.24 -0.11,-2.13 -0.34,-2.67 -0.23,-0.54 -0.58,-0.81 -1.07,-0.81 -0.5,0 -0.86,0.27 -1.08,0.81 -0.21,0.54 -0.32,1.43 -0.32,2.67 z"
   id="path272" />
		<path
   d="m 152.79,538.38 c 0,1.77 -0.29,3.07 -0.87,3.92 -0.58,0.85 -1.47,1.27 -2.67,1.27 -1.17,0 -2.04,-0.44 -2.64,-1.31 -0.59,-0.88 -0.89,-2.17 -0.89,-3.88 0,-1.78 0.29,-3.1 0.86,-3.94 0.58,-0.85 1.46,-1.27 2.66,-1.27 1.17,0 2.05,0.44 2.64,1.33 0.59,0.89 0.91,2.17 0.91,3.88 z m -4.95,0 c 0,1.24 0.11,2.13 0.32,2.66 0.21,0.54 0.57,0.81 1.08,0.81 0.5,0 0.86,-0.27 1.08,-0.82 0.22,-0.54 0.33,-1.43 0.33,-2.65 0,-1.24 -0.11,-2.13 -0.34,-2.67 -0.23,-0.54 -0.58,-0.81 -1.07,-0.81 -0.5,0 -0.86,0.27 -1.08,0.81 -0.21,0.54 -0.32,1.43 -0.32,2.67 z"
   id="path274" />
	</g>
	<g
   id="g284">
		<path
   d="m 134.9,427.13 h -2.14 v -5.85 l 0.02,-0.96 0.03,-1.05 c -0.35,0.35 -0.6,0.59 -0.74,0.7 l -1.16,0.93 -1.03,-1.29 3.26,-2.59 h 1.76 z"
   id="path278" />
		<path
   d="m 141.37,420.67 c 0.98,0 1.75,0.27 2.33,0.82 0.58,0.55 0.87,1.3 0.87,2.25 0,1.13 -0.35,2 -1.04,2.61 -0.7,0.61 -1.69,0.91 -2.99,0.91 -1.12,0 -2.03,-0.18 -2.72,-0.55 v -1.85 c 0.36,0.19 0.79,0.35 1.27,0.47 0.48,0.12 0.94,0.18 1.38,0.18 1.3,0 1.96,-0.53 1.96,-1.6 0,-1.02 -0.67,-1.53 -2.02,-1.53 -0.24,0 -0.51,0.02 -0.81,0.07 -0.3,0.05 -0.53,0.1 -0.72,0.16 l -0.85,-0.46 0.38,-5.15 h 5.48 v 1.81 h -3.61 l -0.19,1.98 0.24,-0.05 c 0.28,-0.04 0.63,-0.07 1.04,-0.07 z"
   id="path280" />
		<path
   d="m 152.79,422.07 c 0,1.77 -0.29,3.07 -0.87,3.92 -0.58,0.85 -1.47,1.27 -2.67,1.27 -1.17,0 -2.04,-0.44 -2.64,-1.31 -0.59,-0.88 -0.89,-2.17 -0.89,-3.88 0,-1.78 0.29,-3.1 0.86,-3.94 0.58,-0.85 1.46,-1.27 2.66,-1.27 1.17,0 2.05,0.44 2.64,1.33 0.59,0.89 0.91,2.18 0.91,3.88 z m -4.95,0 c 0,1.24 0.11,2.13 0.32,2.66 0.21,0.54 0.57,0.81 1.08,0.81 0.5,0 0.86,-0.27 1.08,-0.82 0.22,-0.54 0.33,-1.43 0.33,-2.65 0,-1.24 -0.11,-2.13 -0.34,-2.67 -0.23,-0.54 -0.58,-0.81 -1.07,-0.81 -0.5,0 -0.86,0.27 -1.08,0.81 -0.21,0.54 -0.32,1.43 -0.32,2.67 z"
   id="path282" />
	</g>
	<g
   id="g292">
		<path
   d="m 136.68,313.61 h -7.06 v -1.49 l 2.54,-2.56 c 0.75,-0.77 1.24,-1.3 1.47,-1.6 0.23,-0.3 0.4,-0.57 0.5,-0.83 0.1,-0.25 0.15,-0.52 0.15,-0.79 0,-0.41 -0.11,-0.71 -0.34,-0.91 -0.23,-0.2 -0.52,-0.3 -0.9,-0.3 -0.39,0 -0.77,0.09 -1.14,0.27 -0.37,0.18 -0.75,0.44 -1.15,0.77 l -1.16,-1.38 c 0.5,-0.42 0.91,-0.72 1.24,-0.9 0.33,-0.18 0.68,-0.31 1.07,-0.4 0.39,-0.09 0.82,-0.14 1.3,-0.14 0.63,0 1.19,0.12 1.67,0.35 0.48,0.23 0.86,0.55 1.13,0.97 0.27,0.41 0.4,0.89 0.4,1.42 0,0.47 -0.08,0.9 -0.25,1.31 -0.16,0.41 -0.42,0.83 -0.76,1.25 -0.34,0.43 -0.95,1.04 -1.81,1.83 l -1.3,1.22 v 0.1 h 4.4 z"
   id="path286" />
		<path
   d="m 144.71,308.55 c 0,1.77 -0.29,3.07 -0.87,3.92 -0.58,0.85 -1.47,1.27 -2.67,1.27 -1.17,0 -2.04,-0.44 -2.64,-1.31 -0.59,-0.88 -0.89,-2.17 -0.89,-3.88 0,-1.78 0.29,-3.1 0.86,-3.94 0.58,-0.85 1.46,-1.27 2.66,-1.27 1.17,0 2.05,0.44 2.64,1.33 0.59,0.89 0.91,2.18 0.91,3.88 z m -4.95,0 c 0,1.24 0.11,2.13 0.32,2.66 0.21,0.54 0.57,0.81 1.08,0.81 0.5,0 0.86,-0.27 1.08,-0.82 0.22,-0.54 0.33,-1.43 0.33,-2.65 0,-1.24 -0.11,-2.13 -0.34,-2.67 -0.23,-0.54 -0.58,-0.81 -1.07,-0.81 -0.5,0 -0.86,0.27 -1.08,0.81 -0.21,0.54 -0.32,1.43 -0.32,2.67 z"
   id="path288" />
		<path
   d="m 152.79,308.55 c 0,1.77 -0.29,3.07 -0.87,3.92 -0.58,0.85 -1.47,1.27 -2.67,1.27 -1.17,0 -2.04,-0.44 -2.64,-1.31 -0.59,-0.88 -0.89,-2.17 -0.89,-3.88 0,-1.78 0.29,-3.1 0.86,-3.94 0.58,-0.85 1.46,-1.27 2.66,-1.27 1.17,0 2.05,0.44 2.64,1.33 0.59,0.89 0.91,2.18 0.91,3.88 z m -4.95,0 c 0,1.24 0.11,2.13 0.32,2.66 0.21,0.54 0.57,0.81 1.08,0.81 0.5,0 0.86,-0.27 1.08,-0.82 0.22,-0.54 0.33,-1.43 0.33,-2.65 0,-1.24 -0.11,-2.13 -0.34,-2.67 -0.23,-0.54 -0.58,-0.81 -1.07,-0.81 -0.5,0 -0.86,0.27 -1.08,0.81 -0.21,0.54 -0.32,1.43 -0.32,2.67 z"
   id="path290" />
	</g>
	<g
   id="g300">
		<path
   d="m 136.68,196.84 h -7.06 v -1.49 l 2.54,-2.56 c 0.75,-0.77 1.24,-1.3 1.47,-1.6 0.23,-0.3 0.4,-0.57 0.5,-0.83 0.1,-0.25 0.15,-0.52 0.15,-0.79 0,-0.41 -0.11,-0.71 -0.34,-0.91 -0.23,-0.2 -0.52,-0.3 -0.9,-0.3 -0.39,0 -0.77,0.09 -1.14,0.27 -0.37,0.18 -0.75,0.44 -1.15,0.77 l -1.16,-1.38 c 0.5,-0.42 0.91,-0.72 1.24,-0.9 0.33,-0.18 0.68,-0.31 1.07,-0.4 0.39,-0.09 0.82,-0.14 1.3,-0.14 0.63,0 1.19,0.12 1.67,0.35 0.48,0.23 0.86,0.55 1.13,0.97 0.27,0.41 0.4,0.89 0.4,1.42 0,0.47 -0.08,0.9 -0.25,1.31 -0.16,0.41 -0.42,0.83 -0.76,1.25 -0.34,0.43 -0.95,1.04 -1.81,1.83 l -1.3,1.22 v 0.1 h 4.4 z"
   id="path294" />
		<path
   d="m 141.37,190.38 c 0.98,0 1.75,0.27 2.33,0.82 0.58,0.55 0.87,1.3 0.87,2.25 0,1.13 -0.35,2 -1.04,2.61 -0.7,0.61 -1.69,0.91 -2.99,0.91 -1.12,0 -2.03,-0.18 -2.72,-0.55 v -1.85 c 0.36,0.19 0.79,0.35 1.27,0.47 0.48,0.12 0.94,0.18 1.38,0.18 1.3,0 1.96,-0.53 1.96,-1.6 0,-1.02 -0.67,-1.53 -2.02,-1.53 -0.24,0 -0.51,0.02 -0.81,0.07 -0.3,0.05 -0.53,0.1 -0.72,0.16 l -0.85,-0.46 0.38,-5.15 h 5.48 v 1.81 h -3.61 l -0.19,1.98 0.24,-0.05 c 0.28,-0.03 0.63,-0.07 1.04,-0.07 z"
   id="path296" />
		<path
   d="m 152.79,191.79 c 0,1.77 -0.29,3.07 -0.87,3.92 -0.58,0.85 -1.47,1.27 -2.67,1.27 -1.17,0 -2.04,-0.44 -2.64,-1.31 -0.59,-0.88 -0.89,-2.17 -0.89,-3.88 0,-1.78 0.29,-3.1 0.86,-3.94 0.58,-0.85 1.46,-1.27 2.66,-1.27 1.17,0 2.05,0.44 2.64,1.33 0.59,0.89 0.91,2.17 0.91,3.88 z m -4.95,0 c 0,1.24 0.11,2.13 0.32,2.66 0.21,0.54 0.57,0.81 1.08,0.81 0.5,0 0.86,-0.27 1.08,-0.82 0.22,-0.54 0.33,-1.43 0.33,-2.65 0,-1.24 -0.11,-2.13 -0.34,-2.67 -0.23,-0.54 -0.58,-0.81 -1.07,-0.81 -0.5,0 -0.86,0.27 -1.08,0.81 -0.21,0.54 -0.32,1.43 -0.32,2.67 z"
   id="path298" />
	</g>
	<g
   id="g310">
		<path
   d="m 160.88,795.74 h -2.14 v -5.85 l 0.02,-0.96 0.03,-1.05 c -0.35,0.35 -0.6,0.59 -0.74,0.7 l -1.16,0.93 -1.03,-1.29 3.26,-2.59 h 1.76 z"
   id="path302" />
		<path
   d="m 170.7,789.94 c 0,1.99 -0.42,3.48 -1.26,4.46 -0.84,0.98 -2.11,1.47 -3.81,1.47 -0.6,0 -1.05,-0.03 -1.36,-0.1 v -1.71 c 0.39,0.1 0.79,0.15 1.22,0.15 0.71,0 1.3,-0.1 1.76,-0.31 0.46,-0.21 0.81,-0.54 1.06,-0.99 0.25,-0.45 0.38,-1.07 0.42,-1.86 h -0.08 c -0.27,0.43 -0.58,0.74 -0.93,0.91 -0.35,0.17 -0.79,0.26 -1.31,0.26 -0.88,0 -1.57,-0.28 -2.08,-0.85 -0.51,-0.56 -0.76,-1.35 -0.76,-2.35 0,-1.08 0.31,-1.94 0.92,-2.57 0.61,-0.63 1.45,-0.94 2.51,-0.94 0.75,0 1.4,0.17 1.96,0.53 0.56,0.35 0.99,0.86 1.29,1.52 0.3,0.67 0.45,1.46 0.45,2.38 z m -3.65,-2.71 c -0.44,0 -0.79,0.15 -1.04,0.46 -0.25,0.3 -0.37,0.74 -0.37,1.31 0,0.49 0.11,0.88 0.34,1.16 0.23,0.29 0.57,0.43 1.03,0.43 0.43,0 0.8,-0.14 1.11,-0.42 0.31,-0.28 0.46,-0.61 0.46,-0.98 0,-0.55 -0.14,-1.01 -0.43,-1.39 -0.29,-0.38 -0.66,-0.57 -1.1,-0.57 z"
   id="path304" />
		<path
   d="m 171.69,791.44 c 0,-2 0.42,-3.49 1.27,-4.47 0.85,-0.98 2.11,-1.46 3.8,-1.46 0.58,0 1.03,0.03 1.35,0.1 v 1.71 c -0.41,-0.09 -0.82,-0.14 -1.22,-0.14 -0.73,0 -1.33,0.11 -1.79,0.33 -0.46,0.22 -0.81,0.55 -1.04,0.98 -0.23,0.43 -0.37,1.05 -0.41,1.84 h 0.09 c 0.46,-0.78 1.19,-1.17 2.19,-1.17 0.9,0 1.61,0.28 2.12,0.85 0.51,0.57 0.77,1.35 0.77,2.35 0,1.08 -0.3,1.93 -0.91,2.56 -0.61,0.63 -1.45,0.94 -2.53,0.94 -0.75,0 -1.4,-0.17 -1.95,-0.52 -0.55,-0.35 -0.98,-0.85 -1.29,-1.51 -0.3,-0.65 -0.45,-1.45 -0.45,-2.39 z m 3.65,2.73 c 0.46,0 0.81,-0.15 1.05,-0.46 0.24,-0.31 0.37,-0.74 0.37,-1.31 0,-0.49 -0.11,-0.88 -0.34,-1.16 -0.23,-0.28 -0.57,-0.42 -1.03,-0.42 -0.43,0 -0.8,0.14 -1.11,0.42 -0.31,0.28 -0.46,0.61 -0.46,0.98 0,0.55 0.14,1.01 0.43,1.39 0.28,0.37 0.65,0.56 1.09,0.56 z"
   id="path306" />
		<path
   d="m 185.12,795.74 h -2.14 v -5.85 l 0.02,-0.96 0.03,-1.05 c -0.35,0.35 -0.6,0.59 -0.74,0.7 l -1.16,0.93 -1.03,-1.29 3.26,-2.59 h 1.76 z"
   id="path308" />
	</g>
	<g
   id="g320">
		<path
   d="m 214.4,795.74 h -2.14 v -5.85 l 0.02,-0.96 0.03,-1.05 c -0.35,0.35 -0.6,0.59 -0.74,0.7 l -1.16,0.93 -1.03,-1.29 3.26,-2.59 h 1.76 z"
   id="path312" />
		<path
   d="m 224.22,789.94 c 0,1.99 -0.42,3.48 -1.26,4.46 -0.84,0.98 -2.11,1.47 -3.81,1.47 -0.6,0 -1.05,-0.03 -1.36,-0.1 v -1.71 c 0.39,0.1 0.79,0.15 1.22,0.15 0.71,0 1.3,-0.1 1.76,-0.31 0.46,-0.21 0.81,-0.54 1.06,-0.99 0.25,-0.45 0.38,-1.07 0.42,-1.86 h -0.08 c -0.27,0.43 -0.58,0.74 -0.93,0.91 -0.35,0.17 -0.79,0.26 -1.31,0.26 -0.88,0 -1.57,-0.28 -2.08,-0.85 -0.51,-0.56 -0.76,-1.35 -0.76,-2.35 0,-1.08 0.31,-1.94 0.92,-2.57 0.61,-0.63 1.45,-0.94 2.51,-0.94 0.75,0 1.4,0.17 1.96,0.53 0.56,0.35 0.99,0.86 1.29,1.52 0.3,0.67 0.45,1.46 0.45,2.38 z m -3.66,-2.71 c -0.44,0 -0.79,0.15 -1.04,0.46 -0.25,0.3 -0.37,0.74 -0.37,1.31 0,0.49 0.11,0.88 0.34,1.16 0.23,0.29 0.57,0.43 1.03,0.43 0.43,0 0.8,-0.14 1.11,-0.42 0.31,-0.28 0.46,-0.61 0.46,-0.98 0,-0.55 -0.14,-1.01 -0.43,-1.39 -0.29,-0.38 -0.65,-0.57 -1.1,-0.57 z"
   id="path314" />
		<path
   d="m 225.21,791.44 c 0,-2 0.42,-3.49 1.27,-4.47 0.85,-0.98 2.11,-1.46 3.8,-1.46 0.58,0 1.03,0.03 1.35,0.1 v 1.71 c -0.41,-0.09 -0.82,-0.14 -1.22,-0.14 -0.73,0 -1.33,0.11 -1.79,0.33 -0.46,0.22 -0.81,0.55 -1.04,0.98 -0.23,0.43 -0.37,1.05 -0.41,1.84 h 0.09 c 0.46,-0.78 1.19,-1.17 2.19,-1.17 0.9,0 1.61,0.28 2.12,0.85 0.51,0.57 0.77,1.35 0.77,2.35 0,1.08 -0.3,1.93 -0.91,2.56 -0.61,0.63 -1.45,0.94 -2.53,0.94 -0.75,0 -1.4,-0.17 -1.95,-0.52 -0.55,-0.35 -0.98,-0.85 -1.29,-1.51 -0.3,-0.65 -0.45,-1.45 -0.45,-2.39 z m 3.65,2.73 c 0.46,0 0.81,-0.15 1.05,-0.46 0.24,-0.31 0.37,-0.74 0.37,-1.31 0,-0.49 -0.11,-0.88 -0.34,-1.16 -0.23,-0.28 -0.57,-0.42 -1.03,-0.42 -0.43,0 -0.8,0.14 -1.11,0.42 -0.31,0.28 -0.46,0.61 -0.46,0.98 0,0.55 0.14,1.01 0.43,1.39 0.28,0.37 0.64,0.56 1.09,0.56 z"
   id="path316" />
		<path
   d="m 233.29,791.44 c 0,-2 0.42,-3.49 1.27,-4.47 0.85,-0.98 2.11,-1.46 3.8,-1.46 0.58,0 1.03,0.03 1.35,0.1 v 1.71 c -0.41,-0.09 -0.82,-0.14 -1.22,-0.14 -0.73,0 -1.33,0.11 -1.79,0.33 -0.46,0.22 -0.81,0.55 -1.04,0.98 -0.23,0.43 -0.37,1.05 -0.41,1.84 h 0.09 c 0.46,-0.78 1.19,-1.17 2.19,-1.17 0.9,0 1.61,0.28 2.12,0.85 0.51,0.57 0.77,1.35 0.77,2.35 0,1.08 -0.3,1.93 -0.91,2.56 -0.61,0.63 -1.45,0.94 -2.53,0.94 -0.75,0 -1.4,-0.17 -1.95,-0.52 -0.55,-0.35 -0.98,-0.85 -1.29,-1.51 -0.3,-0.65 -0.45,-1.45 -0.45,-2.39 z m 3.65,2.73 c 0.46,0 0.81,-0.15 1.05,-0.46 0.24,-0.31 0.37,-0.74 0.37,-1.31 0,-0.49 -0.11,-0.88 -0.34,-1.16 -0.23,-0.28 -0.57,-0.42 -1.03,-0.42 -0.43,0 -0.8,0.14 -1.11,0.42 -0.31,0.28 -0.46,0.61 -0.46,0.98 0,0.55 0.14,1.01 0.43,1.39 0.28,0.37 0.64,0.56 1.09,0.56 z"
   id="path318" />
	</g>
	<g
   id="g330">
		<path
   d="m 265.48,795.74 h -2.14 v -5.85 l 0.02,-0.96 0.03,-1.05 c -0.35,0.35 -0.6,0.59 -0.74,0.7 l -1.16,0.93 -1.03,-1.29 3.26,-2.59 h 1.76 z"
   id="path322" />
		<path
   d="m 275.3,789.94 c 0,1.99 -0.42,3.48 -1.26,4.46 -0.84,0.98 -2.11,1.47 -3.81,1.47 -0.6,0 -1.05,-0.03 -1.36,-0.1 v -1.71 c 0.39,0.1 0.79,0.15 1.22,0.15 0.71,0 1.3,-0.1 1.76,-0.31 0.46,-0.21 0.81,-0.54 1.06,-0.99 0.25,-0.45 0.38,-1.07 0.42,-1.86 h -0.08 c -0.27,0.43 -0.58,0.74 -0.93,0.91 -0.35,0.17 -0.79,0.26 -1.31,0.26 -0.88,0 -1.57,-0.28 -2.08,-0.85 -0.51,-0.56 -0.76,-1.35 -0.76,-2.35 0,-1.08 0.31,-1.94 0.92,-2.57 0.61,-0.63 1.45,-0.94 2.51,-0.94 0.75,0 1.4,0.17 1.96,0.53 0.56,0.35 0.99,0.86 1.29,1.52 0.3,0.67 0.45,1.46 0.45,2.38 z m -3.65,-2.71 c -0.44,0 -0.79,0.15 -1.04,0.46 -0.25,0.3 -0.37,0.74 -0.37,1.31 0,0.49 0.11,0.88 0.34,1.16 0.23,0.29 0.57,0.43 1.03,0.43 0.43,0 0.8,-0.14 1.11,-0.42 0.31,-0.28 0.46,-0.61 0.46,-0.98 0,-0.55 -0.14,-1.01 -0.43,-1.39 -0.29,-0.38 -0.66,-0.57 -1.1,-0.57 z"
   id="path324" />
		<path
   d="m 277.36,795.74 3.79,-8.29 h -4.98 v -1.8 h 7.25 v 1.34 l -3.82,8.75 z"
   id="path326" />
		<path
   d="m 289.72,795.74 h -2.14 v -5.85 l 0.02,-0.96 0.03,-1.05 c -0.35,0.35 -0.6,0.59 -0.74,0.7 l -1.16,0.93 -1.03,-1.29 3.26,-2.59 h 1.76 z"
   id="path328" />
	</g>
	<g
   id="g340">
		<path
   d="m 320.39,795.74 h -2.14 v -5.85 l 0.02,-0.96 0.03,-1.05 c -0.35,0.35 -0.6,0.59 -0.74,0.7 l -1.16,0.93 -1.03,-1.29 3.26,-2.59 h 1.76 z"
   id="path332" />
		<path
   d="m 330.21,789.94 c 0,1.99 -0.42,3.48 -1.26,4.46 -0.84,0.98 -2.11,1.47 -3.81,1.47 -0.6,0 -1.05,-0.03 -1.36,-0.1 v -1.71 c 0.39,0.1 0.79,0.15 1.22,0.15 0.71,0 1.3,-0.1 1.76,-0.31 0.46,-0.21 0.81,-0.54 1.06,-0.99 0.25,-0.45 0.38,-1.07 0.42,-1.86 h -0.08 c -0.27,0.43 -0.58,0.74 -0.93,0.91 -0.35,0.17 -0.79,0.26 -1.31,0.26 -0.88,0 -1.57,-0.28 -2.08,-0.85 -0.51,-0.56 -0.76,-1.35 -0.76,-2.35 0,-1.08 0.31,-1.94 0.92,-2.57 0.61,-0.63 1.45,-0.94 2.51,-0.94 0.75,0 1.4,0.17 1.96,0.53 0.56,0.35 0.99,0.86 1.29,1.52 0.3,0.67 0.45,1.46 0.45,2.38 z m -3.65,-2.71 c -0.44,0 -0.79,0.15 -1.04,0.46 -0.25,0.3 -0.37,0.74 -0.37,1.31 0,0.49 0.11,0.88 0.34,1.16 0.23,0.29 0.57,0.43 1.03,0.43 0.43,0 0.8,-0.14 1.11,-0.42 0.31,-0.28 0.46,-0.61 0.46,-0.98 0,-0.55 -0.14,-1.01 -0.43,-1.39 -0.29,-0.38 -0.66,-0.57 -1.1,-0.57 z"
   id="path334" />
		<path
   d="m 332.27,795.74 3.79,-8.29 h -4.98 v -1.8 h 7.25 v 1.34 l -3.82,8.75 z"
   id="path336" />
		<path
   d="m 339.28,791.44 c 0,-2 0.42,-3.49 1.27,-4.47 0.85,-0.98 2.11,-1.46 3.8,-1.46 0.58,0 1.03,0.03 1.35,0.1 v 1.71 c -0.41,-0.09 -0.82,-0.14 -1.22,-0.14 -0.73,0 -1.33,0.11 -1.79,0.33 -0.46,0.22 -0.81,0.55 -1.04,0.98 -0.23,0.43 -0.37,1.05 -0.41,1.84 h 0.09 c 0.46,-0.78 1.19,-1.17 2.19,-1.17 0.9,0 1.61,0.28 2.12,0.85 0.51,0.57 0.77,1.35 0.77,2.35 0,1.08 -0.3,1.93 -0.91,2.56 -0.61,0.63 -1.45,0.94 -2.53,0.94 -0.75,0 -1.4,-0.17 -1.95,-0.52 -0.55,-0.35 -0.98,-0.85 -1.29,-1.51 -0.3,-0.65 -0.45,-1.45 -0.45,-2.39 z m 3.65,2.73 c 0.46,0 0.81,-0.15 1.05,-0.46 0.24,-0.31 0.37,-0.74 0.37,-1.31 0,-0.49 -0.11,-0.88 -0.34,-1.16 -0.23,-0.28 -0.57,-0.42 -1.03,-0.42 -0.43,0 -0.8,0.14 -1.11,0.42 -0.31,0.28 -0.46,0.61 -0.46,0.98 0,0.55 0.14,1.01 0.43,1.39 0.28,0.37 0.65,0.56 1.09,0.56 z"
   id="path338" />
	</g>
	<g
   id="g350">
		<path
   d="m 370.43,795.74 h -2.14 v -5.85 l 0.02,-0.96 0.03,-1.05 c -0.35,0.35 -0.6,0.59 -0.74,0.7 l -1.16,0.93 -1.03,-1.29 3.26,-2.59 h 1.76 z"
   id="path342" />
		<path
   d="m 380.25,789.94 c 0,1.99 -0.42,3.48 -1.26,4.46 -0.84,0.98 -2.11,1.47 -3.81,1.47 -0.6,0 -1.05,-0.03 -1.36,-0.1 v -1.71 c 0.39,0.1 0.79,0.15 1.22,0.15 0.71,0 1.3,-0.1 1.76,-0.31 0.46,-0.21 0.81,-0.54 1.06,-0.99 0.25,-0.45 0.38,-1.07 0.42,-1.86 h -0.08 c -0.27,0.43 -0.58,0.74 -0.93,0.91 -0.35,0.17 -0.79,0.26 -1.31,0.26 -0.88,0 -1.57,-0.28 -2.08,-0.85 -0.51,-0.56 -0.76,-1.35 -0.76,-2.35 0,-1.08 0.31,-1.94 0.92,-2.57 0.61,-0.63 1.45,-0.94 2.51,-0.94 0.75,0 1.4,0.17 1.96,0.53 0.56,0.35 0.99,0.86 1.29,1.52 0.3,0.67 0.45,1.46 0.45,2.38 z m -3.65,-2.71 c -0.44,0 -0.79,0.15 -1.04,0.46 -0.25,0.3 -0.37,0.74 -0.37,1.31 0,0.49 0.11,0.88 0.34,1.16 0.23,0.29 0.57,0.43 1.03,0.43 0.43,0 0.8,-0.14 1.11,-0.42 0.31,-0.28 0.46,-0.61 0.46,-0.98 0,-0.55 -0.14,-1.01 -0.43,-1.39 -0.29,-0.38 -0.66,-0.57 -1.1,-0.57 z"
   id="path344" />
		<path
   d="m 384.79,785.5 c 0.97,0 1.75,0.22 2.34,0.66 0.59,0.44 0.89,1.03 0.89,1.78 0,0.52 -0.14,0.98 -0.43,1.38 -0.29,0.4 -0.75,0.76 -1.38,1.08 0.76,0.41 1.3,0.83 1.63,1.27 0.33,0.44 0.49,0.92 0.49,1.45 0,0.83 -0.32,1.5 -0.97,2 -0.65,0.5 -1.5,0.76 -2.56,0.76 -1.11,0 -1.97,-0.24 -2.61,-0.71 -0.63,-0.47 -0.95,-1.14 -0.95,-2 0,-0.58 0.15,-1.09 0.46,-1.53 0.31,-0.45 0.8,-0.84 1.48,-1.18 -0.58,-0.36 -0.99,-0.75 -1.24,-1.17 -0.25,-0.41 -0.38,-0.87 -0.38,-1.36 0,-0.72 0.3,-1.31 0.9,-1.76 0.59,-0.45 1.37,-0.67 2.33,-0.67 z m -1.57,7.55 c 0,0.4 0.14,0.71 0.41,0.93 0.28,0.22 0.65,0.33 1.13,0.33 0.53,0 0.93,-0.11 1.19,-0.34 0.26,-0.23 0.39,-0.53 0.39,-0.9 0,-0.31 -0.13,-0.6 -0.39,-0.87 -0.26,-0.27 -0.68,-0.56 -1.27,-0.86 -0.97,0.45 -1.46,1.02 -1.46,1.71 z m 1.56,-5.99 c -0.36,0 -0.66,0.09 -0.88,0.28 -0.22,0.19 -0.34,0.44 -0.34,0.75 0,0.28 0.09,0.52 0.27,0.74 0.18,0.22 0.5,0.44 0.96,0.67 0.45,-0.21 0.77,-0.43 0.95,-0.65 0.18,-0.22 0.27,-0.48 0.27,-0.77 0,-0.32 -0.12,-0.57 -0.35,-0.75 -0.22,-0.18 -0.52,-0.27 -0.88,-0.27 z"
   id="path346" />
		<path
   d="m 394.67,795.74 h -2.14 v -5.85 l 0.02,-0.96 0.03,-1.05 c -0.35,0.35 -0.6,0.59 -0.74,0.7 l -1.16,0.93 -1.03,-1.29 3.26,-2.59 h 1.76 z"
   id="path348" />
	</g>
	<g
   id="g360">
		<path
   d="m 423.25,795.74 h -2.14 v -5.85 l 0.02,-0.96 0.03,-1.05 c -0.35,0.35 -0.6,0.59 -0.74,0.7 l -1.16,0.93 -1.03,-1.29 3.26,-2.59 h 1.76 z"
   id="path352" />
		<path
   d="m 433.08,789.94 c 0,1.99 -0.42,3.48 -1.26,4.46 -0.84,0.98 -2.11,1.47 -3.81,1.47 -0.6,0 -1.05,-0.03 -1.36,-0.1 v -1.71 c 0.39,0.1 0.79,0.15 1.22,0.15 0.71,0 1.3,-0.1 1.76,-0.31 0.46,-0.21 0.81,-0.54 1.06,-0.99 0.25,-0.45 0.38,-1.07 0.42,-1.86 h -0.08 c -0.27,0.43 -0.58,0.74 -0.93,0.91 -0.35,0.17 -0.79,0.26 -1.31,0.26 -0.88,0 -1.57,-0.28 -2.08,-0.85 -0.51,-0.56 -0.76,-1.35 -0.76,-2.35 0,-1.08 0.31,-1.94 0.92,-2.57 0.61,-0.63 1.45,-0.94 2.51,-0.94 0.75,0 1.4,0.17 1.96,0.53 0.56,0.35 0.99,0.86 1.29,1.52 0.3,0.67 0.45,1.46 0.45,2.38 z m -3.66,-2.71 c -0.44,0 -0.79,0.15 -1.04,0.46 -0.25,0.3 -0.37,0.74 -0.37,1.31 0,0.49 0.11,0.88 0.34,1.16 0.23,0.29 0.57,0.43 1.03,0.43 0.43,0 0.8,-0.14 1.11,-0.42 0.31,-0.28 0.46,-0.61 0.46,-0.98 0,-0.55 -0.14,-1.01 -0.43,-1.39 -0.29,-0.38 -0.65,-0.57 -1.1,-0.57 z"
   id="path354" />
		<path
   d="m 437.62,785.5 c 0.97,0 1.75,0.22 2.34,0.66 0.59,0.44 0.89,1.03 0.89,1.78 0,0.52 -0.14,0.98 -0.43,1.38 -0.29,0.4 -0.75,0.76 -1.38,1.08 0.76,0.41 1.3,0.83 1.63,1.27 0.33,0.44 0.49,0.92 0.49,1.45 0,0.83 -0.32,1.5 -0.97,2 -0.65,0.5 -1.5,0.76 -2.56,0.76 -1.11,0 -1.97,-0.24 -2.61,-0.71 -0.63,-0.47 -0.95,-1.14 -0.95,-2 0,-0.58 0.15,-1.09 0.46,-1.53 0.31,-0.45 0.8,-0.84 1.48,-1.18 -0.58,-0.36 -0.99,-0.75 -1.24,-1.17 -0.25,-0.41 -0.38,-0.87 -0.38,-1.36 0,-0.72 0.3,-1.31 0.9,-1.76 0.58,-0.45 1.36,-0.67 2.33,-0.67 z m -1.58,7.55 c 0,0.4 0.14,0.71 0.41,0.93 0.28,0.22 0.65,0.33 1.13,0.33 0.53,0 0.93,-0.11 1.19,-0.34 0.26,-0.23 0.39,-0.53 0.39,-0.9 0,-0.31 -0.13,-0.6 -0.39,-0.87 -0.26,-0.27 -0.68,-0.56 -1.27,-0.86 -0.97,0.45 -1.46,1.02 -1.46,1.71 z m 1.56,-5.99 c -0.36,0 -0.66,0.09 -0.88,0.28 -0.22,0.19 -0.34,0.44 -0.34,0.75 0,0.28 0.09,0.52 0.27,0.74 0.18,0.22 0.5,0.44 0.96,0.67 0.45,-0.21 0.77,-0.43 0.95,-0.65 0.18,-0.22 0.27,-0.48 0.27,-0.77 0,-0.32 -0.12,-0.57 -0.35,-0.75 -0.22,-0.18 -0.52,-0.27 -0.88,-0.27 z"
   id="path356" />
		<path
   d="m 442.14,791.44 c 0,-2 0.42,-3.49 1.27,-4.47 0.85,-0.98 2.11,-1.46 3.8,-1.46 0.58,0 1.03,0.03 1.35,0.1 v 1.71 c -0.41,-0.09 -0.82,-0.14 -1.22,-0.14 -0.73,0 -1.33,0.11 -1.79,0.33 -0.46,0.22 -0.81,0.55 -1.04,0.98 -0.23,0.43 -0.37,1.05 -0.41,1.84 h 0.09 c 0.46,-0.78 1.19,-1.17 2.19,-1.17 0.9,0 1.61,0.28 2.12,0.85 0.51,0.57 0.77,1.35 0.77,2.35 0,1.08 -0.3,1.93 -0.91,2.56 -0.61,0.63 -1.45,0.94 -2.53,0.94 -0.75,0 -1.4,-0.17 -1.95,-0.52 -0.55,-0.35 -0.98,-0.85 -1.29,-1.51 -0.3,-0.65 -0.45,-1.45 -0.45,-2.39 z m 3.65,2.73 c 0.46,0 0.81,-0.15 1.05,-0.46 0.24,-0.31 0.37,-0.74 0.37,-1.31 0,-0.49 -0.11,-0.88 -0.34,-1.16 -0.23,-0.28 -0.57,-0.42 -1.03,-0.42 -0.43,0 -0.8,0.14 -1.11,0.42 -0.31,0.28 -0.46,0.61 -0.46,0.98 0,0.55 0.14,1.01 0.43,1.39 0.29,0.37 0.65,0.56 1.09,0.56 z"
   id="path358" />
	</g>
	<g
   id="g370">
		<path
   d="m 473.3,795.74 h -2.14 v -5.85 l 0.02,-0.96 0.03,-1.05 c -0.35,0.35 -0.6,0.59 -0.74,0.7 l -1.16,0.93 -1.03,-1.29 3.26,-2.59 h 1.76 z"
   id="path362" />
		<path
   d="m 483.12,789.94 c 0,1.99 -0.42,3.48 -1.26,4.46 -0.84,0.98 -2.11,1.47 -3.81,1.47 -0.6,0 -1.05,-0.03 -1.36,-0.1 v -1.71 c 0.39,0.1 0.79,0.15 1.22,0.15 0.71,0 1.3,-0.1 1.76,-0.31 0.46,-0.21 0.81,-0.54 1.06,-0.99 0.25,-0.45 0.38,-1.07 0.42,-1.86 h -0.08 c -0.27,0.43 -0.58,0.74 -0.93,0.91 -0.35,0.17 -0.79,0.26 -1.31,0.26 -0.88,0 -1.57,-0.28 -2.08,-0.85 -0.51,-0.56 -0.76,-1.35 -0.76,-2.35 0,-1.08 0.31,-1.94 0.92,-2.57 0.61,-0.63 1.45,-0.94 2.51,-0.94 0.75,0 1.4,0.17 1.96,0.53 0.56,0.35 0.99,0.86 1.29,1.52 0.3,0.67 0.45,1.46 0.45,2.38 z m -3.66,-2.71 c -0.44,0 -0.79,0.15 -1.04,0.46 -0.25,0.3 -0.37,0.74 -0.37,1.31 0,0.49 0.11,0.88 0.34,1.16 0.23,0.29 0.57,0.43 1.03,0.43 0.43,0 0.8,-0.14 1.11,-0.42 0.31,-0.28 0.46,-0.61 0.46,-0.98 0,-0.55 -0.14,-1.01 -0.43,-1.39 -0.29,-0.38 -0.65,-0.57 -1.1,-0.57 z"
   id="path364" />
		<path
   d="m 491.2,789.94 c 0,1.99 -0.42,3.48 -1.26,4.46 -0.84,0.98 -2.11,1.47 -3.81,1.47 -0.6,0 -1.05,-0.03 -1.36,-0.1 v -1.71 c 0.39,0.1 0.79,0.15 1.22,0.15 0.71,0 1.3,-0.1 1.76,-0.31 0.46,-0.21 0.81,-0.54 1.06,-0.99 0.25,-0.45 0.38,-1.07 0.42,-1.86 h -0.08 c -0.27,0.43 -0.58,0.74 -0.93,0.91 -0.35,0.17 -0.79,0.26 -1.31,0.26 -0.88,0 -1.57,-0.28 -2.08,-0.85 -0.51,-0.56 -0.76,-1.35 -0.76,-2.35 0,-1.08 0.31,-1.94 0.92,-2.57 0.61,-0.63 1.45,-0.94 2.51,-0.94 0.75,0 1.4,0.17 1.96,0.53 0.56,0.35 0.99,0.86 1.29,1.52 0.3,0.67 0.45,1.46 0.45,2.38 z m -3.66,-2.71 c -0.44,0 -0.79,0.15 -1.04,0.46 -0.25,0.3 -0.37,0.74 -0.37,1.31 0,0.49 0.11,0.88 0.34,1.16 0.23,0.29 0.57,0.43 1.03,0.43 0.43,0 0.8,-0.14 1.11,-0.42 0.31,-0.28 0.46,-0.61 0.46,-0.98 0,-0.55 -0.14,-1.01 -0.43,-1.39 -0.29,-0.38 -0.65,-0.57 -1.1,-0.57 z"
   id="path366" />
		<path
   d="m 497.54,795.74 h -2.14 v -5.85 l 0.02,-0.96 0.03,-1.05 c -0.35,0.35 -0.6,0.59 -0.74,0.7 l -1.16,0.93 -1.03,-1.29 3.26,-2.59 h 1.76 z"
   id="path368" />
	</g>
	<g
   id="g380">
		<path
   d="m 528.2,795.74 h -2.14 v -5.85 l 0.02,-0.96 0.03,-1.05 c -0.35,0.35 -0.6,0.59 -0.74,0.7 l -1.16,0.93 -1.03,-1.29 3.26,-2.59 h 1.76 z"
   id="path372" />
		<path
   d="m 538.02,789.94 c 0,1.99 -0.42,3.48 -1.26,4.46 -0.84,0.98 -2.11,1.47 -3.81,1.47 -0.6,0 -1.05,-0.03 -1.36,-0.1 v -1.71 c 0.39,0.1 0.79,0.15 1.22,0.15 0.71,0 1.3,-0.1 1.76,-0.31 0.46,-0.21 0.81,-0.54 1.06,-0.99 0.25,-0.45 0.38,-1.07 0.42,-1.86 h -0.08 c -0.27,0.43 -0.58,0.74 -0.93,0.91 -0.35,0.17 -0.79,0.26 -1.31,0.26 -0.88,0 -1.57,-0.28 -2.08,-0.85 -0.51,-0.56 -0.76,-1.35 -0.76,-2.35 0,-1.08 0.31,-1.94 0.92,-2.57 0.61,-0.63 1.45,-0.94 2.51,-0.94 0.75,0 1.4,0.17 1.96,0.53 0.56,0.35 0.99,0.86 1.29,1.52 0.31,0.67 0.45,1.46 0.45,2.38 z m -3.65,-2.71 c -0.44,0 -0.79,0.15 -1.04,0.46 -0.25,0.3 -0.37,0.74 -0.37,1.31 0,0.49 0.11,0.88 0.34,1.16 0.23,0.29 0.57,0.43 1.03,0.43 0.43,0 0.8,-0.14 1.11,-0.42 0.31,-0.28 0.46,-0.61 0.46,-0.98 0,-0.55 -0.14,-1.01 -0.43,-1.39 -0.29,-0.38 -0.65,-0.57 -1.1,-0.57 z"
   id="path374" />
		<path
   d="m 546.1,789.94 c 0,1.99 -0.42,3.48 -1.26,4.46 -0.84,0.98 -2.11,1.47 -3.81,1.47 -0.6,0 -1.05,-0.03 -1.36,-0.1 v -1.71 c 0.39,0.1 0.79,0.15 1.22,0.15 0.71,0 1.3,-0.1 1.76,-0.31 0.46,-0.21 0.81,-0.54 1.06,-0.99 0.25,-0.45 0.38,-1.07 0.42,-1.86 h -0.08 c -0.27,0.43 -0.58,0.74 -0.93,0.91 -0.35,0.17 -0.79,0.26 -1.31,0.26 -0.88,0 -1.57,-0.28 -2.08,-0.85 -0.51,-0.56 -0.76,-1.35 -0.76,-2.35 0,-1.08 0.31,-1.94 0.92,-2.57 0.61,-0.63 1.45,-0.94 2.51,-0.94 0.75,0 1.4,0.17 1.96,0.53 0.56,0.35 0.99,0.86 1.29,1.52 0.31,0.67 0.45,1.46 0.45,2.38 z m -3.65,-2.71 c -0.44,0 -0.79,0.15 -1.04,0.46 -0.25,0.3 -0.37,0.74 -0.37,1.31 0,0.49 0.11,0.88 0.34,1.16 0.23,0.29 0.57,0.43 1.03,0.43 0.43,0 0.8,-0.14 1.11,-0.42 0.31,-0.28 0.46,-0.61 0.46,-0.98 0,-0.55 -0.14,-1.01 -0.43,-1.39 -0.29,-0.38 -0.65,-0.57 -1.1,-0.57 z"
   id="path376" />
		<path
   d="m 547.09,791.44 c 0,-2 0.42,-3.49 1.27,-4.47 0.85,-0.98 2.11,-1.46 3.8,-1.46 0.58,0 1.03,0.03 1.35,0.1 v 1.71 c -0.41,-0.09 -0.82,-0.14 -1.22,-0.14 -0.73,0 -1.33,0.11 -1.79,0.33 -0.46,0.22 -0.81,0.55 -1.04,0.98 -0.23,0.43 -0.37,1.05 -0.41,1.84 h 0.09 c 0.46,-0.78 1.19,-1.17 2.19,-1.17 0.9,0 1.61,0.28 2.12,0.85 0.51,0.57 0.77,1.35 0.77,2.35 0,1.08 -0.3,1.93 -0.91,2.56 -0.61,0.63 -1.45,0.94 -2.53,0.94 -0.75,0 -1.4,-0.17 -1.95,-0.52 -0.55,-0.35 -0.98,-0.85 -1.29,-1.51 -0.3,-0.65 -0.45,-1.45 -0.45,-2.39 z m 3.65,2.73 c 0.46,0 0.81,-0.15 1.05,-0.46 0.24,-0.31 0.37,-0.74 0.37,-1.31 0,-0.49 -0.11,-0.88 -0.34,-1.16 -0.23,-0.28 -0.57,-0.42 -1.03,-0.42 -0.43,0 -0.8,0.14 -1.11,0.42 -0.31,0.28 -0.46,0.61 -0.46,0.98 0,0.55 0.14,1.01 0.43,1.39 0.29,0.37 0.65,0.56 1.09,0.56 z"
   id="path378" />
	</g>
	<g
   id="g390">
		<path
   d="m 579.33,795.74 h -7.06 v -1.49 l 2.54,-2.56 c 0.75,-0.77 1.24,-1.3 1.47,-1.6 0.23,-0.3 0.4,-0.57 0.5,-0.83 0.1,-0.25 0.15,-0.52 0.15,-0.79 0,-0.41 -0.11,-0.71 -0.34,-0.91 -0.23,-0.2 -0.52,-0.3 -0.9,-0.3 -0.39,0 -0.77,0.09 -1.14,0.27 -0.37,0.18 -0.75,0.44 -1.15,0.77 l -1.16,-1.38 c 0.5,-0.42 0.91,-0.72 1.24,-0.9 0.33,-0.18 0.68,-0.31 1.07,-0.4 0.39,-0.09 0.82,-0.14 1.3,-0.14 0.63,0 1.19,0.12 1.67,0.35 0.48,0.23 0.86,0.55 1.13,0.97 0.27,0.42 0.4,0.89 0.4,1.42 0,0.47 -0.08,0.9 -0.25,1.31 -0.16,0.41 -0.42,0.83 -0.76,1.25 -0.34,0.42 -0.95,1.04 -1.81,1.83 l -1.3,1.22 v 0.1 h 4.4 z"
   id="path382" />
		<path
   d="m 587.36,790.68 c 0,1.76 -0.29,3.07 -0.87,3.92 -0.58,0.85 -1.47,1.27 -2.67,1.27 -1.17,0 -2.04,-0.44 -2.64,-1.31 -0.59,-0.88 -0.89,-2.17 -0.89,-3.88 0,-1.78 0.29,-3.1 0.86,-3.94 0.57,-0.84 1.46,-1.27 2.66,-1.27 1.17,0 2.05,0.44 2.64,1.33 0.59,0.89 0.91,2.18 0.91,3.88 z m -4.94,0 c 0,1.24 0.11,2.13 0.32,2.67 0.21,0.54 0.57,0.8 1.08,0.8 0.5,0 0.86,-0.27 1.08,-0.82 0.22,-0.55 0.33,-1.43 0.33,-2.65 0,-1.24 -0.11,-2.13 -0.34,-2.67 -0.22,-0.54 -0.58,-0.81 -1.07,-0.81 -0.5,0 -0.86,0.27 -1.08,0.81 -0.22,0.54 -0.32,1.43 -0.32,2.67 z"
   id="path384" />
		<path
   d="m 595.44,790.68 c 0,1.76 -0.29,3.07 -0.87,3.92 -0.58,0.85 -1.47,1.27 -2.67,1.27 -1.17,0 -2.04,-0.44 -2.64,-1.31 -0.59,-0.88 -0.89,-2.17 -0.89,-3.88 0,-1.78 0.29,-3.1 0.86,-3.94 0.57,-0.84 1.46,-1.27 2.66,-1.27 1.17,0 2.05,0.44 2.64,1.33 0.59,0.89 0.91,2.18 0.91,3.88 z m -4.94,0 c 0,1.24 0.11,2.13 0.32,2.67 0.21,0.54 0.57,0.8 1.08,0.8 0.5,0 0.86,-0.27 1.08,-0.82 0.22,-0.55 0.33,-1.43 0.33,-2.65 0,-1.24 -0.11,-2.13 -0.34,-2.67 -0.22,-0.54 -0.58,-0.81 -1.07,-0.81 -0.5,0 -0.86,0.27 -1.08,0.81 -0.22,0.54 -0.32,1.43 -0.32,2.67 z"
   id="path386" />
		<path
   d="m 601.79,795.74 h -2.14 v -5.85 l 0.02,-0.96 0.03,-1.05 c -0.35,0.35 -0.6,0.59 -0.74,0.7 l -1.16,0.93 -1.03,-1.29 3.26,-2.59 h 1.76 z"
   id="path388" />
	</g>
	<g
   id="g400">
		<path
   d="m 633.55,795.74 h -7.06 v -1.49 l 2.54,-2.56 c 0.75,-0.77 1.24,-1.3 1.47,-1.6 0.23,-0.3 0.4,-0.57 0.5,-0.83 0.1,-0.25 0.15,-0.52 0.15,-0.79 0,-0.41 -0.11,-0.71 -0.34,-0.91 -0.23,-0.2 -0.52,-0.3 -0.9,-0.3 -0.39,0 -0.77,0.09 -1.14,0.27 -0.37,0.18 -0.75,0.44 -1.15,0.77 l -1.16,-1.38 c 0.5,-0.42 0.91,-0.72 1.24,-0.9 0.33,-0.18 0.68,-0.31 1.07,-0.4 0.39,-0.09 0.82,-0.14 1.3,-0.14 0.63,0 1.19,0.12 1.67,0.35 0.48,0.23 0.86,0.55 1.13,0.97 0.27,0.42 0.4,0.89 0.4,1.42 0,0.47 -0.08,0.9 -0.25,1.31 -0.16,0.41 -0.42,0.83 -0.76,1.25 -0.34,0.42 -0.95,1.04 -1.81,1.83 l -1.3,1.22 v 0.1 h 4.4 z"
   id="path392" />
		<path
   d="m 641.57,790.68 c 0,1.76 -0.29,3.07 -0.87,3.92 -0.58,0.85 -1.47,1.27 -2.67,1.27 -1.17,0 -2.04,-0.44 -2.64,-1.31 -0.59,-0.88 -0.89,-2.17 -0.89,-3.88 0,-1.78 0.29,-3.1 0.86,-3.94 0.57,-0.84 1.46,-1.27 2.66,-1.27 1.17,0 2.05,0.44 2.64,1.33 0.59,0.89 0.91,2.18 0.91,3.88 z m -4.94,0 c 0,1.24 0.11,2.13 0.32,2.67 0.21,0.54 0.57,0.8 1.08,0.8 0.5,0 0.86,-0.27 1.08,-0.82 0.22,-0.55 0.33,-1.43 0.33,-2.65 0,-1.24 -0.11,-2.13 -0.34,-2.67 -0.22,-0.54 -0.58,-0.81 -1.07,-0.81 -0.5,0 -0.86,0.27 -1.08,0.81 -0.21,0.54 -0.32,1.43 -0.32,2.67 z"
   id="path394" />
		<path
   d="m 649.65,790.68 c 0,1.76 -0.29,3.07 -0.87,3.92 -0.58,0.85 -1.47,1.27 -2.67,1.27 -1.17,0 -2.04,-0.44 -2.64,-1.31 -0.59,-0.88 -0.89,-2.17 -0.89,-3.88 0,-1.78 0.29,-3.1 0.86,-3.94 0.57,-0.84 1.46,-1.27 2.66,-1.27 1.17,0 2.05,0.44 2.64,1.33 0.59,0.89 0.91,2.18 0.91,3.88 z m -4.94,0 c 0,1.24 0.11,2.13 0.32,2.67 0.21,0.54 0.57,0.8 1.08,0.8 0.5,0 0.86,-0.27 1.08,-0.82 0.22,-0.55 0.33,-1.43 0.33,-2.65 0,-1.24 -0.11,-2.13 -0.34,-2.67 -0.22,-0.54 -0.58,-0.81 -1.07,-0.81 -0.5,0 -0.86,0.27 -1.08,0.81 -0.21,0.54 -0.32,1.43 -0.32,2.67 z"
   id="path396" />
		<path
   d="m 650.65,791.44 c 0,-2 0.42,-3.49 1.27,-4.47 0.85,-0.98 2.11,-1.46 3.8,-1.46 0.58,0 1.03,0.03 1.35,0.1 v 1.71 c -0.41,-0.09 -0.82,-0.14 -1.22,-0.14 -0.73,0 -1.33,0.11 -1.79,0.33 -0.46,0.22 -0.81,0.55 -1.04,0.98 -0.23,0.43 -0.37,1.05 -0.41,1.84 h 0.09 c 0.46,-0.78 1.19,-1.17 2.19,-1.17 0.9,0 1.61,0.28 2.12,0.85 0.51,0.57 0.77,1.35 0.77,2.35 0,1.08 -0.3,1.93 -0.91,2.56 -0.61,0.63 -1.45,0.94 -2.53,0.94 -0.75,0 -1.4,-0.17 -1.95,-0.52 -0.55,-0.35 -0.98,-0.85 -1.29,-1.51 -0.3,-0.65 -0.45,-1.45 -0.45,-2.39 z m 3.65,2.73 c 0.46,0 0.81,-0.15 1.05,-0.46 0.24,-0.31 0.37,-0.74 0.37,-1.31 0,-0.49 -0.11,-0.88 -0.34,-1.16 -0.23,-0.28 -0.57,-0.42 -1.03,-0.42 -0.43,0 -0.8,0.14 -1.11,0.42 -0.31,0.28 -0.46,0.61 -0.46,0.98 0,0.55 0.14,1.01 0.43,1.39 0.28,0.37 0.65,0.56 1.09,0.56 z"
   id="path398" />
	</g>
	<g
   id="g410">
		<path
   d="m 683.94,795.74 h -7.06 v -1.49 l 2.54,-2.56 c 0.75,-0.77 1.24,-1.3 1.47,-1.6 0.23,-0.3 0.4,-0.57 0.5,-0.83 0.1,-0.25 0.15,-0.52 0.15,-0.79 0,-0.41 -0.11,-0.71 -0.34,-0.91 -0.23,-0.2 -0.52,-0.3 -0.9,-0.3 -0.39,0 -0.77,0.09 -1.14,0.27 -0.37,0.18 -0.75,0.44 -1.15,0.77 l -1.16,-1.38 c 0.5,-0.42 0.91,-0.72 1.24,-0.9 0.33,-0.18 0.68,-0.31 1.07,-0.4 0.39,-0.09 0.82,-0.14 1.3,-0.14 0.63,0 1.19,0.12 1.67,0.35 0.48,0.23 0.86,0.55 1.13,0.97 0.27,0.42 0.4,0.89 0.4,1.42 0,0.47 -0.08,0.9 -0.25,1.31 -0.16,0.41 -0.42,0.83 -0.76,1.25 -0.34,0.42 -0.95,1.04 -1.81,1.83 l -1.3,1.22 v 0.1 h 4.4 z"
   id="path402" />
		<path
   d="m 691.96,790.68 c 0,1.76 -0.29,3.07 -0.87,3.92 -0.58,0.85 -1.47,1.27 -2.67,1.27 -1.17,0 -2.04,-0.44 -2.64,-1.31 -0.59,-0.88 -0.89,-2.17 -0.89,-3.88 0,-1.78 0.29,-3.1 0.86,-3.94 0.57,-0.84 1.46,-1.27 2.66,-1.27 1.17,0 2.05,0.44 2.64,1.33 0.59,0.89 0.91,2.18 0.91,3.88 z m -4.94,0 c 0,1.24 0.11,2.13 0.32,2.67 0.21,0.54 0.57,0.8 1.08,0.8 0.5,0 0.86,-0.27 1.08,-0.82 0.22,-0.55 0.33,-1.43 0.33,-2.65 0,-1.24 -0.11,-2.13 -0.34,-2.67 -0.22,-0.54 -0.58,-0.81 -1.07,-0.81 -0.5,0 -0.86,0.27 -1.08,0.81 -0.21,0.54 -0.32,1.43 -0.32,2.67 z"
   id="path404" />
		<path
   d="m 698.31,795.74 h -2.14 v -5.85 l 0.02,-0.96 0.03,-1.05 c -0.35,0.35 -0.6,0.59 -0.74,0.7 l -1.16,0.93 -1.03,-1.29 3.26,-2.59 h 1.76 z"
   id="path406" />
		<path
   d="m 706.39,795.74 h -2.14 v -5.85 l 0.02,-0.96 0.03,-1.05 c -0.35,0.35 -0.6,0.59 -0.74,0.7 l -1.16,0.93 -1.03,-1.29 3.26,-2.59 h 1.76 z"
   id="path408" />
	</g>
	<g
   id="g420">
		<path
   d="M 736.06,795.74 H 729 v -1.49 l 2.54,-2.56 c 0.75,-0.77 1.24,-1.3 1.47,-1.6 0.23,-0.3 0.4,-0.57 0.5,-0.83 0.1,-0.25 0.15,-0.52 0.15,-0.79 0,-0.41 -0.11,-0.71 -0.34,-0.91 -0.23,-0.2 -0.52,-0.3 -0.9,-0.3 -0.39,0 -0.77,0.09 -1.14,0.27 -0.37,0.18 -0.75,0.44 -1.15,0.77 l -1.16,-1.38 c 0.5,-0.42 0.91,-0.72 1.24,-0.9 0.33,-0.18 0.68,-0.31 1.07,-0.4 0.39,-0.09 0.82,-0.14 1.3,-0.14 0.63,0 1.19,0.12 1.67,0.35 0.48,0.23 0.86,0.55 1.13,0.97 0.27,0.42 0.4,0.89 0.4,1.42 0,0.47 -0.08,0.9 -0.25,1.31 -0.16,0.41 -0.42,0.83 -0.76,1.25 -0.34,0.42 -0.95,1.04 -1.81,1.83 l -1.3,1.22 v 0.1 h 4.4 z"
   id="path412" />
		<path
   d="m 744.09,790.68 c 0,1.76 -0.29,3.07 -0.87,3.92 -0.58,0.85 -1.47,1.27 -2.67,1.27 -1.17,0 -2.04,-0.44 -2.64,-1.31 -0.59,-0.88 -0.89,-2.17 -0.89,-3.88 0,-1.78 0.29,-3.1 0.86,-3.94 0.57,-0.84 1.46,-1.27 2.66,-1.27 1.17,0 2.05,0.44 2.64,1.33 0.59,0.89 0.91,2.18 0.91,3.88 z m -4.94,0 c 0,1.24 0.11,2.13 0.32,2.67 0.21,0.54 0.57,0.8 1.08,0.8 0.5,0 0.86,-0.27 1.08,-0.82 0.22,-0.55 0.33,-1.43 0.33,-2.65 0,-1.24 -0.11,-2.13 -0.34,-2.67 -0.22,-0.54 -0.58,-0.81 -1.07,-0.81 -0.5,0 -0.86,0.27 -1.08,0.81 -0.22,0.54 -0.32,1.43 -0.32,2.67 z"
   id="path414" />
		<path
   d="m 750.44,795.74 h -2.14 v -5.85 l 0.02,-0.96 0.03,-1.05 c -0.35,0.35 -0.6,0.59 -0.74,0.7 l -1.16,0.93 -1.03,-1.29 3.26,-2.59 h 1.76 z"
   id="path416" />
		<path
   d="m 753.17,791.44 c 0,-2 0.42,-3.49 1.27,-4.47 0.85,-0.98 2.11,-1.46 3.8,-1.46 0.58,0 1.03,0.03 1.35,0.1 v 1.71 c -0.41,-0.09 -0.82,-0.14 -1.22,-0.14 -0.73,0 -1.33,0.11 -1.79,0.33 -0.46,0.22 -0.81,0.55 -1.04,0.98 -0.23,0.43 -0.37,1.05 -0.41,1.84 h 0.09 c 0.46,-0.78 1.19,-1.17 2.19,-1.17 0.9,0 1.61,0.28 2.12,0.85 0.51,0.57 0.77,1.35 0.77,2.35 0,1.08 -0.3,1.93 -0.91,2.56 -0.61,0.63 -1.45,0.94 -2.53,0.94 -0.75,0 -1.4,-0.17 -1.95,-0.52 -0.55,-0.35 -0.98,-0.85 -1.29,-1.51 -0.3,-0.65 -0.45,-1.45 -0.45,-2.39 z m 3.65,2.73 c 0.46,0 0.81,-0.15 1.05,-0.46 0.24,-0.31 0.37,-0.74 0.37,-1.31 0,-0.49 -0.11,-0.88 -0.34,-1.16 -0.23,-0.28 -0.57,-0.42 -1.03,-0.42 -0.43,0 -0.8,0.14 -1.11,0.42 -0.31,0.28 -0.46,0.61 -0.46,0.98 0,0.55 0.14,1.01 0.43,1.39 0.28,0.37 0.65,0.56 1.09,0.56 z"
   id="path418" />
	</g>
</g>
</svg>
