<?xml version="1.0" encoding="UTF-8" standalone="no"?>
<!-- Generator: Adobe Illustrator 24.0.0, SVG Export Plug-In . SVG Version: 6.00 Build 0)  -->

<svg
   version="1.1"
   id="Capa_1"
   x="0px"
   y="0px"
   viewBox="0 0 645.29999 466.1"
   xml:space="preserve"
   sodipodi:docname="sostenibilidad_10b.svg"
   width="645.29999"
   height="466.10001"
   inkscape:version="1.1.1 (3bf5ae0d25, 2021-09-20)"
   xmlns:inkscape="http://www.inkscape.org/namespaces/inkscape"
   xmlns:sodipodi="http://sodipodi.sourceforge.net/DTD/sodipodi-0.dtd"
   xmlns="http://www.w3.org/2000/svg"
   xmlns:svg="http://www.w3.org/2000/svg"><defs
   id="defs489" /><sodipodi:namedview
   id="namedview487"
   pagecolor="#ffffff"
   bordercolor="#666666"
   borderopacity="1.0"
   inkscape:pageshadow="2"
   inkscape:pageopacity="0.0"
   inkscape:pagecheckerboard="0"
   showgrid="false"
   inkscape:zoom="0.84099135"
   inkscape:cx="330.56226"
   inkscape:cy="231.27467"
   inkscape:window-width="1600"
   inkscape:window-height="835"
   inkscape:window-x="0"
   inkscape:window-y="32"
   inkscape:window-maximized="1"
   inkscape:current-layer="Capa_1" />
<style
   type="text/css"
   id="style2">
	.st0{fill:#83302C;}
	.st1{fill:#A5A5A5;}
	.st2{fill:#EEC85C;}
	.st3{fill:#EA3E36;}
	.st4{fill:#464646;}
	.st5{fill:#F9F9F9;}
	.st6{fill:#BEBEBE;}
	.st7{fill:#969696;}
	.st8{fill:none;stroke:#000000;stroke-miterlimit:10;}
</style>
<g
   id="g122"
   transform="translate(-144.4,-128.9)">
	<g
   id="g120">
		<path
   d="m 205.3,142.6 h -7.4 v -12.8 h 7.4 v 2.2 h -4.7 v 2.8 h 4.3 v 2.2 h -4.3 v 3.3 h 4.7 z"
   id="path4" />
		<path
   d="m 214.6,139.6 c 0,1 -0.4,1.8 -1.1,2.3 -0.7,0.5 -1.7,0.8 -3.1,0.8 -0.7,0 -1.3,0 -1.8,-0.2 -0.5,-0.1 -1,-0.2 -1.4,-0.4 V 140 c 0.5,0.2 1.1,0.4 1.7,0.6 0.6,0.2 1.2,0.2 1.6,0.2 1,0 1.5,-0.3 1.5,-0.8 0,-0.2 -0.1,-0.4 -0.2,-0.5 -0.1,-0.1 -0.4,-0.3 -0.7,-0.5 -0.3,-0.2 -0.7,-0.4 -1.3,-0.6 -0.8,-0.3 -1.3,-0.6 -1.7,-0.9 -0.4,-0.3 -0.6,-0.6 -0.8,-0.9 -0.2,-0.3 -0.2,-0.8 -0.2,-1.3 0,-0.9 0.3,-1.5 1,-2 0.7,-0.5 1.6,-0.7 2.9,-0.7 1.2,0 2.3,0.3 3.4,0.8 l -0.8,1.9 c -0.5,-0.2 -0.9,-0.4 -1.4,-0.5 -0.4,-0.1 -0.9,-0.2 -1.3,-0.2 -0.8,0 -1.2,0.2 -1.2,0.6 0,0.2 0.1,0.5 0.4,0.6 0.2,0.2 0.8,0.4 1.7,0.8 0.8,0.3 1.3,0.6 1.7,0.9 0.4,0.3 0.6,0.6 0.8,0.9 0.2,0.3 0.3,0.8 0.3,1.2 z"
   id="path6" />
		<path
   d="m 220.8,140.6 c 0.5,0 1,-0.1 1.7,-0.3 v 2 c -0.7,0.3 -1.5,0.5 -2.5,0.5 -1.1,0 -1.9,-0.3 -2.3,-0.8 -0.5,-0.5 -0.7,-1.3 -0.7,-2.4 v -4.7 h -1.3 v -1.1 l 1.5,-0.9 0.8,-2.1 h 1.7 v 2.1 h 2.8 v 2 h -2.8 v 4.7 c 0,0.4 0.1,0.7 0.3,0.8 0.2,0.1 0.5,0.2 0.8,0.2 z"
   id="path8" />
		<path
   d="m 229.9,132.6 c 0.4,0 0.7,0 0.9,0.1 l -0.2,2.5 c -0.2,-0.1 -0.5,-0.1 -0.8,-0.1 -0.9,0 -1.5,0.2 -2,0.7 -0.5,0.5 -0.7,1 -0.7,1.8 v 5 h -2.7 v -9.8 h 2 l 0.4,1.7 h 0.1 c 0.3,-0.5 0.7,-1 1.2,-1.3 0.7,-0.5 1.2,-0.6 1.8,-0.6 z"
   id="path10" />
		<path
   d="m 239.6,142.6 -0.4,-1.2 h -0.1 c -0.3,0.5 -0.7,0.8 -1.2,1.1 -0.5,0.3 -1.1,0.4 -1.8,0.4 -1.1,0 -2,-0.3 -2.6,-0.9 -0.6,-0.6 -0.9,-1.5 -0.9,-2.7 v -6.4 h 2.7 v 5.7 c 0,0.7 0.1,1.2 0.4,1.6 0.2,0.3 0.6,0.5 1.2,0.5 0.8,0 1.3,-0.2 1.6,-0.8 0.3,-0.6 0.5,-1.3 0.5,-2.5 v -4.6 h 2.7 v 9.8 z"
   id="path12" />
		<path
   d="m 248.4,142.7 c -3.1,0 -4.6,-1.7 -4.6,-5 0,-1.7 0.4,-2.9 1.2,-3.8 0.8,-0.9 2,-1.3 3.6,-1.3 1.1,0 2.1,0.2 3.1,0.7 l -0.8,2.1 c -0.4,-0.2 -0.8,-0.3 -1.2,-0.4 -0.4,-0.1 -0.7,-0.2 -1.1,-0.2 -1.4,0 -2.1,1 -2.1,3 0,1.9 0.7,2.9 2.1,2.9 0.5,0 1,-0.1 1.4,-0.2 0.4,-0.1 0.9,-0.3 1.3,-0.6 v 2.3 c -0.4,0.3 -0.9,0.5 -1.3,0.6 -0.3,-0.1 -0.9,-0.1 -1.6,-0.1 z"
   id="path14" />
		<path
   d="m 257.8,140.6 c 0.5,0 1,-0.1 1.7,-0.3 v 2 c -0.7,0.3 -1.5,0.5 -2.5,0.5 -1.1,0 -1.9,-0.3 -2.3,-0.8 -0.5,-0.5 -0.7,-1.3 -0.7,-2.4 v -4.7 h -1.3 v -1.1 l 1.5,-0.9 0.8,-2.1 h 1.7 v 2.1 h 2.8 v 2 h -2.8 v 4.7 c 0,0.4 0.1,0.7 0.3,0.8 0.2,0.1 0.5,0.2 0.8,0.2 z"
   id="path16" />
		<path
   d="m 268.4,142.6 -0.4,-1.2 h -0.1 c -0.3,0.5 -0.7,0.8 -1.2,1.1 -0.5,0.3 -1.1,0.4 -1.8,0.4 -1.1,0 -2,-0.3 -2.6,-0.9 -0.6,-0.6 -0.9,-1.5 -0.9,-2.7 v -6.4 h 2.7 v 5.7 c 0,0.7 0.1,1.2 0.4,1.6 0.2,0.3 0.6,0.5 1.2,0.5 0.8,0 1.3,-0.2 1.6,-0.8 0.3,-0.6 0.5,-1.3 0.5,-2.5 v -4.6 h 2.7 v 9.8 z"
   id="path18" />
		<path
   d="m 278.8,132.6 c 0.4,0 0.7,0 0.9,0.1 l -0.2,2.5 c -0.2,-0.1 -0.5,-0.1 -0.8,-0.1 -0.9,0 -1.5,0.2 -2,0.7 -0.5,0.5 -0.7,1 -0.7,1.8 v 5 h -2.7 v -9.8 h 2 l 0.4,1.7 h 0.1 c 0.3,-0.5 0.7,-1 1.2,-1.3 0.6,-0.5 1.2,-0.6 1.8,-0.6 z"
   id="path20" />
		<path
   d="m 287.7,142.6 -0.5,-1.3 h -0.1 c -0.5,0.6 -0.9,1 -1.4,1.2 -0.5,0.2 -1.1,0.3 -1.9,0.3 -0.9,0 -1.7,-0.3 -2.2,-0.8 -0.5,-0.5 -0.8,-1.3 -0.8,-2.3 0,-1 0.4,-1.8 1.1,-2.3 0.7,-0.5 1.8,-0.8 3.3,-0.8 h 1.7 V 136 c 0,-1 -0.5,-1.5 -1.5,-1.5 -0.8,0 -1.7,0.2 -2.8,0.7 l -0.9,-1.8 c 1.1,-0.6 2.4,-0.9 3.8,-0.9 1.3,0 2.3,0.3 3,0.9 0.7,0.6 1,1.5 1,2.6 v 6.5 h -1.8 z m -0.8,-4.6 h -1 c -0.8,0 -1.4,0.2 -1.7,0.4 -0.3,0.2 -0.6,0.7 -0.6,1.2 0,0.8 0.4,1.1 1.3,1.1 0.6,0 1.1,-0.2 1.5,-0.5 0.4,-0.3 0.6,-0.8 0.6,-1.4 z"
   id="path22" />
		<path
   d="m 300.1,142.7 c -1.1,0 -2.1,-0.5 -2.7,-1.3 -0.6,-0.8 -1,-2.1 -1,-3.7 0,-1.6 0.3,-2.9 1,-3.8 0.7,-0.9 1.6,-1.3 2.8,-1.3 1.2,0 2.2,0.5 2.8,1.4 h 0.1 c -0.1,-0.7 -0.2,-1.4 -0.2,-2 v -3.1 h 2.7 v 13.7 h -2 l -0.5,-1.3 H 303 c -0.8,0.9 -1.7,1.4 -2.9,1.4 z m 0.9,-2.1 c 0.7,0 1.2,-0.2 1.5,-0.6 0.3,-0.4 0.5,-1.1 0.5,-2 v -0.3 c 0,-1 -0.2,-1.8 -0.5,-2.3 -0.3,-0.5 -0.9,-0.7 -1.6,-0.7 -0.6,0 -1.1,0.2 -1.4,0.8 -0.3,0.6 -0.5,1.2 -0.5,2.2 0,1 0.2,1.7 0.5,2.2 0.3,0.5 0.9,0.7 1.5,0.7 z"
   id="path24" />
		<path
   d="m 312.8,142.7 c -1.6,0 -2.8,-0.4 -3.7,-1.3 -0.9,-0.9 -1.3,-2.1 -1.3,-3.7 0,-1.6 0.4,-2.9 1.2,-3.8 0.8,-0.9 2,-1.3 3.4,-1.3 1.4,0 2.5,0.4 3.2,1.2 0.7,0.8 1.2,1.9 1.2,3.3 v 1.3 h -6.3 c 0,0.8 0.2,1.3 0.7,1.8 0.4,0.4 1,0.6 1.8,0.6 0.6,0 1.1,-0.1 1.7,-0.2 0.6,-0.1 1.1,-0.3 1.6,-0.6 v 2.1 c -0.5,0.2 -1,0.4 -1.5,0.5 -0.6,0.1 -1.3,0.1 -2,0.1 z m -0.4,-8.2 c -0.6,0 -1,0.2 -1.3,0.5 -0.3,0.4 -0.5,0.9 -0.5,1.5 h 3.8 c 0,-0.7 -0.2,-1.2 -0.5,-1.5 -0.5,-0.4 -0.9,-0.5 -1.5,-0.5 z"
   id="path26" />
		<path
   d="m 326.3,142.6 h -2.7 v -13.7 h 2.7 z"
   id="path28" />
		<path
   d="m 335.3,142.6 -0.5,-1.3 h -0.1 c -0.5,0.6 -0.9,1 -1.4,1.2 -0.5,0.2 -1.1,0.3 -1.9,0.3 -0.9,0 -1.7,-0.3 -2.2,-0.8 -0.5,-0.5 -0.8,-1.3 -0.8,-2.3 0,-1 0.4,-1.8 1.1,-2.3 0.7,-0.5 1.8,-0.8 3.3,-0.8 h 1.7 V 136 c 0,-1 -0.5,-1.5 -1.5,-1.5 -0.8,0 -1.7,0.2 -2.8,0.7 l -0.9,-1.8 c 1.1,-0.6 2.4,-0.9 3.8,-0.9 1.3,0 2.3,0.3 3,0.9 0.7,0.6 1,1.5 1,2.6 v 6.5 h -1.8 z m -0.8,-4.6 h -1 c -0.8,0 -1.4,0.2 -1.7,0.4 -0.3,0.2 -0.6,0.7 -0.6,1.2 0,0.8 0.4,1.1 1.3,1.1 0.6,0 1.1,-0.2 1.5,-0.5 0.4,-0.3 0.6,-0.8 0.6,-1.4 z"
   id="path30" />
		<path
   d="m 350,142.7 c -1.1,0 -2.1,-0.4 -2.7,-1.2 h -0.1 c 0.1,0.8 0.1,1.3 0.1,1.4 v 4 h -2.7 v -14.1 h 2.2 l 0.4,1.3 h 0.1 c 0.6,-1 1.5,-1.5 2.8,-1.5 1.2,0 2.1,0.5 2.7,1.3 0.7,0.9 1,2.1 1,3.7 0,1 -0.1,2 -0.5,2.7 -0.3,0.8 -0.7,1.4 -1.3,1.8 -0.5,0.4 -1.2,0.6 -2,0.6 z m -0.8,-8 c -0.7,0 -1.1,0.2 -1.5,0.6 -0.3,0.4 -0.5,1.1 -0.5,2 v 0.3 c 0,1 0.2,1.8 0.5,2.3 0.3,0.5 0.8,0.7 1.5,0.7 1.2,0 1.8,-1 1.8,-3 0,-1 -0.1,-1.7 -0.4,-2.2 -0.3,-0.5 -0.7,-0.7 -1.4,-0.7 z"
   id="path32" />
		<path
   d="m 361.5,132.6 c 0.4,0 0.7,0 0.9,0.1 l -0.2,2.5 c -0.2,-0.1 -0.5,-0.1 -0.8,-0.1 -0.9,0 -1.5,0.2 -2,0.7 -0.5,0.5 -0.7,1 -0.7,1.8 v 5 H 356 v -9.8 h 2 l 0.4,1.7 h 0.1 c 0.3,-0.5 0.7,-1 1.2,-1.3 0.6,-0.5 1.2,-0.6 1.8,-0.6 z"
   id="path34" />
		<path
   d="m 373.1,137.6 c 0,1.6 -0.4,2.8 -1.3,3.8 -0.9,1 -2,1.3 -3.5,1.3 -0.9,0 -1.8,-0.2 -2.5,-0.6 -0.7,-0.4 -1.3,-1 -1.7,-1.8 -0.4,-0.8 -0.6,-1.7 -0.6,-2.7 0,-1.6 0.4,-2.8 1.2,-3.7 0.8,-0.9 2,-1.3 3.5,-1.3 0.9,0 1.8,0.2 2.5,0.6 0.7,0.4 1.3,1 1.7,1.8 0.5,0.7 0.7,1.6 0.7,2.6 z m -6.8,0 c 0,1 0.2,1.7 0.5,2.2 0.3,0.5 0.8,0.8 1.6,0.8 0.7,0 1.2,-0.2 1.5,-0.7 0.3,-0.5 0.5,-1.2 0.5,-2.2 0,-1 -0.2,-1.7 -0.5,-2.2 -0.3,-0.5 -0.8,-0.7 -1.5,-0.7 -0.7,0 -1.2,0.2 -1.5,0.7 -0.3,0.5 -0.6,1.2 -0.6,2.1 z"
   id="path36" />
		<path
   d="m 378.4,142.7 c -1.1,0 -2.1,-0.5 -2.7,-1.3 -0.6,-0.8 -1,-2.1 -1,-3.7 0,-1.6 0.3,-2.9 1,-3.8 0.7,-0.9 1.6,-1.3 2.8,-1.3 1.2,0 2.2,0.5 2.8,1.4 h 0.1 c -0.1,-0.7 -0.2,-1.4 -0.2,-2 v -3.1 h 2.7 v 13.7 h -2 l -0.5,-1.3 h -0.1 c -0.7,0.9 -1.7,1.4 -2.9,1.4 z m 0.9,-2.1 c 0.7,0 1.2,-0.2 1.5,-0.6 0.3,-0.4 0.5,-1.1 0.5,-2 v -0.3 c 0,-1 -0.2,-1.8 -0.5,-2.3 -0.3,-0.5 -0.9,-0.7 -1.6,-0.7 -0.6,0 -1.1,0.2 -1.4,0.8 -0.3,0.6 -0.5,1.2 -0.5,2.2 0,1 0.2,1.7 0.5,2.2 0.3,0.5 0.9,0.7 1.5,0.7 z"
   id="path38" />
		<path
   d="m 393.6,142.6 -0.4,-1.2 h -0.1 c -0.3,0.5 -0.7,0.8 -1.2,1.1 -0.5,0.3 -1.1,0.4 -1.8,0.4 -1.1,0 -2,-0.3 -2.6,-0.9 -0.6,-0.6 -0.9,-1.5 -0.9,-2.7 v -6.4 h 2.7 v 5.7 c 0,0.7 0.1,1.2 0.4,1.6 0.2,0.3 0.6,0.5 1.2,0.5 0.8,0 1.3,-0.2 1.6,-0.8 0.3,-0.6 0.5,-1.3 0.5,-2.5 v -4.6 h 2.7 v 9.8 z"
   id="path40" />
		<path
   d="m 402.5,142.7 c -3,0 -4.6,-1.7 -4.6,-5 0,-1.7 0.4,-2.9 1.2,-3.8 0.8,-0.9 2,-1.3 3.6,-1.3 1.1,0 2.1,0.2 3,0.7 l -0.8,2.1 c -0.4,-0.2 -0.8,-0.3 -1.2,-0.4 -0.4,-0.1 -0.7,-0.2 -1.1,-0.2 -1.4,0 -2.1,1 -2.1,3 0,1.9 0.7,2.9 2.1,2.9 0.5,0 1,-0.1 1.4,-0.2 0.4,-0.1 0.9,-0.3 1.3,-0.6 v 2.3 c -0.4,0.3 -0.9,0.5 -1.3,0.6 -0.3,-0.1 -0.9,-0.1 -1.5,-0.1 z"
   id="path42" />
		<path
   d="m 411.7,142.7 c -3,0 -4.6,-1.7 -4.6,-5 0,-1.7 0.4,-2.9 1.2,-3.8 0.8,-0.9 2,-1.3 3.6,-1.3 1.1,0 2.1,0.2 3,0.7 l -0.8,2.1 c -0.4,-0.2 -0.8,-0.3 -1.2,-0.4 -0.4,-0.1 -0.7,-0.2 -1.1,-0.2 -1.4,0 -2.1,1 -2.1,3 0,1.9 0.7,2.9 2.1,2.9 0.5,0 1,-0.1 1.4,-0.2 0.4,-0.1 0.9,-0.3 1.3,-0.6 v 2.3 c -0.4,0.3 -0.9,0.5 -1.3,0.6 -0.3,-0.1 -0.8,-0.1 -1.5,-0.1 z"
   id="path44" />
		<path
   d="m 416.8,130.2 c 0,-0.9 0.5,-1.3 1.5,-1.3 1,0 1.5,0.4 1.5,1.3 0,0.4 -0.1,0.7 -0.4,1 -0.3,0.3 -0.6,0.3 -1.1,0.3 -1,0 -1.5,-0.4 -1.5,-1.3 z m 2.8,12.4 H 417 v -9.8 h 2.7 v 9.8 z"
   id="path46" />
		<path
   d="m 431.4,137.6 c 0,1.6 -0.4,2.8 -1.3,3.8 -0.9,1 -2,1.3 -3.5,1.3 -0.9,0 -1.8,-0.2 -2.5,-0.6 -0.7,-0.4 -1.3,-1 -1.7,-1.8 -0.4,-0.8 -0.6,-1.7 -0.6,-2.7 0,-1.6 0.4,-2.8 1.2,-3.7 0.8,-0.9 2,-1.3 3.5,-1.3 0.9,0 1.8,0.2 2.5,0.6 0.7,0.4 1.3,1 1.7,1.8 0.4,0.7 0.7,1.6 0.7,2.6 z m -6.8,0 c 0,1 0.2,1.7 0.5,2.2 0.3,0.5 0.8,0.8 1.6,0.8 0.7,0 1.2,-0.2 1.5,-0.7 0.3,-0.5 0.5,-1.2 0.5,-2.2 0,-1 -0.2,-1.7 -0.5,-2.2 -0.3,-0.5 -0.8,-0.7 -1.5,-0.7 -0.7,0 -1.2,0.2 -1.5,0.7 -0.3,0.5 -0.6,1.2 -0.6,2.1 z m 0.5,-5.9 v -0.2 c 1,-1.2 1.7,-2 2.1,-2.6 h 3 v 0.2 c -0.3,0.3 -0.8,0.8 -1.6,1.4 -0.7,0.6 -1.3,1 -1.7,1.3 h -1.8 z"
   id="path48" />
		<path
   d="m 442.6,142.6 h -2.7 v -5.7 c 0,-0.7 -0.1,-1.2 -0.4,-1.6 -0.2,-0.3 -0.6,-0.5 -1.2,-0.5 -0.8,0 -1.3,0.2 -1.6,0.8 -0.3,0.6 -0.5,1.3 -0.5,2.5 v 4.6 h -2.7 v -9.8 h 2 l 0.4,1.2 h 0.1 c 0.3,-0.5 0.7,-0.8 1.2,-1.1 0.5,-0.2 1.1,-0.4 1.8,-0.4 1.1,0 2,0.3 2.6,0.9 0.6,0.6 0.9,1.5 0.9,2.7 z"
   id="path50" />
		<path
   d="m 453.1,142.7 c -1.1,0 -2.1,-0.5 -2.7,-1.3 -0.6,-0.8 -1,-2.1 -1,-3.7 0,-1.6 0.3,-2.9 1,-3.8 0.7,-0.9 1.6,-1.3 2.8,-1.3 1.2,0 2.2,0.5 2.8,1.4 h 0.1 c -0.1,-0.7 -0.2,-1.4 -0.2,-2 v -3.1 h 2.7 v 13.7 h -2 l -0.5,-1.3 H 456 c -0.7,0.9 -1.6,1.4 -2.9,1.4 z m 1,-2.1 c 0.7,0 1.2,-0.2 1.5,-0.6 0.3,-0.4 0.5,-1.1 0.5,-2 v -0.3 c 0,-1 -0.2,-1.8 -0.5,-2.3 -0.3,-0.5 -0.9,-0.7 -1.6,-0.7 -0.6,0 -1.1,0.2 -1.4,0.8 -0.3,0.6 -0.5,1.2 -0.5,2.2 0,1 0.2,1.7 0.5,2.2 0.3,0.5 0.9,0.7 1.5,0.7 z"
   id="path52" />
		<path
   d="m 465.9,142.7 c -1.6,0 -2.8,-0.4 -3.7,-1.3 -0.9,-0.9 -1.3,-2.1 -1.3,-3.7 0,-1.6 0.4,-2.9 1.2,-3.8 0.8,-0.9 2,-1.3 3.4,-1.3 1.4,0 2.5,0.4 3.2,1.2 0.7,0.8 1.2,1.9 1.2,3.3 v 1.3 h -6.3 c 0,0.8 0.2,1.3 0.7,1.8 0.4,0.4 1,0.6 1.8,0.6 0.6,0 1.1,-0.1 1.7,-0.2 0.6,-0.1 1.1,-0.3 1.6,-0.6 v 2.1 c -0.5,0.2 -1,0.4 -1.5,0.5 -0.6,0.1 -1.3,0.1 -2,0.1 z m -0.4,-8.2 c -0.6,0 -1,0.2 -1.3,0.5 -0.3,0.4 -0.5,0.9 -0.5,1.5 h 3.8 c 0,-0.7 -0.2,-1.2 -0.5,-1.5 -0.5,-0.4 -1,-0.5 -1.5,-0.5 z"
   id="path54" />
		<path
   d="m 481.1,142.7 c -1.6,0 -2.8,-0.4 -3.7,-1.3 -0.9,-0.9 -1.3,-2.1 -1.3,-3.7 0,-1.6 0.4,-2.9 1.2,-3.8 0.8,-0.9 2,-1.3 3.4,-1.3 1.4,0 2.5,0.4 3.2,1.2 0.7,0.8 1.2,1.9 1.2,3.3 v 1.3 h -6.3 c 0,0.8 0.2,1.3 0.7,1.8 0.4,0.4 1,0.6 1.8,0.6 0.6,0 1.1,-0.1 1.7,-0.2 0.6,-0.1 1.1,-0.3 1.6,-0.6 v 2.1 c -0.5,0.2 -1,0.4 -1.5,0.5 -0.6,0.1 -1.2,0.1 -2,0.1 z m -0.3,-8.2 c -0.6,0 -1,0.2 -1.3,0.5 -0.3,0.4 -0.5,0.9 -0.5,1.5 h 3.8 c 0,-0.7 -0.2,-1.2 -0.5,-1.5 -0.5,-0.4 -1,-0.5 -1.5,-0.5 z"
   id="path56" />
		<path
   d="m 496.4,142.6 h -2.7 v -5.7 c 0,-0.7 -0.1,-1.2 -0.4,-1.6 -0.2,-0.3 -0.6,-0.5 -1.2,-0.5 -0.8,0 -1.3,0.2 -1.6,0.8 -0.3,0.6 -0.5,1.3 -0.5,2.5 v 4.6 h -2.7 v -9.8 h 2 l 0.4,1.2 h 0.1 c 0.3,-0.5 0.7,-0.8 1.2,-1.1 0.5,-0.2 1.1,-0.4 1.8,-0.4 1.1,0 2,0.3 2.6,0.9 0.6,0.6 0.9,1.5 0.9,2.7 z"
   id="path58" />
		<path
   d="m 503.6,142.7 c -1.6,0 -2.8,-0.4 -3.7,-1.3 -0.9,-0.9 -1.3,-2.1 -1.3,-3.7 0,-1.6 0.4,-2.9 1.2,-3.8 0.8,-0.9 2,-1.3 3.4,-1.3 1.4,0 2.5,0.4 3.2,1.2 0.7,0.8 1.2,1.9 1.2,3.3 v 1.3 h -6.3 c 0,0.8 0.2,1.3 0.7,1.8 0.4,0.4 1,0.6 1.8,0.6 0.6,0 1.1,-0.1 1.7,-0.2 0.6,-0.1 1.1,-0.3 1.6,-0.6 v 2.1 c -0.5,0.2 -1,0.4 -1.5,0.5 -0.6,0.1 -1.3,0.1 -2,0.1 z m -0.4,-8.2 c -0.6,0 -1,0.2 -1.3,0.5 -0.3,0.4 -0.5,0.9 -0.5,1.5 h 3.8 c 0,-0.7 -0.2,-1.2 -0.5,-1.5 -0.5,-0.4 -0.9,-0.5 -1.5,-0.5 z"
   id="path60" />
		<path
   d="m 515.2,132.6 c 0.4,0 0.7,0 0.9,0.1 l -0.2,2.5 c -0.2,-0.1 -0.5,-0.1 -0.8,-0.1 -0.8,0 -1.5,0.2 -2,0.7 -0.5,0.5 -0.7,1 -0.7,1.8 v 5 h -2.7 v -9.8 h 2 l 0.4,1.7 h 0.1 c 0.3,-0.5 0.7,-1 1.2,-1.3 0.6,-0.5 1.2,-0.6 1.8,-0.6 z"
   id="path62" />
		<path
   d="m 526.4,132.7 v 1.4 l -1.5,0.4 c 0.3,0.4 0.4,0.9 0.4,1.5 0,1 -0.4,1.9 -1.1,2.5 -0.7,0.6 -1.8,0.9 -3.1,0.9 h -0.5 -0.4 c -0.3,0.2 -0.4,0.4 -0.4,0.7 0,0.4 0.5,0.6 1.5,0.6 h 1.7 c 1.1,0 1.9,0.2 2.5,0.7 0.6,0.5 0.8,1.1 0.8,2 0,1.2 -0.5,2 -1.4,2.7 -1,0.6 -2.3,1 -4.1,1 -1.4,0 -2.4,-0.2 -3.1,-0.7 -0.7,-0.5 -1.1,-1.1 -1.1,-2 0,-0.6 0.2,-1.1 0.5,-1.5 0.3,-0.4 0.9,-0.7 1.6,-0.8 -0.3,-0.1 -0.5,-0.3 -0.7,-0.6 -0.2,-0.3 -0.3,-0.5 -0.3,-0.8 0,-0.4 0.1,-0.7 0.3,-0.9 0.2,-0.2 0.5,-0.5 0.9,-0.7 -0.5,-0.2 -0.9,-0.6 -1.2,-1.1 -0.3,-0.5 -0.5,-1.1 -0.5,-1.7 0,-1.1 0.3,-1.9 1,-2.5 0.7,-0.6 1.7,-0.9 3,-0.9 0.3,0 0.6,0 1,0.1 0.4,0.1 0.6,0.1 0.7,0.1 z m -7.5,11.2 c 0,0.4 0.2,0.7 0.5,0.9 0.3,0.2 0.8,0.3 1.5,0.3 1,0 1.7,-0.1 2.2,-0.4 0.5,-0.3 0.8,-0.6 0.8,-1.1 0,-0.4 -0.2,-0.6 -0.5,-0.8 -0.3,-0.2 -0.8,-0.2 -1.5,-0.2 h -1.4 c -0.5,0 -0.9,0.1 -1.2,0.3 -0.3,0.4 -0.4,0.7 -0.4,1 z m 0.9,-7.9 c 0,0.5 0.1,1 0.4,1.3 0.3,0.3 0.6,0.5 1.1,0.5 0.5,0 0.9,-0.2 1.1,-0.5 0.2,-0.3 0.3,-0.7 0.3,-1.3 0,-1.2 -0.5,-1.8 -1.5,-1.8 -0.9,0 -1.4,0.6 -1.4,1.8 z"
   id="path64" />
		<path
   d="m 527.9,131.7 v -0.2 c 1,-1.2 1.7,-2 2.1,-2.6 h 3 v 0.2 c -0.3,0.3 -0.8,0.8 -1.6,1.4 -0.8,0.6 -1.3,1 -1.7,1.3 h -1.8 z m 2.8,10.9 H 528 v -9.8 h 2.7 z"
   id="path66" />
		<path
   d="m 539.8,142.6 -0.5,-1.3 h -0.1 c -0.5,0.6 -0.9,1 -1.4,1.2 -0.5,0.2 -1.1,0.3 -1.9,0.3 -0.9,0 -1.7,-0.3 -2.2,-0.8 -0.5,-0.5 -0.8,-1.3 -0.8,-2.3 0,-1 0.4,-1.8 1.1,-2.3 0.7,-0.5 1.8,-0.8 3.3,-0.8 H 539 V 136 c 0,-1 -0.5,-1.5 -1.5,-1.5 -0.8,0 -1.7,0.2 -2.8,0.7 l -0.9,-1.8 c 1.1,-0.6 2.4,-0.9 3.8,-0.9 1.3,0 2.3,0.3 3,0.9 0.7,0.6 1,1.5 1,2.6 v 6.5 h -1.8 z M 539,138 h -1 c -0.8,0 -1.4,0.2 -1.7,0.4 -0.3,0.2 -0.6,0.7 -0.6,1.2 0,0.8 0.4,1.1 1.3,1.1 0.6,0 1.1,-0.2 1.5,-0.5 0.4,-0.3 0.6,-0.8 0.6,-1.4 V 138 Z"
   id="path68" />
		<path
   d="m 554.4,142.7 c -1.2,0 -2.1,-0.4 -2.7,-1.2 h -0.1 c 0.1,0.8 0.1,1.3 0.1,1.4 v 4 H 549 v -14.1 h 2.2 l 0.4,1.3 h 0.1 c 0.6,-1 1.5,-1.5 2.8,-1.5 1.2,0 2.1,0.5 2.7,1.3 0.7,0.9 1,2.1 1,3.7 0,1 -0.2,2 -0.5,2.7 -0.3,0.8 -0.7,1.4 -1.3,1.8 -0.5,0.4 -1.2,0.6 -2,0.6 z m -0.7,-8 c -0.7,0 -1.1,0.2 -1.5,0.6 -0.3,0.4 -0.5,1.1 -0.5,2 v 0.3 c 0,1 0.2,1.8 0.5,2.3 0.3,0.5 0.8,0.7 1.5,0.7 1.2,0 1.8,-1 1.8,-3 0,-1 -0.2,-1.7 -0.4,-2.2 -0.2,-0.5 -0.8,-0.7 -1.4,-0.7 z"
   id="path70" />
		<path
   d="m 565.9,132.6 c 0.4,0 0.7,0 0.9,0.1 l -0.2,2.5 c -0.2,-0.1 -0.5,-0.1 -0.8,-0.1 -0.8,0 -1.5,0.2 -2,0.7 -0.5,0.5 -0.7,1 -0.7,1.8 v 5 h -2.7 v -9.8 h 2 l 0.4,1.7 h 0.1 c 0.3,-0.5 0.7,-1 1.2,-1.3 0.6,-0.5 1.2,-0.6 1.8,-0.6 z"
   id="path72" />
		<path
   d="m 568.5,130.2 c 0,-0.9 0.5,-1.3 1.5,-1.3 1,0 1.5,0.4 1.5,1.3 0,0.4 -0.1,0.7 -0.4,1 -0.3,0.3 -0.6,0.3 -1.1,0.3 -1,0 -1.5,-0.4 -1.5,-1.3 z m 2.8,12.4 h -2.7 v -9.8 h 2.7 z"
   id="path74" />
		<path
   d="m 582.8,142.6 h -2.7 v -5.7 c 0,-0.7 -0.1,-1.2 -0.4,-1.6 -0.2,-0.3 -0.6,-0.5 -1.1,-0.5 -0.7,0 -1.2,0.2 -1.5,0.8 -0.3,0.6 -0.5,1.3 -0.5,2.5 v 4.6 h -2.7 v -9.8 h 2 l 0.4,1.2 h 0.2 c 0.3,-0.5 0.6,-0.8 1.1,-1.1 0.5,-0.2 1.1,-0.4 1.7,-0.4 1.5,0 2.5,0.5 3,1.4 h 0.2 c 0.3,-0.5 0.7,-0.8 1.2,-1.1 0.5,-0.2 1.1,-0.4 1.7,-0.4 1.1,0 2,0.3 2.5,0.9 0.5,0.6 0.9,1.5 0.9,2.7 v 6.4 h -2.7 v -5.7 c 0,-0.7 -0.1,-1.2 -0.4,-1.6 -0.2,-0.3 -0.6,-0.5 -1.1,-0.5 -0.7,0 -1.2,0.2 -1.5,0.7 -0.3,0.5 -0.5,1.2 -0.5,2.2 z"
   id="path76" />
		<path
   d="m 597.9,142.6 -0.5,-1.3 h -0.1 c -0.5,0.6 -0.9,1 -1.4,1.2 -0.5,0.2 -1.1,0.3 -1.9,0.3 -0.9,0 -1.7,-0.3 -2.2,-0.8 -0.5,-0.5 -0.8,-1.3 -0.8,-2.3 0,-1 0.4,-1.8 1.1,-2.3 0.7,-0.5 1.8,-0.8 3.3,-0.8 h 1.7 V 136 c 0,-1 -0.5,-1.5 -1.5,-1.5 -0.8,0 -1.7,0.2 -2.8,0.7 l -0.9,-1.8 c 1.1,-0.6 2.4,-0.9 3.8,-0.9 1.3,0 2.3,0.3 3,0.9 0.7,0.6 1,1.5 1,2.6 v 6.5 h -1.8 z m -0.7,-4.6 h -1 c -0.8,0 -1.4,0.2 -1.7,0.4 -0.3,0.2 -0.6,0.7 -0.6,1.2 0,0.8 0.4,1.1 1.3,1.1 0.6,0 1.1,-0.2 1.5,-0.5 0.4,-0.3 0.6,-0.8 0.6,-1.4 V 138 Z"
   id="path78" />
		<path
   d="m 608,132.6 c 0.4,0 0.7,0 0.9,0.1 l -0.2,2.5 c -0.2,-0.1 -0.5,-0.1 -0.8,-0.1 -0.8,0 -1.5,0.2 -2,0.7 -0.5,0.5 -0.7,1 -0.7,1.8 v 5 h -2.7 v -9.8 h 2 l 0.4,1.7 h 0.1 c 0.3,-0.5 0.7,-1 1.2,-1.3 0.7,-0.5 1.2,-0.6 1.8,-0.6 z"
   id="path80" />
		<path
   d="m 610.6,130.2 c 0,-0.9 0.5,-1.3 1.5,-1.3 1,0 1.5,0.4 1.5,1.3 0,0.4 -0.1,0.7 -0.4,1 -0.3,0.3 -0.6,0.3 -1.1,0.3 -1,0 -1.5,-0.4 -1.5,-1.3 z m 2.8,12.4 h -2.7 v -9.8 h 2.7 z"
   id="path82" />
		<path
   d="m 622.4,142.6 -0.5,-1.3 h -0.1 c -0.5,0.6 -0.9,1 -1.4,1.2 -0.5,0.2 -1.1,0.3 -1.9,0.3 -0.9,0 -1.7,-0.3 -2.2,-0.8 -0.5,-0.5 -0.8,-1.3 -0.8,-2.3 0,-1 0.4,-1.8 1.1,-2.3 0.7,-0.5 1.8,-0.8 3.3,-0.8 h 1.7 V 136 c 0,-1 -0.5,-1.5 -1.5,-1.5 -0.8,0 -1.7,0.2 -2.8,0.7 l -0.9,-1.8 c 1.1,-0.6 2.4,-0.9 3.8,-0.9 1.3,0 2.3,0.3 3,0.9 0.7,0.6 1,1.5 1,2.6 v 6.5 h -1.8 z m -0.7,-4.6 h -1 c -0.8,0 -1.4,0.2 -1.7,0.4 -0.3,0.2 -0.6,0.7 -0.6,1.2 0,0.8 0.4,1.1 1.3,1.1 0.6,0 1.1,-0.2 1.5,-0.5 0.4,-0.3 0.6,-0.8 0.6,-1.4 V 138 Z"
   id="path84" />
		<path
   d="m 629.7,140.7 c -0.3,1.2 -0.8,2.6 -1.5,4.2 h -1.9 c 0.4,-1.6 0.7,-3 0.9,-4.4 h 2.5 z"
   id="path86" />
		<path
   d="m 645.2,142.6 h -9 v -1.9 l 3.2,-3.2 c 1,-1 1.6,-1.7 1.9,-2 0.3,-0.3 0.5,-0.7 0.6,-1 0.1,-0.3 0.2,-0.7 0.2,-1 0,-0.5 -0.1,-0.9 -0.4,-1.2 -0.3,-0.2 -0.7,-0.4 -1.1,-0.4 -0.5,0 -1,0.1 -1.5,0.3 -0.5,0.2 -1,0.5 -1.5,1 l -1.5,-1.8 c 0.6,-0.5 1.2,-0.9 1.6,-1.1 0.4,-0.2 0.9,-0.4 1.4,-0.5 0.5,-0.1 1,-0.2 1.7,-0.2 0.8,0 1.5,0.2 2.1,0.4 0.6,0.2 1.1,0.7 1.4,1.2 0.3,0.5 0.5,1.1 0.5,1.8 0,0.6 -0.1,1.1 -0.3,1.7 -0.2,0.6 -0.5,1 -1,1.6 -0.4,0.5 -1.2,1.3 -2.3,2.3 l -1.7,1.5 v 0.1 h 5.6 z"
   id="path88" />
		<path
   d="m 655.4,136.1 c 0,2.2 -0.4,3.9 -1.1,5 -0.7,1.1 -1.9,1.6 -3.4,1.6 -1.5,0 -2.6,-0.6 -3.3,-1.7 -0.7,-1.1 -1.1,-2.8 -1.1,-4.9 0,-2.3 0.4,-3.9 1.1,-5 0.7,-1.1 1.9,-1.6 3.4,-1.6 1.5,0 2.6,0.6 3.4,1.7 0.8,1.1 1,2.8 1,4.9 z m -6.3,0 c 0,1.6 0.1,2.7 0.4,3.4 0.3,0.7 0.7,1 1.4,1 0.6,0 1.1,-0.3 1.4,-1 0.3,-0.7 0.4,-1.8 0.4,-3.4 0,-1.6 -0.1,-2.7 -0.4,-3.4 -0.3,-0.7 -0.7,-1 -1.4,-1 -0.6,0 -1.1,0.3 -1.4,1 -0.3,0.7 -0.4,1.9 -0.4,3.4 z"
   id="path90" />
		<path
   d="m 663.5,142.6 h -2.7 v -7.4 -1.2 -1.3 c -0.5,0.5 -0.8,0.8 -0.9,0.9 l -1.5,1.2 -1.3,-1.6 4.1,-3.3 h 2.2 v 12.7 z"
   id="path92" />
		<path
   d="m 675.9,135.2 c 0,2.5 -0.5,4.4 -1.6,5.7 -1.1,1.2 -2.7,1.9 -4.8,1.9 -0.8,0 -1.3,0 -1.7,-0.1 v -2.2 c 0.5,0.1 1,0.2 1.5,0.2 0.9,0 1.7,-0.1 2.2,-0.4 0.6,-0.3 1,-0.7 1.3,-1.2 0.3,-0.5 0.5,-1.4 0.5,-2.4 h -0.1 c -0.3,0.5 -0.7,0.9 -1.2,1.2 -0.4,0.2 -1,0.3 -1.7,0.3 -1.1,0 -2,-0.4 -2.6,-1.1 -0.6,-0.7 -1,-1.7 -1,-3 0,-1.4 0.4,-2.5 1.2,-3.3 0.8,-0.8 1.8,-1.2 3.2,-1.2 1,0 1.8,0.2 2.5,0.7 0.7,0.4 1.3,1.1 1.6,1.9 0.6,0.8 0.7,1.8 0.7,3 z m -4.6,-3.4 c -0.6,0 -1,0.2 -1.3,0.6 -0.3,0.4 -0.5,0.9 -0.5,1.7 0,0.6 0.1,1.1 0.4,1.5 0.3,0.4 0.7,0.5 1.3,0.5 0.5,0 1,-0.2 1.4,-0.5 0.4,-0.4 0.6,-0.8 0.6,-1.2 0,-0.7 -0.2,-1.3 -0.5,-1.8 -0.3,-0.5 -0.8,-0.8 -1.4,-0.8 z"
   id="path94" />
		<path
   d="m 682,137.6 c 0,-1.5 0.2,-3 0.7,-4.3 0.5,-1.3 1.1,-2.5 2,-3.5 h 2.2 c -0.8,1.1 -1.5,2.4 -1.9,3.7 -0.4,1.3 -0.6,2.7 -0.6,4.2 0,1.5 0.2,2.8 0.7,4.2 0.4,1.3 1,2.5 1.8,3.6 h -2.2 c -0.9,-1 -1.5,-2.2 -2,-3.5 -0.5,-1.4 -0.7,-2.8 -0.7,-4.4 z"
   id="path96" />
		<path
   d="m 697.8,133.7 c 0,1.4 -0.4,2.4 -1.3,3.2 -0.9,0.8 -2.1,1.1 -3.7,1.1 h -1.2 v 4.6 h -2.7 v -12.8 h 4.1 c 1.6,0 2.7,0.3 3.5,1 0.9,0.6 1.3,1.6 1.3,2.9 z m -6.1,2.1 h 0.9 c 0.8,0 1.5,-0.2 1.9,-0.5 0.4,-0.3 0.6,-0.8 0.6,-1.4 0,-0.6 -0.2,-1.1 -0.5,-1.4 -0.3,-0.3 -0.9,-0.5 -1.6,-0.5 h -1.2 v 3.8 z"
   id="path98" />
		<path
   d="m 704.5,142.7 c -1.6,0 -2.8,-0.4 -3.7,-1.3 -0.9,-0.9 -1.3,-2.1 -1.3,-3.7 0,-1.6 0.4,-2.9 1.2,-3.8 0.8,-0.9 2,-1.3 3.4,-1.3 1.4,0 2.5,0.4 3.2,1.2 0.7,0.8 1.2,1.9 1.2,3.3 v 1.3 h -6.3 c 0,0.8 0.2,1.3 0.7,1.8 0.4,0.4 1,0.6 1.8,0.6 0.6,0 1.2,-0.1 1.7,-0.2 0.5,-0.1 1.1,-0.3 1.7,-0.6 v 2.1 c -0.5,0.2 -1,0.4 -1.5,0.5 -0.7,0.1 -1.4,0.1 -2.1,0.1 z m -0.4,-8.2 c -0.6,0 -1,0.2 -1.3,0.5 -0.3,0.3 -0.5,0.9 -0.5,1.5 h 3.8 c 0,-0.7 -0.2,-1.2 -0.5,-1.5 -0.5,-0.4 -1,-0.5 -1.5,-0.5 z"
   id="path100" />
		<path
   d="m 714.8,140.6 c 0.5,0 1,-0.1 1.7,-0.3 v 2 c -0.7,0.3 -1.5,0.5 -2.5,0.5 -1.1,0 -1.8,-0.3 -2.3,-0.8 -0.5,-0.5 -0.7,-1.3 -0.7,-2.4 v -4.7 h -1.3 v -1.1 l 1.5,-0.9 0.8,-2.1 h 1.7 v 2.1 h 2.8 v 2 h -2.8 v 4.7 c 0,0.4 0.1,0.7 0.3,0.8 0.1,0.1 0.4,0.2 0.8,0.2 z"
   id="path102" />
		<path
   d="m 724.7,142.6 -0.5,-1.3 h -0.1 c -0.5,0.6 -0.9,1 -1.4,1.2 -0.5,0.2 -1.1,0.3 -1.9,0.3 -0.9,0 -1.7,-0.3 -2.2,-0.8 -0.5,-0.5 -0.8,-1.3 -0.8,-2.3 0,-1 0.4,-1.8 1.1,-2.3 0.7,-0.5 1.8,-0.8 3.3,-0.8 h 1.7 V 136 c 0,-1 -0.5,-1.5 -1.5,-1.5 -0.8,0 -1.7,0.2 -2.8,0.7 l -0.9,-1.8 c 1.1,-0.6 2.4,-0.9 3.8,-0.9 1.3,0 2.3,0.3 3,0.9 0.7,0.6 1,1.5 1,2.6 v 6.5 h -1.8 z m -0.8,-4.6 h -1 c -0.8,0 -1.4,0.2 -1.7,0.4 -0.3,0.2 -0.6,0.7 -0.6,1.2 0,0.8 0.4,1.1 1.3,1.1 0.6,0 1.1,-0.2 1.5,-0.5 0.4,-0.3 0.6,-0.8 0.6,-1.4 V 138 Z"
   id="path104" />
		<path
   d="m 728.5,146.9 c -0.7,0 -1.3,-0.1 -1.8,-0.2 v -2.1 c 0.4,0.1 0.8,0.2 1.2,0.2 0.5,0 0.8,-0.1 1,-0.4 0.2,-0.2 0.3,-0.6 0.3,-1.1 v -10.5 h 2.7 v 10.9 c 0,1 -0.3,1.8 -0.9,2.4 -0.6,0.6 -1.4,0.8 -2.5,0.8 z m 0.7,-16.7 c 0,-0.9 0.5,-1.3 1.5,-1.3 1,0 1.5,0.4 1.5,1.3 0,0.4 -0.1,0.7 -0.4,1 -0.3,0.3 -0.6,0.3 -1.1,0.3 -1,0 -1.5,-0.4 -1.5,-1.3 z"
   id="path106" />
		<path
   d="m 743.7,137.6 c 0,1.6 -0.4,2.8 -1.3,3.8 -0.9,1 -2,1.3 -3.5,1.3 -0.9,0 -1.8,-0.2 -2.5,-0.6 -0.7,-0.4 -1.3,-1 -1.7,-1.8 -0.4,-0.8 -0.6,-1.7 -0.6,-2.7 0,-1.6 0.4,-2.8 1.2,-3.7 0.8,-0.9 2,-1.3 3.5,-1.3 0.9,0 1.8,0.2 2.5,0.6 0.7,0.4 1.3,1 1.7,1.8 0.5,0.7 0.7,1.6 0.7,2.6 z m -6.8,0 c 0,1 0.2,1.7 0.5,2.2 0.3,0.5 0.8,0.8 1.6,0.8 0.7,0 1.2,-0.2 1.5,-0.7 0.3,-0.5 0.5,-1.2 0.5,-2.2 0,-1 -0.2,-1.7 -0.5,-2.2 -0.3,-0.5 -0.8,-0.7 -1.5,-0.7 -0.7,0 -1.2,0.2 -1.5,0.7 -0.3,0.5 -0.6,1.2 -0.6,2.1 z"
   id="path108" />
		<path
   d="m 752.8,142.6 -0.4,-1.2 h -0.1 c -0.3,0.5 -0.7,0.8 -1.2,1.1 -0.5,0.2 -1.1,0.4 -1.8,0.4 -1.2,0 -2,-0.3 -2.6,-0.9 -0.6,-0.6 -0.9,-1.5 -0.9,-2.7 v -6.4 h 2.7 v 5.7 c 0,0.7 0.1,1.2 0.4,1.6 0.2,0.3 0.7,0.5 1.2,0.5 0.8,0 1.3,-0.2 1.6,-0.8 0.3,-0.6 0.5,-1.3 0.5,-2.5 v -4.6 h 2.7 v 9.8 z"
   id="path110" />
		<path
   d="m 760.4,142.6 h -2.7 v -13.7 h 2.7 z"
   id="path112" />
		<path
   d="m 767.6,142.7 c -1.6,0 -2.8,-0.4 -3.7,-1.3 -0.9,-0.9 -1.3,-2.1 -1.3,-3.7 0,-1.6 0.4,-2.9 1.2,-3.8 0.8,-0.9 2,-1.3 3.4,-1.3 1.4,0 2.5,0.4 3.2,1.2 0.7,0.8 1.2,1.9 1.2,3.3 v 1.3 h -6.3 c 0,0.8 0.2,1.3 0.7,1.8 0.4,0.4 1,0.6 1.8,0.6 0.6,0 1.2,-0.1 1.7,-0.2 0.5,-0.1 1.1,-0.3 1.7,-0.6 v 2.1 c -0.5,0.2 -1,0.4 -1.5,0.5 -0.7,0.1 -1.3,0.1 -2.1,0.1 z m -0.4,-8.2 c -0.6,0 -1,0.2 -1.3,0.5 -0.3,0.3 -0.5,0.9 -0.5,1.5 h 3.8 c 0,-0.7 -0.2,-1.2 -0.5,-1.5 -0.4,-0.4 -0.9,-0.5 -1.5,-0.5 z"
   id="path114" />
		<path
   d="m 780.6,139.6 c 0,1 -0.3,1.8 -1,2.3 -0.7,0.5 -1.7,0.8 -3.1,0.8 -0.7,0 -1.3,0 -1.8,-0.2 -0.5,-0.1 -1,-0.2 -1.4,-0.4 V 140 c 0.5,0.2 1.1,0.4 1.7,0.6 0.6,0.2 1.2,0.2 1.7,0.2 1,0 1.5,-0.3 1.5,-0.8 0,-0.2 -0.1,-0.4 -0.2,-0.5 -0.1,-0.1 -0.3,-0.3 -0.7,-0.5 -0.4,-0.2 -0.7,-0.4 -1.3,-0.6 -0.8,-0.3 -1.3,-0.6 -1.7,-0.9 -0.4,-0.3 -0.6,-0.6 -0.8,-0.9 -0.2,-0.3 -0.2,-0.8 -0.2,-1.3 0,-0.9 0.3,-1.5 1,-2 0.7,-0.5 1.6,-0.7 2.9,-0.7 1.2,0 2.3,0.3 3.5,0.8 l -0.8,1.9 c -0.5,-0.2 -1,-0.4 -1.4,-0.5 -0.4,-0.1 -0.9,-0.2 -1.3,-0.2 -0.8,0 -1.2,0.2 -1.2,0.6 0,0.2 0.1,0.5 0.4,0.6 0.2,0.2 0.8,0.4 1.7,0.8 0.8,0.3 1.3,0.6 1.7,0.9 0.4,0.3 0.6,0.6 0.8,0.9 0,0.3 0,0.8 0,1.2 z"
   id="path116" />
		<path
   d="m 786.7,137.6 c 0,1.5 -0.2,3 -0.7,4.3 -0.5,1.3 -1.1,2.5 -2,3.5 h -2.2 c 0.8,-1.1 1.4,-2.3 1.8,-3.6 0.4,-1.3 0.7,-2.7 0.7,-4.2 0,-1.4 -0.2,-2.8 -0.6,-4.2 -0.4,-1.4 -1,-2.6 -1.9,-3.7 h 2.2 c 0.9,1 1.5,2.2 2,3.6 0.5,1.3 0.7,2.8 0.7,4.3 z"
   id="path118" />
	</g>
</g>
<g
   id="g144"
   transform="translate(-144.4,-128.9)">
	<path
   d="m 164.2,399.7 c 0,107.2 87.2,194.4 194.5,194.4 81.9,0 155.3,-51.7 183,-128.6 0.1,-0.3 0.2,-0.6 0.3,-0.9 l 0.2,0.1 0.7,0.2 C 515.3,542.7 441.3,595 358.7,595 251,595 163.3,507.3 163.3,399.6 c 0,-84.4 53.7,-156.4 128.8,-183.7 0,0 0.1,0 0.1,0 0,0 0,0 0,0 20.8,-7.5 43.1,-11.7 66.5,-11.7 83.4,0 157.7,52.9 184.8,131.7 l -0.5,0.2 -0.3,0.1 c -0.1,-0.3 -0.2,-0.5 -0.3,-0.8 -27.2,-78 -100.9,-130.3 -183.6,-130.3 -11.5,0 -22.9,1 -33.8,3 -0.3,0 -0.6,0.1 -0.9,0.2 -7.3,1.3 -14.5,3 -21.5,5.2 -0.3,0.1 -0.6,0.2 -0.9,0.3 -2.9,0.9 -5.8,1.8 -8.6,2.9 -0.3,0.1 -0.6,0.2 -0.9,0.3 -74.7,27.3 -128,98.9 -128,182.7 z"
   id="path124" />
	<path
   d="m 366,401.3 c 0,0 0,0 0,0 0,0.2 -0.1,0.3 -0.1,0.3 0,0 0,0 0,0 0,0.1 -0.1,0.1 -0.1,0.1 -0.1,0 -0.1,0 -0.2,0 -0.2,0 -0.4,-0.1 -0.4,-0.3 L 292,217 l -0.2,-0.4 c -0.1,-0.2 0,-0.5 0.2,-0.6 0,0 0,0 0,0 0,0 0.1,0 0.1,0 0,0 0,0 0,0 0.2,0 0.4,0.1 0.5,0.3 l 0.2,0.5 71,179 1.9,4.9 v 0 l 0.2,0.5 c 0.1,0 0.1,0.1 0.1,0.1 z"
   id="path126" />
	<path
   class="st0"
   d="m 363.8,395.7 -71,-179 c 2.8,-1 5.7,-2 8.6,-2.9 z"
   id="path128" />
	<path
   d="m 366.5,402 c -0.1,0 -0.1,0 -0.1,0 -0.2,0 -0.4,-0.1 -0.5,-0.3 v -0.1 0 l -2,-5.9 -62.4,-181.9 -0.1,-0.2 c -0.1,-0.2 0,-0.5 0.3,-0.6 0.3,-0.1 0.5,0 0.6,0.3 l 0.1,0.2 62.1,181.1 v 0 l 2,5.8 0.3,0.8 c 0,0 0,0 0,0 v 0 0 0.1 c 0.1,0.4 -0.1,0.6 -0.3,0.7 z"
   id="path130" />
	<path
   class="st1"
   d="M 364.5,394.6 302.4,213.5 c 7,-2.1 14.2,-3.9 21.5,-5.2 z"
   id="path132" />
	<path
   d="m 366.7,401.3 v 0 c 0,0 0,0 0,0 0,0 0,0 0,0 -0.1,0.2 -0.2,0.2 -0.3,0.2 0,0 -0.1,0 -0.1,0 -0.1,0 -0.2,-0.1 -0.3,-0.1 0,0 0,0 0,0 -0.1,-0.1 -0.1,-0.1 -0.1,-0.2 l -0.1,-0.5 v 0 l -1.3,-6 v 0 l -40.6,-186.2 -0.1,-0.4 c -0.1,-0.3 0.1,-0.5 0.4,-0.6 0.3,0 0.5,0.1 0.6,0.4 l 0.1,0.5 41.9,192.2 0.1,0.6 c -0.1,-0.1 -0.1,0 -0.2,0.1 z"
   id="path134" />
	<path
   class="st2"
   d="M 542.3,335.6 366.7,400.4 324.8,208.2 c 11,-1.9 22.3,-3 33.8,-3 82.8,0 156.4,52.4 183.7,130.4 z"
   id="path136" />
	<polygon
   points="366.8,401.3 366.7,401.4 366.3,401.5 366.2,401.1 366.2,401.1 366,400.6 366.5,400.4 366.7,400.4 542.3,335.6 542.6,335.4 542.9,336.2 542.9,336.3 366.8,401.3 "
   id="polygon138" />
	<path
   class="st3"
   d="m 541.7,465.5 c -27.7,77 -101.1,128.6 -183,128.6 -107.2,0 -194.4,-87.2 -194.4,-194.4 0,-83.8 53.3,-155.4 127.8,-182.7 l 73.1,184.5 c 0.1,0.2 0.3,0.3 0.4,0.3 0.1,0 0.1,0 0.2,0 0.1,0 0.1,-0.1 0.1,-0.1 v 0 l -0.1,0.3 z"
   id="path140" />
	<polygon
   points="541.9,465.6 541.7,465.5 365.8,402 365.9,401.7 365.9,401.6 366,401.4 366,401.3 366.1,401.1 366.2,401.1 366.7,401.3 366.8,401.3 366.8,401.3 366.8,401.3 542.2,464.7 "
   id="polygon142" />
</g>
<path
   class="st4"
   d="m 257.2,272.4 173,-61.7 c 0,0 24.8,44.1 1.6,124.2 z"
   id="path146" />
<g
   id="g180"
   transform="translate(-144.4,-128.9)">
	<path
   class="st5"
   d="m 487.1,400.3 v 3.4 h -1.9 v -8.8 h 2.6 c 1.2,0 2.1,0.2 2.6,0.7 0.6,0.4 0.9,1.1 0.9,2 0,0.5 -0.1,1 -0.4,1.4 -0.3,0.4 -0.7,0.7 -1.2,0.9 1.3,2 2.2,3.2 2.6,3.8 h -2.1 l -2.1,-3.4 z m 0,-1.5 h 0.6 c 0.6,0 1,-0.1 1.3,-0.3 0.3,-0.2 0.4,-0.5 0.4,-0.9 0,-0.4 -0.1,-0.7 -0.4,-0.9 -0.3,-0.2 -0.7,-0.3 -1.3,-0.3 h -0.6 z"
   id="path148" />
	<path
   class="st5"
   d="m 496.3,403.8 c -1.1,0 -1.9,-0.3 -2.5,-0.9 -0.6,-0.6 -0.9,-1.4 -0.9,-2.5 0,-1.1 0.3,-2 0.8,-2.6 0.6,-0.6 1.3,-0.9 2.3,-0.9 1,0 1.7,0.3 2.2,0.8 0.5,0.5 0.8,1.3 0.8,2.2 v 0.9 h -4.3 c 0,0.5 0.2,0.9 0.5,1.2 0.3,0.3 0.7,0.4 1.2,0.4 0.4,0 0.8,0 1.1,-0.1 0.4,-0.1 0.7,-0.2 1.1,-0.4 v 1.4 c -0.3,0.2 -0.7,0.3 -1,0.4 -0.4,0.1 -0.8,0.1 -1.3,0.1 z m -0.3,-5.6 c -0.4,0 -0.7,0.1 -0.9,0.4 -0.2,0.3 -0.4,0.6 -0.4,1.1 h 2.6 c 0,-0.4 -0.1,-0.8 -0.4,-1.1 -0.3,-0.3 -0.5,-0.4 -0.9,-0.4 z"
   id="path150" />
	<path
   class="st5"
   d="m 506.7,403.7 h -1.8 v -3.9 c 0,-0.5 -0.1,-0.8 -0.3,-1.1 -0.2,-0.3 -0.5,-0.4 -0.8,-0.4 -0.5,0 -0.9,0.2 -1.1,0.5 -0.2,0.3 -0.3,0.9 -0.3,1.7 v 3.2 h -1.8 V 397 h 1.4 l 0.2,0.9 h 0.1 c 0.2,-0.3 0.5,-0.6 0.8,-0.7 0.4,-0.2 0.8,-0.2 1.2,-0.2 0.8,0 1.4,0.2 1.8,0.6 0.4,0.4 0.6,1 0.6,1.8 z"
   id="path152" />
	<path
   class="st5"
   d="m 514.7,400.3 c 0,1.1 -0.3,1.9 -0.9,2.6 -0.6,0.7 -1.4,0.9 -2.4,0.9 -0.6,0 -1.2,-0.1 -1.7,-0.4 -0.5,-0.3 -0.9,-0.7 -1.1,-1.2 -0.2,-0.5 -0.4,-1.1 -0.4,-1.8 0,-1.1 0.3,-1.9 0.9,-2.6 0.6,-0.7 1.4,-0.9 2.4,-0.9 0.6,0 1.2,0.1 1.7,0.4 0.5,0.3 0.9,0.7 1.1,1.2 0.2,0.5 0.4,1.1 0.4,1.8 z m -4.7,0 c 0,0.7 0.1,1.2 0.3,1.5 0.2,0.3 0.6,0.5 1.1,0.5 0.5,0 0.8,-0.2 1,-0.5 0.2,-0.3 0.3,-0.8 0.3,-1.5 0,-0.7 -0.1,-1.2 -0.3,-1.5 -0.2,-0.3 -0.6,-0.5 -1.1,-0.5 -0.5,0 -0.8,0.2 -1.1,0.5 -0.1,0.4 -0.2,0.9 -0.2,1.5 z"
   id="path154" />
	<path
   class="st5"
   d="m 517.8,403.7 -2.6,-6.7 h 1.9 l 1.3,3.8 c 0.1,0.5 0.2,0.9 0.3,1.4 v 0 c 0,-0.4 0.1,-0.8 0.3,-1.4 l 1.3,-3.8 h 1.9 l -2.6,6.7 z"
   id="path156" />
	<path
   class="st5"
   d="m 527.4,403.7 -0.3,-0.9 v 0 c -0.3,0.4 -0.6,0.7 -1,0.8 -0.3,0.2 -0.8,0.2 -1.3,0.2 -0.6,0 -1.2,-0.2 -1.5,-0.6 -0.3,-0.4 -0.6,-0.9 -0.6,-1.6 0,-0.7 0.2,-1.2 0.8,-1.6 0.6,-0.4 1.2,-0.5 2.2,-0.6 h 1.2 v -0.3 c 0,-0.7 -0.3,-1 -1,-1 -0.5,0 -1.2,0.2 -1.9,0.5 l -0.6,-1.2 c 0.8,-0.4 1.6,-0.6 2.6,-0.6 0.9,0 1.6,0.2 2.1,0.6 0.5,0.4 0.7,1 0.7,1.8 v 4.5 z m -0.5,-3.1 h -0.7 c -0.5,0 -0.9,0.1 -1.2,0.3 -0.3,0.2 -0.4,0.4 -0.4,0.8 0,0.5 0.3,0.8 0.9,0.8 0.4,0 0.8,-0.1 1,-0.4 0.2,-0.2 0.4,-0.6 0.4,-1 z"
   id="path158" />
	<path
   class="st5"
   d="m 534.3,396.9 c 0.8,0 1.4,0.3 1.9,0.9 0.5,0.6 0.7,1.5 0.7,2.5 0,1.1 -0.2,2 -0.7,2.6 -0.5,0.6 -1.1,0.9 -1.9,0.9 -0.8,0 -1.4,-0.3 -1.8,-0.9 h -0.1 l -0.3,0.7 h -1.4 v -9.3 h 1.8 v 2.2 c 0,0.3 0,0.7 -0.1,1.3 h 0.1 c 0.4,-0.6 1,-0.9 1.8,-0.9 z m -0.5,1.4 c -0.5,0 -0.8,0.1 -1,0.4 -0.2,0.3 -0.3,0.7 -0.3,1.4 v 0.2 c 0,0.7 0.1,1.2 0.3,1.6 0.2,0.4 0.5,0.5 1,0.5 0.4,0 0.7,-0.2 0.9,-0.5 0.2,-0.3 0.3,-0.8 0.3,-1.5 0,-0.7 -0.1,-1.2 -0.3,-1.5 -0.2,-0.3 -0.6,-0.6 -0.9,-0.6 z"
   id="path160" />
	<path
   class="st5"
   d="m 540.2,403.7 h -1.8 v -9.3 h 1.8 z"
   id="path162" />
	<path
   class="st5"
   d="m 545.2,403.8 c -1.1,0 -1.9,-0.3 -2.5,-0.9 -0.6,-0.6 -0.9,-1.4 -0.9,-2.5 0,-1.1 0.3,-2 0.8,-2.6 0.6,-0.6 1.3,-0.9 2.3,-0.9 1,0 1.7,0.3 2.2,0.8 0.5,0.5 0.8,1.3 0.8,2.2 v 0.9 h -4.3 c 0,0.5 0.2,0.9 0.5,1.2 0.3,0.3 0.7,0.4 1.2,0.4 0.4,0 0.8,0 1.2,-0.1 0.4,-0.1 0.7,-0.2 1.1,-0.4 v 1.4 c -0.3,0.2 -0.7,0.3 -1,0.4 -0.5,0.1 -0.9,0.1 -1.4,0.1 z m -0.3,-5.6 c -0.4,0 -0.7,0.1 -0.9,0.4 -0.2,0.3 -0.3,0.6 -0.4,1.1 h 2.6 c 0,-0.4 -0.1,-0.8 -0.3,-1.1 -0.2,-0.3 -0.6,-0.4 -1,-0.4 z"
   id="path164" />
	<path
   class="st5"
   d="m 554.1,401.7 c 0,0.7 -0.2,1.2 -0.7,1.6 -0.5,0.4 -1.2,0.5 -2.2,0.5 -0.5,0 -0.9,0 -1.2,-0.1 -0.3,-0.1 -0.7,-0.2 -1,-0.3 v -1.5 c 0.3,0.2 0.7,0.3 1.2,0.4 0.5,0.1 0.8,0.2 1.1,0.2 0.7,0 1,-0.2 1,-0.6 0,-0.1 0,-0.3 -0.1,-0.3 -0.1,0 -0.2,-0.2 -0.5,-0.3 -0.2,-0.1 -0.5,-0.2 -0.9,-0.4 -0.5,-0.2 -0.9,-0.4 -1.1,-0.6 -0.2,-0.2 -0.4,-0.4 -0.5,-0.6 -0.1,-0.2 -0.2,-0.5 -0.2,-0.9 0,-0.6 0.2,-1.1 0.7,-1.4 0.5,-0.3 1.1,-0.5 2,-0.5 0.8,0 1.6,0.2 2.4,0.5 l -0.5,1.3 c -0.3,-0.1 -0.7,-0.3 -0.9,-0.3 -0.2,0 -0.6,-0.1 -0.9,-0.1 -0.5,0 -0.8,0.2 -0.8,0.4 0,0.2 0.1,0.3 0.3,0.4 0.2,0.1 0.6,0.3 1.1,0.5 0.5,0.2 0.9,0.4 1.2,0.6 0.2,0.2 0.4,0.4 0.5,0.6 0.1,0.2 0,0.6 0,0.9 z"
   id="path166" />
	<path
   class="st5"
   d="m 503.1,418.5 h -1.9 v -5.1 -0.8 -0.9 c -0.3,0.3 -0.5,0.5 -0.6,0.6 l -1,0.8 -0.9,-1.1 2.8,-2.2 h 1.5 z"
   id="path168" />
	<path
   class="st5"
   d="m 511.6,414.1 c 0,1.5 -0.2,2.7 -0.8,3.4 -0.6,0.7 -1.3,1.1 -2.3,1.1 -1,0 -1.8,-0.4 -2.3,-1.1 -0.5,-0.7 -0.8,-1.9 -0.8,-3.4 0,-1.6 0.2,-2.7 0.8,-3.4 0.5,-0.7 1.3,-1.1 2.3,-1.1 1,0 1.8,0.4 2.3,1.2 0.6,0.7 0.8,1.8 0.8,3.3 z m -4.3,0 c 0,1.1 0.1,1.8 0.3,2.3 0.2,0.5 0.5,0.7 0.9,0.7 0.4,0 0.7,-0.2 0.9,-0.7 0.2,-0.5 0.3,-1.2 0.3,-2.3 0,-1.1 -0.1,-1.8 -0.3,-2.3 -0.2,-0.5 -0.5,-0.7 -0.9,-0.7 -0.4,0 -0.8,0.2 -0.9,0.7 -0.2,0.4 -0.3,1.2 -0.3,2.3 z"
   id="path170" />
	<path
   class="st5"
   d="m 512.8,417.6 c 0,-0.3 0.1,-0.6 0.3,-0.8 0.2,-0.2 0.4,-0.3 0.8,-0.3 0.3,0 0.6,0.1 0.8,0.3 0.2,0.2 0.3,0.4 0.3,0.8 0,0.3 -0.1,0.6 -0.3,0.8 -0.2,0.2 -0.4,0.3 -0.8,0.3 -0.3,0 -0.6,-0.1 -0.8,-0.3 -0.3,-0.2 -0.3,-0.5 -0.3,-0.8 z"
   id="path172" />
	<path
   class="st5"
   d="m 522.4,416.6 h -1.1 v 1.8 h -1.8 v -1.8 h -3.8 v -1.3 l 3.8,-5.7 h 1.7 v 5.5 h 1.1 v 1.5 z m -2.9,-1.4 v -1.5 c 0,-0.2 0,-0.6 0,-1.1 0,-0.5 0,-0.8 0,-0.8 v 0 c -0.2,0.3 -0.3,0.7 -0.5,1 l -1.6,2.4 z"
   id="path174" />
	<path
   class="st5"
   d="m 523,414.7 c 0,-1.7 0.4,-3 1.1,-3.9 0.7,-0.9 1.8,-1.3 3.3,-1.3 0.5,0 0.9,0 1.2,0.1 v 1.5 c -0.4,-0.1 -0.7,-0.1 -1.1,-0.1 -0.6,0 -1.2,0.1 -1.6,0.3 -0.4,0.2 -0.7,0.5 -0.9,0.8 -0.2,0.3 -0.3,0.9 -0.3,1.6 h 0.1 c 0.4,-0.7 1,-1 1.9,-1 0.8,0 1.4,0.2 1.8,0.7 0.4,0.5 0.7,1.2 0.7,2 0,0.9 -0.3,1.7 -0.8,2.2 -0.5,0.6 -1.3,0.8 -2.2,0.8 -0.7,0 -1.2,-0.2 -1.7,-0.4 -0.5,-0.3 -0.8,-0.7 -1.1,-1.3 -0.2,-0.5 -0.4,-1.1 -0.4,-2 z m 3.2,2.4 c 0.4,0 0.7,-0.1 0.9,-0.4 0.2,-0.3 0.3,-0.7 0.3,-1.1 0,-0.4 -0.1,-0.8 -0.3,-1 -0.2,-0.2 -0.5,-0.4 -0.9,-0.4 -0.4,0 -0.7,0.1 -1,0.4 -0.3,0.3 -0.4,0.5 -0.4,0.8 0,0.5 0.1,0.9 0.4,1.2 0.3,0.3 0.6,0.5 1,0.5 z"
   id="path176" />
	<path
   class="st5"
   d="m 534.2,412.3 c 0,0.9 -0.2,1.6 -0.5,2.1 -0.4,0.5 -0.9,0.7 -1.6,0.7 -0.7,0 -1.2,-0.2 -1.5,-0.7 -0.4,-0.5 -0.5,-1.2 -0.5,-2.1 0,-1.8 0.7,-2.7 2.1,-2.7 0.7,0 1.2,0.2 1.6,0.7 0.2,0.5 0.4,1.1 0.4,2 z m -2.7,0 c 0,0.5 0,0.9 0.1,1.1 0.1,0.2 0.2,0.4 0.4,0.4 0.4,0 0.6,-0.5 0.6,-1.5 0,-1 -0.2,-1.5 -0.6,-1.5 -0.2,0 -0.3,0.1 -0.4,0.4 -0.1,0.2 -0.1,0.6 -0.1,1.1 z m 6.8,-2.6 -4.9,8.8 H 532 l 4.9,-8.8 z m 2,6.1 c 0,0.9 -0.2,1.6 -0.5,2.1 -0.4,0.5 -0.9,0.7 -1.6,0.7 -0.7,0 -1.2,-0.2 -1.5,-0.7 -0.4,-0.5 -0.5,-1.2 -0.5,-2.1 0,-1.8 0.7,-2.7 2.1,-2.7 0.7,0 1.2,0.2 1.6,0.7 0.2,0.5 0.4,1.1 0.4,2 z m -2.7,0 c 0,0.5 0,0.9 0.1,1.1 0.1,0.2 0.2,0.4 0.4,0.4 0.4,0 0.6,-0.5 0.6,-1.5 0,-1 -0.2,-1.5 -0.6,-1.5 -0.2,0 -0.3,0.1 -0.4,0.4 0,0.2 -0.1,0.6 -0.1,1.1 z"
   id="path178" />
</g>
<g
   id="g214"
   transform="translate(-144.4,-128.9)">
	<path
   d="m 211.9,189.8 c -0.7,0 -1.2,0.3 -1.6,0.8 -0.4,0.5 -0.6,1.3 -0.6,2.2 0,2 0.7,2.9 2.2,2.9 0.6,0 1.4,-0.2 2.2,-0.5 v 1.6 c -0.7,0.3 -1.5,0.5 -2.4,0.5 -1.3,0 -2.2,-0.4 -2.9,-1.2 -0.7,-0.8 -1,-1.9 -1,-3.3 0,-0.9 0.2,-1.7 0.5,-2.4 0.3,-0.7 0.8,-1.2 1.4,-1.6 0.6,-0.4 1.4,-0.5 2.2,-0.5 0.9,0 1.7,0.2 2.6,0.6 l -0.6,1.5 c -0.3,-0.2 -0.7,-0.3 -1,-0.4 -0.3,-0.1 -0.6,-0.2 -1,-0.2 z"
   id="path182" />
	<path
   d="m 222,193.8 c 0,1.1 -0.3,2 -0.9,2.6 -0.6,0.6 -1.4,0.9 -2.4,0.9 -0.6,0 -1.2,-0.1 -1.7,-0.4 -0.5,-0.3 -0.9,-0.7 -1.1,-1.2 -0.2,-0.5 -0.4,-1.1 -0.4,-1.8 0,-1.1 0.3,-2 0.9,-2.6 0.6,-0.6 1.4,-0.9 2.4,-0.9 0.6,0 1.2,0.1 1.7,0.4 0.5,0.3 0.9,0.7 1.1,1.2 0.2,0.5 0.4,1.1 0.4,1.8 z m -4.6,0 c 0,0.7 0.1,1.2 0.3,1.5 0.2,0.3 0.6,0.5 1.1,0.5 0.5,0 0.8,-0.2 1.1,-0.5 0.3,-0.3 0.3,-0.8 0.3,-1.5 0,-0.7 -0.1,-1.2 -0.3,-1.5 -0.2,-0.3 -0.6,-0.5 -1.1,-0.5 -0.5,0 -0.8,0.2 -1.1,0.5 -0.2,0.3 -0.3,0.8 -0.3,1.5 z"
   id="path184" />
	<path
   d="m 229.7,197.1 h -1.8 v -3.9 c 0,-0.5 -0.1,-0.8 -0.3,-1.1 -0.2,-0.2 -0.4,-0.4 -0.8,-0.4 -0.5,0 -0.9,0.2 -1.1,0.5 -0.2,0.3 -0.3,0.9 -0.3,1.7 v 3.2 h -1.8 v -6.7 h 1.4 l 0.2,0.9 h 0.1 c 0.2,-0.3 0.5,-0.6 0.8,-0.7 0.4,-0.2 0.8,-0.2 1.2,-0.2 0.8,0 1.4,0.2 1.8,0.6 0.4,0.4 0.6,1 0.6,1.8 z"
   id="path186" />
	<path
   d="m 233.7,197.2 c -0.8,0 -1.4,-0.3 -1.9,-0.9 -0.5,-0.6 -0.7,-1.5 -0.7,-2.5 0,-1.1 0.2,-2 0.7,-2.6 0.5,-0.6 1.1,-0.9 1.9,-0.9 0.8,0 1.5,0.3 1.9,1 h 0.1 c -0.1,-0.5 -0.1,-1 -0.1,-1.3 v -2.2 h 1.8 v 9.3 H 236 l -0.4,-0.9 h -0.1 c -0.3,0.7 -0.9,1 -1.8,1 z m 0.7,-1.4 c 0.5,0 0.8,-0.1 1,-0.4 0.2,-0.3 0.3,-0.7 0.4,-1.4 v -0.2 c 0,-0.7 -0.1,-1.2 -0.3,-1.5 -0.2,-0.3 -0.6,-0.5 -1.1,-0.5 -0.4,0 -0.7,0.2 -0.9,0.5 -0.2,0.3 -0.3,0.8 -0.3,1.5 0,0.7 0.1,1.2 0.3,1.5 0.2,0.3 0.4,0.5 0.9,0.5 z"
   id="path188" />
	<path
   d="m 242.4,197.2 c -1.1,0 -1.9,-0.3 -2.5,-0.9 -0.6,-0.6 -0.9,-1.4 -0.9,-2.5 0,-1.1 0.3,-2 0.8,-2.6 0.6,-0.6 1.3,-0.9 2.3,-0.9 0.9,0 1.7,0.3 2.2,0.8 0.5,0.5 0.8,1.3 0.8,2.2 v 0.9 h -4.3 c 0,0.5 0.2,0.9 0.5,1.2 0.3,0.3 0.7,0.4 1.2,0.4 0.4,0 0.8,0 1.1,-0.1 0.4,-0.1 0.7,-0.2 1.1,-0.4 v 1.4 c -0.3,0.2 -0.7,0.3 -1,0.4 -0.3,0.1 -0.8,0.1 -1.3,0.1 z m -0.2,-5.6 c -0.4,0 -0.7,0.1 -0.9,0.4 -0.2,0.3 -0.4,0.6 -0.4,1 h 2.6 c 0,-0.5 -0.1,-0.8 -0.4,-1 -0.3,-0.2 -0.5,-0.4 -0.9,-0.4 z"
   id="path190" />
	<path
   d="M 252.8,197.1 H 251 v -3.9 c 0,-0.5 -0.1,-0.8 -0.3,-1.1 -0.2,-0.2 -0.4,-0.4 -0.8,-0.4 -0.5,0 -0.9,0.2 -1.1,0.5 -0.2,0.3 -0.3,0.9 -0.3,1.7 v 3.2 h -1.8 v -6.7 h 1.4 l 0.2,0.9 h 0.1 c 0.2,-0.3 0.5,-0.6 0.8,-0.7 0.4,-0.2 0.8,-0.2 1.2,-0.2 0.8,0 1.4,0.2 1.8,0.6 0.4,0.4 0.6,1 0.6,1.8 z"
   id="path192" />
	<path
   d="m 259.4,195.1 c 0,0.7 -0.2,1.2 -0.7,1.6 -0.5,0.4 -1.2,0.5 -2.1,0.5 -0.5,0 -0.9,0 -1.2,-0.1 -0.3,-0.1 -0.7,-0.2 -1,-0.3 v -1.5 c 0.3,0.2 0.7,0.3 1.1,0.4 0.4,0.1 0.8,0.2 1.1,0.2 0.7,0 1,-0.2 1,-0.6 0,-0.1 0,-0.3 -0.1,-0.3 -0.1,-0.1 -0.2,-0.2 -0.5,-0.3 -0.2,-0.1 -0.5,-0.2 -0.9,-0.4 -0.5,-0.2 -0.9,-0.4 -1.1,-0.6 -0.2,-0.2 -0.4,-0.4 -0.5,-0.6 -0.1,-0.2 -0.2,-0.5 -0.2,-0.9 0,-0.6 0.2,-1.1 0.7,-1.4 0.5,-0.3 1.1,-0.5 2,-0.5 0.8,0 1.6,0.2 2.4,0.5 l -0.5,1.3 c -0.3,-0.1 -0.6,-0.3 -0.9,-0.3 -0.3,0 -0.6,-0.1 -0.9,-0.1 -0.5,0 -0.8,0.2 -0.8,0.4 0,0.2 0.1,0.3 0.3,0.4 0.2,0.1 0.6,0.3 1.1,0.5 0.5,0.2 0.9,0.4 1.1,0.6 0.2,0.2 0.4,0.4 0.5,0.6 0.1,0.3 0.1,0.6 0.1,0.9 z"
   id="path194" />
	<path
   d="m 265.1,197.1 -0.4,-0.9 v 0 c -0.3,0.4 -0.6,0.7 -1,0.8 -0.3,0.2 -0.8,0.2 -1.3,0.2 -0.6,0 -1.1,-0.2 -1.5,-0.5 -0.4,-0.3 -0.6,-0.9 -0.6,-1.6 0,-0.7 0.2,-1.2 0.8,-1.6 0.6,-0.4 1.2,-0.5 2.2,-0.6 h 1.2 v -0.3 c 0,-0.7 -0.4,-1 -1,-1 -0.5,0 -1.2,0.2 -1.9,0.5 l -0.6,-1.2 c 0.8,-0.4 1.6,-0.6 2.6,-0.6 0.9,0 1.6,0.2 2.1,0.6 0.5,0.4 0.7,1 0.7,1.8 v 4.5 z m -0.5,-3.1 h -0.7 c -0.5,0 -0.9,0.1 -1.2,0.3 -0.3,0.2 -0.4,0.4 -0.4,0.8 0,0.5 0.3,0.8 0.9,0.8 0.4,0 0.8,-0.1 1,-0.4 0.2,-0.2 0.4,-0.6 0.4,-1 z"
   id="path196" />
	<path
   d="m 270.4,197.2 c -0.8,0 -1.4,-0.3 -1.9,-0.9 -0.5,-0.6 -0.7,-1.5 -0.7,-2.5 0,-1.1 0.2,-2 0.7,-2.6 0.5,-0.6 1.1,-0.9 1.9,-0.9 0.8,0 1.5,0.3 1.9,1 h 0.1 c -0.1,-0.5 -0.1,-1 -0.1,-1.3 v -2.2 h 1.8 v 9.3 h -1.4 l -0.4,-0.9 h -0.1 c -0.3,0.7 -1,1 -1.8,1 z m 0.6,-1.4 c 0.5,0 0.8,-0.1 1,-0.4 0.2,-0.3 0.3,-0.7 0.4,-1.4 v -0.2 c 0,-0.7 -0.1,-1.2 -0.3,-1.5 -0.2,-0.3 -0.6,-0.5 -1.1,-0.5 -0.4,0 -0.7,0.2 -1,0.5 -0.2,0.3 -0.3,0.8 -0.3,1.5 0,0.7 0.1,1.2 0.3,1.5 0.2,0.3 0.6,0.5 1,0.5 z"
   id="path198" />
	<path
   d="m 282.1,193.8 c 0,1.1 -0.3,2 -0.9,2.6 -0.6,0.6 -1.4,0.9 -2.4,0.9 -0.6,0 -1.2,-0.1 -1.7,-0.4 -0.5,-0.3 -0.9,-0.7 -1.1,-1.2 -0.2,-0.5 -0.4,-1.1 -0.4,-1.8 0,-1.1 0.3,-2 0.9,-2.6 0.6,-0.6 1.4,-0.9 2.4,-0.9 0.6,0 1.2,0.1 1.7,0.4 0.5,0.3 0.9,0.7 1.1,1.2 0.2,0.5 0.4,1.1 0.4,1.8 z m -4.6,0 c 0,0.7 0.1,1.2 0.3,1.5 0.2,0.3 0.6,0.5 1.1,0.5 0.5,0 0.8,-0.2 1,-0.5 0.2,-0.3 0.3,-0.8 0.3,-1.5 0,-0.7 -0.1,-1.2 -0.3,-1.5 -0.2,-0.3 -0.6,-0.5 -1.1,-0.5 -0.5,0 -0.8,0.2 -1.1,0.5 -0.1,0.3 -0.2,0.8 -0.2,1.5 z"
   id="path200" />
	<path
   d="m 288.3,195.1 c 0,0.7 -0.2,1.2 -0.7,1.6 -0.5,0.4 -1.2,0.5 -2.1,0.5 -0.5,0 -0.9,0 -1.2,-0.1 -0.3,-0.1 -0.7,-0.2 -1,-0.3 v -1.5 c 0.3,0.2 0.7,0.3 1.1,0.4 0.4,0.1 0.8,0.2 1.1,0.2 0.7,0 1,-0.2 1,-0.6 0,-0.1 0,-0.3 -0.1,-0.3 -0.1,-0.1 -0.2,-0.2 -0.5,-0.3 -0.2,-0.1 -0.5,-0.2 -0.9,-0.4 -0.5,-0.2 -0.9,-0.4 -1.1,-0.6 -0.2,-0.2 -0.4,-0.4 -0.5,-0.6 -0.1,-0.2 -0.2,-0.5 -0.2,-0.9 0,-0.6 0.2,-1.1 0.7,-1.4 0.5,-0.3 1.1,-0.5 2,-0.5 0.8,0 1.6,0.2 2.4,0.5 l -0.5,1.3 c -0.3,-0.1 -0.6,-0.3 -0.9,-0.3 -0.3,0 -0.6,-0.1 -0.9,-0.1 -0.5,0 -0.8,0.2 -0.8,0.4 0,0.2 0.1,0.3 0.3,0.4 0.2,0.1 0.6,0.3 1.1,0.5 0.5,0.2 0.9,0.4 1.1,0.6 0.2,0.2 0.4,0.4 0.5,0.6 0.1,0.3 0.1,0.6 0.1,0.9 z"
   id="path202" />
	<path
   d="m 236.7,207.5 c 0,1.5 -0.2,2.7 -0.8,3.4 -0.6,0.7 -1.3,1.1 -2.3,1.1 -1,0 -1.8,-0.4 -2.3,-1.1 -0.5,-0.7 -0.8,-1.9 -0.8,-3.4 0,-1.5 0.2,-2.7 0.8,-3.4 0.6,-0.7 1.3,-1.1 2.3,-1.1 1,0 1.8,0.4 2.3,1.2 0.6,0.7 0.8,1.8 0.8,3.3 z m -4.3,0 c 0,1.1 0.1,1.8 0.3,2.3 0.2,0.5 0.5,0.7 0.9,0.7 0.4,0 0.7,-0.2 0.9,-0.7 0.2,-0.5 0.3,-1.2 0.3,-2.3 0,-1.1 -0.1,-1.8 -0.3,-2.3 -0.2,-0.5 -0.5,-0.7 -0.9,-0.7 -0.4,0 -0.8,0.2 -0.9,0.7 -0.2,0.4 -0.3,1.2 -0.3,2.3 z"
   id="path204" />
	<path
   d="m 237.9,211 c 0,-0.3 0.1,-0.6 0.3,-0.8 0.2,-0.2 0.4,-0.3 0.8,-0.3 0.3,0 0.6,0.1 0.8,0.3 0.2,0.2 0.3,0.4 0.3,0.8 0,0.3 -0.1,0.6 -0.3,0.8 -0.2,0.2 -0.4,0.3 -0.8,0.3 -0.3,0 -0.6,-0.1 -0.8,-0.3 -0.2,-0.2 -0.3,-0.5 -0.3,-0.8 z"
   id="path206" />
	<path
   d="m 247.3,206.8 c 0,1.7 -0.4,3 -1.1,3.9 -0.7,0.9 -1.8,1.3 -3.3,1.3 -0.5,0 -0.9,0 -1.2,-0.1 v -1.5 c 0.3,0.1 0.7,0.1 1.1,0.1 0.6,0 1.1,-0.1 1.5,-0.3 0.4,-0.2 0.7,-0.5 0.9,-0.9 0.2,-0.4 0.3,-0.9 0.4,-1.6 h -0.1 c -0.2,0.4 -0.5,0.6 -0.8,0.8 -0.3,0.2 -0.7,0.2 -1.1,0.2 -0.8,0 -1.4,-0.2 -1.8,-0.7 -0.4,-0.5 -0.7,-1.2 -0.7,-2 0,-0.9 0.3,-1.7 0.8,-2.2 0.5,-0.5 1.3,-0.8 2.2,-0.8 0.6,0 1.2,0.2 1.7,0.5 0.5,0.3 0.9,0.8 1.1,1.3 0.2,0.6 0.4,1.2 0.4,2 z m -3.2,-2.3 c -0.4,0 -0.7,0.1 -0.9,0.4 -0.2,0.3 -0.3,0.6 -0.3,1.1 0,0.4 0.1,0.8 0.3,1 0.2,0.2 0.5,0.4 0.9,0.4 0.4,0 0.7,-0.1 1,-0.4 0.3,-0.3 0.4,-0.5 0.4,-0.8 0,-0.5 -0.1,-0.9 -0.4,-1.2 -0.3,-0.3 -0.6,-0.5 -1,-0.5 z"
   id="path208" />
	<path
   d="m 248.1,208.2 c 0,-1.7 0.4,-3 1.1,-3.9 0.7,-0.8 1.8,-1.3 3.3,-1.3 0.5,0 0.9,0 1.2,0.1 v 1.5 c -0.4,-0.1 -0.7,-0.1 -1.1,-0.1 -0.6,0 -1.2,0.1 -1.6,0.3 -0.4,0.2 -0.7,0.5 -0.9,0.8 -0.2,0.3 -0.3,0.9 -0.4,1.6 h 0.1 c 0.4,-0.7 1,-1 1.9,-1 0.8,0 1.4,0.2 1.8,0.7 0.4,0.5 0.7,1.2 0.7,2 0,0.9 -0.3,1.7 -0.8,2.2 -0.5,0.5 -1.3,0.8 -2.2,0.8 -0.6,0 -1.2,-0.2 -1.7,-0.5 -0.5,-0.3 -0.9,-0.7 -1.1,-1.3 -0.2,-0.4 -0.3,-1.1 -0.3,-1.9 z m 3.2,2.3 c 0.4,0 0.7,-0.1 0.9,-0.4 0.2,-0.3 0.3,-0.7 0.3,-1.1 0,-0.4 -0.1,-0.8 -0.3,-1 -0.2,-0.2 -0.5,-0.4 -0.9,-0.4 -0.4,0 -0.7,0.1 -1,0.4 -0.3,0.3 -0.4,0.5 -0.4,0.8 0,0.5 0.1,0.9 0.4,1.2 0.3,0.4 0.6,0.5 1,0.5 z"
   id="path210" />
	<path
   d="m 259.2,205.7 c 0,0.9 -0.2,1.6 -0.5,2.1 -0.4,0.5 -0.9,0.7 -1.6,0.7 -0.7,0 -1.2,-0.2 -1.5,-0.7 -0.4,-0.5 -0.5,-1.2 -0.5,-2.1 0,-1.8 0.7,-2.7 2.1,-2.7 0.7,0 1.2,0.2 1.6,0.7 0.3,0.5 0.4,1.1 0.4,2 z m -2.6,0 c 0,0.5 0,0.9 0.1,1.1 0.1,0.2 0.2,0.4 0.4,0.4 0.4,0 0.6,-0.5 0.6,-1.5 0,-1 -0.2,-1.5 -0.6,-1.5 -0.2,0 -0.4,0.1 -0.4,0.4 -0.1,0.2 -0.1,0.6 -0.1,1.1 z m 6.8,-2.6 -4.9,8.8 h -1.4 l 4.9,-8.8 z m 2,6.1 c 0,0.9 -0.2,1.6 -0.5,2.1 -0.4,0.5 -0.9,0.7 -1.6,0.7 -0.7,0 -1.2,-0.2 -1.5,-0.7 -0.4,-0.5 -0.5,-1.2 -0.5,-2 0,-1.8 0.7,-2.7 2.1,-2.7 0.7,0 1.2,0.2 1.6,0.7 0.2,0.4 0.4,1 0.4,1.9 z m -2.7,0 c 0,0.5 0,0.9 0.1,1.1 0.1,0.2 0.2,0.4 0.4,0.4 0.4,0 0.6,-0.5 0.6,-1.5 0,-1 -0.2,-1.5 -0.6,-1.5 -0.2,0 -0.4,0.1 -0.4,0.4 0,0.3 -0.1,0.6 -0.1,1.1 z"
   id="path212" />
</g>
<g
   id="g240"
   transform="translate(-144.4,-128.9)">
	<path
   d="m 304.7,180.3 h -2.4 l -3.8,-6.6 v 0 c 0.1,1.2 0.1,2 0.1,2.5 v 4.1 h -1.7 v -8.8 h 2.4 l 3.8,6.6 v 0 c -0.1,-1.1 -0.1,-2 -0.1,-2.4 v -4.2 h 1.7 z"
   id="path216" />
	<path
   d="m 311.6,180.3 -0.2,-0.9 h -0.1 c -0.2,0.3 -0.5,0.5 -0.8,0.7 -0.3,0.2 -0.8,0.2 -1.2,0.2 -0.8,0 -1.4,-0.2 -1.8,-0.6 -0.4,-0.4 -0.6,-1 -0.6,-1.8 v -4.4 h 1.8 v 3.9 c 0,0.5 0.1,0.8 0.3,1.1 0.2,0.2 0.5,0.4 0.8,0.4 0.5,0 0.9,-0.2 1.1,-0.5 0.2,-0.3 0.3,-0.9 0.3,-1.7 v -3.2 h 1.8 v 6.7 z"
   id="path218" />
	<path
   d="m 317.6,180.4 c -2.1,0 -3.1,-1.2 -3.1,-3.4 0,-1.1 0.3,-2 0.9,-2.6 0.6,-0.6 1.4,-0.9 2.4,-0.9 0.8,0 1.5,0.2 2.1,0.5 l -0.5,1.4 c -0.3,-0.1 -0.6,-0.2 -0.8,-0.3 -0.2,-0.1 -0.5,-0.1 -0.7,-0.1 -1,0 -1.4,0.7 -1.4,2 0,1.3 0.5,2 1.4,2 0.4,0 0.7,0 1,-0.1 0.3,-0.1 0.6,-0.2 0.9,-0.4 v 1.6 c -0.3,0.2 -0.6,0.3 -0.9,0.4 -0.4,-0.1 -0.8,-0.1 -1.3,-0.1 z"
   id="path220" />
	<path
   d="m 323,180.3 h -1.8 V 171 h 1.8 z"
   id="path222" />
	<path
   d="m 328,180.4 c -1.1,0 -1.9,-0.3 -2.5,-0.9 -0.6,-0.6 -0.9,-1.4 -0.9,-2.5 0,-1.1 0.3,-2 0.8,-2.6 0.6,-0.6 1.3,-0.9 2.3,-0.9 1,0 1.7,0.3 2.2,0.8 0.5,0.5 0.8,1.3 0.8,2.2 v 0.9 h -4.3 c 0,0.5 0.2,0.9 0.5,1.2 0.3,0.3 0.7,0.4 1.2,0.4 0.4,0 0.8,0 1.1,-0.1 0.4,-0.1 0.7,-0.2 1.1,-0.4 v 1.4 c -0.3,0.2 -0.7,0.3 -1,0.4 -0.3,0.1 -0.8,0.1 -1.3,0.1 z m -0.3,-5.6 c -0.4,0 -0.7,0.1 -0.9,0.4 -0.2,0.3 -0.4,0.6 -0.4,1 h 2.6 c 0,-0.5 -0.1,-0.8 -0.4,-1 -0.3,-0.2 -0.5,-0.4 -0.9,-0.4 z"
   id="path224" />
	<path
   d="m 336.5,180.3 -0.4,-0.9 v 0 c -0.3,0.4 -0.6,0.7 -1,0.8 -0.3,0.2 -0.8,0.2 -1.3,0.2 -0.6,0 -1.1,-0.2 -1.5,-0.5 -0.4,-0.3 -0.6,-0.9 -0.6,-1.6 0,-0.7 0.2,-1.2 0.8,-1.6 0.6,-0.4 1.2,-0.5 2.2,-0.6 h 1.2 v -0.3 c 0,-0.7 -0.4,-1 -1,-1 -0.5,0 -1.2,0.2 -1.9,0.5 l -0.6,-1.2 c 0.8,-0.4 1.6,-0.6 2.6,-0.6 0.9,0 1.6,0.2 2.1,0.6 0.5,0.4 0.7,1 0.7,1.8 v 4.5 z m -0.5,-3.1 h -0.7 c -0.5,0 -0.9,0.1 -1.2,0.3 -0.3,0.2 -0.4,0.4 -0.4,0.8 0,0.5 0.3,0.8 0.9,0.8 0.4,0 0.8,-0.1 1,-0.4 0.2,-0.2 0.4,-0.6 0.4,-1 z"
   id="path226" />
	<path
   d="m 343.4,173.5 c 0.2,0 0.5,0 0.6,0 l -0.1,1.7 c -0.1,0 -0.3,-0.1 -0.5,-0.1 -0.6,0 -1,0.2 -1.4,0.5 -0.4,0.3 -0.5,0.7 -0.5,1.3 v 3.4 h -1.8 v -6.7 h 1.4 l 0.3,1.1 h 0.1 c 0.2,-0.4 0.5,-0.7 0.8,-0.9 0.3,-0.2 0.7,-0.3 1.1,-0.3 z"
   id="path228" />
	<path
   d="m 307.3,195.1 h -1.9 v -5.1 -0.8 -0.9 c -0.3,0.3 -0.5,0.5 -0.6,0.6 l -1,0.8 -0.9,-1.1 2.8,-2.2 h 1.5 z"
   id="path230" />
	<path
   d="m 310,194.2 c 0,-0.3 0.1,-0.6 0.3,-0.8 0.2,-0.2 0.4,-0.3 0.8,-0.3 0.3,0 0.6,0.1 0.8,0.3 0.2,0.2 0.3,0.4 0.3,0.8 0,0.3 -0.1,0.6 -0.3,0.8 -0.2,0.2 -0.4,0.3 -0.8,0.3 -0.3,0 -0.6,-0.1 -0.8,-0.3 -0.3,-0.2 -0.3,-0.5 -0.3,-0.8 z"
   id="path232" />
	<path
   d="m 319.4,190 c 0,1.7 -0.4,3 -1.1,3.9 -0.7,0.9 -1.8,1.3 -3.3,1.3 -0.5,0 -0.9,0 -1.2,-0.1 v -1.5 c 0.3,0.1 0.7,0.1 1.1,0.1 0.6,0 1.1,-0.1 1.5,-0.3 0.4,-0.2 0.7,-0.5 0.9,-0.9 0.2,-0.4 0.3,-0.9 0.4,-1.6 h -0.1 c -0.2,0.4 -0.5,0.6 -0.8,0.8 -0.3,0.2 -0.7,0.2 -1.1,0.2 -0.8,0 -1.4,-0.2 -1.8,-0.7 -0.4,-0.5 -0.7,-1.2 -0.7,-2 0,-0.9 0.3,-1.7 0.8,-2.2 0.5,-0.5 1.3,-0.8 2.2,-0.8 0.6,0 1.2,0.2 1.7,0.5 0.5,0.3 0.9,0.8 1.1,1.3 0.2,0.5 0.4,1.2 0.4,2 z m -3.2,-2.3 c -0.4,0 -0.7,0.1 -0.9,0.4 -0.2,0.3 -0.3,0.6 -0.3,1.1 0,0.4 0.1,0.8 0.3,1 0.2,0.2 0.5,0.4 0.9,0.4 0.4,0 0.7,-0.1 1,-0.4 0.3,-0.3 0.4,-0.5 0.4,-0.8 0,-0.5 -0.1,-0.9 -0.4,-1.2 -0.3,-0.4 -0.6,-0.5 -1,-0.5 z"
   id="path234" />
	<path
   d="m 321.1,195.1 3.3,-7.2 h -4.3 v -1.6 h 6.3 v 1.2 l -3.3,7.6 z"
   id="path236" />
	<path
   d="m 331.4,188.9 c 0,0.9 -0.2,1.6 -0.5,2.1 -0.4,0.5 -0.9,0.7 -1.6,0.7 -0.7,0 -1.2,-0.2 -1.5,-0.7 -0.4,-0.5 -0.5,-1.2 -0.5,-2.1 0,-1.8 0.7,-2.7 2.1,-2.7 0.7,0 1.2,0.2 1.6,0.7 0.2,0.4 0.4,1.1 0.4,2 z m -2.7,0 c 0,0.5 0,0.9 0.1,1.1 0.1,0.2 0.2,0.4 0.4,0.4 0.4,0 0.6,-0.5 0.6,-1.5 0,-1 -0.2,-1.5 -0.6,-1.5 -0.2,0 -0.4,0.1 -0.4,0.4 -0.1,0.2 -0.1,0.6 -0.1,1.1 z m 6.8,-2.6 -4.9,8.8 h -1.4 l 4.9,-8.8 z m 2,6.1 c 0,0.9 -0.2,1.6 -0.5,2.1 -0.4,0.5 -0.9,0.7 -1.6,0.7 -0.7,0 -1.2,-0.2 -1.5,-0.7 -0.4,-0.5 -0.5,-1.2 -0.5,-2 0,-1.8 0.7,-2.7 2.1,-2.7 0.7,0 1.2,0.2 1.6,0.7 0.2,0.3 0.4,1 0.4,1.9 z m -2.7,0 c 0,0.5 0,0.9 0.1,1.1 0.1,0.2 0.2,0.4 0.4,0.4 0.4,0 0.6,-0.5 0.6,-1.5 0,-1 -0.2,-1.5 -0.6,-1.5 -0.2,0 -0.4,0.1 -0.4,0.4 0,0.2 -0.1,0.6 -0.1,1.1 z"
   id="path238" />
</g>
<g
   id="g274"
   transform="translate(-144.4,-128.9)">
	<path
   d="m 462.7,201 h 3.5 v 4.5 c -0.6,0.2 -1.1,0.3 -1.6,0.4 -0.5,0.1 -1,0.1 -1.5,0.1 -1.3,0 -2.3,-0.4 -3,-1.2 -0.7,-0.8 -1,-1.9 -1,-3.3 0,-1.4 0.4,-2.5 1.2,-3.3 0.8,-0.8 1.9,-1.2 3.4,-1.2 0.9,0 1.8,0.2 2.6,0.5 l -0.6,1.5 c -0.6,-0.3 -1.3,-0.5 -2,-0.5 -0.8,0 -1.5,0.3 -1.9,0.8 -0.5,0.5 -0.7,1.3 -0.7,2.2 0,1 0.2,1.7 0.6,2.2 0.4,0.5 1,0.8 1.7,0.8 0.4,0 0.8,0 1.2,-0.1 v -1.8 h -1.7 z"
   id="path242" />
	<path
   d="M 472.4,205.9 472,205 v 0 c -0.3,0.4 -0.6,0.7 -1,0.8 -0.3,0.2 -0.8,0.2 -1.3,0.2 -0.6,0 -1.1,-0.2 -1.5,-0.5 -0.4,-0.3 -0.6,-0.9 -0.6,-1.6 0,-0.7 0.2,-1.2 0.8,-1.6 0.6,-0.4 1.2,-0.5 2.2,-0.6 h 1.2 v -0.3 c 0,-0.7 -0.4,-1 -1,-1 -0.5,0 -1.2,0.2 -1.9,0.5 l -0.6,-1.2 c 0.8,-0.4 1.6,-0.6 2.6,-0.6 0.9,0 1.6,0.2 2.1,0.6 0.5,0.4 0.7,1 0.7,1.8 v 4.5 z m -0.6,-3.1 h -0.7 c -0.5,0 -0.9,0.1 -1.2,0.3 -0.3,0.2 -0.4,0.4 -0.4,0.8 0,0.5 0.3,0.8 0.9,0.8 0.4,0 0.8,-0.1 1,-0.4 0.2,-0.2 0.4,-0.6 0.4,-1 z"
   id="path244" />
	<path
   d="m 480.2,203.9 c 0,0.7 -0.2,1.2 -0.7,1.6 -0.5,0.4 -1.2,0.5 -2.1,0.5 -0.5,0 -0.9,0 -1.2,-0.1 -0.3,-0.1 -0.7,-0.2 -1,-0.3 v -1.5 c 0.3,0.2 0.7,0.3 1.1,0.4 0.4,0.1 0.8,0.2 1.1,0.2 0.7,0 1,-0.2 1,-0.6 0,-0.1 0,-0.3 -0.1,-0.3 -0.1,-0.1 -0.2,-0.2 -0.5,-0.3 -0.2,-0.1 -0.5,-0.2 -0.9,-0.4 -0.5,-0.2 -0.9,-0.4 -1.1,-0.6 -0.2,-0.2 -0.4,-0.4 -0.5,-0.6 -0.1,-0.2 -0.2,-0.5 -0.2,-0.9 0,-0.6 0.2,-1.1 0.7,-1.4 0.5,-0.3 1.1,-0.5 2,-0.5 0.8,0 1.6,0.2 2.4,0.5 l -0.5,1.3 c -0.3,-0.1 -0.6,-0.3 -0.9,-0.3 -0.3,0 -0.6,-0.1 -0.9,-0.1 -0.5,0 -0.8,0.2 -0.8,0.4 0,0.2 0.1,0.3 0.3,0.4 0.2,0.1 0.6,0.3 1.1,0.5 0.5,0.2 0.9,0.4 1.1,0.6 0.2,0.2 0.4,0.4 0.5,0.6 0,0.3 0.1,0.6 0.1,0.9 z"
   id="path246" />
	<path
   d="m 491,205.9 h -1.8 V 202 c 0,-0.5 -0.1,-0.8 -0.3,-1.1 -0.2,-0.2 -0.5,-0.4 -0.8,-0.4 -0.5,0 -0.9,0.2 -1.1,0.5 -0.2,0.3 -0.3,0.9 -0.3,1.7 v 3.2 h -1.8 v -6.7 h 1.4 l 0.2,0.9 h 0.1 c 0.2,-0.3 0.5,-0.6 0.8,-0.7 0.4,-0.2 0.8,-0.2 1.2,-0.2 0.8,0 1.4,0.2 1.8,0.6 0.4,0.4 0.6,1 0.6,1.8 z"
   id="path248" />
	<path
   d="m 497.2,205.9 -0.4,-0.9 v 0 c -0.3,0.4 -0.6,0.7 -1,0.8 -0.3,0.2 -0.8,0.2 -1.3,0.2 -0.6,0 -1.1,-0.2 -1.5,-0.5 -0.4,-0.3 -0.6,-0.9 -0.6,-1.6 0,-0.7 0.2,-1.2 0.8,-1.6 0.6,-0.4 1.2,-0.5 2.2,-0.6 h 1.2 v -0.3 c 0,-0.7 -0.4,-1 -1,-1 -0.5,0 -1.2,0.2 -1.9,0.5 l -0.6,-1.2 c 0.8,-0.4 1.6,-0.6 2.6,-0.6 0.9,0 1.6,0.2 2.1,0.6 0.5,0.4 0.7,1 0.7,1.8 v 4.5 z m -0.6,-3.1 h -0.7 c -0.5,0 -0.9,0.1 -1.2,0.3 -0.3,0.2 -0.4,0.4 -0.4,0.8 0,0.5 0.3,0.8 0.9,0.8 0.4,0 0.8,-0.1 1,-0.4 0.2,-0.2 0.4,-0.6 0.4,-1 z"
   id="path250" />
	<path
   d="m 503.2,204.6 c 0.3,0 0.7,-0.1 1.1,-0.2 v 1.4 c -0.5,0.2 -1,0.3 -1.7,0.3 -0.7,0 -1.3,-0.2 -1.6,-0.6 -0.3,-0.4 -0.5,-0.9 -0.5,-1.7 v -3.2 h -0.9 v -0.8 l 1,-0.6 0.5,-1.4 h 1.2 v 1.4 h 1.9 v 1.4 h -1.9 v 3.2 c 0,0.3 0.1,0.5 0.2,0.6 0.2,0.1 0.4,0.2 0.7,0.2 z"
   id="path252" />
	<path
   d="m 510.4,205.9 -0.2,-0.9 h -0.1 c -0.2,0.3 -0.5,0.5 -0.8,0.7 -0.3,0.2 -0.8,0.2 -1.2,0.2 -0.8,0 -1.4,-0.2 -1.8,-0.6 -0.4,-0.4 -0.6,-1 -0.6,-1.8 v -4.4 h 1.8 v 3.9 c 0,0.5 0.1,0.8 0.3,1.1 0.2,0.2 0.5,0.4 0.8,0.4 0.5,0 0.9,-0.2 1.1,-0.5 0.2,-0.3 0.3,-0.9 0.3,-1.7 v -3.2 h 1.8 v 6.7 z"
   id="path254" />
	<path
   d="m 517.5,199.1 c 0.2,0 0.5,0 0.6,0 l -0.1,1.7 c -0.2,0 -0.3,-0.1 -0.5,-0.1 -0.6,0 -1,0.2 -1.4,0.5 -0.4,0.3 -0.5,0.7 -0.5,1.3 v 3.4 h -1.8 v -6.7 h 1.4 l 0.3,1.1 h 0.1 c 0.2,-0.4 0.5,-0.7 0.8,-0.9 0.3,-0.2 0.7,-0.3 1.1,-0.3 z"
   id="path256" />
	<path
   d="m 523.6,205.9 -0.3,-0.9 v 0 c -0.3,0.4 -0.6,0.7 -1,0.8 -0.3,0.2 -0.8,0.2 -1.3,0.2 -0.6,0 -1.2,-0.2 -1.5,-0.5 -0.3,-0.3 -0.6,-0.9 -0.6,-1.6 0,-0.7 0.2,-1.2 0.8,-1.6 0.6,-0.4 1.2,-0.5 2.2,-0.6 h 1.2 v -0.3 c 0,-0.7 -0.3,-1 -1,-1 -0.5,0 -1.2,0.2 -1.9,0.5 l -0.6,-1.2 c 0.8,-0.4 1.6,-0.6 2.6,-0.6 0.9,0 1.6,0.2 2.1,0.6 0.5,0.4 0.7,1 0.7,1.8 v 4.5 z m -0.5,-3.1 h -0.7 c -0.5,0 -0.9,0.1 -1.2,0.3 -0.3,0.2 -0.4,0.4 -0.4,0.8 0,0.5 0.3,0.8 0.9,0.8 0.4,0 0.8,-0.1 1,-0.4 0.2,-0.2 0.4,-0.6 0.4,-1 z"
   id="path258" />
	<path
   d="m 528.6,205.9 h -1.8 v -9.3 h 1.8 z"
   id="path260" />
	<path
   d="m 479.2,220.7 h -6.1 v -1.3 l 2.2,-2.2 c 0.6,-0.7 1.1,-1.1 1.3,-1.4 0.2,-0.3 0.3,-0.5 0.4,-0.7 0.1,-0.2 0.1,-0.5 0.1,-0.7 0,-0.3 -0.1,-0.6 -0.3,-0.8 -0.2,-0.2 -0.5,-0.3 -0.8,-0.3 -0.3,0 -0.7,0.1 -1,0.2 -0.3,0.2 -0.6,0.4 -1,0.7 l -1,-1.2 c 0.4,-0.4 0.8,-0.6 1.1,-0.8 0.3,-0.2 0.6,-0.3 0.9,-0.3 0.3,-0.1 0.7,-0.1 1.1,-0.1 0.5,0 1,0.1 1.5,0.3 0.5,0.2 0.8,0.5 1,0.8 0.2,0.4 0.4,0.8 0.4,1.2 0,0.4 -0.1,0.8 -0.2,1.1 -0.1,0.3 -0.4,0.7 -0.7,1.1 -0.3,0.4 -0.8,0.9 -1.6,1.6 l -1.1,1.1 v 0.1 h 3.8 z"
   id="path262" />
	<path
   d="m 485.9,213.9 c 0,0.5 -0.2,1 -0.5,1.4 -0.3,0.4 -0.8,0.7 -1.4,0.8 v 0 c 0.7,0.1 1.2,0.3 1.6,0.7 0.4,0.3 0.5,0.8 0.5,1.4 0,0.8 -0.3,1.5 -0.9,2 -0.6,0.5 -1.5,0.7 -2.6,0.7 -1,0 -1.8,-0.2 -2.5,-0.5 v -1.6 c 0.3,0.2 0.7,0.3 1.1,0.4 0.4,0.1 0.8,0.2 1.2,0.2 0.6,0 1.1,-0.1 1.4,-0.3 0.3,-0.2 0.4,-0.5 0.4,-1 0,-0.4 -0.2,-0.7 -0.5,-0.9 -0.3,-0.2 -0.9,-0.3 -1.6,-0.3 h -0.7 v -1.4 h 0.7 c 0.7,0 1.2,-0.1 1.5,-0.3 0.3,-0.2 0.5,-0.5 0.5,-0.9 0,-0.7 -0.4,-1 -1.2,-1 -0.3,0 -0.6,0 -0.9,0.1 -0.3,0.1 -0.6,0.3 -1,0.5 l -0.9,-1.3 c 0.8,-0.6 1.8,-0.9 2.9,-0.9 0.9,0 1.6,0.2 2.1,0.5 0.5,0.5 0.8,1 0.8,1.7 z"
   id="path264" />
	<path
   d="m 487.3,219.8 c 0,-0.3 0.1,-0.6 0.3,-0.8 0.2,-0.2 0.4,-0.3 0.8,-0.3 0.3,0 0.6,0.1 0.8,0.3 0.2,0.2 0.3,0.4 0.3,0.8 0,0.3 -0.1,0.6 -0.3,0.8 -0.2,0.2 -0.4,0.3 -0.8,0.3 -0.3,0 -0.6,-0.1 -0.8,-0.3 -0.2,-0.2 -0.3,-0.4 -0.3,-0.8 z"
   id="path266" />
	<path
   d="m 495.2,220.7 h -1.9 v -5.1 -0.8 -0.9 c -0.3,0.3 -0.5,0.5 -0.6,0.6 l -1,0.8 -0.9,-1.1 2.8,-2.2 h 1.5 z"
   id="path268" />
	<path
   d="m 500.8,215.1 c 0.9,0 1.5,0.2 2,0.7 0.5,0.5 0.8,1.1 0.8,2 0,1 -0.3,1.7 -0.9,2.3 -0.6,0.5 -1.5,0.8 -2.6,0.8 -1,0 -1.8,-0.2 -2.4,-0.5 v -1.6 c 0.3,0.2 0.7,0.3 1.1,0.4 0.4,0.1 0.8,0.2 1.2,0.2 1.1,0 1.7,-0.5 1.7,-1.4 0,-0.9 -0.6,-1.3 -1.8,-1.3 -0.2,0 -0.5,0 -0.7,0.1 -0.3,0 -0.5,0.1 -0.6,0.1 l -0.7,-0.4 0.3,-4.5 h 4.8 v 1.6 h -3.1 l -0.2,1.7 h 0.2 c 0.2,-0.2 0.6,-0.2 0.9,-0.2 z"
   id="path270" />
	<path
   d="m 508.7,214.5 c 0,0.9 -0.2,1.6 -0.5,2.1 -0.4,0.5 -0.9,0.7 -1.6,0.7 -0.7,0 -1.2,-0.2 -1.5,-0.7 -0.4,-0.5 -0.5,-1.2 -0.5,-2.1 0,-1.8 0.7,-2.7 2.1,-2.7 0.7,0 1.2,0.2 1.6,0.7 0.2,0.5 0.4,1.2 0.4,2 z m -2.7,0 c 0,0.5 0,0.9 0.1,1.1 0.1,0.2 0.2,0.4 0.4,0.4 0.4,0 0.6,-0.5 0.6,-1.5 0,-1 -0.2,-1.5 -0.6,-1.5 -0.2,0 -0.4,0.1 -0.4,0.4 0,0.3 -0.1,0.6 -0.1,1.1 z m 6.8,-2.6 -4.9,8.8 h -1.4 l 4.9,-8.8 z m 2,6.1 c 0,0.9 -0.2,1.6 -0.5,2.1 -0.4,0.5 -0.9,0.7 -1.6,0.7 -0.7,0 -1.2,-0.2 -1.5,-0.7 -0.4,-0.5 -0.5,-1.2 -0.5,-2 0,-1.8 0.7,-2.7 2.1,-2.7 0.7,0 1.2,0.2 1.6,0.7 0.3,0.4 0.4,1.1 0.4,1.9 z m -2.6,0.1 c 0,0.5 0,0.9 0.1,1.1 0.1,0.2 0.2,0.4 0.4,0.4 0.4,0 0.6,-0.5 0.6,-1.5 0,-1 -0.2,-1.5 -0.6,-1.5 -0.2,0 -0.3,0.1 -0.4,0.4 -0.1,0.2 -0.1,0.5 -0.1,1.1 z"
   id="path272" />
</g>
<g
   id="g298"
   transform="translate(-144.4,-128.9)">
	<path
   d="m 539.9,495 c -0.7,0 -1.2,0.3 -1.6,0.8 -0.4,0.5 -0.6,1.3 -0.6,2.2 0,2 0.7,2.9 2.2,2.9 0.6,0 1.4,-0.2 2.2,-0.5 v 1.6 c -0.7,0.3 -1.5,0.4 -2.4,0.4 -1.3,0 -2.2,-0.4 -2.9,-1.2 -0.7,-0.8 -1,-1.9 -1,-3.3 0,-0.9 0.2,-1.7 0.5,-2.4 0.3,-0.7 0.8,-1.2 1.4,-1.6 0.6,-0.4 1.3,-0.6 2.2,-0.6 0.8,0 1.7,0.2 2.6,0.6 l -0.6,1.5 c -0.3,-0.2 -0.7,-0.3 -1,-0.4 -0.3,-0.1 -0.7,0 -1,0 z"
   id="path276" />
	<path
   d="m 548.1,502.3 -0.3,-0.9 v 0 c -0.3,0.4 -0.6,0.7 -1,0.8 -0.3,0.2 -0.8,0.2 -1.3,0.2 -0.6,0 -1.2,-0.2 -1.5,-0.6 -0.3,-0.4 -0.6,-0.9 -0.6,-1.6 0,-0.7 0.2,-1.2 0.8,-1.6 0.6,-0.4 1.2,-0.5 2.2,-0.6 h 1.2 v -0.3 c 0,-0.7 -0.3,-1 -1,-1 -0.5,0 -1.2,0.2 -1.9,0.5 l -0.6,-1.2 c 0.8,-0.4 1.6,-0.6 2.6,-0.6 0.9,0 1.6,0.2 2.1,0.6 0.5,0.4 0.7,1 0.7,1.8 v 4.5 z m -0.6,-3.1 h -0.7 c -0.5,0 -0.9,0.1 -1.2,0.3 -0.3,0.2 -0.4,0.4 -0.4,0.8 0,0.5 0.3,0.8 0.9,0.8 0.4,0 0.8,-0.1 1,-0.4 0.2,-0.2 0.4,-0.6 0.4,-1 z"
   id="path278" />
	<path
   d="m 555,495.5 c 0.2,0 0.5,0 0.6,0.1 l -0.1,1.7 c -0.2,0 -0.3,-0.1 -0.5,-0.1 -0.6,0 -1,0.2 -1.4,0.4 -0.3,0.3 -0.5,0.7 -0.5,1.3 v 3.4 h -1.8 v -6.7 h 1.4 l 0.3,1.1 h 0.1 c 0.2,-0.4 0.5,-0.7 0.8,-0.9 0.3,-0.2 0.7,-0.3 1.1,-0.3 z"
   id="path280" />
	<path
   d="m 560.6,495.5 c 0.8,0 1.4,0.3 1.9,0.9 0.5,0.6 0.7,1.5 0.7,2.5 0,1.1 -0.2,2 -0.7,2.6 -0.5,0.6 -1.1,0.9 -1.9,0.9 -0.8,0 -1.4,-0.3 -1.8,-0.9 h -0.1 l -0.3,0.7 H 557 V 493 h 1.8 v 2.2 c 0,0.3 0,0.7 -0.1,1.3 h 0.1 c 0.3,-0.7 0.9,-1 1.8,-1 z M 560,497 c -0.5,0 -0.8,0.1 -1,0.4 -0.2,0.3 -0.3,0.7 -0.3,1.4 v 0.2 c 0,0.7 0.1,1.2 0.3,1.6 0.2,0.4 0.5,0.5 1,0.5 0.4,0 0.7,-0.2 0.9,-0.5 0.2,-0.3 0.3,-0.8 0.3,-1.5 0,-0.7 -0.1,-1.2 -0.3,-1.5 -0.2,-0.3 -0.5,-0.6 -0.9,-0.6 z"
   id="path282" />
	<path
   d="m 570.7,499 c 0,1.1 -0.3,1.9 -0.9,2.6 -0.6,0.7 -1.4,0.9 -2.4,0.9 -0.6,0 -1.2,-0.1 -1.7,-0.4 -0.5,-0.3 -0.9,-0.7 -1.1,-1.2 -0.2,-0.5 -0.4,-1.1 -0.4,-1.8 0,-1.1 0.3,-1.9 0.9,-2.6 0.6,-0.7 1.4,-0.9 2.4,-0.9 0.6,0 1.2,0.1 1.7,0.4 0.5,0.3 0.9,0.7 1.1,1.2 0.2,0.5 0.4,1.1 0.4,1.8 z m -4.6,0 c 0,0.7 0.1,1.2 0.3,1.5 0.2,0.3 0.6,0.5 1.1,0.5 0.5,0 0.8,-0.2 1,-0.5 0.2,-0.3 0.3,-0.8 0.3,-1.5 0,-0.7 -0.1,-1.2 -0.3,-1.5 -0.2,-0.3 -0.6,-0.5 -1.1,-0.5 -0.5,0 -0.8,0.2 -1.1,0.5 -0.1,0.3 -0.2,0.8 -0.2,1.5 z m 0.4,-4.1 v -0.2 c 0.7,-0.8 1.2,-1.4 1.4,-1.8 h 2 v 0.1 c -0.2,0.2 -0.6,0.5 -1.1,0.9 -0.5,0.4 -0.9,0.7 -1.2,0.9 z"
   id="path284" />
	<path
   d="m 578.4,502.3 h -1.8 v -3.9 c 0,-0.5 -0.1,-0.8 -0.3,-1.1 -0.2,-0.3 -0.5,-0.4 -0.8,-0.4 -0.5,0 -0.9,0.2 -1.1,0.5 -0.2,0.3 -0.3,0.9 -0.3,1.7 v 3.2 h -1.8 v -6.7 h 1.4 l 0.2,0.9 h 0.1 c 0.2,-0.3 0.5,-0.6 0.8,-0.7 0.4,-0.2 0.8,-0.2 1.2,-0.2 0.8,0 1.4,0.2 1.8,0.6 0.4,0.4 0.6,1 0.6,1.8 z"
   id="path286" />
	<path
   d="m 545.7,510.3 c 0,0.6 -0.2,1 -0.5,1.4 -0.3,0.4 -0.8,0.7 -1.4,0.8 v 0 c 0.7,0.1 1.2,0.3 1.6,0.7 0.4,0.3 0.5,0.8 0.5,1.4 0,0.8 -0.3,1.5 -0.9,2 -0.6,0.5 -1.5,0.7 -2.6,0.7 -1,0 -1.8,-0.2 -2.5,-0.5 v -1.6 c 0.3,0.2 0.7,0.3 1.1,0.4 0.4,0.1 0.8,0.2 1.2,0.2 0.6,0 1.1,-0.1 1.4,-0.3 0.3,-0.2 0.4,-0.5 0.4,-1 0,-0.4 -0.2,-0.7 -0.5,-0.9 -0.3,-0.2 -0.9,-0.3 -1.6,-0.3 h -0.7 v -1.4 h 0.7 c 0.7,0 1.2,-0.1 1.5,-0.3 0.3,-0.2 0.5,-0.5 0.5,-0.9 0,-0.7 -0.4,-1 -1.2,-1 -0.3,0 -0.6,0.1 -0.9,0.1 -0.3,0.1 -0.6,0.3 -1,0.5 l -0.9,-1.3 c 0.8,-0.6 1.8,-0.9 2.9,-0.9 0.9,0 1.6,0.2 2.2,0.6 0.4,0.4 0.7,0.9 0.7,1.6 z"
   id="path288" />
	<path
   d="m 547.1,516.2 c 0,-0.3 0.1,-0.6 0.3,-0.8 0.2,-0.2 0.4,-0.3 0.8,-0.3 0.3,0 0.6,0.1 0.8,0.3 0.2,0.2 0.3,0.4 0.3,0.8 0,0.3 -0.1,0.6 -0.3,0.8 -0.2,0.2 -0.4,0.3 -0.8,0.3 -0.3,0 -0.6,-0.1 -0.8,-0.3 -0.2,-0.2 -0.3,-0.4 -0.3,-0.8 z"
   id="path290" />
	<path
   d="m 550.3,513.4 c 0,-1.7 0.4,-3 1.1,-3.9 0.7,-0.9 1.8,-1.3 3.3,-1.3 0.5,0 0.9,0 1.2,0.1 v 1.5 c -0.4,-0.1 -0.7,-0.1 -1.1,-0.1 -0.6,0 -1.2,0.1 -1.6,0.3 -0.4,0.2 -0.7,0.5 -0.9,0.8 -0.2,0.3 -0.3,0.9 -0.3,1.6 h 0.1 c 0.4,-0.7 1,-1 1.9,-1 0.8,0 1.4,0.2 1.8,0.7 0.4,0.5 0.7,1.2 0.7,2 0,0.9 -0.3,1.7 -0.8,2.2 -0.5,0.6 -1.3,0.8 -2.2,0.8 -0.7,0 -1.2,-0.2 -1.7,-0.4 -0.5,-0.3 -0.8,-0.7 -1.1,-1.3 -0.2,-0.5 -0.4,-1.2 -0.4,-2 z m 3.2,2.3 c 0.4,0 0.7,-0.1 0.9,-0.4 0.2,-0.3 0.3,-0.7 0.3,-1.1 0,-0.4 -0.1,-0.8 -0.3,-1 -0.2,-0.2 -0.5,-0.4 -0.9,-0.4 -0.4,0 -0.7,0.1 -1,0.4 -0.3,0.3 -0.4,0.5 -0.4,0.8 0,0.5 0.1,0.9 0.4,1.2 0.3,0.4 0.6,0.5 1,0.5 z"
   id="path292" />
	<path
   d="m 563.7,515.3 h -1.1 v 1.8 h -1.8 v -1.8 H 557 V 514 l 3.8,-5.7 h 1.7 v 5.5 h 1.1 v 1.5 z m -2.8,-1.5 v -1.5 c 0,-0.2 0,-0.6 0,-1.1 0,-0.5 0,-0.8 0,-0.8 v 0 c -0.2,0.3 -0.3,0.7 -0.5,1 l -1.6,2.4 z"
   id="path294" />
	<path
   d="m 568.5,510.9 c 0,0.9 -0.2,1.6 -0.5,2.1 -0.4,0.5 -0.9,0.7 -1.6,0.7 -0.7,0 -1.2,-0.2 -1.5,-0.7 -0.4,-0.5 -0.5,-1.2 -0.5,-2.1 0,-1.8 0.7,-2.7 2.1,-2.7 0.7,0 1.2,0.2 1.6,0.7 0.2,0.5 0.4,1.2 0.4,2 z m -2.7,0.1 c 0,0.5 0,0.9 0.1,1.1 0.1,0.2 0.2,0.4 0.4,0.4 0.4,0 0.6,-0.5 0.6,-1.5 0,-1 -0.2,-1.5 -0.6,-1.5 -0.2,0 -0.3,0.1 -0.4,0.4 0,0.2 -0.1,0.5 -0.1,1.1 z m 6.8,-2.7 -4.9,8.8 h -1.4 l 4.9,-8.8 z m 2,6.1 c 0,0.9 -0.2,1.6 -0.5,2.1 -0.4,0.5 -0.9,0.7 -1.6,0.7 -0.7,0 -1.2,-0.2 -1.5,-0.7 -0.4,-0.5 -0.5,-1.2 -0.5,-2.1 0,-1.8 0.7,-2.7 2.1,-2.7 0.7,0 1.2,0.2 1.6,0.7 0.2,0.5 0.4,1.2 0.4,2 z m -2.6,0.1 c 0,0.5 0,0.9 0.1,1.1 0.1,0.2 0.2,0.4 0.4,0.4 0.4,0 0.6,-0.5 0.6,-1.5 0,-1 -0.2,-1.5 -0.6,-1.5 -0.2,0 -0.3,0.1 -0.4,0.4 -0.1,0.2 -0.1,0.5 -0.1,1.1 z"
   id="path296" />
</g>
<g
   id="g338"
   transform="translate(-144.4,-128.9)">
	<path
   d="m 150.5,558 c 0,0.9 -0.3,1.7 -0.9,2.2 -0.6,0.5 -1.4,0.8 -2.5,0.8 h -0.8 v 3.1 h -1.9 v -8.8 h 2.8 c 1.1,0 1.9,0.2 2.4,0.7 0.6,0.4 0.9,1.1 0.9,2 z m -4.2,1.4 h 0.6 c 0.6,0 1,-0.1 1.3,-0.3 0.3,-0.2 0.4,-0.6 0.4,-1 0,-0.4 -0.1,-0.8 -0.4,-1 -0.3,-0.2 -0.6,-0.3 -1.1,-0.3 h -0.9 z"
   id="path300" />
	<path
   d="m 155,564.2 c -1.1,0 -1.9,-0.3 -2.5,-0.9 -0.6,-0.6 -0.9,-1.4 -0.9,-2.5 0,-1.1 0.3,-2 0.8,-2.6 0.6,-0.6 1.3,-0.9 2.3,-0.9 0.9,0 1.7,0.3 2.2,0.8 0.5,0.5 0.8,1.3 0.8,2.2 v 0.9 h -4.3 c 0,0.5 0.2,0.9 0.5,1.2 0.3,0.3 0.7,0.4 1.2,0.4 0.4,0 0.8,0 1.1,-0.1 0.4,-0.1 0.7,-0.2 1.1,-0.4 v 1.4 c -0.3,0.2 -0.7,0.3 -1,0.4 -0.3,0 -0.7,0.1 -1.3,0.1 z m -0.2,-5.7 c -0.4,0 -0.7,0.1 -0.9,0.4 -0.2,0.3 -0.4,0.6 -0.4,1.1 h 2.6 c 0,-0.4 -0.1,-0.8 -0.4,-1.1 -0.3,-0.3 -0.5,-0.4 -0.9,-0.4 z"
   id="path302" />
	<path
   d="m 162.1,562.7 c 0.3,0 0.7,-0.1 1.1,-0.2 v 1.4 c -0.5,0.2 -1,0.3 -1.7,0.3 -0.7,0 -1.3,-0.2 -1.6,-0.6 -0.3,-0.4 -0.5,-0.9 -0.5,-1.7 v -3.2 h -0.9 v -0.8 l 1,-0.6 0.5,-1.4 h 1.2 v 1.4 h 1.9 v 1.4 h -1.9 v 3.2 c 0,0.3 0.1,0.4 0.2,0.6 0.3,0.1 0.5,0.2 0.7,0.2 z"
   id="path304" />
	<path
   d="m 168.4,557.2 c 0.2,0 0.4,0 0.6,0.1 l -0.1,1.7 c -0.1,0 -0.3,-0.1 -0.5,-0.1 -0.6,0 -1,0.2 -1.4,0.4 -0.3,0.3 -0.5,0.7 -0.5,1.3 v 3.4 h -1.8 v -6.7 h 1.4 l 0.3,1.1 h 0.1 c 0.2,-0.4 0.5,-0.7 0.8,-0.9 0.3,-0.2 0.6,-0.3 1.1,-0.3 z"
   id="path306" />
	<path
   d="m 176.3,560.7 c 0,1.1 -0.3,1.9 -0.9,2.6 -0.6,0.7 -1.4,0.9 -2.4,0.9 -0.6,0 -1.2,-0.1 -1.7,-0.4 -0.5,-0.3 -0.9,-0.7 -1.1,-1.2 -0.2,-0.5 -0.4,-1.1 -0.4,-1.8 0,-1.1 0.3,-1.9 0.9,-2.6 0.6,-0.7 1.4,-0.9 2.4,-0.9 0.6,0 1.2,0.1 1.7,0.4 0.5,0.3 0.9,0.7 1.1,1.2 0.2,0.5 0.4,1.1 0.4,1.8 z m -4.7,0 c 0,0.7 0.1,1.2 0.3,1.5 0.2,0.3 0.6,0.5 1.1,0.5 0.5,0 0.8,-0.2 1.1,-0.5 0.3,-0.3 0.3,-0.8 0.3,-1.5 0,-0.7 -0.1,-1.2 -0.3,-1.5 -0.2,-0.3 -0.6,-0.5 -1.1,-0.5 -0.5,0 -0.8,0.2 -1.1,0.5 -0.1,0.3 -0.3,0.8 -0.3,1.5 z m 0.4,-4.1 v -0.2 c 0.7,-0.8 1.2,-1.4 1.4,-1.8 h 2.1 v 0.1 c -0.2,0.2 -0.6,0.5 -1.1,0.9 -0.5,0.4 -0.9,0.7 -1.2,0.9 z"
   id="path308" />
	<path
   d="m 179.6,564 h -1.8 v -9.3 h 1.8 z"
   id="path310" />
	<path
   d="m 184.6,564.2 c -1.1,0 -1.9,-0.3 -2.5,-0.9 -0.6,-0.6 -0.9,-1.4 -0.9,-2.5 0,-1.1 0.3,-2 0.8,-2.6 0.6,-0.6 1.3,-0.9 2.3,-0.9 0.9,0 1.7,0.3 2.2,0.8 0.5,0.5 0.8,1.3 0.8,2.2 v 0.9 H 183 c 0,0.5 0.2,0.9 0.5,1.2 0.3,0.3 0.7,0.4 1.2,0.4 0.4,0 0.8,0 1.1,-0.1 0.4,-0.1 0.7,-0.2 1.1,-0.4 v 1.4 c -0.3,0.2 -0.7,0.3 -1,0.4 -0.3,0 -0.8,0.1 -1.3,0.1 z m -0.3,-5.7 c -0.4,0 -0.7,0.1 -0.9,0.4 -0.2,0.3 -0.4,0.6 -0.4,1.1 h 2.6 c 0,-0.4 -0.1,-0.8 -0.4,-1.1 -0.3,-0.3 -0.5,-0.4 -0.9,-0.4 z"
   id="path312" />
	<path
   d="m 194.9,560.7 c 0,1.1 -0.3,1.9 -0.9,2.6 -0.6,0.7 -1.4,0.9 -2.4,0.9 -0.6,0 -1.2,-0.1 -1.7,-0.4 -0.5,-0.3 -0.9,-0.7 -1.1,-1.2 -0.2,-0.5 -0.4,-1.1 -0.4,-1.8 0,-1.1 0.3,-1.9 0.9,-2.6 0.6,-0.7 1.4,-0.9 2.4,-0.9 0.6,0 1.2,0.1 1.7,0.4 0.5,0.3 0.9,0.7 1.1,1.2 0.2,0.5 0.4,1.1 0.4,1.8 z m -4.6,0 c 0,0.7 0.1,1.2 0.3,1.5 0.2,0.3 0.6,0.5 1.1,0.5 0.5,0 0.8,-0.2 1.1,-0.5 0.3,-0.3 0.3,-0.8 0.3,-1.5 0,-0.7 -0.1,-1.2 -0.3,-1.5 -0.2,-0.3 -0.6,-0.5 -1.1,-0.5 -0.5,0 -0.8,0.2 -1.1,0.5 -0.2,0.3 -0.3,0.8 -0.3,1.5 z"
   id="path314" />
	<path
   d="m 202.4,564.2 c -2.1,0 -3.1,-1.2 -3.1,-3.4 0,-1.1 0.3,-2 0.9,-2.6 0.6,-0.6 1.4,-0.9 2.4,-0.9 0.8,0 1.5,0.2 2.1,0.5 l -0.5,1.4 c -0.3,-0.1 -0.6,-0.2 -0.8,-0.3 -0.2,-0.1 -0.5,-0.1 -0.7,-0.1 -0.9,0 -1.4,0.7 -1.4,2 0,1.3 0.5,2 1.4,2 0.4,0 0.7,-0.1 1,-0.1 0.3,0 0.6,-0.2 0.9,-0.4 v 1.6 c -0.3,0.2 -0.6,0.3 -0.9,0.4 -0.5,-0.2 -0.9,-0.1 -1.3,-0.1 z"
   id="path316" />
	<path
   d="m 209.7,557.2 c 0.2,0 0.4,0 0.6,0.1 l -0.1,1.7 c -0.1,0 -0.3,-0.1 -0.5,-0.1 -0.6,0 -1,0.2 -1.4,0.4 -0.3,0.3 -0.5,0.7 -0.5,1.3 V 564 H 206 v -6.7 h 1.4 l 0.3,1.1 h 0.1 c 0.2,-0.4 0.5,-0.7 0.8,-0.9 0.3,-0.2 0.7,-0.3 1.1,-0.3 z"
   id="path318" />
	<path
   d="m 216.3,564 -0.2,-0.9 H 216 c -0.2,0.3 -0.5,0.6 -0.8,0.7 -0.4,0.2 -0.8,0.2 -1.2,0.2 -0.8,0 -1.4,-0.2 -1.8,-0.6 -0.4,-0.4 -0.6,-1 -0.6,-1.8 v -4.4 h 1.8 v 3.9 c 0,0.5 0.1,0.8 0.3,1.1 0.2,0.3 0.4,0.4 0.8,0.4 0.5,0 0.9,-0.2 1.1,-0.5 0.2,-0.3 0.3,-0.9 0.3,-1.7 v -3.2 h 1.8 v 6.7 z"
   id="path320" />
	<path
   d="m 221.7,564.2 c -0.8,0 -1.4,-0.3 -1.9,-0.9 -0.5,-0.6 -0.7,-1.5 -0.7,-2.5 0,-1.1 0.2,-2 0.7,-2.6 0.5,-0.6 1.1,-0.9 1.9,-0.9 0.8,0 1.5,0.3 1.9,1 h 0.1 c -0.1,-0.5 -0.1,-0.9 -0.1,-1.3 v -2.2 h 1.8 v 9.3 H 224 l -0.4,-0.9 h -0.1 c -0.3,0.6 -0.9,1 -1.8,1 z m 0.7,-1.5 c 0.5,0 0.8,-0.1 1,-0.4 0.2,-0.3 0.3,-0.7 0.4,-1.4 v -0.2 c 0,-0.7 -0.1,-1.2 -0.3,-1.6 -0.2,-0.4 -0.6,-0.5 -1.1,-0.5 -0.4,0 -0.7,0.2 -0.9,0.5 -0.2,0.3 -0.3,0.8 -0.3,1.5 0,0.7 0.1,1.2 0.3,1.5 0.2,0.3 0.4,0.6 0.9,0.6 z"
   id="path322" />
	<path
   d="m 233.5,560.7 c 0,1.1 -0.3,1.9 -0.9,2.6 -0.6,0.7 -1.4,0.9 -2.4,0.9 -0.6,0 -1.2,-0.1 -1.7,-0.4 -0.5,-0.3 -0.9,-0.7 -1.1,-1.2 -0.2,-0.5 -0.4,-1.1 -0.4,-1.8 0,-1.1 0.3,-1.9 0.9,-2.6 0.6,-0.7 1.4,-0.9 2.4,-0.9 0.6,0 1.2,0.1 1.7,0.4 0.5,0.3 0.9,0.7 1.1,1.2 0.2,0.5 0.4,1.1 0.4,1.8 z m -4.7,0 c 0,0.7 0.1,1.2 0.3,1.5 0.2,0.3 0.6,0.5 1.1,0.5 0.5,0 0.8,-0.2 1.1,-0.5 0.3,-0.3 0.3,-0.8 0.3,-1.5 0,-0.7 -0.1,-1.2 -0.3,-1.5 -0.2,-0.3 -0.6,-0.5 -1.1,-0.5 -0.5,0 -0.8,0.2 -1.1,0.5 -0.2,0.3 -0.3,0.8 -0.3,1.5 z"
   id="path324" />
	<path
   d="m 171,573.2 c 0.9,0 1.5,0.2 2,0.7 0.5,0.5 0.8,1.1 0.8,2 0,1 -0.3,1.7 -0.9,2.3 -0.6,0.5 -1.5,0.8 -2.6,0.8 -1,0 -1.8,-0.2 -2.4,-0.5 v -1.6 c 0.3,0.2 0.7,0.3 1.1,0.4 0.4,0.1 0.8,0.2 1.2,0.2 1.1,0 1.7,-0.5 1.7,-1.4 0,-0.9 -0.6,-1.3 -1.8,-1.3 -0.2,0 -0.4,0 -0.7,0.1 -0.3,0 -0.5,0.1 -0.6,0.1 l -0.7,-0.4 0.3,-4.5 h 4.8 v 1.6 h -3.1 l -0.2,1.7 h 0.2 c 0.3,-0.2 0.6,-0.2 0.9,-0.2 z"
   id="path326" />
	<path
   d="m 181,573.8 c 0,1.7 -0.4,3 -1.1,3.9 -0.7,0.9 -1.8,1.3 -3.3,1.3 -0.5,0 -0.9,0 -1.2,-0.1 v -1.5 c 0.3,0.1 0.7,0.1 1.1,0.1 0.6,0 1.1,-0.1 1.5,-0.3 0.4,-0.2 0.7,-0.5 0.9,-0.9 0.2,-0.4 0.3,-0.9 0.4,-1.6 h -0.1 c -0.2,0.4 -0.5,0.6 -0.8,0.8 -0.3,0.2 -0.7,0.2 -1.1,0.2 -0.8,0 -1.4,-0.2 -1.8,-0.7 -0.4,-0.5 -0.7,-1.2 -0.7,-2 0,-0.9 0.3,-1.7 0.8,-2.2 0.5,-0.6 1.3,-0.8 2.2,-0.8 0.6,0 1.2,0.2 1.7,0.5 0.5,0.3 0.9,0.8 1.1,1.3 0.2,0.5 0.4,1.2 0.4,2 z m -3.2,-2.4 c -0.4,0 -0.7,0.1 -0.9,0.4 -0.2,0.3 -0.3,0.6 -0.3,1.1 0,0.4 0.1,0.8 0.3,1 0.2,0.2 0.5,0.4 0.9,0.4 0.4,0 0.7,-0.1 1,-0.4 0.3,-0.3 0.4,-0.5 0.4,-0.8 0,-0.5 -0.1,-0.9 -0.4,-1.2 -0.3,-0.3 -0.6,-0.5 -1,-0.5 z"
   id="path328" />
	<path
   d="m 182.1,577.9 c 0,-0.3 0.1,-0.6 0.3,-0.8 0.2,-0.2 0.4,-0.3 0.8,-0.3 0.3,0 0.6,0.1 0.8,0.3 0.2,0.2 0.3,0.4 0.3,0.8 0,0.3 -0.1,0.6 -0.3,0.8 -0.2,0.2 -0.4,0.3 -0.8,0.3 -0.3,0 -0.6,-0.1 -0.8,-0.3 -0.2,-0.2 -0.3,-0.5 -0.3,-0.8 z"
   id="path330" />
	<path
   d="m 188.4,569.9 c 0.8,0 1.5,0.2 2,0.6 0.5,0.4 0.8,0.9 0.8,1.6 0,0.4 -0.1,0.8 -0.4,1.2 -0.3,0.4 -0.6,0.7 -1.2,0.9 0.7,0.3 1.1,0.7 1.4,1.1 0.3,0.4 0.4,0.8 0.4,1.3 0,0.7 -0.3,1.3 -0.9,1.7 -0.6,0.4 -1.3,0.7 -2.2,0.7 -1,0 -1.7,-0.2 -2.3,-0.6 -0.6,-0.4 -0.8,-1 -0.8,-1.7 0,-0.5 0.1,-0.9 0.4,-1.3 0.3,-0.4 0.7,-0.7 1.3,-1 -0.5,-0.3 -0.9,-0.7 -1.1,-1 -0.2,-0.3 -0.3,-0.8 -0.3,-1.2 0,-0.6 0.3,-1.1 0.8,-1.5 0.6,-0.6 1.3,-0.8 2.1,-0.8 z m -1.4,6.5 c 0,0.3 0.1,0.6 0.4,0.8 0.2,0.2 0.6,0.3 1,0.3 0.5,0 0.8,-0.1 1,-0.3 0.2,-0.2 0.3,-0.5 0.3,-0.8 0,-0.3 -0.1,-0.5 -0.3,-0.8 -0.2,-0.3 -0.6,-0.5 -1.1,-0.8 -0.8,0.6 -1.3,1 -1.3,1.6 z m 1.4,-5.2 c -0.3,0 -0.6,0.1 -0.8,0.2 -0.2,0.2 -0.3,0.4 -0.3,0.7 0,0.2 0.1,0.5 0.2,0.7 0.1,0.2 0.4,0.4 0.8,0.6 0.4,-0.2 0.7,-0.4 0.8,-0.6 0.2,-0.2 0.2,-0.4 0.2,-0.7 0,-0.3 -0.1,-0.5 -0.3,-0.7 -0.2,-0.2 -0.3,-0.2 -0.6,-0.2 z"
   id="path332" />
	<path
   d="m 198.2,572 c 0,0.6 -0.2,1 -0.5,1.4 -0.3,0.4 -0.8,0.7 -1.4,0.8 v 0 c 0.7,0.1 1.2,0.3 1.6,0.7 0.4,0.3 0.6,0.8 0.6,1.4 0,0.8 -0.3,1.5 -0.9,2 -0.6,0.5 -1.5,0.7 -2.6,0.7 -0.9,0 -1.8,-0.2 -2.5,-0.5 v -1.6 c 0.3,0.2 0.7,0.3 1.1,0.4 0.4,0.1 0.8,0.2 1.2,0.2 0.6,0 1.1,-0.1 1.4,-0.3 0.3,-0.2 0.4,-0.5 0.4,-1 0,-0.4 -0.2,-0.7 -0.5,-0.9 -0.3,-0.2 -0.9,-0.3 -1.6,-0.3 h -0.7 v -1.4 h 0.7 c 0.7,0 1.2,-0.1 1.5,-0.3 0.3,-0.2 0.5,-0.5 0.5,-0.9 0,-0.7 -0.4,-1 -1.2,-1 -0.3,0 -0.6,0.1 -0.9,0.1 -0.3,0.1 -0.6,0.3 -1,0.5 l -0.9,-1.3 c 0.8,-0.6 1.8,-0.9 2.9,-0.9 0.9,0 1.6,0.2 2.1,0.6 0.4,0.4 0.7,0.9 0.7,1.6 z"
   id="path334" />
	<path
   d="m 203.5,572.6 c 0,0.9 -0.2,1.6 -0.5,2.1 -0.4,0.5 -0.9,0.7 -1.6,0.7 -0.7,0 -1.2,-0.2 -1.5,-0.7 -0.3,-0.5 -0.5,-1.2 -0.5,-2.1 0,-1.8 0.7,-2.7 2.1,-2.7 0.7,0 1.2,0.2 1.6,0.7 0.2,0.5 0.4,1.1 0.4,2 z m -2.7,0 c 0,0.5 0,0.9 0.1,1.1 0.1,0.2 0.2,0.4 0.4,0.4 0.4,0 0.6,-0.5 0.6,-1.5 0,-1 -0.2,-1.5 -0.6,-1.5 -0.2,0 -0.4,0.1 -0.4,0.4 0,0.3 -0.1,0.6 -0.1,1.1 z m 6.8,-2.6 -4.9,8.8 h -1.4 l 4.9,-8.8 z m 2,6.1 c 0,0.9 -0.2,1.6 -0.5,2.1 -0.4,0.5 -0.9,0.7 -1.6,0.7 -0.7,0 -1.2,-0.2 -1.5,-0.7 -0.3,-0.5 -0.5,-1.2 -0.5,-2.1 0,-1.8 0.7,-2.7 2.1,-2.7 0.7,0 1.2,0.2 1.6,0.7 0.2,0.5 0.4,1.1 0.4,2 z m -2.6,0 c 0,0.5 0,0.9 0.1,1.1 0.1,0.2 0.2,0.4 0.4,0.4 0.4,0 0.6,-0.5 0.6,-1.5 0,-1 -0.2,-1.5 -0.6,-1.5 -0.2,0 -0.4,0.1 -0.4,0.4 -0.1,0.3 -0.1,0.6 -0.1,1.1 z"
   id="path336" />
</g>
<path
   d="M 500.8,123.2 V 419 H 644.9 V 123.2 Z M 643.9,418 H 501.7 V 124.1 h 142.2 z"
   id="path340" />
<rect
   x="501.69998"
   y="124.1"
   class="st6"
   width="142.2"
   height="94.099998"
   id="rect342" />
<rect
   x="501.69998"
   y="219.20001"
   class="st7"
   width="142.2"
   height="38"
   id="rect344" />
<rect
   x="501.69998"
   y="258.20001"
   class="st4"
   width="142.2"
   height="159.8"
   id="rect346" />
<rect
   x="501.30002"
   y="218.30002"
   width="143.10001"
   height="1"
   id="rect348" />
<rect
   x="501.60001"
   y="257.20001"
   width="143.7"
   height="0.89999998"
   id="rect350" />
<line
   class="st8"
   x1="430.39999"
   y1="211.39999"
   x2="500.80002"
   y2="123.8"
   id="line352" />
<line
   class="st8"
   x1="431.80002"
   y1="334.60001"
   x2="501.30002"
   y2="418.50003"
   id="line354" />
<g
   id="g412"
   transform="translate(-144.4,-128.9)">
	<path
   class="st5"
   d="m 664.1,288.6 h 3.5 v 4.5 c -0.6,0.2 -1.1,0.3 -1.6,0.4 -0.5,0.1 -1,0.1 -1.5,0.1 -1.3,0 -2.3,-0.4 -3,-1.2 -0.7,-0.8 -1,-1.9 -1,-3.3 0,-1.4 0.4,-2.5 1.2,-3.3 0.8,-0.8 1.9,-1.2 3.4,-1.2 0.9,0 1.8,0.2 2.6,0.5 l -0.6,1.5 c -0.6,-0.3 -1.3,-0.5 -2,-0.5 -0.8,0 -1.5,0.3 -1.9,0.8 -0.4,0.5 -0.7,1.3 -0.7,2.2 0,1 0.2,1.7 0.6,2.2 0.4,0.5 1,0.8 1.7,0.8 0.4,0 0.8,0 1.2,-0.1 v -1.8 h -1.7 z"
   id="path356" />
	<path
   class="st5"
   d="m 672.6,293.6 c -1.1,0 -1.9,-0.3 -2.5,-0.9 -0.6,-0.6 -0.9,-1.4 -0.9,-2.5 0,-1.1 0.3,-2 0.8,-2.6 0.6,-0.6 1.3,-0.9 2.3,-0.9 1,0 1.7,0.3 2.2,0.8 0.5,0.5 0.8,1.3 0.8,2.2 v 0.9 H 671 c 0,0.5 0.2,0.9 0.5,1.2 0.3,0.3 0.7,0.4 1.2,0.4 0.4,0 0.8,0 1.2,-0.1 0.4,-0.1 0.7,-0.2 1.1,-0.4 v 1.4 c -0.3,0.2 -0.7,0.3 -1,0.4 -0.5,0.1 -0.9,0.1 -1.4,0.1 z m -0.3,-5.6 c -0.4,0 -0.7,0.1 -0.9,0.4 -0.2,0.3 -0.3,0.6 -0.4,1 h 2.6 c 0,-0.5 -0.1,-0.8 -0.3,-1 -0.2,-0.2 -0.6,-0.4 -1,-0.4 z"
   id="path358" />
	<path
   class="st5"
   d="m 682.9,290.2 c 0,1.1 -0.3,2 -0.9,2.6 -0.6,0.6 -1.4,0.9 -2.4,0.9 -0.6,0 -1.2,-0.1 -1.7,-0.4 -0.5,-0.3 -0.9,-0.7 -1.1,-1.2 -0.2,-0.5 -0.4,-1.1 -0.4,-1.8 0,-1.1 0.3,-2 0.9,-2.6 0.6,-0.6 1.4,-0.9 2.4,-0.9 0.6,0 1.2,0.1 1.7,0.4 0.5,0.3 0.9,0.7 1.1,1.2 0.2,0.5 0.4,1.1 0.4,1.8 z m -4.6,0 c 0,0.7 0.1,1.2 0.3,1.5 0.2,0.3 0.6,0.5 1.1,0.5 0.5,0 0.8,-0.2 1,-0.5 0.2,-0.3 0.3,-0.8 0.3,-1.5 0,-0.7 -0.1,-1.2 -0.3,-1.5 -0.2,-0.3 -0.6,-0.5 -1.1,-0.5 -0.5,0 -0.8,0.2 -1.1,0.5 -0.1,0.3 -0.2,0.8 -0.2,1.5 z"
   id="path360" />
	<path
   class="st5"
   d="m 687.5,293.6 c -1.1,0 -1.9,-0.3 -2.5,-0.9 -0.6,-0.6 -0.9,-1.4 -0.9,-2.5 0,-1.1 0.3,-2 0.8,-2.6 0.6,-0.6 1.3,-0.9 2.3,-0.9 1,0 1.7,0.3 2.2,0.8 0.5,0.5 0.8,1.3 0.8,2.2 v 0.9 h -4.3 c 0,0.5 0.2,0.9 0.5,1.2 0.3,0.3 0.7,0.4 1.2,0.4 0.4,0 0.8,0 1.2,-0.1 0.4,-0.1 0.7,-0.2 1.1,-0.4 v 1.4 c -0.3,0.2 -0.7,0.3 -1,0.4 -0.5,0.1 -0.9,0.1 -1.4,0.1 z m -0.3,-5.6 c -0.4,0 -0.7,0.1 -0.9,0.4 -0.2,0.3 -0.3,0.6 -0.4,1 h 2.6 c 0,-0.5 -0.1,-0.8 -0.3,-1 -0.2,-0.2 -0.6,-0.4 -1,-0.4 z"
   id="path362" />
	<path
   class="st5"
   d="M 697.9,293.5 H 696 v -3.9 c 0,-0.5 -0.1,-0.8 -0.3,-1.1 -0.2,-0.2 -0.5,-0.4 -0.8,-0.4 -0.5,0 -0.9,0.2 -1.1,0.5 -0.2,0.3 -0.3,0.9 -0.3,1.7 v 3.2 h -1.8 v -6.7 h 1.4 l 0.2,0.9 h 0.1 c 0.2,-0.3 0.5,-0.6 0.8,-0.7 0.4,-0.2 0.8,-0.2 1.2,-0.2 0.8,0 1.4,0.2 1.8,0.6 0.4,0.4 0.6,1 0.6,1.8 z"
   id="path364" />
	<path
   class="st5"
   d="m 702.8,293.6 c -1.1,0 -1.9,-0.3 -2.5,-0.9 -0.6,-0.6 -0.9,-1.4 -0.9,-2.5 0,-1.1 0.3,-2 0.8,-2.6 0.6,-0.6 1.3,-0.9 2.3,-0.9 1,0 1.7,0.3 2.2,0.8 0.5,0.5 0.8,1.3 0.8,2.2 v 0.9 h -4.3 c 0,0.5 0.2,0.9 0.5,1.2 0.3,0.3 0.7,0.4 1.2,0.4 0.4,0 0.8,0 1.2,-0.1 0.4,-0.1 0.7,-0.2 1.1,-0.4 v 1.4 c -0.3,0.2 -0.7,0.3 -1,0.4 -0.4,0.1 -0.9,0.1 -1.4,0.1 z m -0.3,-5.6 c -0.4,0 -0.7,0.1 -0.9,0.4 -0.2,0.3 -0.3,0.6 -0.4,1 h 2.6 c 0,-0.5 -0.1,-0.8 -0.3,-1 -0.2,-0.2 -0.6,-0.4 -1,-0.4 z"
   id="path366" />
	<path
   class="st5"
   d="m 710.8,286.7 c 0.2,0 0.5,0 0.6,0 l -0.1,1.7 c -0.2,0 -0.3,-0.1 -0.5,-0.1 -0.6,0 -1,0.2 -1.4,0.5 -0.4,0.3 -0.5,0.7 -0.5,1.3 v 3.4 H 707 v -6.7 h 1.4 l 0.3,1.1 h 0.1 c 0.2,-0.4 0.5,-0.7 0.8,-0.9 0.4,-0.2 0.8,-0.3 1.2,-0.3 z"
   id="path368" />
	<path
   class="st5"
   d="m 718.5,286.8 v 0.9 l -1,0.3 c 0.2,0.3 0.3,0.6 0.3,1 0,0.7 -0.2,1.3 -0.8,1.7 -0.5,0.4 -1.2,0.6 -2.1,0.6 h -0.3 -0.3 c -0.2,0.1 -0.3,0.3 -0.3,0.5 0,0.3 0.3,0.4 1,0.4 h 1.1 c 0.7,0 1.3,0.2 1.7,0.5 0.4,0.3 0.6,0.8 0.6,1.4 0,0.8 -0.3,1.4 -1,1.8 -0.7,0.4 -1.6,0.7 -2.8,0.7 -0.9,0 -1.7,-0.2 -2.2,-0.5 -0.5,-0.3 -0.7,-0.8 -0.7,-1.4 0,-0.4 0.1,-0.7 0.4,-1 0.3,-0.3 0.6,-0.5 1.1,-0.6 -0.2,-0.1 -0.3,-0.2 -0.5,-0.4 -0.2,-0.2 -0.2,-0.4 -0.2,-0.6 0,-0.3 0.1,-0.5 0.2,-0.6 0.1,-0.1 0.4,-0.3 0.6,-0.5 -0.3,-0.2 -0.6,-0.4 -0.8,-0.7 -0.2,-0.3 -0.3,-0.7 -0.3,-1.2 0,-0.7 0.2,-1.3 0.7,-1.7 0.5,-0.4 1.2,-0.6 2,-0.6 0.2,0 0.4,0 0.7,0 0.3,0 0.4,0.1 0.5,0.1 z m -5.2,7.7 c 0,0.2 0.1,0.5 0.4,0.6 0.3,0.1 0.6,0.2 1,0.2 0.7,0 1.2,-0.1 1.5,-0.3 0.3,-0.2 0.6,-0.4 0.6,-0.7 0,-0.2 -0.1,-0.4 -0.3,-0.5 -0.2,-0.1 -0.6,-0.1 -1,-0.1 h -1 c -0.3,0 -0.6,0.1 -0.8,0.2 -0.2,0.1 -0.4,0.3 -0.4,0.6 z m 0.6,-5.5 c 0,0.4 0.1,0.7 0.2,0.9 0.2,0.2 0.4,0.3 0.8,0.3 0.4,0 0.6,-0.1 0.8,-0.3 0.2,-0.2 0.2,-0.5 0.2,-0.9 0,-0.8 -0.3,-1.2 -1,-1.2 -0.7,0 -1,0.4 -1,1.2 z"
   id="path370" />
	<path
   class="st5"
   d="m 719.5,286.1 v -0.2 c 0.7,-0.8 1.2,-1.4 1.4,-1.8 h 2 v 0.1 c -0.2,0.2 -0.6,0.5 -1.1,0.9 -0.5,0.4 -0.9,0.7 -1.2,0.9 z m 1.9,7.4 h -1.8 v -6.7 h 1.8 z"
   id="path372" />
	<path
   class="st5"
   d="m 727.6,293.5 -0.3,-0.9 v 0 c -0.3,0.4 -0.6,0.7 -1,0.8 -0.3,0.2 -0.8,0.2 -1.3,0.2 -0.6,0 -1.2,-0.2 -1.5,-0.5 -0.3,-0.3 -0.6,-0.9 -0.6,-1.6 0,-0.7 0.2,-1.2 0.8,-1.6 0.6,-0.4 1.2,-0.5 2.2,-0.6 h 1.2 V 289 c 0,-0.7 -0.3,-1 -1,-1 -0.5,0 -1.2,0.2 -1.9,0.5 l -0.6,-1.2 c 0.8,-0.4 1.6,-0.6 2.6,-0.6 0.9,0 1.6,0.2 2.1,0.6 0.5,0.4 0.7,1 0.7,1.8 v 4.5 z m -0.6,-3.1 h -0.7 c -0.5,0 -0.9,0.1 -1.2,0.3 -0.3,0.2 -0.4,0.4 -0.4,0.8 0,0.5 0.3,0.8 0.9,0.8 0.4,0 0.8,-0.1 1,-0.4 0.2,-0.2 0.4,-0.6 0.4,-1 z"
   id="path374" />
	<path
   class="st5"
   d="m 732.5,292.2 c -0.2,0.8 -0.6,1.8 -1.1,2.9 h -1.3 c 0.3,-1.1 0.5,-2.1 0.6,-3 h 1.7 z"
   id="path376" />
	<path
   class="st5"
   d="m 742.2,291.5 c 0,0.7 -0.2,1.2 -0.7,1.6 -0.5,0.4 -1.2,0.5 -2.2,0.5 -0.5,0 -0.9,0 -1.2,-0.1 -0.3,-0.1 -0.7,-0.2 -1,-0.3 v -1.5 c 0.3,0.2 0.7,0.3 1.2,0.4 0.5,0.1 0.8,0.2 1.1,0.2 0.7,0 1,-0.2 1,-0.6 0,-0.1 0,-0.3 -0.1,-0.3 -0.1,-0.1 -0.2,-0.2 -0.5,-0.3 -0.2,-0.1 -0.5,-0.2 -0.9,-0.4 -0.5,-0.2 -0.9,-0.4 -1.1,-0.6 -0.2,-0.2 -0.4,-0.4 -0.5,-0.6 -0.1,-0.2 -0.2,-0.5 -0.2,-0.9 0,-0.6 0.2,-1.1 0.7,-1.4 0.5,-0.3 1.1,-0.5 2,-0.5 0.8,0 1.6,0.2 2.4,0.5 l -0.5,1.3 c -0.3,-0.1 -0.7,-0.3 -0.9,-0.3 -0.2,0 -0.6,-0.1 -0.9,-0.1 -0.5,0 -0.8,0.2 -0.8,0.4 0,0.2 0.1,0.3 0.3,0.4 0.2,0.1 0.6,0.3 1.1,0.5 0.5,0.2 0.9,0.4 1.2,0.6 0.2,0.2 0.4,0.4 0.5,0.6 -0.1,0.3 0,0.6 0,0.9 z"
   id="path378" />
	<path
   class="st5"
   d="m 749.7,290.2 c 0,1.1 -0.3,2 -0.9,2.6 -0.6,0.6 -1.4,0.9 -2.4,0.9 -0.6,0 -1.2,-0.1 -1.7,-0.4 -0.5,-0.3 -0.9,-0.7 -1.1,-1.2 -0.2,-0.5 -0.4,-1.1 -0.4,-1.8 0,-1.1 0.3,-2 0.9,-2.6 0.6,-0.6 1.4,-0.9 2.4,-0.9 0.6,0 1.2,0.1 1.7,0.4 0.5,0.3 0.9,0.7 1.1,1.2 0.2,0.5 0.4,1.1 0.4,1.8 z m -4.6,0 c 0,0.7 0.1,1.2 0.3,1.5 0.2,0.3 0.6,0.5 1.1,0.5 0.5,0 0.8,-0.2 1,-0.5 0.2,-0.3 0.3,-0.8 0.3,-1.5 0,-0.7 -0.1,-1.2 -0.3,-1.5 -0.2,-0.3 -0.6,-0.5 -1.1,-0.5 -0.5,0 -0.8,0.2 -1.1,0.5 -0.1,0.3 -0.2,0.8 -0.2,1.5 z"
   id="path380" />
	<path
   class="st5"
   d="m 753,293.5 h -1.8 v -9.3 h 1.8 z"
   id="path382" />
	<path
   class="st5"
   d="m 759.2,293.5 -0.3,-0.9 v 0 c -0.3,0.4 -0.6,0.7 -1,0.8 -0.3,0.2 -0.8,0.2 -1.3,0.2 -0.6,0 -1.2,-0.2 -1.5,-0.5 -0.3,-0.3 -0.6,-0.9 -0.6,-1.6 0,-0.7 0.2,-1.2 0.8,-1.6 0.6,-0.4 1.2,-0.5 2.2,-0.6 h 1.2 V 289 c 0,-0.7 -0.3,-1 -1,-1 -0.5,0 -1.2,0.2 -1.9,0.5 l -0.6,-1.2 c 0.8,-0.4 1.6,-0.6 2.6,-0.6 0.9,0 1.6,0.2 2.1,0.6 0.5,0.4 0.7,1 0.7,1.8 v 4.5 z m -0.5,-3.1 H 758 c -0.5,0 -0.9,0.1 -1.2,0.3 -0.3,0.2 -0.4,0.4 -0.4,0.8 0,0.5 0.3,0.8 0.9,0.8 0.4,0 0.8,-0.1 1,-0.4 0.2,-0.2 0.4,-0.6 0.4,-1 z"
   id="path384" />
	<path
   class="st5"
   d="m 766.2,286.7 c 0.2,0 0.5,0 0.6,0 l -0.1,1.7 c -0.2,0 -0.3,-0.1 -0.5,-0.1 -0.6,0 -1,0.2 -1.4,0.5 -0.4,0.3 -0.5,0.7 -0.5,1.3 v 3.4 h -1.8 v -6.7 h 1.4 l 0.3,1.1 h 0.1 c 0.2,-0.4 0.5,-0.7 0.8,-0.9 0.2,-0.2 0.6,-0.3 1.1,-0.3 z"
   id="path386" />
	<path
   class="st5"
   d="m 769.8,292.2 c -0.2,0.8 -0.6,1.8 -1.1,2.9 h -1.3 c 0.3,-1.1 0.5,-2.1 0.6,-3 h 1.7 z"
   id="path388" />
	<path
   class="st5"
   d="m 701.1,308.4 c -1.1,0 -1.9,-0.3 -2.5,-0.9 -0.6,-0.6 -0.9,-1.4 -0.9,-2.5 0,-1.1 0.3,-2 0.8,-2.6 0.6,-0.6 1.3,-0.9 2.3,-0.9 1,0 1.7,0.3 2.2,0.8 0.5,0.5 0.8,1.3 0.8,2.2 v 0.9 h -4.3 c 0,0.5 0.2,0.9 0.5,1.2 0.3,0.3 0.7,0.4 1.2,0.4 0.4,0 0.8,0 1.2,-0.1 0.4,-0.1 0.7,-0.2 1.1,-0.4 v 1.4 c -0.3,0.2 -0.7,0.3 -1,0.4 -0.5,0.1 -0.9,0.1 -1.4,0.1 z m -0.3,-5.7 c -0.4,0 -0.7,0.1 -0.9,0.4 -0.2,0.3 -0.3,0.6 -0.4,1 h 2.6 c 0,-0.5 -0.1,-0.8 -0.3,-1 -0.2,-0.2 -0.6,-0.4 -1,-0.4 z"
   id="path390" />
	<path
   class="st5"
   d="m 711.4,304.9 c 0,1.1 -0.3,2 -0.9,2.6 -0.6,0.6 -1.4,0.9 -2.4,0.9 -0.6,0 -1.2,-0.1 -1.7,-0.4 -0.5,-0.3 -0.9,-0.7 -1.1,-1.2 -0.2,-0.5 -0.4,-1.1 -0.4,-1.8 0,-1.1 0.3,-2 0.9,-2.6 0.6,-0.6 1.4,-0.9 2.4,-0.9 0.6,0 1.2,0.1 1.7,0.4 0.5,0.3 0.9,0.7 1.1,1.2 0.2,0.5 0.4,1.1 0.4,1.8 z m -4.6,0 c 0,0.7 0.1,1.2 0.3,1.5 0.2,0.3 0.6,0.5 1.1,0.5 0.5,0 0.8,-0.2 1,-0.5 0.2,-0.3 0.3,-0.8 0.3,-1.5 0,-0.7 -0.1,-1.2 -0.3,-1.5 -0.2,-0.3 -0.6,-0.5 -1.1,-0.5 -0.5,0 -0.8,0.2 -1.1,0.5 -0.1,0.3 -0.2,0.8 -0.2,1.5 z m 0.3,-4.1 v -0.2 c 0.7,-0.8 1.2,-1.4 1.4,-1.8 h 2 v 0.1 c -0.2,0.2 -0.6,0.5 -1.1,0.9 -0.5,0.4 -0.9,0.7 -1.2,0.9 z"
   id="path392" />
	<path
   class="st5"
   d="m 714.7,308.3 h -1.8 V 299 h 1.8 z"
   id="path394" />
	<path
   class="st5"
   d="m 716.6,299.8 c 0,-0.6 0.3,-0.9 1,-0.9 0.7,0 1,0.3 1,0.9 0,0.3 -0.1,0.5 -0.2,0.7 -0.1,0.2 -0.4,0.2 -0.8,0.2 -0.7,0 -1,-0.3 -1,-0.9 z m 1.9,8.5 h -1.8 v -6.7 h 1.8 z"
   id="path396" />
	<path
   class="st5"
   d="m 723.1,308.4 c -2.1,0 -3.1,-1.2 -3.1,-3.4 0,-1.1 0.3,-2 0.8,-2.6 0.6,-0.6 1.4,-0.9 2.4,-0.9 0.8,0 1.5,0.2 2.1,0.5 l -0.5,1.4 c -0.3,-0.1 -0.6,-0.2 -0.8,-0.3 -0.2,-0.1 -0.5,-0.1 -0.7,-0.1 -1,0 -1.4,0.7 -1.4,2 0,1.3 0.5,2 1.4,2 0.3,0 0.7,0 1,-0.1 0.3,-0.1 0.6,-0.2 0.9,-0.4 v 1.6 c -0.3,0.2 -0.6,0.3 -0.9,0.4 -0.3,-0.1 -0.7,-0.1 -1.2,-0.1 z"
   id="path398" />
	<path
   class="st5"
   d="m 731,308.3 -0.3,-0.9 v 0 c -0.3,0.4 -0.6,0.7 -1,0.8 -0.3,0.2 -0.8,0.2 -1.3,0.2 -0.6,0 -1.2,-0.2 -1.5,-0.5 -0.3,-0.3 -0.6,-0.9 -0.6,-1.6 0,-0.7 0.2,-1.2 0.8,-1.6 0.6,-0.4 1.2,-0.5 2.2,-0.6 h 1.2 v -0.3 c 0,-0.7 -0.3,-1 -1,-1 -0.5,0 -1.2,0.2 -1.9,0.5 l -0.6,-1.2 c 0.8,-0.4 1.6,-0.6 2.6,-0.6 0.9,0 1.6,0.2 2.1,0.6 0.5,0.4 0.7,1 0.7,1.8 v 4.5 z m -0.5,-3.1 h -0.7 c -0.5,0 -0.9,0.1 -1.2,0.3 -0.3,0.2 -0.4,0.4 -0.4,0.8 0,0.5 0.3,0.8 0.9,0.8 0.4,0 0.8,-0.1 1,-0.4 0.2,-0.2 0.4,-0.6 0.4,-1 z"
   id="path400" />
	<path
   class="st5"
   d="m 703.6,316.2 c 0,0.5 -0.2,1 -0.5,1.4 -0.3,0.4 -0.8,0.7 -1.4,0.8 v 0 c 0.7,0.1 1.2,0.3 1.6,0.7 0.4,0.3 0.5,0.8 0.5,1.4 0,0.8 -0.3,1.5 -0.9,2 -0.6,0.5 -1.5,0.7 -2.6,0.7 -1,0 -1.8,-0.2 -2.5,-0.5 v -1.6 c 0.3,0.2 0.7,0.3 1.1,0.4 0.4,0.1 0.8,0.2 1.2,0.2 0.6,0 1.1,-0.1 1.4,-0.3 0.3,-0.2 0.4,-0.5 0.4,-1 0,-0.4 -0.2,-0.7 -0.5,-0.9 -0.3,-0.2 -0.9,-0.3 -1.6,-0.3 h -0.7 v -1.4 h 0.7 c 0.7,0 1.2,-0.1 1.5,-0.3 0.3,-0.2 0.5,-0.5 0.5,-0.9 0,-0.7 -0.4,-1 -1.2,-1 -0.3,0 -0.6,0 -0.9,0.1 -0.3,0.1 -0.6,0.3 -1,0.5 l -0.9,-1.3 c 0.8,-0.6 1.8,-0.9 2.9,-0.9 0.9,0 1.6,0.2 2.2,0.5 0.4,0.5 0.7,1.1 0.7,1.7 z"
   id="path402" />
	<path
   class="st5"
   d="m 705,322.2 c 0,-0.3 0.1,-0.6 0.3,-0.8 0.2,-0.2 0.4,-0.3 0.8,-0.3 0.3,0 0.6,0.1 0.8,0.3 0.2,0.2 0.3,0.4 0.3,0.8 0,0.3 -0.1,0.6 -0.3,0.8 -0.2,0.2 -0.4,0.3 -0.8,0.3 -0.3,0 -0.6,-0.1 -0.8,-0.3 -0.2,-0.3 -0.3,-0.5 -0.3,-0.8 z"
   id="path404" />
	<path
   class="st5"
   d="m 714.1,316.2 c 0,0.5 -0.2,1 -0.5,1.4 -0.3,0.4 -0.8,0.7 -1.4,0.8 v 0 c 0.7,0.1 1.2,0.3 1.6,0.7 0.4,0.3 0.5,0.8 0.5,1.4 0,0.8 -0.3,1.5 -0.9,2 -0.6,0.5 -1.5,0.7 -2.6,0.7 -1,0 -1.8,-0.2 -2.5,-0.5 v -1.6 c 0.3,0.2 0.7,0.3 1.1,0.4 0.4,0.1 0.8,0.2 1.2,0.2 0.6,0 1.1,-0.1 1.4,-0.3 0.3,-0.2 0.4,-0.5 0.4,-1 0,-0.4 -0.2,-0.7 -0.5,-0.9 -0.3,-0.2 -0.9,-0.3 -1.6,-0.3 h -0.7 v -1.4 h 0.7 c 0.7,0 1.2,-0.1 1.5,-0.3 0.3,-0.2 0.5,-0.5 0.5,-0.9 0,-0.7 -0.4,-1 -1.2,-1 -0.3,0 -0.6,0 -0.9,0.1 -0.3,0.1 -0.6,0.3 -1,0.5 l -0.9,-1.3 c 0.8,-0.6 1.8,-0.9 2.9,-0.9 0.9,0 1.6,0.2 2.2,0.5 0.5,0.5 0.7,1.1 0.7,1.7 z"
   id="path406" />
	<path
   class="st5"
   d="m 716.2,323 3.3,-7.2 h -4.3 v -1.6 h 6.3 v 1.2 l -3.3,7.6 z"
   id="path408" />
	<path
   class="st5"
   d="m 726.4,316.9 c 0,0.9 -0.2,1.6 -0.5,2.1 -0.4,0.5 -0.9,0.7 -1.6,0.7 -0.7,0 -1.2,-0.2 -1.5,-0.7 -0.4,-0.5 -0.5,-1.2 -0.5,-2.1 0,-1.8 0.7,-2.7 2.1,-2.7 0.7,0 1.2,0.2 1.6,0.7 0.2,0.4 0.4,1.1 0.4,2 z m -2.6,0 c 0,0.5 0,0.9 0.1,1.1 0.1,0.2 0.2,0.4 0.4,0.4 0.4,0 0.6,-0.5 0.6,-1.5 0,-1 -0.2,-1.5 -0.6,-1.5 -0.2,0 -0.3,0.1 -0.4,0.4 -0.1,0.2 -0.1,0.6 -0.1,1.1 z m 6.8,-2.6 -4.9,8.8 h -1.4 l 4.9,-8.8 z m 2,6.1 c 0,0.9 -0.2,1.6 -0.5,2.1 -0.4,0.5 -0.9,0.7 -1.6,0.7 -0.7,0 -1.2,-0.2 -1.5,-0.7 -0.4,-0.5 -0.5,-1.2 -0.5,-2 0,-1.8 0.7,-2.7 2.1,-2.7 0.7,0 1.2,0.2 1.6,0.7 0.2,0.3 0.4,1 0.4,1.9 z m -2.7,0 c 0,0.5 0,0.9 0.1,1.1 0.1,0.2 0.2,0.4 0.4,0.4 0.4,0 0.6,-0.5 0.6,-1.5 0,-1 -0.2,-1.5 -0.6,-1.5 -0.2,0 -0.3,0.1 -0.4,0.4 0,0.2 -0.1,0.6 -0.1,1.1 z"
   id="path410" />
</g>
<g
   id="g448"
   transform="translate(-144.4,-128.9)">
	<path
   class="st5"
   d="m 683.2,363.4 h -1.8 v -3.8 h -3.5 v 3.8 H 676 v -8.8 h 1.9 v 3.4 h 3.5 v -3.4 h 1.8 z"
   id="path414" />
	<path
   class="st5"
   d="m 685.2,355 c 0,-0.6 0.3,-0.9 1,-0.9 0.7,0 1,0.3 1,0.9 0,0.3 -0.1,0.5 -0.2,0.7 -0.1,0.2 -0.4,0.2 -0.8,0.2 -0.7,0 -1,-0.3 -1,-0.9 z m 1.9,8.4 h -1.8 v -6.7 h 1.8 z"
   id="path416" />
	<path
   class="st5"
   d="m 691.2,363.6 c -0.8,0 -1.4,-0.3 -1.9,-0.9 -0.5,-0.6 -0.7,-1.5 -0.7,-2.5 0,-1.1 0.2,-2 0.7,-2.6 0.5,-0.6 1.1,-0.9 1.9,-0.9 0.8,0 1.5,0.3 1.9,1 h 0.1 c -0.1,-0.5 -0.1,-1 -0.1,-1.3 v -2.2 h 1.8 v 9.3 h -1.4 l -0.3,-0.9 h -0.1 c -0.5,0.6 -1.1,1 -1.9,1 z m 0.6,-1.5 c 0.5,0 0.8,-0.1 1,-0.4 0.2,-0.3 0.3,-0.7 0.4,-1.4 v -0.2 c 0,-0.7 -0.1,-1.2 -0.3,-1.5 -0.2,-0.3 -0.6,-0.5 -1.1,-0.5 -0.4,0 -0.7,0.2 -1,0.5 -0.2,0.3 -0.3,0.8 -0.3,1.5 0,0.7 0.1,1.2 0.3,1.5 0.2,0.3 0.6,0.5 1,0.5 z"
   id="path418" />
	<path
   class="st5"
   d="m 700.6,356.6 c 0.2,0 0.5,0 0.6,0 l -0.1,1.7 c -0.2,0 -0.3,-0.1 -0.5,-0.1 -0.6,0 -1,0.2 -1.4,0.5 -0.4,0.3 -0.5,0.7 -0.5,1.3 v 3.4 h -1.8 v -6.7 h 1.4 l 0.3,1.1 h 0.1 c 0.2,-0.4 0.5,-0.7 0.8,-0.9 0.3,-0.2 0.6,-0.3 1.1,-0.3 z"
   id="path420" />
	<path
   class="st5"
   d="m 708.5,360.1 c 0,1.1 -0.3,2 -0.9,2.6 -0.6,0.6 -1.4,0.9 -2.4,0.9 -0.6,0 -1.2,-0.1 -1.7,-0.4 -0.5,-0.3 -0.9,-0.7 -1.1,-1.2 -0.2,-0.5 -0.4,-1.1 -0.4,-1.8 0,-1.1 0.3,-2 0.9,-2.6 0.6,-0.6 1.4,-0.9 2.4,-0.9 0.6,0 1.2,0.1 1.7,0.4 0.5,0.3 0.9,0.7 1.1,1.2 0.2,0.5 0.4,1.1 0.4,1.8 z m -4.7,0 c 0,0.7 0.1,1.2 0.3,1.5 0.2,0.3 0.6,0.5 1.1,0.5 0.5,0 0.8,-0.2 1,-0.5 0.2,-0.3 0.3,-0.8 0.3,-1.5 0,-0.7 -0.1,-1.2 -0.3,-1.5 -0.2,-0.3 -0.6,-0.5 -1.1,-0.5 -0.5,0 -0.8,0.2 -1.1,0.5 0,0.3 -0.2,0.8 -0.2,1.5 z"
   id="path422" />
	<path
   class="st5"
   d="m 713,363.6 c -1.1,0 -1.9,-0.3 -2.5,-0.9 -0.6,-0.6 -0.9,-1.4 -0.9,-2.5 0,-1.1 0.3,-2 0.8,-2.6 0.6,-0.6 1.3,-0.9 2.3,-0.9 1,0 1.7,0.3 2.2,0.8 0.5,0.5 0.8,1.3 0.8,2.2 v 0.9 h -4.3 c 0,0.5 0.2,0.9 0.5,1.2 0.3,0.3 0.7,0.4 1.2,0.4 0.4,0 0.8,0 1.2,-0.1 0.4,-0.1 0.7,-0.2 1.1,-0.4 v 1.4 c -0.3,0.2 -0.7,0.3 -1,0.4 -0.4,0 -0.8,0.1 -1.4,0.1 z m -0.2,-5.7 c -0.4,0 -0.7,0.1 -0.9,0.4 -0.2,0.3 -0.3,0.6 -0.4,1 h 2.6 c 0,-0.5 -0.1,-0.8 -0.3,-1 -0.2,-0.2 -0.6,-0.4 -1,-0.4 z"
   id="path424" />
	<path
   class="st5"
   d="m 723.5,363.4 h -1.8 v -3.9 c 0,-0.5 -0.1,-0.8 -0.3,-1.1 -0.2,-0.2 -0.5,-0.4 -0.8,-0.4 -0.5,0 -0.9,0.2 -1.1,0.5 -0.2,0.3 -0.3,0.9 -0.3,1.7 v 3.2 h -1.8 v -6.7 h 1.4 l 0.2,0.9 h 0.1 c 0.2,-0.3 0.5,-0.6 0.8,-0.7 0.4,-0.2 0.8,-0.2 1.2,-0.2 0.8,0 1.4,0.2 1.8,0.6 0.4,0.4 0.6,1 0.6,1.8 z"
   id="path426" />
	<path
   class="st5"
   d="m 728.4,363.6 c -1.1,0 -1.9,-0.3 -2.5,-0.9 -0.6,-0.6 -0.9,-1.4 -0.9,-2.5 0,-1.1 0.3,-2 0.8,-2.6 0.6,-0.6 1.3,-0.9 2.3,-0.9 1,0 1.7,0.3 2.2,0.8 0.5,0.5 0.8,1.3 0.8,2.2 v 0.9 h -4.3 c 0,0.5 0.2,0.9 0.5,1.2 0.3,0.3 0.7,0.4 1.2,0.4 0.4,0 0.8,0 1.2,-0.1 0.4,-0.1 0.7,-0.2 1.1,-0.4 v 1.4 c -0.3,0.2 -0.7,0.3 -1,0.4 -0.4,0 -0.9,0.1 -1.4,0.1 z m -0.3,-5.7 c -0.4,0 -0.7,0.1 -0.9,0.4 -0.2,0.3 -0.3,0.6 -0.4,1 h 2.6 c 0,-0.5 -0.1,-0.8 -0.3,-1 -0.2,-0.2 -0.6,-0.4 -1,-0.4 z"
   id="path428" />
	<path
   class="st5"
   d="m 736.4,356.6 c 0.2,0 0.5,0 0.6,0 l -0.1,1.7 c -0.2,0 -0.3,-0.1 -0.5,-0.1 -0.6,0 -1,0.2 -1.4,0.5 -0.4,0.3 -0.5,0.7 -0.5,1.3 v 3.4 h -1.8 v -6.7 h 1.4 l 0.3,1.1 h 0.1 c 0.2,-0.4 0.5,-0.7 0.8,-0.9 0.3,-0.2 0.6,-0.3 1.1,-0.3 z"
   id="path430" />
	<path
   class="st5"
   d="m 744,356.7 v 0.9 l -1,0.3 c 0.2,0.3 0.3,0.6 0.3,1 0,0.7 -0.2,1.3 -0.8,1.7 -0.5,0.4 -1.2,0.6 -2.1,0.6 h -0.3 -0.3 c -0.2,0.1 -0.3,0.3 -0.3,0.5 0,0.3 0.3,0.4 1,0.4 h 1.1 c 0.7,0 1.3,0.2 1.7,0.5 0.4,0.3 0.6,0.8 0.6,1.4 0,0.8 -0.3,1.4 -1,1.8 -0.7,0.4 -1.6,0.7 -2.8,0.7 -0.9,0 -1.7,-0.2 -2.2,-0.5 -0.5,-0.3 -0.7,-0.8 -0.7,-1.4 0,-0.4 0.1,-0.7 0.4,-1 0.3,-0.3 0.6,-0.5 1.1,-0.6 -0.2,-0.1 -0.3,-0.2 -0.5,-0.4 -0.2,-0.2 -0.2,-0.4 -0.2,-0.6 0,-0.3 0.1,-0.5 0.2,-0.6 0.1,-0.1 0.4,-0.3 0.6,-0.5 -0.3,-0.2 -0.6,-0.4 -0.8,-0.7 -0.2,-0.3 -0.3,-0.7 -0.3,-1.2 0,-0.7 0.2,-1.3 0.7,-1.7 0.5,-0.4 1.2,-0.6 2,-0.6 0.2,0 0.4,0 0.7,0 0.3,0 0.4,0.1 0.5,0.1 z m -5.1,7.7 c 0,0.2 0.1,0.5 0.4,0.6 0.3,0.1 0.6,0.2 1,0.2 0.7,0 1.2,-0.1 1.5,-0.3 0.3,-0.2 0.6,-0.4 0.6,-0.7 0,-0.2 -0.1,-0.4 -0.3,-0.5 -0.2,-0.1 -0.6,-0.1 -1,-0.1 h -1 c -0.3,0 -0.6,0.1 -0.8,0.2 -0.2,0.1 -0.4,0.3 -0.4,0.6 z m 0.6,-5.5 c 0,0.4 0.1,0.7 0.2,0.9 0.2,0.2 0.4,0.3 0.8,0.3 0.4,0 0.6,-0.1 0.8,-0.3 0.2,-0.2 0.2,-0.5 0.2,-0.9 0,-0.8 -0.3,-1.2 -1,-1.2 -0.6,0 -1,0.4 -1,1.2 z"
   id="path432" />
	<path
   class="st5"
   d="m 745,356 v -0.2 c 0.7,-0.8 1.2,-1.4 1.4,-1.8 h 2 v 0.1 c -0.2,0.2 -0.6,0.5 -1.1,0.9 -0.5,0.4 -0.9,0.7 -1.2,0.9 z m 2,7.4 h -1.8 v -6.7 h 1.8 z"
   id="path434" />
	<path
   class="st5"
   d="m 753.2,363.4 -0.3,-0.9 v 0 c -0.3,0.4 -0.6,0.7 -1,0.8 -0.3,0.2 -0.8,0.2 -1.3,0.2 -0.6,0 -1.2,-0.2 -1.5,-0.5 -0.3,-0.3 -0.6,-0.9 -0.6,-1.6 0,-0.7 0.2,-1.2 0.8,-1.6 0.6,-0.4 1.2,-0.5 2.2,-0.6 h 1.2 V 359 c 0,-0.7 -0.3,-1 -1,-1 -0.5,0 -1.2,0.2 -1.9,0.5 l -0.6,-1.2 c 0.8,-0.4 1.6,-0.6 2.6,-0.6 0.9,0 1.6,0.2 2.1,0.6 0.5,0.4 0.7,1 0.7,1.8 v 4.5 z m -0.6,-3.1 h -0.7 c -0.5,0 -0.9,0.1 -1.2,0.3 -0.3,0.2 -0.4,0.4 -0.4,0.8 0,0.5 0.3,0.8 0.9,0.8 0.4,0 0.8,-0.1 1,-0.4 0.2,-0.2 0.4,-0.6 0.4,-1 z"
   id="path436" />
	<path
   class="st5"
   d="m 702.4,378.2 h -1.8 v -5.1 -0.8 -0.9 c -0.3,0.3 -0.5,0.5 -0.6,0.6 l -1,0.8 -0.9,-1.1 2.8,-2.2 h 1.5 z"
   id="path438" />
	<path
   class="st5"
   d="m 705,377.3 c 0,-0.3 0.1,-0.6 0.3,-0.8 0.2,-0.2 0.4,-0.3 0.8,-0.3 0.3,0 0.6,0.1 0.8,0.3 0.2,0.2 0.3,0.4 0.3,0.8 0,0.3 -0.1,0.6 -0.3,0.8 -0.2,0.2 -0.4,0.3 -0.8,0.3 -0.3,0 -0.6,-0.1 -0.8,-0.3 -0.2,-0.2 -0.3,-0.4 -0.3,-0.8 z"
   id="path440" />
	<path
   class="st5"
   d="m 714.1,371.4 c 0,0.5 -0.2,1 -0.5,1.4 -0.3,0.4 -0.8,0.7 -1.4,0.8 v 0 c 0.7,0.1 1.2,0.3 1.6,0.7 0.4,0.3 0.5,0.8 0.5,1.4 0,0.8 -0.3,1.5 -0.9,2 -0.6,0.5 -1.5,0.7 -2.6,0.7 -1,0 -1.8,-0.2 -2.5,-0.5 v -1.6 c 0.3,0.2 0.7,0.3 1.1,0.4 0.4,0.1 0.8,0.2 1.2,0.2 0.6,0 1.1,-0.1 1.4,-0.3 0.3,-0.2 0.4,-0.5 0.4,-1 0,-0.4 -0.2,-0.7 -0.5,-0.9 -0.3,-0.2 -0.9,-0.3 -1.6,-0.3 h -0.7 V 373 h 0.7 c 0.7,0 1.2,-0.1 1.5,-0.3 0.3,-0.2 0.5,-0.5 0.5,-0.9 0,-0.7 -0.4,-1 -1.2,-1 -0.3,0 -0.6,0 -0.9,0.1 -0.3,0.1 -0.6,0.3 -1,0.5 l -0.9,-1.3 c 0.8,-0.6 1.8,-0.9 2.9,-0.9 0.9,0 1.6,0.2 2.2,0.5 0.5,0.5 0.7,1 0.7,1.7 z"
   id="path442" />
	<path
   class="st5"
   d="m 721.7,376.4 h -1.1 v 1.8 h -1.8 v -1.8 H 715 v -1.3 l 3.8,-5.7 h 1.7 v 5.5 h 1.1 v 1.5 z m -2.9,-1.5 v -1.5 c 0,-0.2 0,-0.6 0,-1.1 0,-0.5 0,-0.8 0,-0.8 v 0 c -0.2,0.3 -0.3,0.7 -0.5,1 l -1.6,2.4 z"
   id="path444" />
	<path
   class="st5"
   d="m 726.4,372 c 0,0.9 -0.2,1.6 -0.5,2.1 -0.4,0.5 -0.9,0.7 -1.6,0.7 -0.7,0 -1.2,-0.2 -1.5,-0.7 -0.4,-0.5 -0.5,-1.2 -0.5,-2.1 0,-1.8 0.7,-2.7 2.1,-2.7 0.7,0 1.2,0.2 1.6,0.7 0.2,0.5 0.4,1.2 0.4,2 z m -2.6,0 c 0,0.5 0,0.9 0.1,1.1 0.1,0.2 0.2,0.4 0.4,0.4 0.4,0 0.6,-0.5 0.6,-1.5 0,-1 -0.2,-1.5 -0.6,-1.5 -0.2,0 -0.3,0.1 -0.4,0.4 -0.1,0.3 -0.1,0.6 -0.1,1.1 z m 6.8,-2.6 -4.9,8.8 h -1.4 l 4.9,-8.8 z m 2,6.1 c 0,0.9 -0.2,1.6 -0.5,2.1 -0.4,0.5 -0.9,0.7 -1.6,0.7 -0.7,0 -1.2,-0.2 -1.5,-0.7 -0.4,-0.5 -0.5,-1.2 -0.5,-2 0,-1.8 0.7,-2.7 2.1,-2.7 0.7,0 1.2,0.2 1.6,0.7 0.2,0.4 0.4,1.1 0.4,1.9 z m -2.7,0.1 c 0,0.5 0,0.9 0.1,1.1 0.1,0.2 0.2,0.4 0.4,0.4 0.4,0 0.6,-0.5 0.6,-1.5 0,-1 -0.2,-1.5 -0.6,-1.5 -0.2,0 -0.3,0.1 -0.4,0.4 0,0.2 -0.1,0.5 -0.1,1.1 z"
   id="path446" />
</g>
<g
   id="g484"
   transform="translate(-144.4,-128.9)">
	<path
   class="st5"
   d="m 683.2,458 h -1.8 v -3.8 h -3.5 V 458 H 676 v -8.8 h 1.9 v 3.4 h 3.5 v -3.4 h 1.8 z"
   id="path450" />
	<path
   class="st5"
   d="m 685.2,449.5 c 0,-0.6 0.3,-0.9 1,-0.9 0.7,0 1,0.3 1,0.9 0,0.3 -0.1,0.5 -0.2,0.7 -0.1,0.2 -0.4,0.2 -0.8,0.2 -0.7,0 -1,-0.3 -1,-0.9 z m 1.9,8.5 h -1.8 v -6.7 h 1.8 z"
   id="path452" />
	<path
   class="st5"
   d="m 691.2,458.1 c -0.8,0 -1.4,-0.3 -1.9,-0.9 -0.5,-0.6 -0.7,-1.5 -0.7,-2.5 0,-1.1 0.2,-2 0.7,-2.6 0.5,-0.6 1.1,-0.9 1.9,-0.9 0.8,0 1.5,0.3 1.9,1 h 0.1 c -0.1,-0.5 -0.1,-0.9 -0.1,-1.3 v -2.2 h 1.8 v 9.3 h -1.4 l -0.3,-0.9 h -0.1 c -0.5,0.7 -1.1,1 -1.9,1 z m 0.6,-1.5 c 0.5,0 0.8,-0.1 1,-0.4 0.2,-0.3 0.3,-0.7 0.4,-1.4 v -0.2 c 0,-0.7 -0.1,-1.2 -0.3,-1.6 -0.2,-0.3 -0.6,-0.5 -1.1,-0.5 -0.4,0 -0.7,0.2 -1,0.5 -0.2,0.3 -0.3,0.8 -0.3,1.5 0,0.7 0.1,1.2 0.3,1.5 0.2,0.3 0.6,0.6 1,0.6 z"
   id="path454" />
	<path
   class="st5"
   d="m 700.6,451.1 c 0.2,0 0.5,0 0.6,0.1 l -0.1,1.7 c -0.2,0 -0.3,-0.1 -0.5,-0.1 -0.6,0 -1,0.2 -1.4,0.4 -0.3,0.3 -0.5,0.7 -0.5,1.3 v 3.4 h -1.8 v -6.7 h 1.4 l 0.3,1.1 h 0.1 c 0.2,-0.4 0.5,-0.7 0.8,-0.9 0.3,-0.2 0.6,-0.3 1.1,-0.3 z"
   id="path456" />
	<path
   class="st5"
   d="m 708.5,454.6 c 0,1.1 -0.3,1.9 -0.9,2.6 -0.6,0.7 -1.4,0.9 -2.4,0.9 -0.6,0 -1.2,-0.1 -1.7,-0.4 -0.5,-0.3 -0.9,-0.7 -1.1,-1.2 -0.2,-0.5 -0.4,-1.1 -0.4,-1.8 0,-1.1 0.3,-1.9 0.9,-2.6 0.6,-0.7 1.4,-0.9 2.4,-0.9 0.6,0 1.2,0.1 1.7,0.4 0.5,0.3 0.9,0.7 1.1,1.2 0.2,0.5 0.4,1.1 0.4,1.8 z m -4.7,0 c 0,0.7 0.1,1.2 0.3,1.5 0.2,0.3 0.6,0.5 1.1,0.5 0.5,0 0.8,-0.2 1,-0.5 0.2,-0.3 0.3,-0.8 0.3,-1.5 0,-0.7 -0.1,-1.2 -0.3,-1.5 -0.2,-0.3 -0.6,-0.5 -1.1,-0.5 -0.5,0 -0.8,0.2 -1.1,0.5 0,0.3 -0.2,0.8 -0.2,1.5 z"
   id="path458" />
	<path
   class="st5"
   d="m 713,458.1 c -1.1,0 -1.9,-0.3 -2.5,-0.9 -0.6,-0.6 -0.9,-1.4 -0.9,-2.5 0,-1.1 0.3,-2 0.8,-2.6 0.6,-0.6 1.3,-0.9 2.3,-0.9 1,0 1.7,0.3 2.2,0.8 0.5,0.5 0.8,1.3 0.8,2.2 v 0.9 h -4.3 c 0,0.5 0.2,0.9 0.5,1.2 0.3,0.3 0.7,0.4 1.2,0.4 0.4,0 0.8,0 1.2,-0.1 0.4,-0.1 0.7,-0.2 1.1,-0.4 v 1.4 c -0.3,0.2 -0.7,0.3 -1,0.4 -0.4,0.1 -0.8,0.1 -1.4,0.1 z m -0.2,-5.7 c -0.4,0 -0.7,0.1 -0.9,0.4 -0.2,0.3 -0.3,0.6 -0.4,1.1 h 2.6 c 0,-0.4 -0.1,-0.8 -0.3,-1.1 -0.2,-0.3 -0.6,-0.4 -1,-0.4 z"
   id="path460" />
	<path
   class="st5"
   d="m 723.5,458 h -1.8 v -3.9 c 0,-0.5 -0.1,-0.8 -0.3,-1.1 -0.2,-0.3 -0.5,-0.4 -0.8,-0.4 -0.5,0 -0.9,0.2 -1.1,0.5 -0.2,0.3 -0.3,0.9 -0.3,1.7 v 3.2 h -1.8 v -6.7 h 1.4 l 0.2,0.9 h 0.1 c 0.2,-0.3 0.5,-0.6 0.8,-0.7 0.4,-0.2 0.8,-0.2 1.2,-0.2 0.8,0 1.4,0.2 1.8,0.6 0.4,0.4 0.6,1 0.6,1.8 z"
   id="path462" />
	<path
   class="st5"
   d="m 728.4,458.1 c -1.1,0 -1.9,-0.3 -2.5,-0.9 -0.6,-0.6 -0.9,-1.4 -0.9,-2.5 0,-1.1 0.3,-2 0.8,-2.6 0.6,-0.6 1.3,-0.9 2.3,-0.9 1,0 1.7,0.3 2.2,0.8 0.5,0.5 0.8,1.3 0.8,2.2 v 0.9 h -4.3 c 0,0.5 0.2,0.9 0.5,1.2 0.3,0.3 0.7,0.4 1.2,0.4 0.4,0 0.8,0 1.2,-0.1 0.4,-0.1 0.7,-0.2 1.1,-0.4 v 1.4 c -0.3,0.2 -0.7,0.3 -1,0.4 -0.4,0.1 -0.9,0.1 -1.4,0.1 z m -0.3,-5.7 c -0.4,0 -0.7,0.1 -0.9,0.4 -0.2,0.3 -0.3,0.6 -0.4,1.1 h 2.6 c 0,-0.4 -0.1,-0.8 -0.3,-1.1 -0.2,-0.3 -0.6,-0.4 -1,-0.4 z"
   id="path464" />
	<path
   class="st5"
   d="m 736.4,451.1 c 0.2,0 0.5,0 0.6,0.1 l -0.1,1.7 c -0.2,0 -0.3,-0.1 -0.5,-0.1 -0.6,0 -1,0.2 -1.4,0.4 -0.3,0.3 -0.5,0.7 -0.5,1.3 v 3.4 h -1.8 v -6.7 h 1.4 l 0.3,1.1 h 0.1 c 0.2,-0.4 0.5,-0.7 0.8,-0.9 0.3,-0.2 0.6,-0.3 1.1,-0.3 z"
   id="path466" />
	<path
   class="st5"
   d="m 744,451.3 v 0.9 l -1,0.3 c 0.2,0.3 0.3,0.6 0.3,1 0,0.7 -0.2,1.3 -0.8,1.7 -0.6,0.4 -1.2,0.6 -2.1,0.6 h -0.3 -0.3 c -0.2,0.1 -0.3,0.3 -0.3,0.5 0,0.3 0.3,0.4 1,0.4 h 1.1 c 0.7,0 1.3,0.2 1.7,0.5 0.4,0.3 0.6,0.8 0.6,1.4 0,0.8 -0.3,1.4 -1,1.8 -0.7,0.4 -1.6,0.7 -2.8,0.7 -0.9,0 -1.7,-0.2 -2.2,-0.5 -0.5,-0.3 -0.7,-0.8 -0.7,-1.4 0,-0.4 0.1,-0.7 0.4,-1 0.3,-0.3 0.6,-0.5 1.1,-0.6 -0.2,-0.1 -0.3,-0.2 -0.5,-0.4 -0.2,-0.2 -0.2,-0.4 -0.2,-0.6 0,-0.3 0.1,-0.5 0.2,-0.6 0.1,-0.1 0.4,-0.3 0.6,-0.5 -0.3,-0.2 -0.6,-0.4 -0.8,-0.7 -0.2,-0.3 -0.3,-0.7 -0.3,-1.2 0,-0.7 0.2,-1.3 0.7,-1.7 0.5,-0.4 1.2,-0.6 2,-0.6 0.2,0 0.4,0 0.7,0.1 0.3,0.1 0.4,0.1 0.5,0.1 z m -5.1,7.6 c 0,0.2 0.1,0.4 0.4,0.6 0.3,0.2 0.6,0.2 1,0.2 0.7,0 1.2,-0.1 1.5,-0.3 0.3,-0.2 0.6,-0.4 0.6,-0.7 0,-0.2 -0.1,-0.4 -0.3,-0.5 -0.2,-0.1 -0.6,-0.1 -1,-0.1 h -1 c -0.3,0 -0.6,0.1 -0.8,0.2 -0.2,0.1 -0.4,0.4 -0.4,0.6 z m 0.6,-5.4 c 0,0.4 0.1,0.7 0.2,0.9 0.1,0.2 0.4,0.3 0.8,0.3 0.4,0 0.6,-0.1 0.8,-0.3 0.2,-0.2 0.2,-0.5 0.2,-0.9 0,-0.8 -0.3,-1.2 -1,-1.2 -0.6,-0.1 -1,0.3 -1,1.2 z"
   id="path468" />
	<path
   class="st5"
   d="m 745,450.5 v -0.2 c 0.7,-0.8 1.2,-1.4 1.4,-1.8 h 2 v 0.1 c -0.2,0.2 -0.6,0.5 -1.1,0.9 -0.5,0.4 -0.9,0.7 -1.2,0.9 z m 2,7.5 h -1.8 v -6.7 h 1.8 z"
   id="path470" />
	<path
   class="st5"
   d="m 753.2,458 -0.3,-0.9 v 0 c -0.3,0.4 -0.6,0.7 -1,0.8 -0.3,0.2 -0.8,0.2 -1.3,0.2 -0.6,0 -1.2,-0.2 -1.5,-0.6 -0.3,-0.4 -0.6,-0.9 -0.6,-1.6 0,-0.7 0.2,-1.2 0.8,-1.6 0.6,-0.4 1.2,-0.5 2.2,-0.6 h 1.2 v -0.3 c 0,-0.7 -0.3,-1 -1,-1 -0.5,0 -1.2,0.2 -1.9,0.5 l -0.6,-1.2 c 0.8,-0.4 1.6,-0.6 2.6,-0.6 0.9,0 1.6,0.2 2.1,0.6 0.5,0.4 0.7,1 0.7,1.8 v 4.5 z m -0.6,-3.1 h -0.7 c -0.5,0 -0.9,0.1 -1.2,0.3 -0.3,0.2 -0.4,0.4 -0.4,0.8 0,0.5 0.3,0.8 0.9,0.8 0.4,0 0.8,-0.1 1,-0.4 0.2,-0.2 0.4,-0.6 0.4,-1 z"
   id="path472" />
	<path
   class="st5"
   d="m 701,467.1 c 0.8,0 1.5,0.2 2,0.7 0.5,0.5 0.8,1.1 0.8,2 0,1 -0.3,1.7 -0.9,2.3 -0.6,0.5 -1.5,0.8 -2.6,0.8 -1,0 -1.8,-0.2 -2.4,-0.5 v -1.6 c 0.3,0.2 0.7,0.3 1.1,0.4 0.4,0.1 0.8,0.2 1.2,0.2 1.1,0 1.7,-0.5 1.7,-1.4 0,-0.9 -0.6,-1.3 -1.8,-1.3 -0.2,0 -0.5,0 -0.7,0.1 -0.3,0 -0.5,0.1 -0.6,0.1 l -0.7,-0.4 0.3,-4.5 h 4.8 v 1.6 H 700 l -0.2,1.7 h 0.2 c 0.3,-0.2 0.6,-0.2 1,-0.2 z"
   id="path474" />
	<path
   class="st5"
   d="m 705,471.9 c 0,-0.3 0.1,-0.6 0.3,-0.8 0.2,-0.2 0.4,-0.3 0.8,-0.3 0.3,0 0.6,0.1 0.8,0.3 0.2,0.2 0.3,0.4 0.3,0.8 0,0.3 -0.1,0.6 -0.3,0.8 -0.2,0.2 -0.4,0.3 -0.8,0.3 -0.3,0 -0.6,-0.1 -0.8,-0.3 -0.2,-0.3 -0.3,-0.5 -0.3,-0.8 z"
   id="path476" />
	<path
   class="st5"
   d="m 709.2,472.7 3.3,-7.2 h -4.3 V 464 h 6.3 v 1.2 l -3.3,7.6 h -2 z"
   id="path478" />
	<path
   class="st5"
   d="m 721.4,468.3 c 0,1.5 -0.2,2.7 -0.8,3.4 -0.6,0.7 -1.3,1.1 -2.3,1.1 -1,0 -1.8,-0.4 -2.3,-1.1 -0.5,-0.8 -0.8,-1.9 -0.8,-3.4 0,-1.6 0.2,-2.7 0.8,-3.4 0.5,-0.7 1.3,-1.1 2.3,-1.1 1,0 1.8,0.4 2.3,1.2 0.6,0.7 0.8,1.9 0.8,3.3 z m -4.2,0 c 0,1.1 0.1,1.8 0.3,2.3 0.2,0.5 0.5,0.7 0.9,0.7 0.4,0 0.7,-0.2 0.9,-0.7 0.2,-0.5 0.3,-1.2 0.3,-2.3 0,-1.1 -0.1,-1.8 -0.3,-2.3 -0.2,-0.5 -0.5,-0.7 -0.9,-0.7 -0.4,0 -0.8,0.2 -0.9,0.7 -0.3,0.5 -0.3,1.3 -0.3,2.3 z"
   id="path480" />
	<path
   class="st5"
   d="m 726.4,466.6 c 0,0.9 -0.2,1.6 -0.5,2.1 -0.4,0.5 -0.9,0.7 -1.6,0.7 -0.7,0 -1.2,-0.2 -1.5,-0.7 -0.4,-0.5 -0.5,-1.2 -0.5,-2.1 0,-1.8 0.7,-2.7 2.1,-2.7 0.7,0 1.2,0.2 1.6,0.7 0.2,0.4 0.4,1.1 0.4,2 z m -2.6,0 c 0,0.5 0,0.9 0.1,1.1 0.1,0.2 0.2,0.4 0.4,0.4 0.4,0 0.6,-0.5 0.6,-1.5 0,-1 -0.2,-1.5 -0.6,-1.5 -0.2,0 -0.3,0.1 -0.4,0.4 -0.1,0.2 -0.1,0.6 -0.1,1.1 z m 6.8,-2.7 -4.9,8.8 h -1.4 l 4.9,-8.8 z m 2,6.2 c 0,0.9 -0.2,1.6 -0.5,2.1 -0.4,0.5 -0.9,0.7 -1.6,0.7 -0.7,0 -1.2,-0.2 -1.5,-0.7 -0.4,-0.5 -0.5,-1.2 -0.5,-2.1 0,-1.8 0.7,-2.7 2.1,-2.7 0.7,0 1.2,0.2 1.6,0.7 0.2,0.4 0.4,1.1 0.4,2 z m -2.7,0 c 0,0.5 0,0.9 0.1,1.1 0.1,0.2 0.2,0.4 0.4,0.4 0.4,0 0.6,-0.5 0.6,-1.5 0,-1 -0.2,-1.5 -0.6,-1.5 -0.2,0 -0.3,0.1 -0.4,0.4 0,0.2 -0.1,0.6 -0.1,1.1 z"
   id="path482" />
</g>
</svg>
